#VRML V2.0 utf8


Group {
  children 
    Group {
      children [ 
        Group {
          children 
            Transform {
              translation -0.074903287 4.8636101e-010 -0.50925308
              rotation 0 0 1  0
              scale 1 1 1
              scaleOrientation 0 0 1  0

            }

        },
          
        Group {
          children 
            Transform {
              translation -0.05154109 -0.033263091 -0.50649822
              rotation 0 0 1  0
              scale 1 1 1
              scaleOrientation 0 0 1  0

            }

        },
          
        Group {
          children 
            Transform {
              translation 0.052000001 0 0.491
              rotation 0 0 1  0
              scale 1 1 1
              scaleOrientation 0 0 1  0
              children 
                Transform {
                  translation -0.052000001 3.3574601e-009 -0.491
                  rotation 0 0 1  1.5707964
                  scale 0.016650761 0.01773056 0.02340222
                  scaleOrientation 0 0 1  0
                  children 
                    Shape {
                      appearance 
                      Appearance {
                        material 
                        Material {
                          diffuseColor 0.65864992 0.50308388 0.31538299

                        }

                      }
                      geometry 
                      IndexedFaceSet {
                        coord 
                        Coordinate {
                          point [ -0.92131352 -0.93728781 -1.654559,
                              -0.92393541 -0.93727952 -1.403896,
                              -1.082948 -0.90344143 -1.654559,
                              -1.083608 -0.90389252 -1.403896,
                              -1.220976 -0.8606286 -1.654559,
                              -1.221616 -0.86107492 -1.403896,
                              -1.343628 -0.80710411 -1.654559,
                              -1.344249 -0.80754572 -1.403896,
                              -1.451365 -0.74297857 -1.654559,
                              -1.451967 -0.74341542 -1.403896,
                              -1.544647 -0.66836172 -1.654559,
                              -1.54523 -0.66879427 -1.403896,
                              -1.623934 -0.58336431 -1.654559,
                              -1.624498 -0.58379221 -1.403896,
                              -1.689685 -0.48809651 -1.654559,
                              -1.69023 -0.48851991 -1.403896,
                              -1.7423609 -0.3826687 -1.654559,
                              -1.742887 -0.3830874 -1.403896,
                              -1.782421 -0.2671912 -1.654559,
                              -1.782928 -0.2676053 -1.403896,
                              -1.8103271 -0.1417741 -1.654559,
                              -1.810814 -0.1421836 -1.403896,
                              -1.826537 -0.0065281391 -1.654559,
                              -1.827006 -0.0069330931 -1.403896,
                              -1.829572 0.1371631 -1.654559,
                              -1.830506 0.1370813 -1.403896,
                              -1.810616 0.28178719 -1.654559,
                              -1.81191 0.2822867 -1.403896,
                              -1.762759 0.41675001 -1.654559,
                              -1.763876 0.41724959 -1.403896,
                              -1.6881 0.5397284 -1.654559,
                              -1.6890399 0.54022789 -1.403896,
                              -1.590883 0.65072471 -1.654559,
                              -1.591646 0.65122408 -1.403896,
                              -1.475353 0.7497412 -1.654559,
                              -1.475939 0.75024062 -1.403896,
                              -1.345755 0.83678031 -1.654559,
                              -1.346164 0.83727962 -1.403896,
                              -1.2063349 0.91184437 -1.654559,
                              -1.206567 0.9123435 -1.403896,
                              -1.061336 0.97493571 -1.654559,
                              -1.0613919 0.97543478 -1.403896,
                              -0.91500592 1.026057 -1.654559,
                              -0.91488433 1.026556 -1.403896,
                              -0.77158737 1.06521 -1.654559,
                              -0.77128887 1.065709 -1.403896,
                              -0.63532621 1.092397 -1.654559,
                              -0.6348508 1.092896 -1.403896,
                              -0.49359679 1.109131 -1.654559,
                              -0.4971621 1.109252 -1.403896,
                              -0.301038 1.120358 -1.654559,
                              -0.29995799 1.120753 -1.403896,
                              -0.1151406 1.123473 -1.654559,
                              -0.1142284 1.123801 -1.403896,
                              0.70715737 1.118716 -1.654559,
                              0.70790148 1.118977 -1.403896,
                              0.85331541 1.107685 -1.654559,
                              0.85389149 1.10788 -1.403896,
                              0.98564798 1.0919811 -1.654559,
                              0.98605639 1.09211 -1.403896,
                              1.108186 1.073205 -1.654559,
                              1.108426 1.073267 -1.403896,
                              1.224957 1.0529571 -1.654559,
                              1.2250299 1.0529521 -1.403896,
                              1.339993 1.032836 -1.654559,
                              1.339898 1.032764 -1.403896,
                              1.457323 1.014442 -1.654559,
                              1.45706 1.014304 -1.403896,
                              1.3499171 -0.94762057 -1.654559,
                              1.348969 -0.94768977 -1.403896,
                              1.153195 -0.96722698 -1.654559,
                              1.152482 -0.96734101 -1.403896,
                              0.97357172 -0.98410612 -1.654559,
                              0.97309411 -0.98426491 -1.403896,
                              0.80541527 -0.99717981 -1.654559,
                              0.8051722 -0.99738359 -1.403896,
                              -0.01519298 -1.005371 -1.654559,
                              -0.01520133 -1.00562 -1.403896,
                              -0.17731591 -1.007601 -1.654559,
                              -0.17708939 -1.007894 -1.403896,
                              -0.34487149 -1.002793 -1.654559,
                              -0.34441021 -1.003132 -1.403896,
                              -0.52349257 -0.98986959 -1.654559,
                              -0.52279657 -0.99025297 -1.403896,
                              -0.71881181 -0.96775198 -1.654559,
                              -0.7178815 -0.96818018 -1.403896,
                              -0.9217661 -0.93227941 -0.95641452,
                              -1.080699 -0.89904618 -0.95641458,
                              -1.218044 -0.85643482 -0.95641452,
                              -1.3400871 -0.80316311 -0.95641452,
                              -1.447288 -0.73934132 -0.9564144,
                              -1.540102 -0.66507888 -0.95641452,
                              -1.618988 -0.58048582 -0.95641452,
                              -1.684405 -0.48567179 -0.95641452,
                              -1.736809 -0.38074639 -0.95641452,
                              -1.7766581 -0.2658197 -0.95641452,
                              -1.80441 -0.1410013 -0.95641458,
                              -1.820524 -0.0064013 -0.95641452,
                              -1.824001 0.13691591 -0.95641452,
                              -1.80549 0.28141451 -0.95641452,
                              -1.757689 0.4157283 -0.95641452,
                              -1.683215 0.53811532 -0.95641452,
                              -1.586292 0.64857769 -0.95641452,
                              -1.471144 0.74711788 -0.95641452,
                              -1.341996 0.83373833 -0.95641452,
                              -1.203073 0.90844131 -0.95641452,
                              -1.058598 0.97122908 -0.95641452,
                              -0.91279769 1.022104 -0.95641452,
                              -0.76989532 1.061069 -0.9564144,
                              -0.63411617 1.088125 -0.95641452,
                              -0.49703151 1.104409 -0.95641452,
                              -0.30084249 1.11585 -0.95641452,
                              -0.1160039 1.118885 -0.95641452,
                              0.70534039 1.114084 -0.95641452,
                              0.85063082 1.103042 -0.95641452,
                              0.98216242 1.087348 -0.95641452,
                              1.103946 1.068597 -0.95641452,
                              1.219992 1.04838 -0.95641452,
                              1.3343101 1.028291 -0.9564144,
                              1.450911 1.00992 -0.9564144,
                              1.3433501 -0.9426384 -0.95641452,
                              1.147804 -0.9621945 -0.9564144,
                              0.96927518 -0.97903627 -0.95641452,
                              0.8021577 -0.99209118 -0.9564144,
                              -0.01743984 -1.0002871 -0.95641452,
                              -0.17855281 -1.002551 -0.95641452,
                              -0.345072 -0.99780989 -0.95641452,
                              -0.52260423 -0.9849925 -0.95641452,
                              -0.7167542 -0.96302509 -0.95641452,
                              -0.90595031 -0.89513111 -0.52744788,
                              -1.059162 -0.86309427 -0.52744788,
                              -1.191576 -0.8220129 -0.52744788,
                              -1.309238 -0.77065372 -0.52744782,
                              -1.412589 -0.70912308 -0.5274477,
                              -1.502071 -0.63752723 -0.52744782,
                              -1.578125 -0.55597121 -0.52744788,
                              -1.641193 -0.46456099 -0.52744788,
                              -1.691715 -0.36340261 -0.52744788,
                              -1.730134 -0.25260189 -0.52744788,
                              -1.7568901 -0.13226479 -0.52744788,
                              -1.772424 -0.0024970761 -0.52744788,
                              -1.77578 0.13567699 -0.52744788,
                              -1.757936 0.2749925 -0.52744788,
                              -1.711851 0.40448421 -0.52744788,
                              -1.640049 0.52247721 -0.52744788,
                              -1.546604 0.62897378 -0.52744788,
                              -1.435589 0.72397608 -0.52744788,
                              -1.311076 0.80748671 -0.52744788,
                              -1.177139 0.87950772 -0.52744788,
                              -1.03785 0.9400413 -0.52744788,
                              -0.89728278 0.98908991 -0.52744782,
                              -0.7595098 1.026656 -0.5274477,
                              -0.62860388 1.0527411 -0.52744782,
                              -0.49647209 1.068437 -0.52744788,
                              -0.30729079 1.079469 -0.52744788,
                              -0.1290895 1.082394 -0.52744788,
                              0.02811408 1.0777659 -0.52744788,
                              0.8264721 1.067119 -0.52744788,
                              0.95328021 1.051989 -0.52744788,
                              1.07069 1.03391 -0.52744788,
                              1.182568 1.014419 -0.52744782,
                              1.292781 0.99505001 -0.5274477,
                              1.405194 0.97733867 -0.5274477,
                              1.3014899 -0.905119 -0.52744782,
                              1.1129659 -0.92397308 -0.5274477,
                              0.94084883 -0.94021082 -0.52744782,
                              0.779733 -0.95279741 -0.5274477,
                              -0.0340712 -0.96069908 -0.52744782,
                              -0.1893982 -0.9628818 -0.52744788,
                              -0.3499372 -0.95831162 -0.52744788,
                              -0.52109361 -0.94595462 -0.52744788,
                              -0.7082715 -0.92477661 -0.52744788,
                              -0.8821516 -0.839284 -0.26278311,
                              -1.0267791 -0.80904251 -0.26278311,
                              -1.15178 -0.77026081 -0.26278311,
                              -1.262854 -0.72177702 -0.26278311,
                              -1.36042 -0.6636911 -0.2627829,
                              -1.444892 -0.59610319 -0.26278311,
                              -1.5166889 -0.51911283 -0.26278311,
                              -1.576225 -0.43282011 -0.26278311,
                              -1.623919 -0.33732501 -0.26278311,
                              -1.660187 -0.2327272 -0.26278311,
                              -1.685445 -0.1191271 -0.26278311,
                              -1.70011 0.003375649 -0.26278311,
                              -1.703279 0.1338155 -0.26278311,
                              -1.686435 0.2653335 -0.26278311,
                              -1.642929 0.38757581 -0.26278311,
                              -1.575146 0.49896309 -0.26278311,
                              -1.486932 0.59949768 -0.26278311,
                              -1.3821321 0.68918151 -0.26278311,
                              -1.26459 0.76801682 -0.26278311,
                              -1.13815 0.83600581 -0.26278311,
                              -1.006658 0.89315051 -0.26278311,
                              -0.87395978 0.93945312 -0.26278311,
                              -0.74389911 0.9749158 -0.2627829,
                              -0.62032098 0.99954069 -0.26278311,
                              -0.49560049 1.014356 -0.26278311,
                              -0.3169944 1.024772 -0.26278311,
                              -0.14877 1.027534 -0.26278311,
                              -0.00036764101 1.023164 -0.26278311,
                              0.79014778 1.013113 -0.26278311,
                              0.90985632 0.99882948 -0.26278311,
                              1.0206929 0.98176283 -0.26278311,
                              1.126307 0.96336251 -0.26278311,
                              1.2303489 0.94507748 -0.26278281,
                              1.336468 0.9283576 -0.26278281,
                              1.238567 -0.84871268 -0.26278311,
                              1.060599 -0.86651158 -0.2627829,
                              0.89811778 -0.88184023 -0.26278311,
                              0.74602258 -0.89372247 -0.2627829,
                              -0.059074402 -0.90118188 -0.26278311,
                              -0.2057046 -0.90324259 -0.26278311,
                              -0.35725549 -0.8989284 -0.26278311,
                              -0.51882911 -0.8872633 -0.26278311,
                              -0.69552678 -0.86727118 -0.26278311,
                              -0.85587341 -0.7776075 -0.086195461,
                              -0.9910171 -0.74934942 -0.086195461,
                              -1.107831 -0.71310759 -0.086195461,
                              -1.2116309 -0.66779917 -0.086195461,
                              -1.302807 -0.61351752 -0.086195342,
                              -1.3817461 -0.55035621 -0.086195461,
                              -1.44884 -0.4784081 -0.086195461,
                              -1.504477 -0.3977671 -0.086195461,
                              -1.5490479 -0.30852631 -0.086195461,
                              -1.58294 -0.21077891 -0.086195461,
                              -1.6065429 -0.104619 -0.086195461,
                              -1.620248 0.009860754 -0.086195461,
                              -1.6232131 0.13175949 -0.086195461,
                              -1.607474 0.25466731 -0.086195461,
                              -1.566816 0.36890349 -0.086195461,
                              -1.503472 0.47299561 -0.086195461,
                              -1.421034 0.56694591 -0.086195461,
                              -1.323096 0.65075588 -0.086195461,
                              -1.213251 0.724428 -0.086195461,
                              -1.0950921 0.78796411 -0.086195461,
                              -0.97221088 0.84136629 -0.086195461,
                              -0.84820199 0.8846364 -0.086195461,
                              -0.72665858 0.91777641 -0.086195342,
                              -0.61117291 0.94078851 -0.086195461,
                              -0.49464419 0.95463181 -0.086195461,
                              -0.32770851 0.96436697 -0.086195461,
                              -0.1705029 0.9669472 -0.086195461,
                              -0.031821009 0.9628635 -0.086195461,
                              0.75003332 0.95347017 -0.086195461,
                              0.86190069 0.94012183 -0.086195461,
                              0.96547699 0.92417252 -0.086195461,
                              1.064173 0.90697682 -0.086195461,
                              1.1614 0.88988912 -0.086195342,
                              1.260568 0.87426382 -0.086195342,
                              1.169075 -0.78641921 -0.086195461,
                              1.002764 -0.80305272 -0.086195342,
                              0.85092568 -0.8173781 -0.086195461,
                              0.70879322 -0.82848221 -0.086195342,
                              -0.086687319 -0.83545297 -0.086195461,
                              -0.22371259 -0.83737898 -0.086195461,
                              -0.36533669 -0.8333478 -0.086195461,
                              -0.51632673 -0.82244682 -0.086195461,
                              -0.6814509 -0.8037644 -0.086195461,
                              -0.8121345 -0.60179812 0.01028358,
                              -0.92131209 -0.57893747 0.01028358,
                              -1.0145921 -0.55000389 0.01028358,
                              -1.097482 -0.51383132 0.01028358,
                              -1.170292 -0.47049421 0.0102837,
                              -1.233332 -0.42006701 0.01028358,
                              -1.2869149 -0.36262441 0.01028358,
                              -1.33135 -0.29824099 0.01028358,
                              -1.366948 -0.2269914 0.01028358,
                              -1.394021 -0.1489498 0.01028358,
                              -1.412879 -0.064191341 0.01028358,
                              -1.423834 0.027209749 0.01028358,
                              -1.425899 0.1243276 0.01028358,
                              -1.4130991 0.22208349 0.01028358,
                              -1.380751 0.31329331 0.01028358,
                              -1.33029 0.39640379 0.01028358,
                              -1.2645839 0.47141671 0.01028358,
                              -1.186502 0.53833342 0.01028358,
                              -1.098913 0.59715551 0.01028358,
                              -1.004686 0.64788491 0.01028358,
                              -0.90668893 0.69052279 0.01028358,
                              -0.80779147 0.72507107 0.01028358,
                              -0.71086192 0.7515313 0.0102837,
                              -0.61876988 0.76990491 0.01028358,
                              -0.52310473 0.78120297 0.01028358,
                              -0.39283559 0.78879809 0.01028358,
                              -0.26720881 0.79090148 0.01028358,
                              -0.1563715 0.7876842 0.01028358,
                              -0.057600971 0.78022772 0.01028358,
                              0.031826369 0.76961321 0.01028358,
                              0.77291918 0.75692213 0.01028358,
                              0.88597578 0.7382291 0.01028358,
                              1.009859 0.72216451 0.0064147711,
                              1.1595809 0.70403111 0.01198935,
                              1.575174 0.03650593 -1.654559,
                              1.574368 0.036391489 -1.403896,
                              1.567662 0.036710609 -0.95641452,
                              1.057528 -0.59705472 0.01326858,
                              0.80330902 -0.62203521 0.0102837,
                              0.0236392 -0.63344347 0.01028358,
                              -0.089996569 -0.64228028 0.0102837,
                              -0.19968981 -0.64781702 0.01028358,
                              -0.3092477 -0.64932591 0.01028358,
                              -0.4224773 -0.64607757 0.01028358,
                              -0.54318482 -0.63734478 0.01028358,
                              -0.67517757 -0.62239909 0.01028358,
                              1.517749 0.039069168 -0.52744788,
                              1.4427201 0.042616121 -0.26278311,
                              1.382622 0.043195121 -0.086195461,
                              1.25712 0.076242916 0.0084488392,
                              1.234296 -0.2355864 0.008235692,
                              1.368625 -0.36259699 -0.086195461,
                              1.439923 -0.3934018 -0.26278311,
                              1.514786 -0.42280629 -0.52744788,
                              1.56459 -0.4423649 -0.95641452,
                              1.571278 -0.44499859 -1.403896,
                              1.5722719 -0.44492939 -1.654559,
                              1.260257 0.3880724 0.0086619854,
                              1.396619 0.44898739 -0.086195461,
                              1.445518 0.47863391 -0.26278311,
                              1.520712 0.50094467 -0.52744788,
                              1.570733 0.51578629 -0.95641452,
                              1.577457 0.5177815 -1.403896,
                              1.5780751 0.51794118 -1.654559,
                              -1.315766 0.1222126 0.01028358,
                              -1.258926 0.1200461 0.01028358,
                              -1.2399139 -0.1226794 0.01028358,
                              -1.192914 0.1172654 0.01028358,
                              -1.145913 0.35721049 0.01028358,
                              -1.1761709 -0.153079 0.01028358,
                              -1.119009 0.113909 0.01028358,
                              -1.061847 0.3808969 0.01028358,
                              -1.104391 -0.1802399 0.0102837,
                              -1.0384901 0.1100143 0.0102837,
                              -0.97258967 0.40026861 0.0102837,
                              -0.95263672 0.1056199 0.01028358,
                              -0.93865991 -0.2246201 0.01028358,
                              -0.86272722 0.1007636 0.01028358,
                              -0.78679442 0.42614749 0.0102837,
                              -0.84567672 -0.2417268 0.01028358,
                              -0.77004099 0.095483772 0.01028358,
                              -0.69440532 0.43269429 0.01028358,
                              -0.73987699 -0.2560477 0.01028358,
                              -0.66761953 0.089702599 0.01028358,
                              -0.59536201 0.43545279 0.01028358,
                              -0.46342111 0.4359988 0.01028358,
                              -0.5340066 0.083199501 0.01028358,
                              -0.60459208 -0.2695998 0.01028358,
                              -0.33620289 0.43383989 0.01028358,
                              -0.40519691 0.076778293 0.01028358,
                              -0.47419101 -0.28028321 0.01028358,
                              -0.22289801 0.4292438 0.01028358,
                              -0.28942439 0.070803277 0.01028358,
                              -0.3559508 -0.2876372 0.01028358,
                              -0.1205127 0.42283931 0.01028358,
                              -0.1834244 0.065450899 0.01028358,
                              -0.24633621 -0.2919375 0.01028358,
                              -0.02605271 0.41525561 0.01028358,
                              -0.083931677 0.060898062 0.01028358,
                              -0.1418106 -0.29345939 0.01028358,
                              0.063476317 0.40712151 0.01028358,
                              0.01231873 0.057320829 0.01028358,
                              -0.03883886 -0.29247981 0.0102837,
                              0.83496302 0.39531091 0.01028358,
                              0.78395009 0.052392721 0.01028358,
                              0.074652068 -0.29052541 0.01028358,
                              0.95822132 0.38611451 0.0073820348,
                              0.90658391 0.050064679 0.0083492994,
                              0.85494637 -0.2859852 0.0093164444,
                              -1.025059 -0.2041056 0.01028358,
                              -0.88021398 0.41534549 0.01028358,
                              -1.295138 -0.089097492 0.01028358,
                              -1.2227139 0.32918981 0.01028358,
                              -1.290175 0.29681471 0.01028358,
                              -1.341357 -0.05238938 0.01028358,
                              -0.49359679 1.109131 -1.654559,
                              -0.301038 1.120358 -1.654559,
                              0.85331541 1.107685 -1.654559,
                              0.98564798 1.0919811 -1.654559,
                              1.108186 1.073205 -1.654559,
                              1.224957 1.0529571 -1.654559,
                              1.3499171 -0.94762057 -1.654559,
                              1.3499171 -0.94762057 -1.654559,
                              1.348969 -0.94768977 -1.403896,
                              -1.8103271 -0.1417741 -1.654559,
                              -1.826537 -0.0065281391 -1.654559,
                              -0.34487149 -1.002793 -1.654559,
                              -0.52349257 -0.98986959 -1.654559,
                              -1.7423609 -0.3826687 -1.654559,
                              -1.782421 -0.2671912 -1.654559,
                              -0.01519298 -1.005371 -1.654559,
                              -0.17731591 -1.007601 -1.654559,
                              -1.829572 0.1371631 -1.654559,
                              -1.810616 0.28178719 -1.654559,
                              -0.91500592 1.026057 -1.654559,
                              -0.77158737 1.06521 -1.654559,
                              -1.762759 0.41675001 -1.654559,
                              -1.6881 0.5397284 -1.654559,
                              -0.92131352 -0.93728781 -1.654559,
                              -0.71881181 -0.96775198 -1.654559,
                              -0.63532621 1.092397 -1.654559,
                              -1.451365 -0.74297857 -1.654559,
                              -1.544647 -0.66836172 -1.654559,
                              1.153195 -0.96722698 -1.654559,
                              -1.623934 -0.58336431 -1.654559,
                              -1.689685 -0.48809651 -1.654559,
                              -1.2063349 0.91184437 -1.654559,
                              -1.061336 0.97493571 -1.654559,
                              0.97357172 -0.98410612 -1.654559,
                              0.80541527 -0.99717981 -1.654559,
                              -1.475353 0.7497412 -1.654559,
                              -1.345755 0.83678031 -1.654559,
                              1.339993 1.032836 -1.654559,
                              1.457323 1.014442 -1.654559,
                              1.457323 1.014442 -1.654559,
                              -1.220976 -0.8606286 -1.654559,
                              -1.343628 -0.80710411 -1.654559,
                              0.70715737 1.118716 -1.654559,
                              -1.082948 -0.90344143 -1.654559,
                              -0.1151406 1.123473 -1.654559,
                              1.45706 1.014304 -1.403896,
                              -1.590883 0.65072471 -1.654559,
                              1.450911 1.00992 -0.9564144,
                              1.3433501 -0.9426384 -0.95641452,
                              1.3014899 -0.905119 -0.52744782,
                              1.405194 0.97733867 -0.5274477,
                              1.238567 -0.84871268 -0.26278311,
                              1.336468 0.9283576 -0.26278281,
                              -1.566816 0.36890349 -0.086195461,
                              -1.503472 0.47299561 -0.086195461,
                              -0.97221088 0.84136629 -0.086195461,
                              -0.84820199 0.8846364 -0.086195461,
                              -0.72665858 0.91777641 -0.086195342,
                              -0.61117291 0.94078851 -0.086195461,
                              -0.85587341 -0.7776075 -0.086195461,
                              -0.6814509 -0.8037644 -0.086195461,
                              -1.421034 0.56694591 -0.086195461,
                              -1.302807 -0.61351752 -0.086195342,
                              -1.3817461 -0.55035621 -0.086195461,
                              -1.213251 0.724428 -0.086195461,
                              -1.0950921 0.78796411 -0.086195461,
                              1.1614 0.88988912 -0.086195342,
                              1.260568 0.87426382 -0.086195342,
                              1.260568 0.87426382 -0.086195342,
                              1.260568 0.87426382 -0.086195342,
                              -1.44884 -0.4784081 -0.086195461,
                              -1.504477 -0.3977671 -0.086195461,
                              1.002764 -0.80305272 -0.086195342,
                              0.85092568 -0.8173781 -0.086195461,
                              -1.107831 -0.71310759 -0.086195461,
                              -1.2116309 -0.66779917 -0.086195461,
                              -1.323096 0.65075588 -0.086195461,
                              0.70879322 -0.82848221 -0.086195342,
                              -0.086687319 -0.83545297 -0.086195461,
                              -0.1705029 0.9669472 -0.086195461,
                              -0.031821009 0.9628635 -0.086195461,
                              -0.51632673 -0.82244682 -0.086195461,
                              -0.9910171 -0.74934942 -0.086195461,
                              -0.49464419 0.95463181 -0.086195461,
                              -0.32770851 0.96436697 -0.086195461,
                              0.75003332 0.95347017 -0.086195461,
                              0.86190069 0.94012183 -0.086195461,
                              0.96547699 0.92417252 -0.086195461,
                              1.064173 0.90697682 -0.086195461,
                              -1.620248 0.009860754 -0.086195461,
                              -1.6232131 0.13175949 -0.086195461,
                              -0.22371259 -0.83737898 -0.086195461,
                              -0.36533669 -0.8333478 -0.086195461,
                              -1.58294 -0.21077891 -0.086195461,
                              -1.6065429 -0.104619 -0.086195461,
                              -1.5490479 -0.30852631 -0.086195461,
                              -1.607474 0.25466731 -0.086195461,
                              1.169075 -0.78641921 -0.086195461,
                              1.169075 -0.78641921 -0.086195461,
                              1.169075 -0.78641921 -0.086195461,
                              1.368625 -0.36259699 -0.086195461,
                              1.5722719 -0.44492939 -1.654559,
                              -1.380751 0.31329331 0.01028358,
                              -1.33029 0.39640379 0.01028358,
                              -0.90668893 0.69052279 0.01028358,
                              -0.80779147 0.72507107 0.01028358,
                              -0.71086192 0.7515313 0.0102837,
                              -0.61876988 0.76990491 0.01028358,
                              -0.8121345 -0.60179812 0.01028358,
                              -0.67517757 -0.62239909 0.01028358,
                              -1.2645839 0.47141671 0.01028358,
                              -1.170292 -0.47049421 0.0102837,
                              -1.233332 -0.42006701 0.01028358,
                              -1.098913 0.59715551 0.01028358,
                              -1.004686 0.64788491 0.01028358,
                              1.009859 0.72216451 0.0064147711,
                              1.1595809 0.70403111 0.01198935,
                              1.1595809 0.70403111 0.01198935,
                              -1.2869149 -0.36262441 0.01028358,
                              -1.33135 -0.29824099 0.01028358,
                              0.80330902 -0.62203521 0.0102837,
                              0.0236392 -0.63344347 0.01028358,
                              -1.0145921 -0.55000389 0.01028358,
                              -1.097482 -0.51383132 0.01028358,
                              -1.186502 0.53833342 0.01028358,
                              -0.089996569 -0.64228028 0.0102837,
                              -0.19968981 -0.64781702 0.01028358,
                              -0.26720881 0.79090148 0.01028358,
                              -0.1563715 0.7876842 0.01028358,
                              -0.54318482 -0.63734478 0.01028358,
                              -0.92131209 -0.57893747 0.01028358,
                              -0.52310473 0.78120297 0.01028358,
                              -0.39283559 0.78879809 0.01028358,
                              -0.057600971 0.78022772 0.01028358,
                              0.031826369 0.76961321 0.01028358,
                              0.77291918 0.75692213 0.01028358,
                              0.88597578 0.7382291 0.01028358,
                              -1.423834 0.027209749 0.01028358,
                              -1.425899 0.1243276 0.01028358,
                              -0.3092477 -0.64932591 0.01028358,
                              -0.4224773 -0.64607757 0.01028358,
                              -1.394021 -0.1489498 0.01028358,
                              -1.412879 -0.064191341 0.01028358,
                              -1.366948 -0.2269914 0.01028358,
                              -1.4130991 0.22208349 0.01028358,
                              1.057528 -0.59705472 0.01326858,
                              1.057528 -0.59705472 0.01326858,
                              1.234296 -0.2355864 0.008235692,
                              1.5780751 0.51794118 -1.654559,
                              1.575174 0.03650593 -1.654559,
                              1.396619 0.44898739 -0.086195461,
                              1.382622 0.043195121 -0.086195461,
                              1.260257 0.3880724 0.0086619854,
                              1.25712 0.076242916 0.0084488392 ]

                        }
                        normal 
                        Normal {
                          vector [  ]

                        }
                        coordIndex [ 1, 3, 2, -1, 3, 5, 4, -1,
                            5, 7, 6, -1, 7, 9, 8, -1,
                            9, 11, 10, -1, 11, 13, 12, -1,
                            15, 14, 12, -1, 17, 16, 14, -1,
                            19, 18, 16, -1, 21, 20, 18, -1,
                            23, 22, 20, -1, 25, 24, 22, -1,
                            25, 27, 26, -1, 27, 29, 28, -1,
                            31, 30, 28, -1, 33, 32, 30, -1,
                            35, 34, 32, -1, 37, 36, 34, -1,
                            39, 38, 36, -1, 39, 41, 40, -1,
                            41, 43, 42, -1, 43, 45, 44, -1,
                            45, 47, 46, -1, 49, 48, 46, -1,
                            51, 50, 48, -1, 51, 53, 52, -1,
                            53, 55, 54, -1, 55, 57, 56, -1,
                            57, 59, 58, -1, 59, 61, 60, -1,
                            61, 63, 62, -1, 65, 64, 62, -1,
                            67, 66, 64, -1, 69, 71, 70, -1,
                            71, 73, 72, -1, 73, 75, 74, -1,
                            75, 77, 76, -1, 79, 78, 76, -1,
                            81, 80, 78, -1, 83, 82, 80, -1,
                            85, 84, 82, -1, 85, 1, 0, -1,
                            55, 113, 114, -1, 15, 93, 94, -1,
                            49, 110, 111, -1, 5, 88, 89, -1,
                            75, 73, 122, -1, 81, 79, 125, -1,
                            17, 94, 95, -1, 39, 37, 104, -1,
                            85, 128, 86, -1, 23, 21, 96, -1,
                            47, 109, 110, -1, 43, 41, 106, -1,
                            83, 81, 126, -1, 83, 127, 128, -1,
                            57, 114, 115, -1, 1, 86, 87, -1,
                            53, 112, 113, -1, 35, 33, 102, -1,
                            63, 117, 118, -1, 45, 43, 107, -1,
                            51, 111, 112, -1, 27, 25, 98, -1,
                            33, 31, 101, -1, 59, 115, 116, -1,
                            3, 87, 88, -1, 29, 27, 99, -1,
                            41, 39, 105, -1, 21, 19, 95, -1,
                            65, 118, 119, -1, 77, 75, 123, -1,
                            61, 116, 117, -1, 47, 45, 108, -1,
                            13, 92, 93, -1, 11, 91, 92, -1,
                            37, 35, 103, -1, 9, 90, 91, -1,
                            25, 23, 97, -1, 7, 89, 90, -1,
                            71, 69, 120, -1, 73, 71, 121, -1,
                            79, 77, 124, -1, 31, 29, 100, -1,
                            108, 107, 150, -1, 115, 158, 159, -1,
                            124, 123, 166, -1, 104, 103, 146, -1,
                            121, 120, 163, -1, 126, 125, 168, -1,
                            101, 100, 143, -1, 113, 156, 157, -1,
                            118, 161, 162, -1, 107, 106, 149, -1,
                            112, 155, 156, -1, 127, 126, 169, -1,
                            123, 122, 165, -1, 92, 135, 136, -1,
                            114, 157, 158, -1, 106, 105, 148, -1,
                            91, 134, 135, -1, 96, 95, 138, -1,
                            109, 108, 151, -1, 94, 137, 138, -1,
                            128, 171, 129, -1, 127, 170, 171, -1,
                            93, 136, 137, -1, 116, 159, 160, -1,
                            86, 129, 130, -1, 122, 121, 164, -1,
                            87, 130, 131, -1, 98, 97, 140, -1,
                            102, 101, 144, -1, 100, 99, 142, -1,
                            88, 131, 132, -1, 89, 132, 133, -1,
                            125, 124, 167, -1, 97, 96, 139, -1,
                            110, 153, 154, -1, 111, 154, 155, -1,
                            109, 152, 153, -1, 90, 133, 134, -1,
                            117, 160, 161, -1, 103, 102, 145, -1,
                            99, 98, 141, -1, 105, 104, 147, -1,
                            164, 163, 206, -1, 169, 168, 211, -1,
                            144, 143, 186, -1, 156, 199, 200, -1,
                            161, 204, 205, -1, 150, 149, 192, -1,
                            155, 198, 199, -1, 170, 169, 212, -1,
                            166, 165, 208, -1, 135, 178, 179, -1,
                            157, 200, 201, -1, 149, 148, 191, -1,
                            134, 177, 178, -1, 139, 138, 181, -1,
                            152, 151, 194, -1, 137, 180, 181, -1,
                            171, 214, 172, -1, 170, 213, 214, -1,
                            136, 179, 180, -1, 159, 202, 203, -1,
                            129, 172, 173, -1, 130, 173, 174, -1,
                            165, 164, 207, -1, 141, 140, 183, -1,
                            145, 144, 187, -1, 143, 142, 185, -1,
                            131, 174, 175, -1, 132, 175, 176, -1,
                            168, 167, 210, -1, 140, 139, 182, -1,
                            153, 196, 197, -1, 154, 197, 198, -1,
                            152, 195, 196, -1, 133, 176, 177, -1,
                            160, 203, 204, -1, 146, 145, 188, -1,
                            142, 141, 184, -1, 148, 147, 190, -1,
                            151, 150, 193, -1, 158, 201, 202, -1,
                            167, 166, 209, -1, 147, 146, 189, -1,
                            199, 242, 243, -1, 204, 247, 248, -1,
                            193, 192, 235, -1, 198, 241, 242, -1,
                            213, 212, 255, -1, 209, 208, 251, -1,
                            178, 221, 222, -1, 200, 243, 244, -1,
                            192, 191, 234, -1, 177, 220, 221, -1,
                            182, 181, 224, -1, 195, 194, 237, -1,
                            180, 223, 224, -1, 214, 257, 215, -1,
                            213, 256, 257, -1, 179, 222, 223, -1,
                            202, 245, 246, -1, 172, 215, 216, -1,
                            173, 216, 217, -1, 208, 207, 250, -1,
                            184, 183, 226, -1, 188, 187, 230, -1,
                            186, 185, 228, -1, 174, 217, 218, -1,
                            175, 218, 219, -1, 211, 210, 253, -1,
                            196, 239, 240, -1, 183, 182, 225, -1,
                            197, 240, 241, -1, 195, 238, 239, -1,
                            176, 219, 220, -1, 203, 246, 247, -1,
                            189, 188, 231, -1, 185, 184, 227, -1,
                            191, 190, 233, -1, 194, 193, 236, -1,
                            201, 244, 245, -1, 210, 209, 252, -1,
                            190, 189, 232, -1, 207, 206, 470, -1,
                            212, 211, 254, -1, 187, 186, 229, -1,
                            450, 446, 297, -1, 443, 264, 265, -1,
                            458, 286, 287, -1, 428, 438, 277, -1,
                            436, 263, 264, -1, 467, 466, 267, -1,
                            430, 280, 281, -1, 466, 468, 266, -1,
                            432, 433, 303, -1, 433, 454, 302, -1,
                            468, 444, 265, -1, 460, 288, 289, -1,
                            432, 258, 259, -1, 455, 259, 260, -1,
                            446, 445, 296, -1, 463, 462, 269, -1,
                            434, 427, 273, -1, 426, 469, 271, -1,
                            447, 260, 261, -1, 448, 261, 262, -1,
                            464, 451, 299, -1, 462, 467, 268, -1,
                            456, 282, 283, -1, 457, 283, 284, -1,
                            431, 281, 282, -1, 435, 262, 263, -1,
                            461, 289, 290, -1, 449, 434, 274, -1,
                            469, 463, 270, -1, 438, 437, 276, -1,
                            429, 279, 280, -1, 459, 287, 288, -1,
                            451, 450, 298, -1, 437, 449, 275, -1,
                            445, 471, 518, -1, 465, 464, 300, -1,
                            427, 426, 272, -1, 453, 285, 286, -1,
                            439, 290, 291, -1, 428, 278, 279, -1,
                            452, 284, 285, -1, 454, 465, 301, -1,
                            379, 314, 313, -1, 313, 312, 421, -1,
                            312, 313, 293, -1, 314, 292, 293, -1,
                            292, 321, 320, -1, 293, 320, 319, -1,
                            420, 319, 320, -1, 418, 320, 321, -1,
                            423, 318, 319, -1, 294, 319, 318, -1,
                            311, 312, 294, -1, 422, 421, 312, -1,
                            311, 310, 424, -1, 310, 311, 304, -1,
                            304, 318, 317, -1, 425, 317, 318, -1,
                            317, 425, 441, -1, 489, 315, 316, -1,
                            306, 316, 315, -1, 305, 317, 523, -1,
                            308, 309, 306, -1, 473, 310, 305, -1,
                            249, 424, 310, -1, 309, 308, 295, -1,
                            514, 516, 372, -1, 322, 510, 372, -1,
                            371, 517, 322, -1, 476, 475, 371, -1,
                            516, 492, 369, -1, 372, 369, 323, -1,
                            371, 322, 323, -1, 483, 371, 370, -1,
                            366, 365, 362, -1, 365, 364, 361, -1,
                            363, 362, 359, -1, 360, 359, 356, -1,
                            357, 356, 353, -1, 354, 353, 350, -1,
                            351, 350, 347, -1, 348, 347, 344, -1,
                            345, 344, 341, -1, 338, 337, 340, -1,
                            335, 334, 337, -1, 333, 367, 334, -1,
                            331, 330, 367, -1, 328, 327, 330, -1,
                            324, 327, 328, -1, 369, 324, 325, -1,
                            324, 369, 492, -1, 327, 324, 491, -1,
                            330, 327, 485, -1, 367, 330, 484, -1,
                            334, 367, 496, -1, 337, 334, 495, -1,
                            481, 340, 337, -1, 482, 345, 340, -1,
                            502, 348, 345, -1, 513, 351, 348, -1,
                            512, 354, 351, -1, 499, 357, 354, -1,
                            498, 360, 357, -1, 494, 363, 360, -1,
                            493, 366, 363, -1, 519, 520, 366, -1,
                            520, 526, 365, -1, 526, 525, 364, -1,
                            364, 525, 490, -1, 509, 361, 364, -1,
                            508, 358, 361, -1, 507, 355, 358, -1,
                            506, 352, 355, -1, 501, 349, 352, -1,
                            500, 346, 349, -1, 505, 343, 346, -1,
                            504, 342, 343, -1, 480, 339, 342, -1,
                            479, 336, 339, -1, 478, 368, 336, -1,
                            477, 332, 368, -1, 487, 329, 332, -1,
                            486, 326, 329, -1, 497, 370, 326, -1,
                            370, 323, 325, -1, 326, 325, 328, -1,
                            329, 328, 331, -1, 332, 331, 333, -1,
                            368, 333, 335, -1, 336, 335, 338, -1,
                            339, 338, 341, -1, 344, 343, 342, -1,
                            347, 346, 343, -1, 350, 349, 346, -1,
                            353, 352, 349, -1, 356, 355, 352, -1,
                            359, 358, 355, -1, 362, 361, 358, -1,
                            407, 522, 474, -1, 0, 1, 2, -1,
                            2, 3, 4, -1, 4, 5, 6, -1,
                            6, 7, 8, -1, 8, 9, 10, -1,
                            10, 11, 12, -1, 13, 15, 12, -1,
                            15, 17, 14, -1, 17, 19, 16, -1,
                            19, 21, 18, -1, 21, 23, 20, -1,
                            23, 25, 22, -1, 24, 25, 26, -1,
                            26, 27, 28, -1, 29, 31, 28, -1,
                            31, 33, 30, -1, 33, 35, 32, -1,
                            35, 37, 34, -1, 37, 39, 36, -1,
                            38, 39, 40, -1, 40, 41, 42, -1,
                            42, 43, 44, -1, 44, 45, 46, -1,
                            47, 49, 46, -1, 49, 51, 48, -1,
                            50, 51, 52, -1, 52, 53, 54, -1,
                            54, 55, 56, -1, 56, 57, 58, -1,
                            58, 59, 60, -1, 60, 61, 62, -1,
                            63, 65, 62, -1, 65, 67, 64, -1,
                            68, 69, 70, -1, 70, 71, 72, -1,
                            72, 73, 74, -1, 74, 75, 76, -1,
                            77, 79, 76, -1, 79, 81, 78, -1,
                            81, 83, 80, -1, 83, 85, 82, -1,
                            84, 85, 0, -1, 57, 55, 114, -1,
                            17, 15, 94, -1, 51, 49, 111, -1,
                            7, 5, 89, -1, 123, 75, 122, -1,
                            126, 81, 125, -1, 19, 17, 95, -1,
                            105, 39, 104, -1, 1, 85, 86, -1,
                            97, 23, 96, -1, 49, 47, 110, -1,
                            107, 43, 106, -1, 127, 83, 126, -1,
                            85, 83, 128, -1, 59, 57, 115, -1,
                            3, 1, 87, -1, 55, 53, 113, -1,
                            103, 35, 102, -1, 65, 63, 118, -1,
                            108, 45, 107, -1, 53, 51, 112, -1,
                            99, 27, 98, -1, 102, 33, 101, -1,
                            61, 59, 116, -1, 5, 3, 88, -1,
                            100, 29, 99, -1, 106, 41, 105, -1,
                            96, 21, 95, -1, 67, 65, 119, -1,
                            124, 77, 123, -1, 63, 61, 117, -1,
                            109, 47, 108, -1, 15, 13, 93, -1,
                            13, 11, 92, -1, 104, 37, 103, -1,
                            11, 9, 91, -1, 98, 25, 97, -1,
                            9, 7, 90, -1, 121, 71, 120, -1,
                            122, 73, 121, -1, 125, 79, 124, -1,
                            101, 31, 100, -1, 151, 108, 150, -1,
                            116, 115, 159, -1, 167, 124, 166, -1,
                            147, 104, 146, -1, 164, 121, 163, -1,
                            169, 126, 168, -1, 144, 101, 143, -1,
                            114, 113, 157, -1, 119, 118, 162, -1,
                            150, 107, 149, -1, 113, 112, 156, -1,
                            170, 127, 169, -1, 166, 123, 165, -1,
                            93, 92, 136, -1, 115, 114, 158, -1,
                            149, 106, 148, -1, 92, 91, 135, -1,
                            139, 96, 138, -1, 152, 109, 151, -1,
                            95, 94, 138, -1, 86, 128, 129, -1,
                            128, 127, 171, -1, 94, 93, 137, -1,
                            117, 116, 160, -1, 87, 86, 130, -1,
                            165, 122, 164, -1, 88, 87, 131, -1,
                            141, 98, 140, -1, 145, 102, 144, -1,
                            143, 100, 142, -1, 89, 88, 132, -1,
                            90, 89, 133, -1, 168, 125, 167, -1,
                            140, 97, 139, -1, 111, 110, 154, -1,
                            112, 111, 155, -1, 110, 109, 153, -1,
                            91, 90, 134, -1, 118, 117, 161, -1,
                            146, 103, 145, -1, 142, 99, 141, -1,
                            148, 105, 147, -1, 207, 164, 206, -1,
                            212, 169, 211, -1, 187, 144, 186, -1,
                            157, 156, 200, -1, 162, 161, 205, -1,
                            193, 150, 192, -1, 156, 155, 199, -1,
                            213, 170, 212, -1, 209, 166, 208, -1,
                            136, 135, 179, -1, 158, 157, 201, -1,
                            192, 149, 191, -1, 135, 134, 178, -1,
                            182, 139, 181, -1, 195, 152, 194, -1,
                            138, 137, 181, -1, 129, 171, 172, -1,
                            171, 170, 214, -1, 137, 136, 180, -1,
                            160, 159, 203, -1, 130, 129, 173, -1,
                            131, 130, 174, -1, 208, 165, 207, -1,
                            184, 141, 183, -1, 188, 145, 187, -1,
                            186, 143, 185, -1, 132, 131, 175, -1,
                            133, 132, 176, -1, 211, 168, 210, -1,
                            183, 140, 182, -1, 154, 153, 197, -1,
                            155, 154, 198, -1, 153, 152, 196, -1,
                            134, 133, 177, -1, 161, 160, 204, -1,
                            189, 146, 188, -1, 185, 142, 184, -1,
                            191, 148, 190, -1, 194, 151, 193, -1,
                            159, 158, 202, -1, 210, 167, 209, -1,
                            190, 147, 189, -1, 200, 199, 243, -1,
                            205, 204, 248, -1, 236, 193, 235, -1,
                            199, 198, 242, -1, 256, 213, 255, -1,
                            252, 209, 251, -1, 179, 178, 222, -1,
                            201, 200, 244, -1, 235, 192, 234, -1,
                            178, 177, 221, -1, 225, 182, 224, -1,
                            238, 195, 237, -1, 181, 180, 224, -1,
                            172, 214, 215, -1, 214, 213, 257, -1,
                            180, 179, 223, -1, 203, 202, 246, -1,
                            173, 172, 216, -1, 174, 173, 217, -1,
                            251, 208, 250, -1, 227, 184, 226, -1,
                            231, 188, 230, -1, 229, 186, 228, -1,
                            175, 174, 218, -1, 176, 175, 219, -1,
                            254, 211, 253, -1, 197, 196, 240, -1,
                            226, 183, 225, -1, 198, 197, 241, -1,
                            196, 195, 239, -1, 177, 176, 220, -1,
                            204, 203, 247, -1, 232, 189, 231, -1,
                            228, 185, 227, -1, 234, 191, 233, -1,
                            237, 194, 236, -1, 202, 201, 245, -1,
                            253, 210, 252, -1, 233, 190, 232, -1,
                            250, 207, 470, -1, 255, 212, 254, -1,
                            230, 187, 229, -1, 298, 450, 297, -1,
                            444, 443, 265, -1, 459, 458, 287, -1,
                            278, 428, 277, -1, 443, 436, 264, -1,
                            268, 467, 267, -1, 431, 430, 281, -1,
                            267, 466, 266, -1, 258, 432, 303, -1,
                            303, 433, 302, -1, 266, 468, 265, -1,
                            461, 460, 289, -1, 455, 432, 259, -1,
                            447, 455, 260, -1, 297, 446, 296, -1,
                            270, 463, 269, -1, 274, 434, 273, -1,
                            272, 426, 271, -1, 448, 447, 261, -1,
                            435, 448, 262, -1, 300, 464, 299, -1,
                            269, 462, 268, -1, 457, 456, 283, -1,
                            452, 457, 284, -1, 456, 431, 282, -1,
                            436, 435, 263, -1, 439, 461, 290, -1,
                            275, 449, 274, -1, 271, 469, 270, -1,
                            277, 438, 276, -1, 430, 429, 280, -1,
                            460, 459, 288, -1, 299, 451, 298, -1,
                            276, 437, 275, -1, 296, 445, 518, -1,
                            301, 465, 300, -1, 273, 427, 272, -1,
                            458, 453, 286, -1, 440, 439, 291, -1,
                            429, 428, 279, -1, 453, 452, 285, -1,
                            302, 454, 301, -1, 381, 379, 313, -1,
                            381, 313, 421, -1, 294, 312, 293, -1,
                            313, 314, 293, -1, 293, 292, 320, -1,
                            294, 293, 319, -1, 418, 420, 320, -1,
                            411, 418, 321, -1, 420, 423, 319, -1,
                            304, 294, 318, -1, 304, 311, 294, -1,
                            311, 422, 312, -1, 422, 311, 424, -1,
                            305, 310, 304, -1, 305, 304, 317, -1,
                            423, 425, 318, -1, 523, 317, 441, -1,
                            442, 489, 316, -1, 307, 306, 315, -1,
                            524, 305, 523, -1, 307, 308, 306, -1,
                            524, 473, 305, -1, 473, 249, 310, -1,
                            472, 309, 295, -1, 515, 514, 372, -1,
                            510, 322, 511, -1, 510, 515, 372, -1,
                            517, 371, 475, -1, 517, 511, 322, -1,
                            483, 476, 371, -1, 372, 516, 369, -1,
                            322, 372, 323, -1, 370, 371, 323, -1,
                            497, 483, 370, -1, 363, 366, 362, -1,
                            362, 365, 361, -1, 360, 363, 359, -1,
                            357, 360, 356, -1, 354, 357, 353, -1,
                            351, 354, 350, -1, 348, 351, 347, -1,
                            345, 348, 344, -1, 340, 345, 341, -1,
                            341, 338, 340, -1, 338, 335, 337, -1,
                            335, 333, 334, -1, 333, 331, 367, -1,
                            331, 328, 330, -1, 325, 324, 328, -1,
                            323, 369, 325, -1, 491, 324, 492, -1,
                            485, 327, 491, -1, 484, 330, 485, -1,
                            496, 367, 484, -1, 495, 334, 496, -1,
                            503, 337, 495, -1, 503, 481, 337, -1,
                            481, 482, 340, -1, 482, 502, 345, -1,
                            502, 513, 348, -1, 513, 512, 351, -1,
                            512, 499, 354, -1, 499, 498, 357, -1,
                            498, 494, 360, -1, 494, 493, 363, -1,
                            493, 519, 366, -1, 366, 520, 365, -1,
                            365, 526, 364, -1, 488, 364, 490, -1,
                            488, 509, 364, -1, 509, 508, 361, -1,
                            508, 507, 358, -1, 507, 506, 355, -1,
                            506, 501, 352, -1, 501, 500, 349, -1,
                            500, 505, 346, -1, 505, 504, 343, -1,
                            504, 480, 342, -1, 480, 479, 339, -1,
                            479, 478, 336, -1, 478, 477, 368, -1,
                            477, 487, 332, -1, 487, 486, 329, -1,
                            486, 497, 326, -1, 326, 370, 325, -1,
                            329, 326, 328, -1, 332, 329, 331, -1,
                            368, 332, 333, -1, 336, 368, 335, -1,
                            339, 336, 338, -1, 342, 339, 341, -1,
                            341, 344, 342, -1, 344, 347, 343, -1,
                            347, 350, 346, -1, 350, 353, 349, -1,
                            353, 356, 352, -1, 356, 359, 355, -1,
                            359, 362, 358, -1, 385, 398, 373, -1,
                            385, 397, 393, -1, 397, 396, 405, -1,
                            382, 408, 409, -1, 390, 395, 419, -1,
                            390, 391, 394, -1, 419, 383, 390, -1,
                            413, 387, 382, -1, 399, 403, 386, -1,
                            403, 400, 402, -1, 386, 414, 399, -1,
                            409, 416, 413, -1, 416, 404, 396, -1,
                            373, 384, 385, -1, 415, 407, 388, -1,
                            374, 389, 384, -1, 409, 404, 416, -1,
                            403, 399, 400, -1, 413, 414, 387, -1,
                            395, 390, 394, -1, 382, 383, 408, -1,
                            393, 397, 392, -1, 384, 373, 374, -1,
                            388, 417, 415, -1, 521, 375, 376, -1,
                            521, 377, 378, -1, 410, 412, 521, -1,
                            521, 378, 410, -1, 521, 522, 375, -1,
                            385, 393, 398, -1, 408, 383, 419, -1,
                            387, 414, 386, -1, 396, 404, 405, -1,
                            415, 522, 407, -1, 474, 380, 401, -1,
                            401, 406, 474, -1, 376, 377, 521, -1,
                            388, 389, 417, -1, 413, 382, 409, -1,
                            397, 405, 392, -1, 406, 407, 474, -1,
                            522, 415, 375, -1, 374, 417, 389 ]
                        ccw TRUE
                        solid FALSE
                        convex TRUE
                        creaseAngle 0

                      }

                    }

                }

            }

        },
          
        Group {
          children 
            Transform {
              translation 0.052000001 0 0.491
              rotation 0 0 1  0
              scale 1 1 1
              scaleOrientation 0 0 1  0
              children 
                Transform {
                  translation -0.051399998 0.023800001 -0.5097
                  rotation -0.4957251 0.58042002 0.64604139  1.8464007
                  scale 0.0052499045 0.0052499049 0.014354243
                  scaleOrientation -4.6180435e-008 2.0056157e-007 -0.99999994  0.21937923
                  children 
                    Shape {
                      appearance 
                      Appearance {
                        material 
                        Material {
                          diffuseColor 0.082025923 0.063583359 0.041056361

                        }

                      }
                      geometry 
                      IndexedFaceSet {
                        coord 
                        Coordinate {
                          point [ 0 1 -1,
                              0 1 1,
                              0.19509029 0.98078531 -1,
                              0.19509029 0.98078531 1,
                              0.38268349 0.9238795 -1,
                              0.38268349 0.9238795 1,
                              0.5555703 0.8314696 -1,
                              0.5555703 0.8314696 1,
                              0.70710683 0.70710683 -1,
                              0.70710683 0.70710683 1,
                              0.83146971 0.55557019 -1,
                              0.83146971 0.55557019 1,
                              0.9238795 0.3826834 -1,
                              0.9238795 0.3826834 1,
                              0.98078531 0.19509029 -1,
                              0.98078531 0.19509029 1,
                              1 0 -1,
                              1 0 1,
                              0.98078531 -0.1950902 -1,
                              0.98078531 -0.1950902 1,
                              0.92387962 -0.38268331 -1,
                              0.92387962 -0.38268331 1,
                              0.83146971 -0.55557019 -1,
                              0.83146971 -0.55557019 1,
                              0.70710683 -0.70710683 -1,
                              0.70710683 -0.70710683 1,
                              0.55557019 -0.83146971 -1,
                              0.55557019 -0.83146971 1,
                              0.38268331 -0.92387962 -1,
                              0.38268331 -0.92387962 1,
                              0.1950901 -0.98078531 -1,
                              0.1950901 -0.98078531 1,
                              -3.25841e-007 -1 -1,
                              -3.25841e-007 -1 1,
                              -0.1950907 -0.98078519 -1,
                              -0.1950907 -0.98078519 1,
                              -0.3826839 -0.92387933 -1,
                              -0.3826839 -0.92387933 1,
                              -0.55557072 -0.8314693 -1,
                              -0.55557072 -0.8314693 1,
                              -0.70710731 -0.70710641 -1,
                              -0.70710731 -0.70710641 1,
                              -0.83147001 -0.55556971 -1,
                              -0.83147001 -0.55556971 1,
                              -0.92387992 -0.38268271 -1,
                              -0.92387992 -0.38268271 1,
                              -0.98078543 -0.1950894 -1,
                              -0.98078543 -0.1950894 1,
                              -1 9.6559904e-007 -1,
                              -1 9.6559904e-007 1,
                              -0.98078507 0.19509131 -1,
                              -0.98078507 0.19509131 1,
                              -0.92387909 0.3826845 -1,
                              -0.92387909 0.3826845 1,
                              -0.83146888 0.55557132 -1,
                              -0.83146888 0.55557132 1,
                              -0.70710588 0.70710772 -1,
                              -0.70710588 0.70710772 1,
                              -0.55556911 0.83147037 -1,
                              -0.55556911 0.83147037 1,
                              -0.38268211 0.9238801 -1,
                              -0.38268211 0.9238801 1,
                              -0.1950888 0.98078561 -1,
                              -0.1950888 0.98078561 1 ]

                        }
                        normal 
                        Normal {
                          vector [  ]

                        }
                        coordIndex [ 1, 3, 2, -1, 3, 5, 4, -1,
                            5, 7, 6, -1, 7, 9, 8, -1,
                            9, 11, 10, -1, 11, 13, 12, -1,
                            13, 15, 14, -1, 15, 17, 16, -1,
                            17, 19, 18, -1, 19, 21, 20, -1,
                            21, 23, 22, -1, 23, 25, 24, -1,
                            25, 27, 26, -1, 27, 29, 28, -1,
                            29, 31, 30, -1, 31, 33, 32, -1,
                            33, 35, 34, -1, 35, 37, 36, -1,
                            37, 39, 38, -1, 39, 41, 40, -1,
                            41, 43, 42, -1, 43, 45, 44, -1,
                            45, 47, 46, -1, 47, 49, 48, -1,
                            49, 51, 50, -1, 51, 53, 52, -1,
                            53, 55, 54, -1, 55, 57, 56, -1,
                            57, 59, 58, -1, 59, 61, 60, -1,
                            35, 25, 43, -1, 63, 1, 0, -1,
                            61, 63, 62, -1, 0, 16, 18, -1,
                            0, 1, 2, -1, 2, 3, 4, -1,
                            4, 5, 6, -1, 6, 7, 8, -1,
                            8, 9, 10, -1, 10, 11, 12, -1,
                            12, 13, 14, -1, 14, 15, 16, -1,
                            16, 17, 18, -1, 18, 19, 20, -1,
                            20, 21, 22, -1, 22, 23, 24, -1,
                            24, 25, 26, -1, 26, 27, 28, -1,
                            28, 29, 30, -1, 30, 31, 32, -1,
                            32, 33, 34, -1, 34, 35, 36, -1,
                            36, 37, 38, -1, 38, 39, 40, -1,
                            40, 41, 42, -1, 42, 43, 44, -1,
                            44, 45, 46, -1, 46, 47, 48, -1,
                            48, 49, 50, -1, 50, 51, 52, -1,
                            52, 53, 54, -1, 54, 55, 56, -1,
                            56, 57, 58, -1, 58, 59, 60, -1,
                            9, 5, 3, -1, 5, 9, 7, -1,
                            19, 13, 11, -1, 19, 17, 15, -1,
                            25, 21, 19, -1, 21, 25, 23, -1,
                            25, 29, 27, -1, 35, 33, 31, -1,
                            43, 37, 35, -1, 43, 41, 39, -1,
                            47, 45, 43, -1, 51, 49, 47, -1,
                            57, 53, 51, -1, 53, 57, 55, -1,
                            63, 61, 59, -1, 3, 1, 63, -1,
                            11, 9, 3, -1, 19, 15, 13, -1,
                            51, 25, 19, -1, 25, 31, 29, -1,
                            43, 39, 37, -1, 51, 47, 43, -1,
                            59, 57, 51, -1, 3, 63, 59, -1,
                            19, 11, 3, -1, 51, 43, 25, -1,
                            31, 25, 35, -1, 3, 59, 51, -1,
                            51, 19, 3, -1, 62, 63, 0, -1,
                            60, 61, 62, -1, 56, 62, 0, -1,
                            56, 58, 60, -1, 52, 54, 56, -1,
                            48, 50, 52, -1, 32, 46, 48, -1,
                            40, 42, 44, -1, 36, 38, 40, -1,
                            32, 34, 36, -1, 24, 30, 32, -1,
                            30, 26, 28, -1, 20, 22, 24, -1,
                            0, 18, 20, -1, 0, 14, 16, -1,
                            8, 10, 12, -1, 12, 6, 8, -1,
                            6, 2, 4, -1, 56, 60, 62, -1,
                            48, 52, 56, -1, 40, 44, 46, -1,
                            46, 36, 40, -1, 24, 26, 30, -1,
                            32, 20, 24, -1, 0, 2, 14, -1,
                            12, 2, 6, -1, 32, 56, 0, -1,
                            32, 36, 46, -1, 0, 20, 32, -1,
                            14, 2, 12, -1, 32, 48, 56 ]
                        ccw TRUE
                        solid FALSE
                        convex TRUE
                        creaseAngle 0

                      }

                    }

                }

            }

        },
          
        Group {
          children 
            Transform {
              translation 0 0 -0.038999971
              rotation 0 0 1  0
              scale 1 1 1
              scaleOrientation 0 0 1  0

            }

        },
          
        Group {
          children 
            Transform {
              translation 0.00059999898 0.023800001 -0.0187
              rotation 0.85637516 -0.067397654 -0.51193583  0.30507866
              scale 1 0.99999994 1.0000001
              scaleOrientation -0.40096918 -0.22592904 -0.88779497  0.75408065

            }

        } ]

    }

}
