####
#
# OBJ File Generated by Meshlab
#
####
# Object LeftFingerJoint40y_joint_visu.obj
#
# Vertices: 640
# Faces: 1216
#
####
vn 0.000000 0.000000 0.000000
v 0.004874 0.000000 0.031381 0.078431 0.062745 0.039216
vn -0.013541 -0.017943 -0.291064
v 0.004874 0.000000 0.031381 0.078431 0.062745 0.039216
vn -0.008560 -0.026976 -0.371848
v 0.004874 0.000000 0.031381 0.078431 0.062745 0.039216
vn -0.000251 -0.009027 -0.117901
v 0.004874 0.000000 0.031381 0.078431 0.062745 0.039216
vn 0.000000 0.000000 0.000000
v 0.004874 0.000000 0.031381 0.078431 0.062745 0.039216
vn 0.000276 -0.009026 -0.117896
v 0.004874 0.000000 0.031381 0.078431 0.062745 0.039216
vn 0.008640 -0.026977 -0.371858
v 0.004874 0.000000 0.031381 0.078431 0.062745 0.039216
vn 0.013603 -0.017942 -0.291059
v 0.004874 0.000000 0.031381 0.078431 0.062745 0.039216
vn 0.000000 0.000000 0.000000
v 0.004874 0.000000 0.031381 0.078431 0.062745 0.039216
vn 0.017974 -0.013571 -0.291052
v 0.004874 0.000000 0.031381 0.078431 0.062745 0.039216
vn 0.027016 -0.008601 -0.371847
v 0.004874 0.000000 0.031381 0.078431 0.062745 0.039216
vn 0.009039 -0.000264 -0.117896
v 0.004874 0.000000 0.031381 0.078431 0.062745 0.039216
vn 0.000000 0.000000 0.000000
v 0.004874 0.000000 0.031381 0.078431 0.062745 0.039216
vn 0.009039 0.000264 -0.117897
v 0.004874 0.000000 0.031381 0.078431 0.062745 0.039216
vn 0.027016 0.008600 -0.371842
v 0.004874 0.000000 0.031381 0.078431 0.062745 0.039216
vn 0.017973 0.013572 -0.291056
v 0.004874 0.000000 0.031381 0.078431 0.062745 0.039216
vn 0.000000 0.000000 0.000000
v 0.004874 0.000000 0.031381 0.078431 0.062745 0.039216
vn 0.013604 0.017943 -0.291070
v 0.004874 0.000000 0.031381 0.078431 0.062745 0.039216
vn 0.008640 0.026976 -0.371847
v 0.004874 0.000000 0.031381 0.078431 0.062745 0.039216
vn 0.000276 0.009026 -0.117896
v 0.004874 0.000000 0.031381 0.078431 0.062745 0.039216
vn 0.000000 0.000000 0.000000
v 0.004874 0.000000 0.031381 0.078431 0.062745 0.039216
vn -0.000251 0.009027 -0.117901
v 0.004874 0.000000 0.031381 0.078431 0.062745 0.039216
vn -0.008560 0.026976 -0.371848
v 0.004874 0.000000 0.031381 0.078431 0.062745 0.039216
vn -0.013541 0.017943 -0.291064
v 0.004874 0.000000 0.031381 0.078431 0.062745 0.039216
vn 0.000000 0.000000 0.000000
v 0.004874 0.000000 0.031381 0.078431 0.062745 0.039216
vn -0.017911 0.013572 -0.291061
v 0.004874 0.000000 0.031381 0.078431 0.062745 0.039216
vn -0.026936 0.008600 -0.371851
v 0.004874 0.000000 0.031381 0.078431 0.062745 0.039216
vn -0.009014 0.000264 -0.117899
v 0.004874 0.000000 0.031381 0.078431 0.062745 0.039216
vn 0.000000 0.000000 0.000000
v 0.004874 0.000000 0.031381 0.078431 0.062745 0.039216
vn -0.009014 -0.000264 -0.117899
v 0.004874 0.000000 0.031381 0.078431 0.062745 0.039216
vn -0.026937 -0.008601 -0.371854
v 0.004874 0.000000 0.031381 0.078431 0.062745 0.039216
vn -0.017912 -0.013571 -0.291058
v 0.004874 0.000000 0.031381 0.078431 0.062745 0.039216
vn -0.711270 -0.711906 -6.173932
v 0.004437 -0.000438 0.031428 0.078431 0.062745 0.039216
vn -0.500785 -0.866371 -6.175949
v 0.004581 -0.000547 0.031428 0.078431 0.062745 0.039216
vn -0.282593 -0.951775 -6.178449
v 0.004707 -0.000600 0.031428 0.078431 0.062745 0.039216
vn -0.100996 -0.979779 -6.181936
v 0.004801 -0.000617 0.031428 0.078431 0.062745 0.039216
vn 0.000665 -0.974891 -6.186026
v 0.004874 -0.000619 0.031428 0.078431 0.062745 0.039216
vn 0.102317 -0.979777 -6.181915
v 0.004948 -0.000617 0.031428 0.078431 0.062745 0.039216
vn 0.283917 -0.951777 -6.178388
v 0.005042 -0.000600 0.031428 0.078431 0.062745 0.039216
vn 0.502112 -0.866368 -6.175842
v 0.005168 -0.000547 0.031428 0.078431 0.062745 0.039216
vn 0.712596 -0.711906 -6.173779
v 0.005312 -0.000438 0.031428 0.078431 0.062745 0.039216
vn 0.867020 -0.501450 -6.175807
v 0.005421 -0.000293 0.031428 0.078431 0.062745 0.039216
vn 0.952438 -0.283271 -6.178314
v 0.005474 -0.000167 0.031428 0.078431 0.062745 0.039216
vn 0.980442 -0.101661 -6.181820
v 0.005491 -0.000073 0.031428 0.078431 0.062745 0.039216
vn 0.975562 0.000000 -6.185919
v 0.005493 0.000000 0.031428 0.078431 0.062745 0.039216
vn 0.980442 0.101661 -6.181820
v 0.005491 0.000073 0.031428 0.078431 0.062745 0.039216
vn 0.952443 0.283249 -6.178316
v 0.005474 0.000167 0.031428 0.078431 0.062745 0.039216
vn 0.867039 0.501444 -6.175801
v 0.005421 0.000293 0.031428 0.078431 0.062745 0.039216
vn 0.712572 0.711925 -6.173780
v 0.005312 0.000438 0.031428 0.078431 0.062745 0.039216
vn 0.502108 0.866365 -6.175844
v 0.005168 0.000547 0.031428 0.078431 0.062745 0.039216
vn 0.283922 0.951775 -6.178387
v 0.005042 0.000600 0.031428 0.078431 0.062745 0.039216
vn 0.102317 0.979777 -6.181915
v 0.004948 0.000617 0.031428 0.078431 0.062745 0.039216
vn 0.000664 0.974891 -6.186026
v 0.004874 0.000619 0.031428 0.078431 0.062745 0.039216
vn -0.101003 0.979780 -6.181935
v 0.004801 0.000617 0.031428 0.078431 0.062745 0.039216
vn -0.282590 0.951773 -6.178451
v 0.004707 0.000600 0.031428 0.078431 0.062745 0.039216
vn -0.500778 0.866378 -6.175948
v 0.004581 0.000547 0.031428 0.078431 0.062745 0.039216
vn -0.711256 0.711914 -6.173934
v 0.004437 0.000438 0.031428 0.078431 0.062745 0.039216
vn -0.865709 0.501445 -6.175989
v 0.004328 0.000293 0.031428 0.078431 0.062745 0.039216
vn -0.951113 0.283250 -6.178521
v 0.004275 0.000167 0.031428 0.078431 0.062745 0.039216
vn -0.979112 0.101661 -6.182031
v 0.004258 0.000073 0.031428 0.078431 0.062745 0.039216
vn -0.974232 -0.000000 -6.186129
v 0.004256 0.000000 0.031428 0.078431 0.062745 0.039216
vn -0.979118 -0.101698 -6.182027
v 0.004258 -0.000073 0.031428 0.078431 0.062745 0.039216
vn -0.951096 -0.283277 -6.178525
v 0.004275 -0.000167 0.031428 0.078431 0.062745 0.039216
vn -0.865712 -0.501432 -6.175990
v 0.004328 -0.000293 0.031428 0.078431 0.062745 0.039216
vn -1.397417 -1.398056 -5.920442
v 0.003987 -0.000887 0.031579 0.078431 0.062745 0.039216
vn -0.985368 -1.705857 -5.925539
v 0.004280 -0.001108 0.031579 0.078431 0.062745 0.039216
vn -0.557957 -1.878735 -5.931871
v 0.004535 -0.001216 0.031579 0.078431 0.062745 0.039216
vn -0.201533 -1.945482 -5.939039
v 0.004725 -0.001250 0.031579 0.078431 0.062745 0.039216
vn 0.000638 -1.950646 -5.947013
v 0.004874 -0.001254 0.031579 0.078431 0.062745 0.039216
vn 0.202808 -1.945482 -5.938995
v 0.005023 -0.001250 0.031579 0.078431 0.062745 0.039216
vn 0.559337 -1.878789 -5.931712
v 0.005213 -0.001216 0.031579 0.078431 0.062745 0.039216
vn 0.986657 -1.706049 -5.925248
v 0.005469 -0.001108 0.031579 0.078431 0.062745 0.039216
vn 1.398699 -1.398054 -5.920138
v 0.005761 -0.000887 0.031579 0.078431 0.062745 0.039216
vn 1.706490 -0.986004 -5.925251
v 0.005982 -0.000595 0.031579 0.078431 0.062745 0.039216
vn 1.879374 -0.558594 -5.931608
v 0.006090 -0.000339 0.031579 0.078431 0.062745 0.039216
vn 1.946122 -0.202168 -5.938808
v 0.006124 -0.000149 0.031579 0.078431 0.062745 0.039216
vn 1.951288 0.000000 -5.946803
v 0.006129 0.000000 0.031579 0.078431 0.062745 0.039216
vn 1.946122 0.202167 -5.938808
v 0.006124 0.000149 0.031579 0.078431 0.062745 0.039216
vn 1.879428 0.558700 -5.931570
v 0.006090 0.000339 0.031579 0.078431 0.062745 0.039216
vn 1.706686 0.986021 -5.925172
v 0.005982 0.000595 0.031579 0.078431 0.062745 0.039216
vn 1.398696 1.398060 -5.920137
v 0.005761 0.000887 0.031579 0.078431 0.062745 0.039216
vn 0.986640 1.705856 -5.925327
v 0.005469 0.001108 0.031579 0.078431 0.062745 0.039216
vn 0.559230 1.878735 -5.931751
v 0.005213 0.001216 0.031579 0.078431 0.062745 0.039216
vn 0.202807 1.945481 -5.938995
v 0.005023 0.001250 0.031579 0.078431 0.062745 0.039216
vn 0.000637 1.950646 -5.947013
v 0.004874 0.001254 0.031579 0.078431 0.062745 0.039216
vn -0.201534 1.945481 -5.939039
v 0.004725 0.001250 0.031579 0.078431 0.062745 0.039216
vn -0.558063 1.878787 -5.931833
v 0.004535 0.001216 0.031579 0.078431 0.062745 0.039216
vn -0.985382 1.706049 -5.925460
v 0.004280 0.001108 0.031579 0.078431 0.062745 0.039216
vn -1.397416 1.398059 -5.920442
v 0.003987 0.000887 0.031579 0.078431 0.062745 0.039216
vn -1.705214 0.986008 -5.925617
v 0.003766 0.000595 0.031579 0.078431 0.062745 0.039216
vn -1.878097 0.558593 -5.932012
v 0.003659 0.000339 0.031579 0.078431 0.062745 0.039216
vn -1.944735 0.202243 -5.939271
v 0.003624 0.000149 0.031579 0.078431 0.062745 0.039216
vn -1.949768 -0.000000 -5.947325
v 0.003620 0.000000 0.031579 0.078431 0.062745 0.039216
vn -1.944865 -0.202348 -5.939209
v 0.003624 -0.000149 0.031579 0.078431 0.062745 0.039216
vn -1.878256 -0.558638 -5.931934
v 0.003659 -0.000339 0.031579 0.078431 0.062745 0.039216
vn -1.705402 -0.986020 -5.925540
v 0.003766 -0.000595 0.031579 0.078431 0.062745 0.039216
vn -2.067588 -2.067821 -5.496128
v 0.003545 -0.001330 0.031842 0.078431 0.062745 0.039216
vn -1.459254 -2.527304 -5.504482
v 0.003983 -0.001661 0.031842 0.078431 0.062745 0.039216
vn -0.827777 -2.787896 -5.515416
v 0.004366 -0.001823 0.031842 0.078431 0.062745 0.039216
vn -0.299685 -2.893741 -5.526099
v 0.004651 -0.001874 0.031842 0.078431 0.062745 0.039216
vn 0.000594 -2.909992 -5.537496
v 0.004874 -0.001881 0.031842 0.078431 0.062745 0.039216
vn 0.300872 -2.893741 -5.526034
v 0.005098 -0.001874 0.031842 0.078431 0.062745 0.039216
vn 0.829224 -2.787715 -5.515258
v 0.005383 -0.001823 0.031842 0.078431 0.062745 0.039216
vn 1.460607 -2.527309 -5.504251
v 0.005766 -0.001661 0.031842 0.078431 0.062745 0.039216
vn 2.068409 -2.068183 -5.495685
v 0.006204 -0.001330 0.031842 0.078431 0.062745 0.039216
vn 2.527895 -1.459848 -5.504051
v 0.006536 -0.000892 0.031842 0.078431 0.062745 0.039216
vn 2.788490 -0.828369 -5.515027
v 0.006697 -0.000508 0.031842 0.078431 0.062745 0.039216
vn 2.894334 -0.300278 -5.525756
v 0.006749 -0.000223 0.031842 0.078431 0.062745 0.039216
vn 2.910586 0.000000 -5.537184
v 0.006755 0.000000 0.031842 0.078431 0.062745 0.039216
vn 2.894404 0.300334 -5.525706
v 0.006749 0.000223 0.031842 0.078431 0.062745 0.039216
vn 2.788361 0.828597 -5.515019
v 0.006697 0.000508 0.031842 0.078431 0.062745 0.039216
vn 2.527900 1.460014 -5.504136
v 0.006536 0.000892 0.031842 0.078431 0.062745 0.039216
vn 2.068773 2.067819 -5.495685
v 0.006204 0.001330 0.031842 0.078431 0.062745 0.039216
vn 1.460441 2.527304 -5.504166
v 0.005766 0.001661 0.031842 0.078431 0.062745 0.039216
vn 0.828963 2.787897 -5.515238
v 0.005383 0.001823 0.031842 0.078431 0.062745 0.039216
vn 0.300871 2.893741 -5.526034
v 0.005098 0.001874 0.031842 0.078431 0.062745 0.039216
vn 0.000593 2.909992 -5.537496
v 0.004874 0.001881 0.031842 0.078431 0.062745 0.039216
vn -0.299741 2.893810 -5.526049
v 0.004651 0.001874 0.031842 0.078431 0.062745 0.039216
vn -0.828006 2.787766 -5.515408
v 0.004366 0.001823 0.031842 0.078431 0.062745 0.039216
vn -1.459420 2.527308 -5.504568
v 0.003983 0.001661 0.031842 0.078431 0.062745 0.039216
vn -2.067223 2.068187 -5.496128
v 0.003545 0.001330 0.031842 0.078431 0.062745 0.039216
vn -2.526714 1.459849 -5.504594
v 0.003213 0.000892 0.031842 0.078431 0.062745 0.039216
vn -2.787359 0.828336 -5.515597
v 0.003052 0.000508 0.031842 0.078431 0.062745 0.039216
vn -2.893289 0.300983 -5.526312
v 0.003000 0.000223 0.031842 0.078431 0.062745 0.039216
vn -2.909434 -0.000690 -5.537592
v 0.002994 0.000000 0.031842 0.078431 0.062745 0.039216
vn -2.893426 -0.301114 -5.526399
v 0.003000 -0.000223 0.031842 0.078431 0.062745 0.039216
vn -2.787179 -0.828108 -5.515638
v 0.003052 -0.000508 0.031842 0.078431 0.062745 0.039216
vn -2.526717 -1.460014 -5.504680
v 0.003213 -0.000892 0.031842 0.078431 0.062745 0.039216
vn -2.690599 -2.691057 -4.905313
v 0.003129 -0.001745 0.032216 0.078431 0.062745 0.039216
vn -1.900417 -3.293354 -4.916640
v 0.003704 -0.002180 0.032216 0.078431 0.062745 0.039216
vn -1.079955 -3.637740 -4.931707
v 0.004207 -0.002392 0.032216 0.078431 0.062745 0.039216
vn -0.393199 -3.781950 -4.944642
v 0.004581 -0.002460 0.032216 0.078431 0.062745 0.039216
vn 0.000532 -3.809761 -4.957862
v 0.004874 -0.002468 0.032216 0.078431 0.062745 0.039216
vn 0.394260 -3.781948 -4.944559
v 0.005167 -0.002460 0.032216 0.078431 0.062745 0.039216
vn 1.081021 -3.637737 -4.931475
v 0.005541 -0.002392 0.032217 0.078431 0.062745 0.039216
vn 1.901467 -3.293222 -4.916302
v 0.006045 -0.002180 0.032217 0.078431 0.062745 0.039216
vn 2.691583 -2.691127 -4.904735
v 0.006620 -0.001745 0.032217 0.078431 0.062745 0.039216
vn 3.293885 -1.900946 -4.916080
v 0.007055 -0.001170 0.032217 0.078431 0.062745 0.039216
vn 3.638269 -1.080487 -4.931201
v 0.007267 -0.000667 0.032217 0.078431 0.062745 0.039216
vn 3.782480 -0.393731 -4.944194
v 0.007334 -0.000293 0.032217 0.078431 0.062745 0.039216
vn 3.810334 0.000351 -4.957392
v 0.007343 0.000000 0.032217 0.078431 0.062745 0.039216
vn 3.782486 0.393788 -4.944298
v 0.007334 0.000293 0.032217 0.078431 0.062745 0.039216
vn 3.638278 1.080257 -4.931213
v 0.007267 0.000667 0.032217 0.078431 0.062745 0.039216
vn 3.293752 1.900935 -4.916152
v 0.007055 0.001170 0.032217 0.078431 0.062745 0.039216
vn 2.691654 2.691057 -4.904734
v 0.006620 0.001745 0.032217 0.078431 0.062745 0.039216
vn 1.901478 3.293354 -4.916231
v 0.006045 0.002180 0.032217 0.078431 0.062745 0.039216
vn 1.081019 3.637738 -4.931475
v 0.005541 0.002392 0.032217 0.078431 0.062745 0.039216
vn 0.394260 3.781950 -4.944557
v 0.005167 0.002460 0.032216 0.078431 0.062745 0.039216
vn 0.000180 3.809802 -4.957801
v 0.004874 0.002468 0.032216 0.078431 0.062745 0.039216
vn -0.393256 3.781956 -4.944746
v 0.004581 0.002460 0.032216 0.078431 0.062745 0.039216
vn -1.079725 3.637750 -4.931719
v 0.004207 0.002392 0.032216 0.078431 0.062745 0.039216
vn -1.900406 3.293221 -4.916711
v 0.003704 0.002180 0.032216 0.078431 0.062745 0.039216
vn -2.690529 2.691127 -4.905313
v 0.003129 0.001745 0.032216 0.078431 0.062745 0.039216
vn -3.292829 1.900946 -4.916788
v 0.002694 0.001170 0.032216 0.078431 0.062745 0.039216
vn -3.637220 1.080255 -4.931994
v 0.002482 0.000667 0.032216 0.078431 0.062745 0.039216
vn -3.781425 0.393786 -4.945110
v 0.002415 0.000293 0.032216 0.078431 0.062745 0.039216
vn -3.809272 -0.000068 -4.958172
v 0.002406 0.000000 0.032216 0.078431 0.062745 0.039216
vn -3.781316 -0.393714 -4.945180
v 0.002415 -0.000293 0.032216 0.078431 0.062745 0.039216
vn -3.637220 -1.080257 -4.931994
v 0.002482 -0.000667 0.032216 0.078431 0.062745 0.039216
vn -3.292696 -1.900935 -4.916859
v 0.002694 -0.001170 0.032216 0.078431 0.062745 0.039216
vn -3.237916 -3.238365 -4.167594
v 0.002761 -0.002113 0.032691 0.078431 0.062745 0.039216
vn -2.288557 -3.967558 -4.180622
v 0.003458 -0.002640 0.032691 0.078431 0.062745 0.039216
vn -1.302139 -4.387942 -4.198297
v 0.004067 -0.002896 0.032692 0.078431 0.062745 0.039216
vn -0.475119 -4.567144 -4.212116
v 0.004520 -0.002978 0.032692 0.078431 0.062745 0.039216
vn 0.000452 -4.606354 -4.225068
v 0.004874 -0.002988 0.032692 0.078431 0.062745 0.039216
vn 0.476030 -4.567144 -4.212011
v 0.005229 -0.002978 0.032692 0.078431 0.062745 0.039216
vn 1.303051 -4.387940 -4.198016
v 0.005682 -0.002896 0.032692 0.078431 0.062745 0.039216
vn 2.289460 -3.967555 -4.180131
v 0.006291 -0.002640 0.032692 0.078431 0.062745 0.039216
vn 3.238812 -3.238364 -4.166899
v 0.006987 -0.002113 0.032692 0.078431 0.062745 0.039216
vn 3.968005 -2.289007 -4.179951
v 0.007514 -0.001417 0.032692 0.078431 0.062745 0.039216
vn 4.388391 -1.302593 -4.197686
v 0.007770 -0.000807 0.032692 0.078431 0.062745 0.039216
vn 4.567596 -0.475573 -4.211573
v 0.007852 -0.000355 0.032692 0.078431 0.062745 0.039216
vn 4.606759 0.000052 -4.224617
v 0.007862 0.000000 0.032692 0.078431 0.062745 0.039216
vn 4.567518 0.475518 -4.211646
v 0.007852 0.000355 0.032692 0.078431 0.062745 0.039216
vn 4.388389 1.302596 -4.197686
v 0.007770 0.000807 0.032692 0.078431 0.062745 0.039216
vn 3.968003 2.289010 -4.179952
v 0.007514 0.001417 0.032692 0.078431 0.062745 0.039216
vn 3.238811 3.238365 -4.166899
v 0.006987 0.002113 0.032692 0.078431 0.062745 0.039216
vn 2.289459 3.967556 -4.180131
v 0.006291 0.002640 0.032692 0.078431 0.062745 0.039216
vn 1.303045 4.387940 -4.198017
v 0.005682 0.002896 0.032692 0.078431 0.062745 0.039216
vn 0.476084 4.567095 -4.212075
v 0.005229 0.002978 0.032692 0.078431 0.062745 0.039216
vn 0.000400 4.606176 -4.225284
v 0.004874 0.002988 0.032692 0.078431 0.062745 0.039216
vn -0.475126 4.567017 -4.212250
v 0.004519 0.002978 0.032692 0.078431 0.062745 0.039216
vn -1.302140 4.387942 -4.198297
v 0.004067 0.002896 0.032692 0.078431 0.062745 0.039216
vn -2.288558 3.967557 -4.180622
v 0.003458 0.002640 0.032691 0.078431 0.062745 0.039216
vn -3.237917 3.238364 -4.167594
v 0.002761 0.002113 0.032691 0.078431 0.062745 0.039216
vn -3.967107 2.289008 -4.180803
v 0.002235 0.001417 0.032691 0.078431 0.062745 0.039216
vn -4.387490 1.302594 -4.198628
v 0.001978 0.000807 0.032691 0.078431 0.062745 0.039216
vn -4.566614 0.475516 -4.212627
v 0.001897 0.000355 0.032691 0.078431 0.062745 0.039216
vn -4.605803 -0.000001 -4.225649
v 0.001886 0.000000 0.032691 0.078431 0.062745 0.039216
vn -4.566614 -0.475518 -4.212627
v 0.001897 -0.000355 0.032691 0.078431 0.062745 0.039216
vn -4.387489 -1.302595 -4.198628
v 0.001978 -0.000807 0.032691 0.078431 0.062745 0.039216
vn -3.967106 -2.289010 -4.180803
v 0.002235 -0.001417 0.032691 0.078431 0.062745 0.039216
vn -3.686321 -3.686678 -3.315159
v 0.002459 -0.002416 0.033247 0.078431 0.062745 0.039216
vn -2.607137 -4.521161 -3.328035
v 0.003255 -0.003018 0.033247 0.078431 0.062745 0.039216
vn -1.485515 -5.005748 -3.345570
v 0.003951 -0.003311 0.033247 0.078431 0.062745 0.039216
vn -0.542717 -5.214478 -3.358255
v 0.004469 -0.003404 0.033247 0.078431 0.062745 0.039216
vn 0.000362 -5.263270 -3.369890
v 0.004874 -0.003416 0.033247 0.078431 0.062745 0.039216
vn 0.543439 -5.214478 -3.358137
v 0.005280 -0.003404 0.033247 0.078431 0.062745 0.039216
vn 1.486240 -5.005746 -3.345248
v 0.005797 -0.003311 0.033247 0.078431 0.062745 0.039216
vn 2.607858 -4.521158 -3.327476
v 0.006494 -0.003018 0.033247 0.078431 0.062745 0.039216
vn 3.687034 -3.686677 -3.314368
v 0.007290 -0.002416 0.033247 0.078431 0.062745 0.039216
vn 4.521517 -2.607496 -3.327270
v 0.007892 -0.001620 0.033247 0.078431 0.062745 0.039216
vn 5.006106 -1.485874 -3.344872
v 0.008185 -0.000923 0.033247 0.078431 0.062745 0.039216
vn 5.214839 -0.543074 -3.357637
v 0.008278 -0.000406 0.033248 0.078431 0.062745 0.039216
vn 5.263632 0.000001 -3.369325
v 0.008290 0.000000 0.033248 0.078431 0.062745 0.039216
vn 5.214839 0.543076 -3.357637
v 0.008278 0.000406 0.033248 0.078431 0.062745 0.039216
vn 5.006106 1.485877 -3.344871
v 0.008185 0.000923 0.033247 0.078431 0.062745 0.039216
vn 4.521516 2.607499 -3.327270
v 0.007892 0.001620 0.033247 0.078431 0.062745 0.039216
vn 3.687033 3.686678 -3.314368
v 0.007290 0.002416 0.033247 0.078431 0.062745 0.039216
vn 2.607856 4.521159 -3.327476
v 0.006494 0.003018 0.033247 0.078431 0.062745 0.039216
vn 1.486238 5.005746 -3.345248
v 0.005797 0.003311 0.033247 0.078431 0.062745 0.039216
vn 0.543750 5.214511 -3.358097
v 0.005280 0.003404 0.033247 0.078431 0.062745 0.039216
vn 0.000360 5.263293 -3.369680
v 0.004874 0.003416 0.033247 0.078431 0.062745 0.039216
vn -0.543032 5.214511 -3.358214
v 0.004469 0.003404 0.033247 0.078431 0.062745 0.039216
vn -1.485516 5.005747 -3.345570
v 0.003951 0.003311 0.033247 0.078431 0.062745 0.039216
vn -2.607138 4.521160 -3.328036
v 0.003255 0.003018 0.033247 0.078431 0.062745 0.039216
vn -3.686322 3.686677 -3.315159
v 0.002459 0.002416 0.033247 0.078431 0.062745 0.039216
vn -4.520803 2.607497 -3.328241
v 0.001857 0.001620 0.033247 0.078431 0.062745 0.039216
vn -5.005389 1.485875 -3.345946
v 0.001563 0.000923 0.033247 0.078431 0.062745 0.039216
vn -5.214118 0.543075 -3.358756
v 0.001470 0.000406 0.033247 0.078431 0.062745 0.039216
vn -5.262908 -0.000001 -3.370455
v 0.001458 0.000000 0.033247 0.078431 0.062745 0.039216
vn -5.214118 -0.543077 -3.358756
v 0.001470 -0.000406 0.033247 0.078431 0.062745 0.039216
vn -5.005388 -1.485877 -3.345946
v 0.001563 -0.000923 0.033247 0.078431 0.062745 0.039216
vn -4.520802 -2.607498 -3.328241
v 0.001857 -0.001620 0.033247 0.078431 0.062745 0.039216
vn -4.021714 -4.021972 -2.388052
v 0.002232 -0.002642 0.033856 0.078431 0.062745 0.039216
vn -2.845830 -4.935903 -2.398926
v 0.003103 -0.003300 0.033856 0.078431 0.062745 0.039216
vn -1.622918 -5.469871 -2.413476
v 0.003865 -0.003621 0.033856 0.078431 0.062745 0.039216
vn -0.593656 -5.701274 -2.423337
v 0.004431 -0.003723 0.033856 0.078431 0.062745 0.039216
vn 0.000261 -5.757269 -2.431955
v 0.004874 -0.003736 0.033856 0.078431 0.062745 0.039216
vn 0.594181 -5.701273 -2.423208
v 0.005318 -0.003723 0.033856 0.078431 0.062745 0.039216
vn 1.623428 -5.469864 -2.413164
v 0.005884 -0.003621 0.033856 0.078431 0.062745 0.039216
vn 2.846350 -4.935899 -2.398321
v 0.006646 -0.003300 0.033856 0.078431 0.062745 0.039216
vn 4.022229 -4.021971 -2.387184
v 0.007516 -0.002642 0.033856 0.078431 0.062745 0.039216
vn 4.936161 -2.846089 -2.398086
v 0.008175 -0.001772 0.033856 0.078431 0.062745 0.039216
vn 5.470122 -1.623168 -2.412752
v 0.008496 -0.001010 0.033856 0.078431 0.062745 0.039216
vn 5.701534 -0.593916 -2.422659
v 0.008598 -0.000444 0.033856 0.078431 0.062745 0.039216
vn 5.757531 0.000001 -2.431333
v 0.008611 0.000000 0.033856 0.078431 0.062745 0.039216
vn 5.701535 0.593921 -2.422653
v 0.008598 0.000444 0.033856 0.078431 0.062745 0.039216
vn 5.470123 1.623167 -2.412747
v 0.008496 0.001010 0.033856 0.078431 0.062745 0.039216
vn 4.936159 2.846091 -2.398089
v 0.008175 0.001772 0.033856 0.078431 0.062745 0.039216
vn 4.022228 4.021973 -2.387184
v 0.007516 0.002642 0.033856 0.078431 0.062745 0.039216
vn 2.846347 4.935904 -2.398309
v 0.006646 0.003300 0.033856 0.078431 0.062745 0.039216
vn 1.623429 5.469863 -2.413163
v 0.005884 0.003621 0.033856 0.078431 0.062745 0.039216
vn 0.594179 5.701273 -2.423208
v 0.005318 0.003723 0.033856 0.078431 0.062745 0.039216
vn 0.000259 5.757307 -2.431883
v 0.004874 0.003736 0.033856 0.078431 0.062745 0.039216
vn -0.593660 5.701274 -2.423334
v 0.004431 0.003723 0.033856 0.078431 0.062745 0.039216
vn -1.622916 5.469872 -2.413474
v 0.003865 0.003621 0.033856 0.078431 0.062745 0.039216
vn -2.845832 4.935899 -2.398934
v 0.003103 0.003300 0.033856 0.078431 0.062745 0.039216
vn -4.021716 4.021971 -2.388052
v 0.002232 0.002642 0.033856 0.078431 0.062745 0.039216
vn -4.935647 2.846088 -2.399146
v 0.001574 0.001772 0.033856 0.078431 0.062745 0.039216
vn -5.469602 1.623167 -2.413932
v 0.001253 0.001010 0.033856 0.078431 0.062745 0.039216
vn -5.700985 0.593991 -2.423965
v 0.001151 0.000444 0.033856 0.078431 0.062745 0.039216
vn -5.756929 -0.000001 -2.432828
v 0.001138 0.000000 0.033856 0.078431 0.062745 0.039216
vn -5.700985 -0.593993 -2.423965
v 0.001151 -0.000444 0.033856 0.078431 0.062745 0.039216
vn -5.469602 -1.623165 -2.413935
v 0.001253 -0.001010 0.033856 0.078431 0.062745 0.039216
vn -4.935641 -2.846090 -2.399158
v 0.001574 -0.001772 0.033856 0.078431 0.062745 0.039216
vn -4.239936 -4.240094 -1.429185
v 0.002086 -0.002788 0.034488 0.078431 0.062745 0.039216
vn -3.001207 -5.206007 -1.436199
v 0.003004 -0.003483 0.034488 0.078431 0.062745 0.039216
vn -1.712615 -5.772707 -1.445525
v 0.003809 -0.003822 0.034489 0.078431 0.062745 0.039216
vn -0.626944 -6.018611 -1.451651
v 0.004406 -0.003930 0.034489 0.078431 0.062745 0.039216
vn 0.000157 -6.078965 -1.456832
v 0.004874 -0.003943 0.034489 0.078431 0.062745 0.039216
vn 0.627222 -6.018616 -1.451528
v 0.005342 -0.003930 0.034489 0.078431 0.062745 0.039216
vn 1.712965 -5.772657 -1.445165
v 0.005940 -0.003822 0.034489 0.078431 0.062745 0.039216
vn 3.001566 -5.205977 -1.435582
v 0.006744 -0.003483 0.034489 0.078431 0.062745 0.039216
vn 4.240249 -4.240089 -1.428273
v 0.007663 -0.002788 0.034489 0.078431 0.062745 0.039216
vn 5.206137 -3.001415 -1.435337
v 0.008358 -0.001870 0.034489 0.078431 0.062745 0.039216
vn 5.772807 -1.712810 -1.444737
v 0.008696 -0.001066 0.034489 0.078431 0.062745 0.039216
vn 6.018773 -0.627053 -1.450952
v 0.008804 -0.000468 0.034489 0.078431 0.062745 0.039216
vn 6.079123 0.000008 -1.456174
v 0.008818 0.000000 0.034489 0.078431 0.062745 0.039216
vn 6.018777 0.627063 -1.450942
v 0.008804 0.000468 0.034489 0.078431 0.062745 0.039216
vn 5.772810 1.712805 -1.444733
v 0.008696 0.001066 0.034489 0.078431 0.062745 0.039216
vn 5.206135 3.001414 -1.435339
v 0.008358 0.001870 0.034489 0.078431 0.062745 0.039216
vn 4.240244 4.240094 -1.428273
v 0.007663 0.002788 0.034489 0.078431 0.062745 0.039216
vn 3.001570 5.205983 -1.435576
v 0.006744 0.003483 0.034489 0.078431 0.062745 0.039216
vn 1.712968 5.772651 -1.445175
v 0.005940 0.003822 0.034489 0.078431 0.062745 0.039216
vn 0.627217 6.018617 -1.451530
v 0.005342 0.003930 0.034489 0.078431 0.062745 0.039216
vn 0.000154 6.078965 -1.456831
v 0.004874 0.003943 0.034489 0.078431 0.062745 0.039216
vn -0.626941 6.018613 -1.451651
v 0.004406 0.003930 0.034489 0.078431 0.062745 0.039216
vn -1.712609 5.772712 -1.445519
v 0.003809 0.003822 0.034489 0.078431 0.062745 0.039216
vn -3.001205 5.206003 -1.436206
v 0.003004 0.003483 0.034488 0.078431 0.062745 0.039216
vn -4.239941 4.240088 -1.429185
v 0.002086 0.002788 0.034488 0.078431 0.062745 0.039216
vn -5.205828 3.001418 -1.436457
v 0.001391 0.001870 0.034488 0.078431 0.062745 0.039216
vn -5.772491 1.712807 -1.445989
v 0.001052 0.001066 0.034488 0.078431 0.062745 0.039216
vn -6.018483 0.627354 -1.452176
v 0.000944 0.000468 0.034488 0.078431 0.062745 0.039216
vn -6.078756 -0.000001 -1.457276
v 0.000931 0.000000 0.034488 0.078431 0.062745 0.039216
vn -6.018483 -0.627357 -1.452174
v 0.000944 -0.000468 0.034488 0.078431 0.062745 0.039216
vn -5.772494 -1.712803 -1.445984
v 0.001052 -0.001066 0.034488 0.078431 0.062745 0.039216
vn -5.205822 -3.001416 -1.436463
v 0.001391 -0.001870 0.034488 0.078431 0.062745 0.039216
vn -4.345605 -4.345659 -0.473834
v 0.002016 -0.002858 0.035117 0.078431 0.062745 0.039216
vn -3.076488 -5.336787 -0.476122
v 0.002958 -0.003570 0.035117 0.078431 0.062745 0.039216
vn -1.756151 -5.919304 -0.479232
v 0.003782 -0.003917 0.035117 0.078431 0.062745 0.039216
vn -0.643167 -6.172064 -0.481130
v 0.004394 -0.004027 0.035117 0.078431 0.062745 0.039216
vn 0.000053 -6.234115 -0.482740
v 0.004874 -0.004041 0.035117 0.078431 0.062745 0.039216
vn 0.643265 -6.172067 -0.480976
v 0.005354 -0.004027 0.035117 0.078431 0.062745 0.039216
vn 1.756245 -5.919326 -0.478775
v 0.005966 -0.003917 0.035117 0.078431 0.062745 0.039216
vn 3.076614 -5.336781 -0.475437
v 0.006790 -0.003570 0.035117 0.078431 0.062745 0.039216
vn 4.345710 -4.345655 -0.472903
v 0.007732 -0.002858 0.035117 0.078431 0.062745 0.039216
vn 5.336832 -3.076562 -0.475197
v 0.008444 -0.001916 0.035117 0.078431 0.062745 0.039216
vn 5.919378 -1.756192 -0.478326
v 0.008791 -0.001092 0.035117 0.078431 0.062745 0.039216
vn 6.172119 -0.643206 -0.480388
v 0.008902 -0.000480 0.035117 0.078431 0.062745 0.039216
vn 6.234167 0.000004 -0.482070
v 0.008916 0.000000 0.035117 0.078431 0.062745 0.039216
vn 6.172119 0.643210 -0.480384
v 0.008902 0.000480 0.035117 0.078431 0.062745 0.039216
vn 5.919377 1.756192 -0.478330
v 0.008791 0.001092 0.035117 0.078431 0.062745 0.039216
vn 5.336831 3.076563 -0.475195
v 0.008444 0.001916 0.035117 0.078431 0.062745 0.039216
vn 4.345707 4.345658 -0.472904
v 0.007732 0.002858 0.035117 0.078431 0.062745 0.039216
vn 3.076613 5.336780 -0.475442
v 0.006790 0.003570 0.035117 0.078431 0.062745 0.039216
vn 1.756244 5.919326 -0.478777
v 0.005966 0.003917 0.035117 0.078431 0.062745 0.039216
vn 0.643261 6.172067 -0.480980
v 0.005354 0.004027 0.035117 0.078431 0.062745 0.039216
vn 0.000049 6.234115 -0.482741
v 0.004874 0.004041 0.035117 0.078431 0.062745 0.039216
vn -0.643172 6.172064 -0.481129
v 0.004394 0.004027 0.035117 0.078431 0.062745 0.039216
vn -1.756151 5.919304 -0.479231
v 0.003782 0.003917 0.035117 0.078431 0.062745 0.039216
vn -3.076488 5.336786 -0.476122
v 0.002958 0.003570 0.035117 0.078431 0.062745 0.039216
vn -4.345608 4.345656 -0.473835
v 0.002016 0.002858 0.035117 0.078431 0.062745 0.039216
vn -5.336728 3.076564 -0.476344
v 0.001304 0.001916 0.035117 0.078431 0.062745 0.039216
vn -5.919275 1.756192 -0.479598
v 0.000957 0.001092 0.035117 0.078431 0.062745 0.039216
vn -6.172016 0.643205 -0.481713
v 0.000847 0.000480 0.035117 0.078431 0.062745 0.039216
vn -6.234082 -0.000002 -0.483294
v 0.000833 0.000000 0.035117 0.078431 0.062745 0.039216
vn -6.172016 -0.643208 -0.481710
v 0.000847 -0.000480 0.035117 0.078431 0.062745 0.039216
vn -5.919275 -1.756193 -0.479596
v 0.000957 -0.001092 0.035117 0.078431 0.062745 0.039216
vn -5.336729 -3.076564 -0.476338
v 0.001304 -0.001916 0.035117 0.078431 0.062745 0.039216
vn -4.345707 -4.345658 0.472904
v 0.002016 -0.002858 0.035727 0.078431 0.062745 0.039216
vn -3.076589 -5.336786 0.475465
v 0.002958 -0.003570 0.035727 0.078431 0.062745 0.039216
vn -1.756251 -5.919306 0.478849
v 0.003782 -0.003917 0.035727 0.078431 0.062745 0.039216
vn -0.643271 -6.172065 0.480985
v 0.004394 -0.004027 0.035727 0.078431 0.062745 0.039216
vn -0.000054 -6.234117 0.482731
v 0.004874 -0.004041 0.035727 0.078431 0.062745 0.039216
vn 0.643158 -6.172067 0.481116
v 0.005354 -0.004027 0.035727 0.078431 0.062745 0.039216
vn 1.756141 -5.919327 0.479148
v 0.005966 -0.003917 0.035727 0.078431 0.062745 0.039216
vn 3.076511 -5.336778 0.476109
v 0.006790 -0.003570 0.035727 0.078431 0.062745 0.039216
vn 4.345607 -4.345656 0.473838
v 0.007732 -0.002858 0.035728 0.078431 0.062745 0.039216
vn 5.336729 -3.076561 0.476345
v 0.008444 -0.001916 0.035728 0.078431 0.062745 0.039216
vn 5.919276 -1.756188 0.479597
v 0.008791 -0.001092 0.035728 0.078431 0.062745 0.039216
vn 6.172018 -0.643208 0.481704
v 0.008901 -0.000480 0.035728 0.078431 0.062745 0.039216
vn 6.234064 -0.000003 0.483403
v 0.008915 0.000000 0.035728 0.078431 0.062745 0.039216
vn 6.172017 0.643210 0.481703
v 0.008901 0.000480 0.035728 0.078431 0.062745 0.039216
vn 5.919276 1.756191 0.479594
v 0.008791 0.001092 0.035728 0.078431 0.062745 0.039216
vn 5.336726 3.076563 0.476350
v 0.008444 0.001916 0.035728 0.078431 0.062745 0.039216
vn 4.345604 4.345658 0.473840
v 0.007732 0.002858 0.035728 0.078431 0.062745 0.039216
vn 3.076510 5.336781 0.476102
v 0.006790 0.003570 0.035727 0.078431 0.062745 0.039216
vn 1.756139 5.919327 0.479151
v 0.005966 0.003917 0.035727 0.078431 0.062745 0.039216
vn 0.643157 6.172068 0.481114
v 0.005354 0.004027 0.035727 0.078431 0.062745 0.039216
vn -0.000051 6.234116 0.482734
v 0.004874 0.004041 0.035727 0.078431 0.062745 0.039216
vn -0.643273 6.172065 0.480985
v 0.004394 0.004027 0.035727 0.078431 0.062745 0.039216
vn -1.756254 5.919305 0.478851
v 0.003782 0.003917 0.035727 0.078431 0.062745 0.039216
vn -3.076590 5.336785 0.475464
v 0.002958 0.003570 0.035727 0.078431 0.062745 0.039216
vn -4.345709 4.345656 0.472905
v 0.002016 0.002858 0.035727 0.078431 0.062745 0.039216
vn -5.336831 3.076561 0.475200
v 0.001304 0.001916 0.035727 0.078431 0.062745 0.039216
vn -5.919379 1.756189 0.478326
v 0.000957 0.001092 0.035727 0.078431 0.062745 0.039216
vn -6.172120 0.643207 0.480382
v 0.000846 0.000480 0.035727 0.078431 0.062745 0.039216
vn -6.234168 0.000001 0.482064
v 0.000832 0.000000 0.035727 0.078431 0.062745 0.039216
vn -6.172119 -0.643207 0.480387
v 0.000846 -0.000480 0.035727 0.078431 0.062745 0.039216
vn -5.919379 -1.756192 0.478322
v 0.000957 -0.001092 0.035727 0.078431 0.062745 0.039216
vn -5.336829 -3.076563 0.475203
v 0.001304 -0.001916 0.035727 0.078431 0.062745 0.039216
vn -4.240232 -4.240080 1.428317
v 0.002085 -0.002788 0.036355 0.078431 0.062745 0.039216
vn -3.001507 -5.205990 1.435602
v 0.003004 -0.003483 0.036355 0.078431 0.062745 0.039216
vn -1.712922 -5.772690 1.445198
v 0.003808 -0.003822 0.036355 0.078431 0.062745 0.039216
vn -0.627256 -6.018593 1.451559
v 0.004406 -0.003930 0.036355 0.078431 0.062745 0.039216
vn -0.000160 -6.078948 1.456876
v 0.004874 -0.003943 0.036356 0.078431 0.062745 0.039216
vn 0.626905 -6.018596 1.451713
v 0.005342 -0.003930 0.036356 0.078431 0.062745 0.039216
vn 1.712657 -5.772635 1.445584
v 0.005940 -0.003822 0.036356 0.078431 0.062745 0.039216
vn 3.001251 -5.205966 1.436273
v 0.006744 -0.003483 0.036356 0.078431 0.062745 0.039216
vn 4.239924 -4.240076 1.429234
v 0.007662 -0.002788 0.036356 0.078431 0.062745 0.039216
vn 5.205813 -3.001403 1.436505
v 0.008357 -0.001870 0.036356 0.078431 0.062745 0.039216
vn 5.772481 -1.712804 1.446019
v 0.008696 -0.001066 0.036356 0.078431 0.062745 0.039216
vn 6.018443 -0.627055 1.452288
v 0.008804 -0.000468 0.036356 0.078431 0.062745 0.039216
vn 6.078793 -0.000011 1.457530
v 0.008817 0.000000 0.036356 0.078431 0.062745 0.039216
vn 6.018436 0.627046 1.452302
v 0.008804 0.000468 0.036356 0.078431 0.062745 0.039216
vn 5.772475 1.712813 1.446026
v 0.008696 0.001066 0.036356 0.078431 0.062745 0.039216
vn 5.205809 3.001409 1.436511
v 0.008357 0.001870 0.036356 0.078431 0.062745 0.039216
vn 4.239923 4.240079 1.429233
v 0.007662 0.002788 0.036356 0.078431 0.062745 0.039216
vn 3.001250 5.205969 1.436265
v 0.006744 0.003483 0.036356 0.078431 0.062745 0.039216
vn 1.712647 5.772635 1.445586
v 0.005940 0.003822 0.036356 0.078431 0.062745 0.039216
vn 0.626893 6.018601 1.451709
v 0.005342 0.003930 0.036356 0.078431 0.062745 0.039216
vn -0.000146 6.078951 1.456873
v 0.004874 0.003943 0.036356 0.078431 0.062745 0.039216
vn -0.627246 6.018587 1.451569
v 0.004406 0.003930 0.036355 0.078431 0.062745 0.039216
vn -1.712930 5.772689 1.445197
v 0.003808 0.003822 0.036355 0.078431 0.062745 0.039216
vn -3.001508 5.205990 1.435602
v 0.003004 0.003483 0.036355 0.078431 0.062745 0.039216
vn -4.240233 4.240077 1.428320
v 0.002085 0.002788 0.036355 0.078431 0.062745 0.039216
vn -5.206123 3.001403 1.435383
v 0.001390 0.001870 0.036355 0.078431 0.062745 0.039216
vn -5.772792 1.712806 1.444776
v 0.001052 0.001066 0.036355 0.078431 0.062745 0.039216
vn -6.018756 0.627060 1.450992
v 0.000944 0.000468 0.036355 0.078431 0.062745 0.039216
vn -6.079106 0.000003 1.456221
v 0.000930 0.000000 0.036355 0.078431 0.062745 0.039216
vn -6.018754 -0.627056 1.450998
v 0.000944 -0.000468 0.036355 0.078431 0.062745 0.039216
vn -5.772790 -1.712807 1.444780
v 0.001052 -0.001066 0.036355 0.078431 0.062745 0.039216
vn -5.206118 -3.001407 1.435390
v 0.001390 -0.001870 0.036355 0.078431 0.062745 0.039216
vn -4.022219 -4.021964 2.387234
v 0.002232 -0.002642 0.036988 0.078431 0.062745 0.039216
vn -2.846340 -4.935892 2.398364
v 0.003102 -0.003300 0.036988 0.078431 0.062745 0.039216
vn -1.623433 -5.469858 2.413178
v 0.003864 -0.003621 0.036988 0.078431 0.062745 0.039216
vn -0.594175 -5.701259 2.423263
v 0.004430 -0.003723 0.036988 0.078431 0.062745 0.039216
vn -0.000261 -5.757253 2.432007
v 0.004874 -0.003736 0.036988 0.078431 0.062745 0.039216
vn 0.593657 -5.701258 2.423392
v 0.005317 -0.003723 0.036988 0.078431 0.062745 0.039216
vn 1.622911 -5.469850 2.413564
v 0.005883 -0.003621 0.036988 0.078431 0.062745 0.039216
vn 2.845826 -4.935892 2.398975
v 0.006645 -0.003300 0.036988 0.078431 0.062745 0.039216
vn 4.021707 -4.021962 2.388106
v 0.007516 -0.002642 0.036988 0.078431 0.062745 0.039216
vn 4.935635 -2.846081 2.399200
v 0.008174 -0.001772 0.036988 0.078431 0.062745 0.039216
vn 5.469591 -1.623164 2.413978
v 0.008495 -0.001010 0.036988 0.078431 0.062745 0.039216
vn 5.700999 -0.593914 2.423936
v 0.008597 -0.000444 0.036989 0.078431 0.062745 0.039216
vn 5.757032 0.000001 2.432549
v 0.008610 0.000000 0.036989 0.078431 0.062745 0.039216
vn 5.700997 0.593912 2.423946
v 0.008597 0.000444 0.036989 0.078431 0.062745 0.039216
vn 5.469588 1.623170 2.413985
v 0.008495 0.001010 0.036988 0.078431 0.062745 0.039216
vn 4.935634 2.846084 2.399199
v 0.008174 0.001772 0.036988 0.078431 0.062745 0.039216
vn 4.021706 4.021964 2.388101
v 0.007516 0.002642 0.036988 0.078431 0.062745 0.039216
vn 2.845825 4.935894 2.398970
v 0.006645 0.003300 0.036988 0.078431 0.062745 0.039216
vn 1.622906 5.469852 2.413560
v 0.005883 0.003621 0.036988 0.078431 0.062745 0.039216
vn 0.593658 5.701260 2.423381
v 0.005317 0.003723 0.036988 0.078431 0.062745 0.039216
vn -0.000262 5.757294 2.431927
v 0.004874 0.003736 0.036988 0.078431 0.062745 0.039216
vn -0.594172 5.701258 2.423266
v 0.004430 0.003723 0.036988 0.078431 0.062745 0.039216
vn -1.623437 5.469856 2.413180
v 0.003864 0.003621 0.036988 0.078431 0.062745 0.039216
vn -2.846340 4.935891 2.398364
v 0.003102 0.003300 0.036988 0.078431 0.062745 0.039216
vn -4.022220 4.021962 2.387238
v 0.002232 0.002642 0.036988 0.078431 0.062745 0.039216
vn -4.936151 2.846082 2.398136
v 0.001573 0.001772 0.036988 0.078431 0.062745 0.039216
vn -5.470110 1.623165 2.412799
v 0.001252 0.001010 0.036988 0.078431 0.062745 0.039216
vn -5.701520 0.593916 2.422709
v 0.001150 0.000444 0.036988 0.078431 0.062745 0.039216
vn -5.757554 -0.000001 2.431313
v 0.001137 0.000000 0.036988 0.078431 0.062745 0.039216
vn -5.701519 -0.593916 2.422712
v 0.001150 -0.000444 0.036988 0.078431 0.062745 0.039216
vn -5.470108 -1.623166 2.412804
v 0.001252 -0.001010 0.036988 0.078431 0.062745 0.039216
vn -4.936148 -2.846085 2.398139
v 0.001573 -0.001772 0.036988 0.078431 0.062745 0.039216
vn -3.687104 -3.686749 3.314254
v 0.002458 -0.002416 0.037597 0.078431 0.062745 0.039216
vn -2.607901 -4.521248 3.327360
v 0.003254 -0.003018 0.037597 0.078431 0.062745 0.039216
vn -1.486262 -5.005844 3.345135
v 0.003951 -0.003311 0.037597 0.078431 0.062745 0.039216
vn -0.543448 -5.214577 3.358018
v 0.004468 -0.003404 0.037597 0.078431 0.062745 0.039216
vn -0.000362 -5.263369 3.369766
v 0.004874 -0.003416 0.037597 0.078431 0.062745 0.039216
vn 0.542728 -5.214578 3.358134
v 0.005279 -0.003404 0.037597 0.078431 0.062745 0.039216
vn 1.485551 -5.005842 3.345451
v 0.005797 -0.003311 0.037597 0.078431 0.062745 0.039216
vn 2.607193 -4.521245 3.327921
v 0.006493 -0.003018 0.037597 0.078431 0.062745 0.039216
vn 3.686393 -3.686748 3.315045
v 0.007289 -0.002416 0.037597 0.078431 0.062745 0.039216
vn 4.520890 -2.607547 3.328126
v 0.007891 -0.001620 0.037597 0.078431 0.062745 0.039216
vn 5.005485 -1.485903 3.345829
v 0.008185 -0.000923 0.037597 0.078431 0.062745 0.039216
vn 5.214251 -0.543398 3.358595
v 0.008278 -0.000406 0.037597 0.078431 0.062745 0.039216
vn 5.263030 0.000001 3.370120
v 0.008290 0.000000 0.037597 0.078431 0.062745 0.039216
vn 5.214251 0.543400 3.358595
v 0.008278 0.000406 0.037597 0.078431 0.062745 0.039216
vn 5.005484 1.485906 3.345829
v 0.008185 0.000923 0.037597 0.078431 0.062745 0.039216
vn 4.520888 2.607550 3.328126
v 0.007891 0.001620 0.037597 0.078431 0.062745 0.039216
vn 3.686392 3.686749 3.315045
v 0.007289 0.002416 0.037597 0.078431 0.062745 0.039216
vn 2.607192 4.521246 3.327921
v 0.006493 0.003018 0.037597 0.078431 0.062745 0.039216
vn 1.485544 5.005843 3.345452
v 0.005797 0.003311 0.037597 0.078431 0.062745 0.039216
vn 0.543033 5.214612 3.358095
v 0.005279 0.003404 0.037597 0.078431 0.062745 0.039216
vn -0.000362 5.263392 3.369555
v 0.004874 0.003416 0.037597 0.078431 0.062745 0.039216
vn -0.543762 5.214611 3.357976
v 0.004468 0.003404 0.037597 0.078431 0.062745 0.039216
vn -1.486263 5.005848 3.345129
v 0.003951 0.003311 0.037597 0.078431 0.062745 0.039216
vn -2.607905 4.521247 3.327359
v 0.003254 0.003018 0.037597 0.078431 0.062745 0.039216
vn -3.687105 3.686748 3.314253
v 0.002458 0.002416 0.037597 0.078431 0.062745 0.039216
vn -4.521604 2.607547 3.327155
v 0.001856 0.001620 0.037597 0.078431 0.062745 0.039216
vn -5.006203 1.485904 3.344755
v 0.001563 0.000923 0.037597 0.078431 0.062745 0.039216
vn -5.214972 0.543399 3.357475
v 0.001470 0.000406 0.037597 0.078431 0.062745 0.039216
vn -5.263753 -0.000001 3.368990
v 0.001458 0.000000 0.037597 0.078431 0.062745 0.039216
vn -5.214972 -0.543401 3.357475
v 0.001470 -0.000406 0.037597 0.078431 0.062745 0.039216
vn -5.006203 -1.485905 3.344755
v 0.001563 -0.000923 0.037597 0.078431 0.062745 0.039216
vn -4.521603 -2.607548 3.327155
v 0.001856 -0.001620 0.037597 0.078431 0.062745 0.039216
vn -3.238777 -3.238331 4.166873
v 0.002761 -0.002113 0.038152 0.078431 0.062745 0.039216
vn -2.289430 -3.967517 4.180107
v 0.003457 -0.002640 0.038152 0.078431 0.062745 0.039216
vn -1.303027 -4.387897 4.197997
v 0.004066 -0.002896 0.038153 0.078431 0.062745 0.039216
vn -0.476018 -4.567098 4.212001
v 0.004519 -0.002978 0.038153 0.078431 0.062745 0.039216
vn -0.000455 -4.606308 4.225066
v 0.004874 -0.002988 0.038153 0.078431 0.062745 0.039216
vn 0.475121 -4.567097 4.212101
v 0.005229 -0.002978 0.038153 0.078431 0.062745 0.039216
vn 1.302137 -4.387895 4.198275
v 0.005681 -0.002896 0.038153 0.078431 0.062745 0.039216
vn 2.288539 -3.967514 4.180599
v 0.006290 -0.002640 0.038153 0.078431 0.062745 0.039216
vn 3.237884 -3.238330 4.167568
v 0.006987 -0.002113 0.038153 0.078431 0.062745 0.039216
vn 3.967066 -2.288985 4.180780
v 0.007513 -0.001417 0.038153 0.078431 0.062745 0.039216
vn 4.387445 -1.302580 4.198607
v 0.007770 -0.000807 0.038153 0.078431 0.062745 0.039216
vn 4.566597 -0.475629 4.212602
v 0.007851 -0.000355 0.038153 0.078431 0.062745 0.039216
vn 4.605726 0.000001 4.225733
v 0.007862 0.000000 0.038153 0.078431 0.062745 0.039216
vn 4.566597 0.475631 4.212602
v 0.007851 0.000355 0.038153 0.078431 0.062745 0.039216
vn 4.387443 1.302583 4.198607
v 0.007770 0.000807 0.038153 0.078431 0.062745 0.039216
vn 3.967065 2.288987 4.180780
v 0.007513 0.001417 0.038153 0.078431 0.062745 0.039216
vn 3.237913 3.238329 4.167552
v 0.006987 0.002113 0.038153 0.078431 0.062745 0.039216
vn 2.288539 3.967571 4.180558
v 0.006290 0.002640 0.038153 0.078431 0.062745 0.039216
vn 1.302129 4.387897 4.198275
v 0.005681 0.002896 0.038153 0.078431 0.062745 0.039216
vn 0.475177 4.567050 4.212162
v 0.005228 0.002978 0.038153 0.078431 0.062745 0.039216
vn -0.000455 4.606180 4.225238
v 0.004874 0.002988 0.038153 0.078431 0.062745 0.039216
vn -0.476076 4.567049 4.212063
v 0.004519 0.002978 0.038153 0.078431 0.062745 0.039216
vn -1.303032 4.387892 4.197996
v 0.004066 0.002896 0.038153 0.078431 0.062745 0.039216
vn -2.289438 3.967512 4.180110
v 0.003457 0.002640 0.038152 0.078431 0.062745 0.039216
vn -3.238778 3.238330 4.166872
v 0.002761 0.002113 0.038152 0.078431 0.062745 0.039216
vn -3.967964 2.288985 4.179928
v 0.002234 0.001417 0.038152 0.078431 0.062745 0.039216
vn -4.388346 1.302580 4.197665
v 0.001978 0.000807 0.038152 0.078431 0.062745 0.039216
vn -4.567423 0.475573 4.211694
v 0.001896 0.000355 0.038152 0.078431 0.062745 0.039216
vn -4.606535 -0.000001 4.224830
v 0.001886 0.000000 0.038152 0.078431 0.062745 0.039216
vn -4.567423 -0.475575 4.211695
v 0.001896 -0.000355 0.038152 0.078431 0.062745 0.039216
vn -4.388346 -1.302582 4.197665
v 0.001978 -0.000807 0.038152 0.078431 0.062745 0.039216
vn -3.967963 -2.288986 4.179928
v 0.002234 -0.001417 0.038152 0.078431 0.062745 0.039216
vn -2.691609 -2.691082 4.904808
v 0.003128 -0.001745 0.038628 0.078431 0.062745 0.039216
vn -1.901400 -3.293234 4.916377
v 0.003703 -0.002180 0.038628 0.078431 0.062745 0.039216
vn -1.080972 -3.637600 4.931621
v 0.004207 -0.002392 0.038628 0.078431 0.062745 0.039216
vn -0.394246 -3.781804 4.944699
v 0.004581 -0.002460 0.038628 0.078431 0.062745 0.039216
vn -0.000532 -3.809652 4.957975
v 0.004874 -0.002468 0.038628 0.078431 0.062745 0.039216
vn 0.393183 -3.781803 4.944785
v 0.005167 -0.002460 0.038628 0.078431 0.062745 0.039216
vn 1.079921 -3.637597 4.931854
v 0.005541 -0.002392 0.038628 0.078431 0.062745 0.039216
vn 1.900350 -3.293227 4.916787
v 0.006044 -0.002180 0.038628 0.078431 0.062745 0.039216
vn 2.690555 -2.691081 4.905386
v 0.006619 -0.001745 0.038628 0.078431 0.062745 0.039216
vn 3.292703 -1.900874 4.916936
v 0.007054 -0.001170 0.038628 0.078431 0.062745 0.039216
vn 3.637070 -1.080445 4.932128
v 0.007266 -0.000667 0.038628 0.078431 0.062745 0.039216
vn 3.781273 -0.393715 4.945148
v 0.007333 -0.000293 0.038628 0.078431 0.062745 0.039216
vn 3.809120 0.000000 4.958383
v 0.007342 0.000000 0.038628 0.078431 0.062745 0.039216
vn 3.781273 0.393717 4.945147
v 0.007333 0.000293 0.038628 0.078431 0.062745 0.039216
vn 3.637069 1.080447 4.932129
v 0.007266 0.000667 0.038628 0.078431 0.062745 0.039216
vn 3.292702 1.900875 4.916936
v 0.007054 0.001170 0.038628 0.078431 0.062745 0.039216
vn 2.690603 2.691015 4.905410
v 0.006619 0.001745 0.038628 0.078431 0.062745 0.039216
vn 1.900359 3.293217 4.916743
v 0.006044 0.002180 0.038628 0.078431 0.062745 0.039216
vn 1.079869 3.637631 4.931847
v 0.005541 0.002392 0.038628 0.078431 0.062745 0.039216
vn 0.393183 3.781804 4.944784
v 0.005167 0.002460 0.038628 0.078431 0.062745 0.039216
vn -0.000534 3.809652 4.957974
v 0.004874 0.002468 0.038628 0.078431 0.062745 0.039216
vn -0.394247 3.781804 4.944699
v 0.004581 0.002460 0.038628 0.078431 0.062745 0.039216
vn -1.080973 3.637598 4.931623
v 0.004207 0.002392 0.038628 0.078431 0.062745 0.039216
vn -1.901401 3.293233 4.916377
v 0.003703 0.002180 0.038628 0.078431 0.062745 0.039216
vn -2.691610 2.691081 4.904808
v 0.003128 0.001745 0.038628 0.078431 0.062745 0.039216
vn -3.293759 1.900874 4.916229
v 0.002693 0.001170 0.038627 0.078431 0.062745 0.039216
vn -3.638138 1.080215 4.931359
v 0.002481 0.000667 0.038627 0.078431 0.062745 0.039216
vn -3.782341 0.393772 4.944439
v 0.002414 0.000293 0.038627 0.078431 0.062745 0.039216
vn -3.810267 -0.000001 4.957443
v 0.002405 0.000000 0.038627 0.078431 0.062745 0.039216
vn -3.782340 -0.393772 4.944440
v 0.002414 -0.000293 0.038627 0.078431 0.062745 0.039216
vn -3.638138 -1.080215 4.931359
v 0.002481 -0.000667 0.038627 0.078431 0.062745 0.039216
vn -3.293758 -1.900875 4.916229
v 0.002693 -0.001170 0.038627 0.078431 0.062745 0.039216
vn -2.068595 -2.068000 5.495584
v 0.003544 -0.001330 0.039002 0.078431 0.062745 0.039216
vn -1.460296 -2.527482 5.504145
v 0.003982 -0.001661 0.039002 0.078431 0.062745 0.039216
vn -0.828955 -2.787901 5.515239
v 0.004365 -0.001823 0.039002 0.078431 0.062745 0.039216
vn -0.301521 -2.893814 5.526020
v 0.004650 -0.001874 0.039002 0.078431 0.062745 0.039216
vn -0.000595 -2.910005 5.537342
v 0.004874 -0.001881 0.039002 0.078431 0.062745 0.039216
vn 0.300335 -2.893814 5.526084
v 0.005097 -0.001874 0.039002 0.078431 0.062745 0.039216
vn 0.827780 -2.787898 5.515416
v 0.005382 -0.001823 0.039002 0.078431 0.062745 0.039216
vn 1.459119 -2.527481 5.504460
v 0.005765 -0.001661 0.039002 0.078431 0.062745 0.039216
vn 2.067415 -2.068006 5.496025
v 0.006203 -0.001330 0.039002 0.078431 0.062745 0.039216
vn 2.526891 -1.459707 5.504574
v 0.006535 -0.000892 0.039002 0.078431 0.062745 0.039216
vn 2.787308 -0.828368 5.515626
v 0.006696 -0.000508 0.039002 0.078431 0.062745 0.039216
vn 2.893221 -0.300928 5.526363
v 0.006748 -0.000223 0.039002 0.078431 0.062745 0.039216
vn 2.909410 0.000000 5.537654
v 0.006754 0.000000 0.039002 0.078431 0.062745 0.039216
vn 2.893220 0.300929 5.526363
v 0.006748 0.000223 0.039002 0.078431 0.062745 0.039216
vn 2.787308 0.828370 5.515626
v 0.006696 0.000508 0.039002 0.078431 0.062745 0.039216
vn 2.526891 1.459708 5.504574
v 0.006535 0.000892 0.039002 0.078431 0.062745 0.039216
vn 2.067415 2.068007 5.496025
v 0.006203 0.001330 0.039002 0.078431 0.062745 0.039216
vn 1.459109 2.527436 5.504491
v 0.005765 0.001661 0.039002 0.078431 0.062745 0.039216
vn 0.827758 2.787889 5.515426
v 0.005382 0.001823 0.039002 0.078431 0.062745 0.039216
vn 0.300334 2.893814 5.526084
v 0.005097 0.001874 0.039002 0.078431 0.062745 0.039216
vn -0.000596 2.910005 5.537342
v 0.004874 0.001881 0.039002 0.078431 0.062745 0.039216
vn -0.301522 2.893814 5.526020
v 0.004650 0.001874 0.039002 0.078431 0.062745 0.039216
vn -0.828955 2.787901 5.515239
v 0.004365 0.001823 0.039002 0.078431 0.062745 0.039216
vn -1.460296 2.527481 5.504145
v 0.003982 0.001661 0.039002 0.078431 0.062745 0.039216
vn -2.068596 2.068000 5.495584
v 0.003544 0.001330 0.039002 0.078431 0.062745 0.039216
vn -2.528073 1.459707 5.504032
v 0.003212 0.000892 0.039002 0.078431 0.062745 0.039216
vn -2.788544 0.828335 5.514999
v 0.003051 0.000508 0.039002 0.078431 0.062745 0.039216
vn -2.894477 0.300983 5.525691
v 0.002999 0.000223 0.039002 0.078431 0.062745 0.039216
vn -2.910599 -0.000000 5.537030
v 0.002993 0.000000 0.039002 0.078431 0.062745 0.039216
vn -2.894477 -0.300984 5.525691
v 0.002999 -0.000223 0.039002 0.078431 0.062745 0.039216
vn -2.788544 -0.828336 5.514999
v 0.003051 -0.000508 0.039002 0.078431 0.062745 0.039216
vn -2.528072 -1.459708 5.504032
v 0.003212 -0.000892 0.039002 0.078431 0.062745 0.039216
vn -1.398533 -1.398006 5.920234
v 0.003987 -0.000887 0.039265 0.078431 0.062745 0.039216
vn -0.986647 -1.705893 5.925339
v 0.004279 -0.001108 0.039265 0.078431 0.062745 0.039216
vn -0.559300 -1.878976 5.931695
v 0.004535 -0.001216 0.039265 0.078431 0.062745 0.039216
vn -0.202912 -1.945633 5.938980
v 0.004725 -0.001250 0.039265 0.078431 0.062745 0.039216
vn -0.000554 -1.950552 5.947081
v 0.004874 -0.001254 0.039265 0.078431 0.062745 0.039216
vn 0.201544 -1.945502 5.939055
v 0.005023 -0.001250 0.039265 0.078431 0.062745 0.039216
vn 0.558030 -1.878979 5.931813
v 0.005213 -0.001216 0.039265 0.078431 0.062745 0.039216
vn 0.985386 -1.706053 5.925518
v 0.005468 -0.001108 0.039265 0.078431 0.062745 0.039216
vn 1.397403 -1.397937 5.920520
v 0.005761 -0.000887 0.039265 0.078431 0.062745 0.039216
vn 1.705261 -0.986015 5.925626
v 0.005982 -0.000595 0.039265 0.078431 0.062745 0.039216
vn 1.878343 -0.558665 5.931955
v 0.006089 -0.000339 0.039265 0.078431 0.062745 0.039216
vn 1.944997 -0.202270 5.939211
v 0.006124 -0.000149 0.039265 0.078431 0.062745 0.039216
vn 1.950040 0.000000 5.947261
v 0.006128 0.000000 0.039265 0.078431 0.062745 0.039216
vn 1.944997 0.202272 5.939211
v 0.006124 0.000149 0.039265 0.078431 0.062745 0.039216
vn 1.878343 0.558666 5.931955
v 0.006089 0.000339 0.039265 0.078431 0.062745 0.039216
vn 1.705419 0.986021 5.925595
v 0.005982 0.000595 0.039265 0.078431 0.062745 0.039216
vn 1.397303 1.398039 5.920520
v 0.005761 0.000887 0.039265 0.078431 0.062745 0.039216
vn 0.985378 1.705897 5.925548
v 0.005468 0.001108 0.039265 0.078431 0.062745 0.039216
vn 0.558029 1.878980 5.931813
v 0.005213 0.001216 0.039265 0.078431 0.062745 0.039216
vn 0.201636 1.945634 5.939023
v 0.005023 0.001250 0.039265 0.078431 0.062745 0.039216
vn -0.000639 1.950677 5.947052
v 0.004874 0.001254 0.039265 0.078431 0.062745 0.039216
vn -0.202913 1.945634 5.938980
v 0.004725 0.001250 0.039265 0.078431 0.062745 0.039216
vn -0.559301 1.878978 5.931694
v 0.004535 0.001216 0.039265 0.078431 0.062745 0.039216
vn -0.986655 1.706050 5.925308
v 0.004279 0.001108 0.039265 0.078431 0.062745 0.039216
vn -1.398665 1.397939 5.920224
v 0.003987 0.000887 0.039265 0.078431 0.062745 0.039216
vn -1.706526 0.986018 5.925261
v 0.003766 0.000595 0.039265 0.078431 0.062745 0.039216
vn -1.879613 0.558664 5.931552
v 0.003658 0.000339 0.039265 0.078431 0.062745 0.039216
vn -1.946268 0.202270 5.938794
v 0.003623 0.000149 0.039265 0.078431 0.062745 0.039216
vn -1.951312 -0.000000 5.946843
v 0.003619 0.000000 0.039265 0.078431 0.062745 0.039216
vn -1.946268 -0.202271 5.938794
v 0.003623 -0.000149 0.039265 0.078431 0.062745 0.039216
vn -1.879613 -0.558665 5.931552
v 0.003658 -0.000339 0.039265 0.078431 0.062745 0.039216
vn -1.706682 -0.986024 5.925230
v 0.003766 -0.000595 0.039265 0.078431 0.062745 0.039216
vn -0.712063 -0.712853 6.173835
v 0.004436 -0.000438 0.039416 0.078431 0.062745 0.039216
vn -0.503454 -0.865997 6.175907
v 0.004580 -0.000547 0.039416 0.078431 0.062745 0.039216
vn -0.285047 -0.951502 6.178283
v 0.004706 -0.000600 0.039416 0.078431 0.062745 0.039216
vn -0.102360 -0.980066 6.181843
v 0.004800 -0.000617 0.039416 0.078431 0.062745 0.039216
vn 0.001864 -0.975131 6.185826
v 0.004874 -0.000619 0.039416 0.078431 0.062745 0.039216
vn 0.101433 -0.980348 6.182119
v 0.004947 -0.000617 0.039416 0.078431 0.062745 0.039216
vn 0.280922 -0.952260 6.178313
v 0.005041 -0.000600 0.039416 0.078431 0.062745 0.039216
vn 0.500932 -0.866616 6.175877
v 0.005167 -0.000547 0.039416 0.078431 0.062745 0.039216
vn 0.712173 -0.711389 6.173784
v 0.005311 -0.000438 0.039416 0.078431 0.062745 0.039216
vn 0.865923 -0.502172 6.176072
v 0.005420 -0.000293 0.039416 0.078431 0.062745 0.039216
vn 0.950845 -0.284377 6.178413
v 0.005473 -0.000167 0.039416 0.078431 0.062745 0.039216
vn 0.979399 -0.101689 6.181960
v 0.005490 -0.000073 0.039416 0.078431 0.062745 0.039216
vn 0.974514 0.000000 6.186062
v 0.005492 0.000000 0.039416 0.078431 0.062745 0.039216
vn 0.979399 0.101690 6.181960
v 0.005490 0.000073 0.039416 0.078431 0.062745 0.039216
vn 0.951395 0.283331 6.178447
v 0.005473 0.000167 0.039416 0.078431 0.062745 0.039216
vn 0.865967 0.501590 6.175913
v 0.005420 0.000293 0.039416 0.078431 0.062745 0.039216
vn 0.710711 0.712851 6.173784
v 0.005311 0.000438 0.039416 0.078431 0.062745 0.039216
vn 0.501511 0.866574 6.176037
v 0.005167 0.000547 0.039416 0.078431 0.062745 0.039216
vn 0.283727 0.951504 6.178341
v 0.005041 0.000600 0.039416 0.078431 0.062745 0.039216
vn 0.101019 0.980063 6.181866
v 0.004947 0.000617 0.039416 0.078431 0.062745 0.039216
vn -0.000664 0.975173 6.185959
v 0.004874 0.000619 0.039416 0.078431 0.062745 0.039216
vn -0.102353 0.980064 6.181843
v 0.004800 0.000617 0.039416 0.078431 0.062745 0.039216
vn -0.284006 0.952054 6.178315
v 0.004706 0.000600 0.039416 0.078431 0.062745 0.039216
vn -0.502261 0.866622 6.175767
v 0.004580 0.000547 0.039416 0.078431 0.062745 0.039216
vn -0.713506 0.711378 6.173632
v 0.004436 0.000438 0.039416 0.078431 0.062745 0.039216
vn -0.867245 0.502174 6.175887
v 0.004327 0.000293 0.039416 0.078431 0.062745 0.039216
vn -0.952168 0.284378 6.178210
v 0.004274 0.000167 0.039416 0.078431 0.062745 0.039216
vn -0.980723 0.101690 6.181751
v 0.004257 0.000073 0.039416 0.078431 0.062745 0.039216
vn -0.975839 -0.000000 6.185854
v 0.004255 0.000000 0.039416 0.078431 0.062745 0.039216
vn -0.980723 -0.101690 6.181751
v 0.004257 -0.000073 0.039416 0.078431 0.062745 0.039216
vn -0.952718 -0.283334 6.178244
v 0.004274 -0.000167 0.039416 0.078431 0.062745 0.039216
vn -0.866698 -0.502212 6.175709
v 0.004327 -0.000293 0.039416 0.078431 0.062745 0.039216
vn 0.000000 0.000000 0.000000
v 0.004874 0.000000 0.039464 0.078431 0.062745 0.039216
vn -0.013621 -0.017966 0.291056
v 0.004874 0.000000 0.039464 0.078431 0.062745 0.039216
vn -0.008734 -0.026951 0.371844
v 0.004874 0.000000 0.039464 0.078431 0.062745 0.039216
vn -0.000276 -0.009027 0.117900
v 0.004874 0.000000 0.039464 0.078431 0.062745 0.039216
vn 0.000000 0.000000 0.000000
v 0.004874 0.000000 0.039464 0.078431 0.062745 0.039216
vn 0.000347 -0.009027 0.117894
v 0.004874 0.000000 0.039464 0.078431 0.062745 0.039216
vn 0.008467 -0.027002 0.371847
v 0.004874 0.000000 0.039464 0.078431 0.062745 0.039216
vn 0.013541 -0.017944 0.291072
v 0.004874 0.000000 0.039464 0.078431 0.062745 0.039216
vn 0.000000 0.000000 0.000000
v 0.004874 0.000000 0.039464 0.078431 0.062745 0.039216
vn 0.017981 -0.013503 0.291059
v 0.004874 0.000000 0.039464 0.078431 0.062745 0.039216
vn 0.026910 -0.008693 0.371846
v 0.004874 0.000000 0.039464 0.078431 0.062745 0.039216
vn 0.009014 -0.000264 0.117898
v 0.004874 0.000000 0.039464 0.078431 0.062745 0.039216
vn 0.000000 0.000000 0.000000
v 0.004874 0.000000 0.039464 0.078431 0.062745 0.039216
vn 0.009014 0.000264 0.117899
v 0.004874 0.000000 0.039464 0.078431 0.062745 0.039216
vn 0.026937 0.008600 0.371849
v 0.004874 0.000000 0.039464 0.078431 0.062745 0.039216
vn 0.017912 0.013572 0.291061
v 0.004874 0.000000 0.039464 0.078431 0.062745 0.039216
vn 0.000000 0.000000 0.000000
v 0.004874 0.000000 0.039464 0.078431 0.062745 0.039216
vn 0.013472 0.018013 0.291069
v 0.004874 0.000000 0.039464 0.078431 0.062745 0.039216
vn 0.008654 0.026950 0.371847
v 0.004874 0.000000 0.039464 0.078431 0.062745 0.039216
vn 0.000251 0.009027 0.117895
v 0.004874 0.000000 0.039464 0.078431 0.062745 0.039216
vn 0.000000 0.000000 0.000000
v 0.004874 0.000000 0.039464 0.078431 0.062745 0.039216
vn -0.000276 0.009027 0.117900
v 0.004874 0.000000 0.039464 0.078431 0.062745 0.039216
vn -0.008640 0.026977 0.371846
v 0.004874 0.000000 0.039464 0.078431 0.062745 0.039216
vn -0.013604 0.017943 0.291060
v 0.004874 0.000000 0.039464 0.078431 0.062745 0.039216
vn 0.000000 0.000000 0.000000
v 0.004874 0.000000 0.039464 0.078431 0.062745 0.039216
vn -0.018043 0.013503 0.291055
v 0.004874 0.000000 0.039464 0.078431 0.062745 0.039216
vn -0.026991 0.008694 0.371845
v 0.004874 0.000000 0.039464 0.078431 0.062745 0.039216
vn -0.009040 0.000264 0.117897
v 0.004874 0.000000 0.039464 0.078431 0.062745 0.039216
vn 0.000000 0.000000 0.000000
v 0.004874 0.000000 0.039464 0.078431 0.062745 0.039216
vn -0.009039 -0.000264 0.117897
v 0.004874 0.000000 0.039464 0.078431 0.062745 0.039216
vn -0.027017 -0.008600 0.371845
v 0.004874 0.000000 0.039464 0.078431 0.062745 0.039216
vn -0.017928 -0.013659 0.291056
v 0.004874 0.000000 0.039464 0.078431 0.062745 0.039216
# 640 vertices, 0 vertices normals

f 33//33 64//64 32//32
f 2//2 34//34 33//33
f 3//3 35//35 34//34
f 36//36 35//35 3//3
f 37//37 36//36 4//4
f 6//6 38//38 37//37
f 7//7 39//39 38//38
f 40//40 39//39 7//7
f 41//41 40//40 8//8
f 10//10 42//42 41//41
f 11//11 43//43 42//42
f 44//44 43//43 11//11
f 45//45 44//44 12//12
f 14//14 46//46 45//45
f 15//15 47//47 46//46
f 48//48 47//47 15//15
f 49//49 48//48 16//16
f 18//18 50//50 49//49
f 19//19 51//51 50//50
f 52//52 51//51 19//19
f 53//53 52//52 20//20
f 22//22 54//54 53//53
f 23//23 55//55 54//54
f 56//56 55//55 23//23
f 57//57 56//56 24//24
f 26//26 58//58 57//57
f 27//27 59//59 58//58
f 60//60 59//59 27//27
f 61//61 60//60 28//28
f 30//30 62//62 61//61
f 31//31 63//63 62//62
f 64//64 63//63 31//31
f 65//65 96//96 64//64
f 34//34 66//66 65//65
f 35//35 67//67 66//66
f 68//68 67//67 35//35
f 69//69 68//68 36//36
f 38//38 70//70 69//69
f 39//39 71//71 70//70
f 72//72 71//71 39//39
f 73//73 72//72 40//40
f 42//42 74//74 73//73
f 43//43 75//75 74//74
f 76//76 75//75 43//43
f 77//77 76//76 44//44
f 46//46 78//78 77//77
f 47//47 79//79 78//78
f 80//80 79//79 47//47
f 81//81 80//80 48//48
f 50//50 82//82 81//81
f 51//51 83//83 82//82
f 84//84 83//83 51//51
f 85//85 84//84 52//52
f 54//54 86//86 85//85
f 55//55 87//87 86//86
f 88//88 87//87 55//55
f 89//89 88//88 56//56
f 58//58 90//90 89//89
f 59//59 91//91 90//90
f 92//92 91//91 59//59
f 93//93 92//92 60//60
f 62//62 94//94 93//93
f 63//63 95//95 94//94
f 96//96 95//95 63//63
f 97//97 128//128 96//96
f 66//66 98//98 97//97
f 67//67 99//99 98//98
f 100//100 99//99 67//67
f 101//101 100//100 68//68
f 70//70 102//102 101//101
f 71//71 103//103 102//102
f 104//104 103//103 71//71
f 105//105 104//104 72//72
f 74//74 106//106 105//105
f 75//75 107//107 106//106
f 108//108 107//107 75//75
f 109//109 108//108 76//76
f 78//78 110//110 109//109
f 79//79 111//111 110//110
f 112//112 111//111 79//79
f 113//113 112//112 80//80
f 82//82 114//114 113//113
f 83//83 115//115 114//114
f 116//116 115//115 83//83
f 117//117 116//116 84//84
f 86//86 118//118 117//117
f 87//87 119//119 118//118
f 120//120 119//119 87//87
f 121//121 120//120 88//88
f 90//90 122//122 121//121
f 91//91 123//123 122//122
f 124//124 123//123 91//91
f 125//125 124//124 92//92
f 94//94 126//126 125//125
f 95//95 127//127 126//126
f 128//128 127//127 95//95
f 129//129 160//160 128//128
f 98//98 130//130 129//129
f 99//99 131//131 130//130
f 132//132 131//131 99//99
f 133//133 132//132 100//100
f 102//102 134//134 133//133
f 103//103 135//135 134//134
f 136//136 135//135 103//103
f 137//137 136//136 104//104
f 106//106 138//138 137//137
f 107//107 139//139 138//138
f 140//140 139//139 107//107
f 141//141 140//140 108//108
f 110//110 142//142 141//141
f 111//111 143//143 142//142
f 144//144 143//143 111//111
f 145//145 144//144 112//112
f 114//114 146//146 145//145
f 115//115 147//147 146//146
f 148//148 147//147 115//115
f 149//149 148//148 116//116
f 118//118 150//150 149//149
f 119//119 151//151 150//150
f 152//152 151//151 119//119
f 153//153 152//152 120//120
f 122//122 154//154 153//153
f 123//123 155//155 154//154
f 156//156 155//155 123//123
f 157//157 156//156 124//124
f 126//126 158//158 157//157
f 127//127 159//159 158//158
f 160//160 159//159 127//127
f 161//161 192//192 160//160
f 130//130 162//162 161//161
f 131//131 163//163 162//162
f 164//164 163//163 131//131
f 165//165 164//164 132//132
f 134//134 166//166 165//165
f 135//135 167//167 166//166
f 168//168 167//167 135//135
f 169//169 168//168 136//136
f 138//138 170//170 169//169
f 139//139 171//171 170//170
f 172//172 171//171 139//139
f 173//173 172//172 140//140
f 142//142 174//174 173//173
f 143//143 175//175 174//174
f 176//176 175//175 143//143
f 177//177 176//176 144//144
f 146//146 178//178 177//177
f 147//147 179//179 178//178
f 180//180 179//179 147//147
f 181//181 180//180 148//148
f 150//150 182//182 181//181
f 151//151 183//183 182//182
f 184//184 183//183 151//151
f 185//185 184//184 152//152
f 154//154 186//186 185//185
f 155//155 187//187 186//186
f 188//188 187//187 155//155
f 189//189 188//188 156//156
f 158//158 190//190 189//189
f 159//159 191//191 190//190
f 192//192 191//191 159//159
f 193//193 224//224 192//192
f 162//162 194//194 193//193
f 163//163 195//195 194//194
f 196//196 195//195 163//163
f 197//197 196//196 164//164
f 166//166 198//198 197//197
f 167//167 199//199 198//198
f 200//200 199//199 167//167
f 201//201 200//200 168//168
f 170//170 202//202 201//201
f 171//171 203//203 202//202
f 204//204 203//203 171//171
f 205//205 204//204 172//172
f 174//174 206//206 205//205
f 175//175 207//207 206//206
f 208//208 207//207 175//175
f 209//209 208//208 176//176
f 178//178 210//210 209//209
f 179//179 211//211 210//210
f 212//212 211//211 179//179
f 213//213 212//212 180//180
f 182//182 214//214 213//213
f 183//183 215//215 214//214
f 216//216 215//215 183//183
f 217//217 216//216 184//184
f 186//186 218//218 217//217
f 187//187 219//219 218//218
f 220//220 219//219 187//187
f 221//221 220//220 188//188
f 190//190 222//222 221//221
f 191//191 223//223 222//222
f 224//224 223//223 191//191
f 225//225 256//256 224//224
f 194//194 226//226 225//225
f 195//195 227//227 226//226
f 228//228 227//227 195//195
f 229//229 228//228 196//196
f 198//198 230//230 229//229
f 199//199 231//231 230//230
f 232//232 231//231 199//199
f 233//233 232//232 200//200
f 202//202 234//234 233//233
f 203//203 235//235 234//234
f 236//236 235//235 203//203
f 237//237 236//236 204//204
f 206//206 238//238 237//237
f 207//207 239//239 238//238
f 240//240 239//239 207//207
f 241//241 240//240 208//208
f 210//210 242//242 241//241
f 211//211 243//243 242//242
f 244//244 243//243 211//211
f 245//245 244//244 212//212
f 214//214 246//246 245//245
f 215//215 247//247 246//246
f 248//248 247//247 215//215
f 249//249 248//248 216//216
f 218//218 250//250 249//249
f 219//219 251//251 250//250
f 252//252 251//251 219//219
f 253//253 252//252 220//220
f 222//222 254//254 253//253
f 223//223 255//255 254//254
f 256//256 255//255 223//223
f 257//257 288//288 256//256
f 226//226 258//258 257//257
f 227//227 259//259 258//258
f 260//260 259//259 227//227
f 261//261 260//260 228//228
f 230//230 262//262 261//261
f 231//231 263//263 262//262
f 264//264 263//263 231//231
f 265//265 264//264 232//232
f 234//234 266//266 265//265
f 235//235 267//267 266//266
f 268//268 267//267 235//235
f 269//269 268//268 236//236
f 238//238 270//270 269//269
f 239//239 271//271 270//270
f 272//272 271//271 239//239
f 273//273 272//272 240//240
f 242//242 274//274 273//273
f 243//243 275//275 274//274
f 276//276 275//275 243//243
f 277//277 276//276 244//244
f 246//246 278//278 277//277
f 247//247 279//279 278//278
f 280//280 279//279 247//247
f 281//281 280//280 248//248
f 250//250 282//282 281//281
f 251//251 283//283 282//282
f 284//284 283//283 251//251
f 285//285 284//284 252//252
f 254//254 286//286 285//285
f 255//255 287//287 286//286
f 288//288 287//287 255//255
f 289//289 320//320 288//288
f 258//258 290//290 289//289
f 259//259 291//291 290//290
f 292//292 291//291 259//259
f 293//293 292//292 260//260
f 262//262 294//294 293//293
f 263//263 295//295 294//294
f 296//296 295//295 263//263
f 297//297 296//296 264//264
f 266//266 298//298 297//297
f 267//267 299//299 298//298
f 300//300 299//299 267//267
f 301//301 300//300 268//268
f 270//270 302//302 301//301
f 271//271 303//303 302//302
f 304//304 303//303 271//271
f 305//305 304//304 272//272
f 274//274 306//306 305//305
f 275//275 307//307 306//306
f 308//308 307//307 275//275
f 309//309 308//308 276//276
f 278//278 310//310 309//309
f 279//279 311//311 310//310
f 312//312 311//311 279//279
f 313//313 312//312 280//280
f 282//282 314//314 313//313
f 283//283 315//315 314//314
f 316//316 315//315 283//283
f 317//317 316//316 284//284
f 286//286 318//318 317//317
f 287//287 319//319 318//318
f 320//320 319//319 287//287
f 289//289 321//321 352//352
f 290//290 322//322 321//321
f 323//323 322//322 290//290
f 324//324 323//323 291//291
f 325//325 324//324 292//292
f 294//294 326//326 325//325
f 327//327 326//326 294//294
f 296//296 328//328 327//327
f 297//297 329//329 328//328
f 298//298 330//330 329//329
f 331//331 330//330 298//298
f 332//332 331//331 299//299
f 301//301 333//333 332//332
f 302//302 334//334 333//333
f 335//335 334//334 302//302
f 304//304 336//336 335//335
f 337//337 336//336 304//304
f 338//338 337//337 305//305
f 339//339 338//338 306//306
f 340//340 339//339 307//307
f 309//309 341//341 340//340
f 310//310 342//342 341//341
f 343//343 342//342 310//310
f 344//344 343//343 311//311
f 345//345 344//344 312//312
f 346//346 345//345 313//313
f 347//347 346//346 314//314
f 348//348 347//347 315//315
f 317//317 349//349 348//348
f 318//318 350//350 349//349
f 351//351 350//350 318//318
f 320//320 352//352 351//351
f 321//321 353//353 384//384
f 354//354 353//353 321//321
f 355//355 354//354 322//322
f 324//324 356//356 355//355
f 325//325 357//357 356//356
f 358//358 357//357 325//325
f 359//359 358//358 326//326
f 328//328 360//360 359//359
f 329//329 361//361 360//360
f 362//362 361//361 329//329
f 363//363 362//362 330//330
f 332//332 364//364 363//363
f 333//333 365//365 364//364
f 366//366 365//365 333//333
f 367//367 366//366 334//334
f 336//336 368//368 367//367
f 337//337 369//369 368//368
f 370//370 369//369 337//337
f 371//371 370//370 338//338
f 340//340 372//372 371//371
f 341//341 373//373 372//372
f 374//374 373//373 341//341
f 375//375 374//374 342//342
f 344//344 376//376 375//375
f 345//345 377//377 376//376
f 378//378 377//377 345//345
f 379//379 378//378 346//346
f 348//348 380//380 379//379
f 349//349 381//381 380//380
f 382//382 381//381 349//349
f 383//383 382//382 350//350
f 352//352 384//384 383//383
f 353//353 385//385 416//416
f 386//386 385//385 353//353
f 387//387 386//386 354//354
f 356//356 388//388 387//387
f 357//357 389//389 388//388
f 390//390 389//389 357//357
f 391//391 390//390 358//358
f 360//360 392//392 391//391
f 361//361 393//393 392//392
f 394//394 393//393 361//361
f 395//395 394//394 362//362
f 364//364 396//396 395//395
f 365//365 397//397 396//396
f 398//398 397//397 365//365
f 399//399 398//398 366//366
f 368//368 400//400 399//399
f 369//369 401//401 400//400
f 402//402 401//401 369//369
f 403//403 402//402 370//370
f 372//372 404//404 403//403
f 373//373 405//405 404//404
f 406//406 405//405 373//373
f 407//407 406//406 374//374
f 376//376 408//408 407//407
f 377//377 409//409 408//408
f 410//410 409//409 377//377
f 411//411 410//410 378//378
f 380//380 412//412 411//411
f 381//381 413//413 412//412
f 414//414 413//413 381//381
f 415//415 414//414 382//382
f 384//384 416//416 415//415
f 385//385 417//417 448//448
f 418//418 417//417 385//385
f 419//419 418//418 386//386
f 388//388 420//420 419//419
f 389//389 421//421 420//420
f 422//422 421//421 389//389
f 423//423 422//422 390//390
f 392//392 424//424 423//423
f 393//393 425//425 424//424
f 426//426 425//425 393//393
f 427//427 426//426 394//394
f 396//396 428//428 427//427
f 397//397 429//429 428//428
f 430//430 429//429 397//397
f 431//431 430//430 398//398
f 400//400 432//432 431//431
f 401//401 433//433 432//432
f 434//434 433//433 401//401
f 435//435 434//434 402//402
f 404//404 436//436 435//435
f 405//405 437//437 436//436
f 438//438 437//437 405//405
f 439//439 438//438 406//406
f 408//408 440//440 439//439
f 409//409 441//441 440//440
f 442//442 441//441 409//409
f 443//443 442//442 410//410
f 412//412 444//444 443//443
f 413//413 445//445 444//444
f 446//446 445//445 413//413
f 447//447 446//446 414//414
f 416//416 448//448 447//447
f 417//417 449//449 480//480
f 450//450 449//449 417//417
f 451//451 450//450 418//418
f 420//420 452//452 451//451
f 421//421 453//453 452//452
f 454//454 453//453 421//421
f 455//455 454//454 422//422
f 424//424 456//456 455//455
f 425//425 457//457 456//456
f 458//458 457//457 425//425
f 459//459 458//458 426//426
f 428//428 460//460 459//459
f 429//429 461//461 460//460
f 462//462 461//461 429//429
f 463//463 462//462 430//430
f 432//432 464//464 463//463
f 433//433 465//465 464//464
f 466//466 465//465 433//433
f 467//467 466//466 434//434
f 436//436 468//468 467//467
f 437//437 469//469 468//468
f 470//470 469//469 437//437
f 471//471 470//470 438//438
f 440//440 472//472 471//471
f 441//441 473//473 472//472
f 474//474 473//473 441//441
f 475//475 474//474 442//442
f 444//444 476//476 475//475
f 445//445 477//477 476//476
f 478//478 477//477 445//445
f 479//479 478//478 446//446
f 448//448 480//480 479//479
f 449//449 481//481 512//512
f 482//482 481//481 449//449
f 483//483 482//482 450//450
f 452//452 484//484 483//483
f 453//453 485//485 484//484
f 486//486 485//485 453//453
f 487//487 486//486 454//454
f 456//456 488//488 487//487
f 457//457 489//489 488//488
f 490//490 489//489 457//457
f 491//491 490//490 458//458
f 460//460 492//492 491//491
f 461//461 493//493 492//492
f 494//494 493//493 461//461
f 495//495 494//494 462//462
f 464//464 496//496 495//495
f 465//465 497//497 496//496
f 498//498 497//497 465//465
f 499//499 498//498 466//466
f 468//468 500//500 499//499
f 469//469 501//501 500//500
f 502//502 501//501 469//469
f 503//503 502//502 470//470
f 472//472 504//504 503//503
f 473//473 505//505 504//504
f 506//506 505//505 473//473
f 507//507 506//506 474//474
f 476//476 508//508 507//507
f 477//477 509//509 508//508
f 510//510 509//509 477//477
f 511//511 510//510 478//478
f 480//480 512//512 511//511
f 481//481 513//513 544//544
f 514//514 513//513 481//481
f 515//515 514//514 482//482
f 484//484 516//516 515//515
f 485//485 517//517 516//516
f 518//518 517//517 485//485
f 519//519 518//518 486//486
f 488//488 520//520 519//519
f 489//489 521//521 520//520
f 522//522 521//521 489//489
f 523//523 522//522 490//490
f 492//492 524//524 523//523
f 493//493 525//525 524//524
f 526//526 525//525 493//493
f 527//527 526//526 494//494
f 496//496 528//528 527//527
f 497//497 529//529 528//528
f 530//530 529//529 497//497
f 531//531 530//530 498//498
f 500//500 532//532 531//531
f 501//501 533//533 532//532
f 534//534 533//533 501//501
f 535//535 534//534 502//502
f 504//504 536//536 535//535
f 505//505 537//537 536//536
f 538//538 537//537 505//505
f 539//539 538//538 506//506
f 508//508 540//540 539//539
f 509//509 541//541 540//540
f 542//542 541//541 509//509
f 543//543 542//542 510//510
f 512//512 544//544 543//543
f 513//513 545//545 576//576
f 546//546 545//545 513//513
f 547//547 546//546 514//514
f 516//516 548//548 547//547
f 517//517 549//549 548//548
f 550//550 549//549 517//517
f 551//551 550//550 518//518
f 520//520 552//552 551//551
f 521//521 553//553 552//552
f 554//554 553//553 521//521
f 555//555 554//554 522//522
f 524//524 556//556 555//555
f 525//525 557//557 556//556
f 558//558 557//557 525//525
f 559//559 558//558 526//526
f 528//528 560//560 559//559
f 529//529 561//561 560//560
f 562//562 561//561 529//529
f 563//563 562//562 530//530
f 532//532 564//564 563//563
f 533//533 565//565 564//564
f 566//566 565//565 533//533
f 567//567 566//566 534//534
f 536//536 568//568 567//567
f 537//537 569//569 568//568
f 570//570 569//569 537//537
f 571//571 570//570 538//538
f 540//540 572//572 571//571
f 541//541 573//573 572//572
f 574//574 573//573 541//541
f 575//575 574//574 542//542
f 544//544 576//576 575//575
f 545//545 577//577 608//608
f 578//578 577//577 545//545
f 579//579 578//578 546//546
f 548//548 580//580 579//579
f 549//549 581//581 580//580
f 582//582 581//581 549//549
f 583//583 582//582 550//550
f 552//552 584//584 583//583
f 553//553 585//585 584//584
f 586//586 585//585 553//553
f 587//587 586//586 554//554
f 556//556 588//588 587//587
f 557//557 589//589 588//588
f 590//590 589//589 557//557
f 591//591 590//590 558//558
f 560//560 592//592 591//591
f 561//561 593//593 592//592
f 594//594 593//593 561//561
f 595//595 594//594 562//562
f 564//564 596//596 595//595
f 565//565 597//597 596//596
f 598//598 597//597 565//565
f 599//599 598//598 566//566
f 568//568 600//600 599//599
f 569//569 601//601 600//600
f 602//602 601//601 569//569
f 603//603 602//602 570//570
f 572//572 604//604 603//603
f 573//573 605//605 604//604
f 606//606 605//605 573//573
f 607//607 606//606 574//574
f 576//576 608//608 607//607
f 577//577 609//609 640//640
f 610//610 609//609 577//577
f 611//611 610//610 578//578
f 580//580 612//612 611//611
f 581//581 613//613 612//612
f 614//614 613//613 581//581
f 615//615 614//614 582//582
f 584//584 616//616 615//615
f 585//585 617//617 616//616
f 618//618 617//617 585//585
f 619//619 618//618 586//586
f 588//588 620//620 619//619
f 589//589 621//621 620//620
f 622//622 621//621 589//589
f 623//623 622//622 590//590
f 592//592 624//624 623//623
f 593//593 625//625 624//624
f 626//626 625//625 593//593
f 627//627 626//626 594//594
f 596//596 628//628 627//627
f 597//597 629//629 628//628
f 630//630 629//629 597//597
f 631//631 630//630 598//598
f 600//600 632//632 631//631
f 601//601 633//633 632//632
f 634//634 633//633 601//601
f 635//635 634//634 602//602
f 604//604 636//636 635//635
f 605//605 637//637 636//636
f 638//638 637//637 605//605
f 639//639 638//638 606//606
f 608//608 640//640 639//639
f 1//1 33//33 32//32
f 1//1 2//2 33//33
f 2//2 3//3 34//34
f 4//4 36//36 3//3
f 5//5 37//37 4//4
f 5//5 6//6 37//37
f 6//6 7//7 38//38
f 8//8 40//40 7//7
f 9//9 41//41 8//8
f 9//9 10//10 41//41
f 10//10 11//11 42//42
f 12//12 44//44 11//11
f 13//13 45//45 12//12
f 13//13 14//14 45//45
f 14//14 15//15 46//46
f 16//16 48//48 15//15
f 17//17 49//49 16//16
f 17//17 18//18 49//49
f 18//18 19//19 50//50
f 20//20 52//52 19//19
f 21//21 53//53 20//20
f 21//21 22//22 53//53
f 22//22 23//23 54//54
f 24//24 56//56 23//23
f 25//25 57//57 24//24
f 25//25 26//26 57//57
f 26//26 27//27 58//58
f 28//28 60//60 27//27
f 29//29 61//61 28//28
f 29//29 30//30 61//61
f 30//30 31//31 62//62
f 32//32 64//64 31//31
f 33//33 65//65 64//64
f 33//33 34//34 65//65
f 34//34 35//35 66//66
f 36//36 68//68 35//35
f 37//37 69//69 36//36
f 37//37 38//38 69//69
f 38//38 39//39 70//70
f 40//40 72//72 39//39
f 41//41 73//73 40//40
f 41//41 42//42 73//73
f 42//42 43//43 74//74
f 44//44 76//76 43//43
f 45//45 77//77 44//44
f 45//45 46//46 77//77
f 46//46 47//47 78//78
f 48//48 80//80 47//47
f 49//49 81//81 48//48
f 49//49 50//50 81//81
f 50//50 51//51 82//82
f 52//52 84//84 51//51
f 53//53 85//85 52//52
f 53//53 54//54 85//85
f 54//54 55//55 86//86
f 56//56 88//88 55//55
f 57//57 89//89 56//56
f 57//57 58//58 89//89
f 58//58 59//59 90//90
f 60//60 92//92 59//59
f 61//61 93//93 60//60
f 61//61 62//62 93//93
f 62//62 63//63 94//94
f 64//64 96//96 63//63
f 65//65 97//97 96//96
f 65//65 66//66 97//97
f 66//66 67//67 98//98
f 68//68 100//100 67//67
f 69//69 101//101 68//68
f 69//69 70//70 101//101
f 70//70 71//71 102//102
f 72//72 104//104 71//71
f 73//73 105//105 72//72
f 73//73 74//74 105//105
f 74//74 75//75 106//106
f 76//76 108//108 75//75
f 77//77 109//109 76//76
f 77//77 78//78 109//109
f 78//78 79//79 110//110
f 80//80 112//112 79//79
f 81//81 113//113 80//80
f 81//81 82//82 113//113
f 82//82 83//83 114//114
f 84//84 116//116 83//83
f 85//85 117//117 84//84
f 85//85 86//86 117//117
f 86//86 87//87 118//118
f 88//88 120//120 87//87
f 89//89 121//121 88//88
f 89//89 90//90 121//121
f 90//90 91//91 122//122
f 92//92 124//124 91//91
f 93//93 125//125 92//92
f 93//93 94//94 125//125
f 94//94 95//95 126//126
f 96//96 128//128 95//95
f 97//97 129//129 128//128
f 97//97 98//98 129//129
f 98//98 99//99 130//130
f 100//100 132//132 99//99
f 101//101 133//133 100//100
f 101//101 102//102 133//133
f 102//102 103//103 134//134
f 104//104 136//136 103//103
f 105//105 137//137 104//104
f 105//105 106//106 137//137
f 106//106 107//107 138//138
f 108//108 140//140 107//107
f 109//109 141//141 108//108
f 109//109 110//110 141//141
f 110//110 111//111 142//142
f 112//112 144//144 111//111
f 113//113 145//145 112//112
f 113//113 114//114 145//145
f 114//114 115//115 146//146
f 116//116 148//148 115//115
f 117//117 149//149 116//116
f 117//117 118//118 149//149
f 118//118 119//119 150//150
f 120//120 152//152 119//119
f 121//121 153//153 120//120
f 121//121 122//122 153//153
f 122//122 123//123 154//154
f 124//124 156//156 123//123
f 125//125 157//157 124//124
f 125//125 126//126 157//157
f 126//126 127//127 158//158
f 128//128 160//160 127//127
f 129//129 161//161 160//160
f 129//129 130//130 161//161
f 130//130 131//131 162//162
f 132//132 164//164 131//131
f 133//133 165//165 132//132
f 133//133 134//134 165//165
f 134//134 135//135 166//166
f 136//136 168//168 135//135
f 137//137 169//169 136//136
f 137//137 138//138 169//169
f 138//138 139//139 170//170
f 140//140 172//172 139//139
f 141//141 173//173 140//140
f 141//141 142//142 173//173
f 142//142 143//143 174//174
f 144//144 176//176 143//143
f 145//145 177//177 144//144
f 145//145 146//146 177//177
f 146//146 147//147 178//178
f 148//148 180//180 147//147
f 149//149 181//181 148//148
f 149//149 150//150 181//181
f 150//150 151//151 182//182
f 152//152 184//184 151//151
f 153//153 185//185 152//152
f 153//153 154//154 185//185
f 154//154 155//155 186//186
f 156//156 188//188 155//155
f 157//157 189//189 156//156
f 157//157 158//158 189//189
f 158//158 159//159 190//190
f 160//160 192//192 159//159
f 161//161 193//193 192//192
f 161//161 162//162 193//193
f 162//162 163//163 194//194
f 164//164 196//196 163//163
f 165//165 197//197 164//164
f 165//165 166//166 197//197
f 166//166 167//167 198//198
f 168//168 200//200 167//167
f 169//169 201//201 168//168
f 169//169 170//170 201//201
f 170//170 171//171 202//202
f 172//172 204//204 171//171
f 173//173 205//205 172//172
f 173//173 174//174 205//205
f 174//174 175//175 206//206
f 176//176 208//208 175//175
f 177//177 209//209 176//176
f 177//177 178//178 209//209
f 178//178 179//179 210//210
f 180//180 212//212 179//179
f 181//181 213//213 180//180
f 181//181 182//182 213//213
f 182//182 183//183 214//214
f 184//184 216//216 183//183
f 185//185 217//217 184//184
f 185//185 186//186 217//217
f 186//186 187//187 218//218
f 188//188 220//220 187//187
f 189//189 221//221 188//188
f 189//189 190//190 221//221
f 190//190 191//191 222//222
f 192//192 224//224 191//191
f 193//193 225//225 224//224
f 193//193 194//194 225//225
f 194//194 195//195 226//226
f 196//196 228//228 195//195
f 197//197 229//229 196//196
f 197//197 198//198 229//229
f 198//198 199//199 230//230
f 200//200 232//232 199//199
f 201//201 233//233 200//200
f 201//201 202//202 233//233
f 202//202 203//203 234//234
f 204//204 236//236 203//203
f 205//205 237//237 204//204
f 205//205 206//206 237//237
f 206//206 207//207 238//238
f 208//208 240//240 207//207
f 209//209 241//241 208//208
f 209//209 210//210 241//241
f 210//210 211//211 242//242
f 212//212 244//244 211//211
f 213//213 245//245 212//212
f 213//213 214//214 245//245
f 214//214 215//215 246//246
f 216//216 248//248 215//215
f 217//217 249//249 216//216
f 217//217 218//218 249//249
f 218//218 219//219 250//250
f 220//220 252//252 219//219
f 221//221 253//253 220//220
f 221//221 222//222 253//253
f 222//222 223//223 254//254
f 224//224 256//256 223//223
f 225//225 257//257 256//256
f 225//225 226//226 257//257
f 226//226 227//227 258//258
f 228//228 260//260 227//227
f 229//229 261//261 228//228
f 229//229 230//230 261//261
f 230//230 231//231 262//262
f 232//232 264//264 231//231
f 233//233 265//265 232//232
f 233//233 234//234 265//265
f 234//234 235//235 266//266
f 236//236 268//268 235//235
f 237//237 269//269 236//236
f 237//237 238//238 269//269
f 238//238 239//239 270//270
f 240//240 272//272 239//239
f 241//241 273//273 240//240
f 241//241 242//242 273//273
f 242//242 243//243 274//274
f 244//244 276//276 243//243
f 245//245 277//277 244//244
f 245//245 246//246 277//277
f 246//246 247//247 278//278
f 248//248 280//280 247//247
f 249//249 281//281 248//248
f 249//249 250//250 281//281
f 250//250 251//251 282//282
f 252//252 284//284 251//251
f 253//253 285//285 252//252
f 253//253 254//254 285//285
f 254//254 255//255 286//286
f 256//256 288//288 255//255
f 257//257 289//289 288//288
f 257//257 258//258 289//289
f 258//258 259//259 290//290
f 260//260 292//292 259//259
f 261//261 293//293 260//260
f 261//261 262//262 293//293
f 262//262 263//263 294//294
f 264//264 296//296 263//263
f 265//265 297//297 264//264
f 265//265 266//266 297//297
f 266//266 267//267 298//298
f 268//268 300//300 267//267
f 269//269 301//301 268//268
f 269//269 270//270 301//301
f 270//270 271//271 302//302
f 272//272 304//304 271//271
f 273//273 305//305 272//272
f 273//273 274//274 305//305
f 274//274 275//275 306//306
f 276//276 308//308 275//275
f 277//277 309//309 276//276
f 277//277 278//278 309//309
f 278//278 279//279 310//310
f 280//280 312//312 279//279
f 281//281 313//313 280//280
f 281//281 282//282 313//313
f 282//282 283//283 314//314
f 284//284 316//316 283//283
f 285//285 317//317 284//284
f 285//285 286//286 317//317
f 286//286 287//287 318//318
f 288//288 320//320 287//287
f 320//320 289//289 352//352
f 289//289 290//290 321//321
f 291//291 323//323 290//290
f 292//292 324//324 291//291
f 293//293 325//325 292//292
f 293//293 294//294 325//325
f 295//295 327//327 294//294
f 295//295 296//296 327//327
f 296//296 297//297 328//328
f 297//297 298//298 329//329
f 299//299 331//331 298//298
f 300//300 332//332 299//299
f 300//300 301//301 332//332
f 301//301 302//302 333//333
f 303//303 335//335 302//302
f 303//303 304//304 335//335
f 305//305 337//337 304//304
f 306//306 338//338 305//305
f 307//307 339//339 306//306
f 308//308 340//340 307//307
f 308//308 309//309 340//340
f 309//309 310//310 341//341
f 311//311 343//343 310//310
f 312//312 344//344 311//311
f 313//313 345//345 312//312
f 314//314 346//346 313//313
f 315//315 347//347 314//314
f 316//316 348//348 315//315
f 316//316 317//317 348//348
f 317//317 318//318 349//349
f 319//319 351//351 318//318
f 319//319 320//320 351//351
f 352//352 321//321 384//384
f 322//322 354//354 321//321
f 323//323 355//355 322//322
f 323//323 324//324 355//355
f 324//324 325//325 356//356
f 326//326 358//358 325//325
f 327//327 359//359 326//326
f 327//327 328//328 359//359
f 328//328 329//329 360//360
f 330//330 362//362 329//329
f 331//331 363//363 330//330
f 331//331 332//332 363//363
f 332//332 333//333 364//364
f 334//334 366//366 333//333
f 335//335 367//367 334//334
f 335//335 336//336 367//367
f 336//336 337//337 368//368
f 338//338 370//370 337//337
f 339//339 371//371 338//338
f 339//339 340//340 371//371
f 340//340 341//341 372//372
f 342//342 374//374 341//341
f 343//343 375//375 342//342
f 343//343 344//344 375//375
f 344//344 345//345 376//376
f 346//346 378//378 345//345
f 347//347 379//379 346//346
f 347//347 348//348 379//379
f 348//348 349//349 380//380
f 350//350 382//382 349//349
f 351//351 383//383 350//350
f 351//351 352//352 383//383
f 384//384 353//353 416//416
f 354//354 386//386 353//353
f 355//355 387//387 354//354
f 355//355 356//356 387//387
f 356//356 357//357 388//388
f 358//358 390//390 357//357
f 359//359 391//391 358//358
f 359//359 360//360 391//391
f 360//360 361//361 392//392
f 362//362 394//394 361//361
f 363//363 395//395 362//362
f 363//363 364//364 395//395
f 364//364 365//365 396//396
f 366//366 398//398 365//365
f 367//367 399//399 366//366
f 367//367 368//368 399//399
f 368//368 369//369 400//400
f 370//370 402//402 369//369
f 371//371 403//403 370//370
f 371//371 372//372 403//403
f 372//372 373//373 404//404
f 374//374 406//406 373//373
f 375//375 407//407 374//374
f 375//375 376//376 407//407
f 376//376 377//377 408//408
f 378//378 410//410 377//377
f 379//379 411//411 378//378
f 379//379 380//380 411//411
f 380//380 381//381 412//412
f 382//382 414//414 381//381
f 383//383 415//415 382//382
f 383//383 384//384 415//415
f 416//416 385//385 448//448
f 386//386 418//418 385//385
f 387//387 419//419 386//386
f 387//387 388//388 419//419
f 388//388 389//389 420//420
f 390//390 422//422 389//389
f 391//391 423//423 390//390
f 391//391 392//392 423//423
f 392//392 393//393 424//424
f 394//394 426//426 393//393
f 395//395 427//427 394//394
f 395//395 396//396 427//427
f 396//396 397//397 428//428
f 398//398 430//430 397//397
f 399//399 431//431 398//398
f 399//399 400//400 431//431
f 400//400 401//401 432//432
f 402//402 434//434 401//401
f 403//403 435//435 402//402
f 403//403 404//404 435//435
f 404//404 405//405 436//436
f 406//406 438//438 405//405
f 407//407 439//439 406//406
f 407//407 408//408 439//439
f 408//408 409//409 440//440
f 410//410 442//442 409//409
f 411//411 443//443 410//410
f 411//411 412//412 443//443
f 412//412 413//413 444//444
f 414//414 446//446 413//413
f 415//415 447//447 414//414
f 415//415 416//416 447//447
f 448//448 417//417 480//480
f 418//418 450//450 417//417
f 419//419 451//451 418//418
f 419//419 420//420 451//451
f 420//420 421//421 452//452
f 422//422 454//454 421//421
f 423//423 455//455 422//422
f 423//423 424//424 455//455
f 424//424 425//425 456//456
f 426//426 458//458 425//425
f 427//427 459//459 426//426
f 427//427 428//428 459//459
f 428//428 429//429 460//460
f 430//430 462//462 429//429
f 431//431 463//463 430//430
f 431//431 432//432 463//463
f 432//432 433//433 464//464
f 434//434 466//466 433//433
f 435//435 467//467 434//434
f 435//435 436//436 467//467
f 436//436 437//437 468//468
f 438//438 470//470 437//437
f 439//439 471//471 438//438
f 439//439 440//440 471//471
f 440//440 441//441 472//472
f 442//442 474//474 441//441
f 443//443 475//475 442//442
f 443//443 444//444 475//475
f 444//444 445//445 476//476
f 446//446 478//478 445//445
f 447//447 479//479 446//446
f 447//447 448//448 479//479
f 480//480 449//449 512//512
f 450//450 482//482 449//449
f 451//451 483//483 450//450
f 451//451 452//452 483//483
f 452//452 453//453 484//484
f 454//454 486//486 453//453
f 455//455 487//487 454//454
f 455//455 456//456 487//487
f 456//456 457//457 488//488
f 458//458 490//490 457//457
f 459//459 491//491 458//458
f 459//459 460//460 491//491
f 460//460 461//461 492//492
f 462//462 494//494 461//461
f 463//463 495//495 462//462
f 463//463 464//464 495//495
f 464//464 465//465 496//496
f 466//466 498//498 465//465
f 467//467 499//499 466//466
f 467//467 468//468 499//499
f 468//468 469//469 500//500
f 470//470 502//502 469//469
f 471//471 503//503 470//470
f 471//471 472//472 503//503
f 472//472 473//473 504//504
f 474//474 506//506 473//473
f 475//475 507//507 474//474
f 475//475 476//476 507//507
f 476//476 477//477 508//508
f 478//478 510//510 477//477
f 479//479 511//511 478//478
f 479//479 480//480 511//511
f 512//512 481//481 544//544
f 482//482 514//514 481//481
f 483//483 515//515 482//482
f 483//483 484//484 515//515
f 484//484 485//485 516//516
f 486//486 518//518 485//485
f 487//487 519//519 486//486
f 487//487 488//488 519//519
f 488//488 489//489 520//520
f 490//490 522//522 489//489
f 491//491 523//523 490//490
f 491//491 492//492 523//523
f 492//492 493//493 524//524
f 494//494 526//526 493//493
f 495//495 527//527 494//494
f 495//495 496//496 527//527
f 496//496 497//497 528//528
f 498//498 530//530 497//497
f 499//499 531//531 498//498
f 499//499 500//500 531//531
f 500//500 501//501 532//532
f 502//502 534//534 501//501
f 503//503 535//535 502//502
f 503//503 504//504 535//535
f 504//504 505//505 536//536
f 506//506 538//538 505//505
f 507//507 539//539 506//506
f 507//507 508//508 539//539
f 508//508 509//509 540//540
f 510//510 542//542 509//509
f 511//511 543//543 510//510
f 511//511 512//512 543//543
f 544//544 513//513 576//576
f 514//514 546//546 513//513
f 515//515 547//547 514//514
f 515//515 516//516 547//547
f 516//516 517//517 548//548
f 518//518 550//550 517//517
f 519//519 551//551 518//518
f 519//519 520//520 551//551
f 520//520 521//521 552//552
f 522//522 554//554 521//521
f 523//523 555//555 522//522
f 523//523 524//524 555//555
f 524//524 525//525 556//556
f 526//526 558//558 525//525
f 527//527 559//559 526//526
f 527//527 528//528 559//559
f 528//528 529//529 560//560
f 530//530 562//562 529//529
f 531//531 563//563 530//530
f 531//531 532//532 563//563
f 532//532 533//533 564//564
f 534//534 566//566 533//533
f 535//535 567//567 534//534
f 535//535 536//536 567//567
f 536//536 537//537 568//568
f 538//538 570//570 537//537
f 539//539 571//571 538//538
f 539//539 540//540 571//571
f 540//540 541//541 572//572
f 542//542 574//574 541//541
f 543//543 575//575 542//542
f 543//543 544//544 575//575
f 576//576 545//545 608//608
f 546//546 578//578 545//545
f 547//547 579//579 546//546
f 547//547 548//548 579//579
f 548//548 549//549 580//580
f 550//550 582//582 549//549
f 551//551 583//583 550//550
f 551//551 552//552 583//583
f 552//552 553//553 584//584
f 554//554 586//586 553//553
f 555//555 587//587 554//554
f 555//555 556//556 587//587
f 556//556 557//557 588//588
f 558//558 590//590 557//557
f 559//559 591//591 558//558
f 559//559 560//560 591//591
f 560//560 561//561 592//592
f 562//562 594//594 561//561
f 563//563 595//595 562//562
f 563//563 564//564 595//595
f 564//564 565//565 596//596
f 566//566 598//598 565//565
f 567//567 599//599 566//566
f 567//567 568//568 599//599
f 568//568 569//569 600//600
f 570//570 602//602 569//569
f 571//571 603//603 570//570
f 571//571 572//572 603//603
f 572//572 573//573 604//604
f 574//574 606//606 573//573
f 575//575 607//607 574//574
f 575//575 576//576 607//607
f 608//608 577//577 640//640
f 578//578 610//610 577//577
f 579//579 611//611 578//578
f 579//579 580//580 611//611
f 580//580 581//581 612//612
f 582//582 614//614 581//581
f 583//583 615//615 582//582
f 583//583 584//584 615//615
f 584//584 585//585 616//616
f 586//586 618//618 585//585
f 587//587 619//619 586//586
f 587//587 588//588 619//619
f 588//588 589//589 620//620
f 590//590 622//622 589//589
f 591//591 623//623 590//590
f 591//591 592//592 623//623
f 592//592 593//593 624//624
f 594//594 626//626 593//593
f 595//595 627//627 594//594
f 595//595 596//596 627//627
f 596//596 597//597 628//628
f 598//598 630//630 597//597
f 599//599 631//631 598//598
f 599//599 600//600 631//631
f 600//600 601//601 632//632
f 602//602 634//634 601//601
f 603//603 635//635 602//602
f 603//603 604//604 635//635
f 604//604 605//605 636//636
f 606//606 638//638 605//605
f 607//607 639//639 606//606
f 607//607 608//608 639//639
# 1216 faces, 0 coords texture

# End of File
