####
#
# OBJ File Generated by Meshlab
#
####
# Object LeftFingerJoint50y_joint_visu.obj
#
# Vertices: 640
# Faces: 1216
#
####
vn 0.000000 0.000000 0.000000
v 0.008828 0.000000 0.025933 0.078431 0.062745 0.039216
vn -0.013628 -0.017898 -0.291071
v 0.008828 0.000000 0.025933 0.078431 0.062745 0.039216
vn -0.008571 -0.027011 -0.371853
v 0.008828 0.000000 0.025933 0.078431 0.062745 0.039216
vn -0.000156 -0.009033 -0.117836
v 0.008828 0.000000 0.025933 0.078431 0.062745 0.039216
vn 0.000000 0.000000 0.000000
v 0.008828 0.000000 0.025933 0.078431 0.062745 0.039216
vn 0.000181 -0.009043 -0.117959
v 0.008828 0.000000 0.025933 0.078431 0.062745 0.039216
vn 0.008743 -0.026983 -0.371835
v 0.008828 0.000000 0.025933 0.078431 0.062745 0.039216
vn 0.013620 -0.017964 -0.291046
v 0.008828 0.000000 0.025933 0.078431 0.062745 0.039216
vn 0.000000 0.000000 0.000000
v 0.008828 0.000000 0.025933 0.078431 0.062745 0.039216
vn 0.017926 -0.013656 -0.291041
v 0.008828 0.000000 0.025933 0.078431 0.062745 0.039216
vn 0.027047 -0.008609 -0.371822
v 0.008828 0.000000 0.025933 0.078431 0.062745 0.039216
vn 0.009049 -0.000169 -0.117889
v 0.008828 0.000000 0.025933 0.078431 0.062745 0.039216
vn 0.000000 0.000000 0.000000
v 0.008828 0.000000 0.025933 0.078431 0.062745 0.039216
vn 0.009049 0.000264 -0.117888
v 0.008828 0.000000 0.025933 0.078431 0.062745 0.039216
vn 0.027047 0.008610 -0.371819
v 0.008828 0.000000 0.025933 0.078431 0.062745 0.039216
vn 0.017994 0.013588 -0.291039
v 0.008828 0.000000 0.025933 0.078431 0.062745 0.039216
vn 0.000000 0.000000 0.000000
v 0.008828 0.000000 0.025933 0.078431 0.062745 0.039216
vn 0.013688 0.017895 -0.291049
v 0.008828 0.000000 0.025933 0.078431 0.062745 0.039216
vn 0.008650 0.027009 -0.371837
v 0.008828 0.000000 0.025933 0.078431 0.062745 0.039216
vn 0.000181 0.009043 -0.117959
v 0.008828 0.000000 0.025933 0.078431 0.062745 0.039216
vn 0.000000 0.000000 0.000000
v 0.008828 0.000000 0.025933 0.078431 0.062745 0.039216
vn -0.000251 0.009033 -0.117835
v 0.008828 0.000000 0.025933 0.078431 0.062745 0.039216
vn -0.008571 0.027011 -0.371851
v 0.008828 0.000000 0.025933 0.078431 0.062745 0.039216
vn -0.013559 0.017967 -0.291072
v 0.008828 0.000000 0.025933 0.078431 0.062745 0.039216
vn 0.000000 0.000000 0.000000
v 0.008828 0.000000 0.025933 0.078431 0.062745 0.039216
vn -0.017867 0.013659 -0.291075
v 0.008828 0.000000 0.025933 0.078431 0.062745 0.039216
vn -0.026973 0.008611 -0.371868
v 0.008828 0.000000 0.025933 0.078431 0.062745 0.039216
vn -0.009026 0.000168 -0.117905
v 0.008828 0.000000 0.025933 0.078431 0.062745 0.039216
vn 0.000000 0.000000 0.000000
v 0.008828 0.000000 0.025933 0.078431 0.062745 0.039216
vn -0.009026 -0.000264 -0.117904
v 0.008828 0.000000 0.025933 0.078431 0.062745 0.039216
vn -0.026973 -0.008612 -0.371869
v 0.008828 0.000000 0.025933 0.078431 0.062745 0.039216
vn -0.017936 -0.013591 -0.291073
v 0.008828 0.000000 0.025933 0.078431 0.062745 0.039216
vn -0.712188 -0.711400 -6.173989
v 0.008391 -0.000438 0.025980 0.078431 0.062745 0.039216
vn -0.500345 -0.866656 -6.175771
v 0.008535 -0.000547 0.025980 0.078431 0.062745 0.039216
vn -0.283380 -0.952383 -6.178523
v 0.008661 -0.000600 0.025980 0.078431 0.062745 0.039216
vn -0.100622 -0.979775 -6.181662
v 0.008755 -0.000617 0.025980 0.078431 0.062745 0.039216
vn 0.000652 -0.975265 -6.186266
v 0.008828 -0.000619 0.025980 0.078431 0.062745 0.039216
vn 0.101937 -0.979777 -6.181640
v 0.008902 -0.000617 0.025980 0.078431 0.062745 0.039216
vn 0.285745 -0.951831 -6.178429
v 0.008996 -0.000600 0.025980 0.078431 0.062745 0.039216
vn 0.502244 -0.866600 -6.175824
v 0.009122 -0.000547 0.025980 0.078431 0.062745 0.039216
vn 0.712054 -0.712835 -6.173836
v 0.009266 -0.000438 0.025980 0.078431 0.062745 0.039216
vn 0.867288 -0.500996 -6.175630
v 0.009375 -0.000293 0.025980 0.078431 0.062745 0.039216
vn 0.953055 -0.284017 -6.178387
v 0.009428 -0.000167 0.025980 0.078431 0.062745 0.039216
vn 0.980462 -0.101289 -6.181538
v 0.009445 -0.000073 0.025980 0.078431 0.062745 0.039216
vn 0.975924 0.002508 -6.186019
v 0.009447 0.000000 0.025980 0.078431 0.062745 0.039216
vn 0.980746 0.101699 -6.181792
v 0.009445 0.000073 0.025980 0.078431 0.062745 0.039216
vn 0.952713 0.283308 -6.178295
v 0.009428 0.000167 0.025980 0.078431 0.062745 0.039216
vn 0.867245 0.501573 -6.175789
v 0.009375 0.000293 0.025980 0.078431 0.062745 0.039216
vn 0.713503 0.711386 -6.173836
v 0.009266 0.000438 0.025980 0.078431 0.062745 0.039216
vn 0.501667 0.866643 -6.175665
v 0.009122 0.000547 0.025980 0.078431 0.062745 0.039216
vn 0.284707 0.952377 -6.178462
v 0.008996 0.000600 0.025980 0.078431 0.062745 0.039216
vn 0.101937 0.979777 -6.181640
v 0.008902 0.000617 0.025980 0.078431 0.062745 0.039216
vn -0.001858 0.975224 -6.186136
v 0.008828 0.000619 0.025980 0.078431 0.062745 0.039216
vn -0.101034 0.980059 -6.181916
v 0.008755 0.000617 0.025980 0.078431 0.062745 0.039216
vn -0.282673 0.952041 -6.178430
v 0.008661 0.000600 0.025980 0.078431 0.062745 0.039216
vn -0.500920 0.866612 -6.175931
v 0.008535 0.000547 0.025980 0.078431 0.062745 0.039216
vn -0.710738 0.712855 -6.173987
v 0.008391 0.000438 0.025980 0.078431 0.062745 0.039216
vn -0.865968 0.501010 -6.175817
v 0.008282 0.000293 0.025980 0.078431 0.062745 0.039216
vn -0.951737 0.284021 -6.178594
v 0.008229 0.000167 0.025980 0.078431 0.062745 0.039216
vn -0.979150 0.101278 -6.181750
v 0.008212 0.000073 0.025980 0.078431 0.062745 0.039216
vn -0.974599 -0.002508 -6.186233
v 0.008210 0.000000 0.025980 0.078431 0.062745 0.039216
vn -0.979433 -0.101689 -6.182004
v 0.008212 -0.000073 0.025980 0.078431 0.062745 0.039216
vn -0.951394 -0.283319 -6.178501
v 0.008229 -0.000167 0.025980 0.078431 0.062745 0.039216
vn -0.865917 -0.501594 -6.175977
v 0.008282 -0.000293 0.025980 0.078431 0.062745 0.039216
vn -1.397319 -1.397968 -5.920532
v 0.007941 -0.000887 0.026131 0.078431 0.062745 0.039216
vn -0.985276 -1.705988 -5.925541
v 0.008234 -0.001108 0.026131 0.078431 0.062745 0.039216
vn -0.557958 -1.878732 -5.931870
v 0.008489 -0.001216 0.026131 0.078431 0.062745 0.039216
vn -0.201706 -1.945502 -5.939052
v 0.008680 -0.001250 0.026131 0.078431 0.062745 0.039216
vn 0.000624 -1.950654 -5.947057
v 0.008828 -0.001254 0.026131 0.078431 0.062745 0.039216
vn 0.202967 -1.945504 -5.939007
v 0.008977 -0.001250 0.026131 0.078431 0.062745 0.039216
vn 0.559232 -1.878732 -5.931750
v 0.009167 -0.001216 0.026131 0.078431 0.062745 0.039216
vn 0.986548 -1.705836 -5.925358
v 0.009423 -0.001108 0.026131 0.078431 0.062745 0.039216
vn 1.398537 -1.398062 -5.920216
v 0.009715 -0.000887 0.026131 0.078431 0.062745 0.039216
vn 1.706715 -0.985802 -5.925219
v 0.009937 -0.000595 0.026131 0.078431 0.062745 0.039216
vn 1.879372 -0.558441 -5.931650
v 0.010044 -0.000339 0.026131 0.078431 0.062745 0.039216
vn 1.946077 -0.202331 -5.938857
v 0.010078 -0.000149 0.026131 0.078431 0.062745 0.039216
vn 1.951107 0.000085 -5.946911
v 0.010083 0.000000 0.026131 0.078431 0.062745 0.039216
vn 1.945946 0.202238 -5.938889
v 0.010078 0.000149 0.026131 0.078431 0.062745 0.039216
vn 1.879371 0.558442 -5.931649
v 0.010044 0.000339 0.026131 0.078431 0.062745 0.039216
vn 1.706558 0.985797 -5.925250
v 0.009937 0.000595 0.026131 0.078431 0.062745 0.039216
vn 1.398635 1.397964 -5.920216
v 0.009715 0.000887 0.026131 0.078431 0.062745 0.039216
vn 0.986554 1.705992 -5.925327
v 0.009423 0.001108 0.026131 0.078431 0.062745 0.039216
vn 0.559231 1.878732 -5.931750
v 0.009167 0.001216 0.026131 0.078431 0.062745 0.039216
vn 0.202966 1.945504 -5.939008
v 0.008977 0.001250 0.026131 0.078431 0.062745 0.039216
vn 0.000539 1.950531 -5.947086
v 0.008828 0.001254 0.026131 0.078431 0.062745 0.039216
vn -0.201613 1.945371 -5.939084
v 0.008680 0.001250 0.026131 0.078431 0.062745 0.039216
vn -0.557958 1.878731 -5.931870
v 0.008489 0.001216 0.026131 0.078431 0.062745 0.039216
vn -0.985270 1.705831 -5.925572
v 0.008234 0.001108 0.026131 0.078431 0.062745 0.039216
vn -1.397222 1.398067 -5.920532
v 0.007941 0.000887 0.026131 0.078431 0.062745 0.039216
vn -1.705416 0.985813 -5.925587
v 0.007720 0.000595 0.026131 0.078431 0.062745 0.039216
vn -1.878159 0.558419 -5.932027
v 0.007613 0.000339 0.026131 0.078431 0.062745 0.039216
vn -1.944842 0.202371 -5.939252
v 0.007578 0.000149 0.026131 0.078431 0.062745 0.039216
vn -1.949815 -0.000085 -5.947333
v 0.007574 0.000000 0.026131 0.078431 0.062745 0.039216
vn -1.944711 -0.202278 -5.939284
v 0.007578 -0.000149 0.026131 0.078431 0.062745 0.039216
vn -1.878158 -0.558420 -5.932027
v 0.007613 -0.000339 0.026131 0.078431 0.062745 0.039216
vn -1.705258 -0.985808 -5.925618
v 0.007720 -0.000595 0.026131 0.078431 0.062745 0.039216
vn -2.067283 -2.068028 -5.496108
v 0.007499 -0.001330 0.026394 0.078431 0.062745 0.039216
vn -1.459106 -2.527433 -5.504489
v 0.007937 -0.001661 0.026394 0.078431 0.062745 0.039216
vn -0.827762 -2.787895 -5.515423
v 0.008320 -0.001823 0.026394 0.078431 0.062745 0.039216
vn -0.300341 -2.893813 -5.526086
v 0.008605 -0.001874 0.026394 0.078431 0.062745 0.039216
vn 0.000580 -2.910005 -5.537342
v 0.008828 -0.001881 0.026394 0.078431 0.062745 0.039216
vn 0.301515 -2.893814 -5.526019
v 0.009052 -0.001874 0.026394 0.078431 0.062745 0.039216
vn 0.828957 -2.787895 -5.515241
v 0.009337 -0.001823 0.026394 0.078431 0.062745 0.039216
vn 1.460314 -2.527428 -5.504167
v 0.009720 -0.001661 0.026394 0.078431 0.062745 0.039216
vn 2.068487 -2.068013 -5.495664
v 0.010158 -0.001330 0.026394 0.078431 0.062745 0.039216
vn 2.527990 -1.459731 -5.504050
v 0.010490 -0.000892 0.026394 0.078431 0.062745 0.039216
vn 2.788459 -0.828311 -5.515032
v 0.010651 -0.000508 0.026394 0.078431 0.062745 0.039216
vn 2.894385 -0.300971 -5.525728
v 0.010703 -0.000223 0.026394 0.078431 0.062745 0.039216
vn 2.910503 0.000000 -5.537068
v 0.010709 0.000000 0.026394 0.078431 0.062745 0.039216
vn 2.894385 0.300973 -5.525728
v 0.010703 0.000223 0.026394 0.078431 0.062745 0.039216
vn 2.788459 0.828312 -5.515032
v 0.010651 0.000508 0.026394 0.078431 0.062745 0.039216
vn 2.527990 1.459732 -5.504050
v 0.010490 0.000892 0.026394 0.078431 0.062745 0.039216
vn 2.068486 2.068013 -5.495664
v 0.010158 0.001330 0.026394 0.078431 0.062745 0.039216
vn 1.460313 2.527429 -5.504167
v 0.009720 0.001661 0.026394 0.078431 0.062745 0.039216
vn 0.828956 2.787895 -5.515242
v 0.009337 0.001823 0.026394 0.078431 0.062745 0.039216
vn 0.301514 2.893814 -5.526019
v 0.009052 0.001874 0.026394 0.078431 0.062745 0.039216
vn 0.000579 2.910004 -5.537342
v 0.008828 0.001881 0.026394 0.078431 0.062745 0.039216
vn -0.300397 2.893882 -5.526035
v 0.008605 0.001874 0.026394 0.078431 0.062745 0.039216
vn -0.827733 2.787946 -5.515393
v 0.008320 0.001823 0.026394 0.078431 0.062745 0.039216
vn -1.459110 2.527430 -5.504490
v 0.007937 0.001661 0.026394 0.078431 0.062745 0.039216
vn -2.067284 2.068027 -5.496108
v 0.007499 0.001330 0.026394 0.078431 0.062745 0.039216
vn -2.527011 1.459595 -5.504500
v 0.007167 0.000892 0.026394 0.078431 0.062745 0.039216
vn -2.787337 0.828230 -5.515652
v 0.007006 0.000508 0.026394 0.078431 0.062745 0.039216
vn -2.893224 0.301254 -5.526372
v 0.006954 0.000223 0.026394 0.078431 0.062745 0.039216
vn -2.909537 -0.000000 -5.537508
v 0.006948 0.000000 0.026394 0.078431 0.062745 0.039216
vn -2.893224 -0.301256 -5.526372
v 0.006954 -0.000223 0.026394 0.078431 0.062745 0.039216
vn -2.787337 -0.828232 -5.515651
v 0.007006 -0.000508 0.026394 0.078431 0.062745 0.039216
vn -2.527011 -1.459596 -5.504500
v 0.007167 -0.000892 0.026394 0.078431 0.062745 0.039216
vn -2.690677 -2.691048 -4.905286
v 0.007083 -0.001745 0.026768 0.078431 0.062745 0.039216
vn -1.900342 -3.293272 -4.916729
v 0.007658 -0.002180 0.026768 0.078431 0.062745 0.039216
vn -1.079895 -3.637621 -4.931846
v 0.008161 -0.002392 0.026768 0.078431 0.062745 0.039216
vn -0.393193 -3.781803 -4.944784
v 0.008535 -0.002460 0.026768 0.078431 0.062745 0.039216
vn 0.000518 -3.809652 -4.957975
v 0.008828 -0.002468 0.026768 0.078431 0.062745 0.039216
vn 0.394242 -3.781805 -4.944697
v 0.009121 -0.002460 0.026768 0.078431 0.062745 0.039216
vn 1.080972 -3.637617 -4.931610
v 0.009495 -0.002392 0.026768 0.078431 0.062745 0.039216
vn 1.901419 -3.293276 -4.916316
v 0.009999 -0.002180 0.026769 0.078431 0.062745 0.039216
vn 2.691650 -2.691110 -4.904736
v 0.010574 -0.001745 0.026769 0.078431 0.062745 0.039216
vn 3.293859 -1.900925 -4.916113
v 0.011009 -0.001170 0.026769 0.078431 0.062745 0.039216
vn 3.638155 -1.080267 -4.931325
v 0.011221 -0.000667 0.026769 0.078431 0.062745 0.039216
vn 3.782341 -0.393765 -4.944441
v 0.011288 -0.000293 0.026769 0.078431 0.062745 0.039216
vn 3.810269 0.000000 -4.957442
v 0.011297 0.000000 0.026769 0.078431 0.062745 0.039216
vn 3.782341 0.393767 -4.944441
v 0.011288 0.000293 0.026769 0.078431 0.062745 0.039216
vn 3.638154 1.080270 -4.931325
v 0.011221 0.000667 0.026769 0.078431 0.062745 0.039216
vn 3.293858 1.900927 -4.916114
v 0.011009 0.001170 0.026769 0.078431 0.062745 0.039216
vn 2.691650 2.691111 -4.904736
v 0.010574 0.001745 0.026769 0.078431 0.062745 0.039216
vn 1.901418 3.293276 -4.916316
v 0.009999 0.002180 0.026769 0.078431 0.062745 0.039216
vn 1.080971 3.637618 -4.931610
v 0.009495 0.002392 0.026768 0.078431 0.062745 0.039216
vn 0.394241 3.781805 -4.944698
v 0.009121 0.002460 0.026768 0.078431 0.062745 0.039216
vn 0.000166 3.809693 -4.957913
v 0.008828 0.002468 0.026768 0.078431 0.062745 0.039216
vn -0.393250 3.781809 -4.944888
v 0.008535 0.002460 0.026768 0.078431 0.062745 0.039216
vn -1.079665 3.637632 -4.931856
v 0.008161 0.002392 0.026768 0.078431 0.062745 0.039216
vn -1.900344 3.293272 -4.916729
v 0.007658 0.002180 0.026768 0.078431 0.062745 0.039216
vn -2.690678 2.691047 -4.905286
v 0.007083 0.001745 0.026768 0.078431 0.062745 0.039216
vn -3.292736 1.900963 -4.916929
v 0.006648 0.001170 0.026768 0.078431 0.062745 0.039216
vn -3.636966 1.080374 -4.932131
v 0.006436 0.000667 0.026768 0.078431 0.062745 0.039216
vn -3.781141 0.393432 -4.945328
v 0.006369 0.000293 0.026768 0.078431 0.062745 0.039216
vn -3.809011 -0.000000 -4.958495
v 0.006360 0.000000 0.026768 0.078431 0.062745 0.039216
vn -3.781141 -0.393435 -4.945328
v 0.006369 -0.000293 0.026768 0.078431 0.062745 0.039216
vn -3.636966 -1.080376 -4.932131
v 0.006436 -0.000667 0.026768 0.078431 0.062745 0.039216
vn -3.292736 -1.900964 -4.916929
v 0.006648 -0.001170 0.026768 0.078431 0.062745 0.039216
vn -3.237945 -3.238362 -4.167513
v 0.006715 -0.002113 0.027243 0.078431 0.062745 0.039216
vn -2.288556 -3.967511 -4.180627
v 0.007412 -0.002640 0.027243 0.078431 0.062745 0.039216
vn -1.302132 -4.387883 -4.198287
v 0.008021 -0.002896 0.027243 0.078431 0.062745 0.039216
vn -0.475121 -4.567100 -4.212100
v 0.008474 -0.002978 0.027243 0.078431 0.062745 0.039216
vn 0.000440 -4.606311 -4.225063
v 0.008828 -0.002988 0.027244 0.078431 0.062745 0.039216
vn 0.476014 -4.567101 -4.211997
v 0.009183 -0.002978 0.027244 0.078431 0.062745 0.039216
vn 1.303053 -4.387875 -4.198007
v 0.009636 -0.002896 0.027244 0.078431 0.062745 0.039216
vn 2.289439 -3.967507 -4.180160
v 0.010245 -0.002640 0.027244 0.078431 0.062745 0.039216
vn 3.238766 -3.238352 -4.166927
v 0.010941 -0.002113 0.027244 0.078431 0.062745 0.039216
vn 3.967872 -2.289131 -4.180039
v 0.011468 -0.001417 0.027244 0.078431 0.062745 0.039216
vn 4.388322 -1.302647 -4.197631
v 0.011724 -0.000807 0.027244 0.078431 0.062745 0.039216
vn 4.567548 -0.475583 -4.211515
v 0.011806 -0.000355 0.027244 0.078431 0.062745 0.039216
vn 4.606662 0.000001 -4.224661
v 0.011816 0.000000 0.027244 0.078431 0.062745 0.039216
vn 4.567548 0.475584 -4.211516
v 0.011806 0.000355 0.027244 0.078431 0.062745 0.039216
vn 4.388322 1.302649 -4.197630
v 0.011724 0.000807 0.027244 0.078431 0.062745 0.039216
vn 3.967871 2.289133 -4.180039
v 0.011468 0.001417 0.027244 0.078431 0.062745 0.039216
vn 3.238765 3.238353 -4.166927
v 0.010941 0.002113 0.027244 0.078431 0.062745 0.039216
vn 2.289438 3.967508 -4.180160
v 0.010245 0.002640 0.027244 0.078431 0.062745 0.039216
vn 1.303052 4.387876 -4.198005
v 0.009636 0.002896 0.027244 0.078431 0.062745 0.039216
vn 0.476012 4.567101 -4.211997
v 0.009183 0.002978 0.027244 0.078431 0.062745 0.039216
vn 0.000387 4.606262 -4.225106
v 0.008828 0.002988 0.027244 0.078431 0.062745 0.039216
vn -0.475067 4.567021 -4.212173
v 0.008474 0.002978 0.027243 0.078431 0.062745 0.039216
vn -1.302133 4.387881 -4.198288
v 0.008021 0.002896 0.027243 0.078431 0.062745 0.039216
vn -2.288557 3.967510 -4.180628
v 0.007412 0.002640 0.027243 0.078431 0.062745 0.039216
vn -3.237946 3.238361 -4.167513
v 0.006715 0.002113 0.027243 0.078431 0.062745 0.039216
vn -3.966978 2.289037 -4.180877
v 0.006189 0.001417 0.027243 0.078431 0.062745 0.039216
vn -4.387496 1.302771 -4.198597
v 0.005932 0.000807 0.027243 0.078431 0.062745 0.039216
vn -4.566640 0.475841 -4.212435
v 0.005851 0.000355 0.027243 0.078431 0.062745 0.039216
vn -4.605726 -0.000001 -4.225674
v 0.005840 0.000000 0.027243 0.078431 0.062745 0.039216
vn -4.566640 -0.475842 -4.212435
v 0.005851 -0.000355 0.027243 0.078431 0.062745 0.039216
vn -4.387495 -1.302773 -4.198597
v 0.005932 -0.000807 0.027243 0.078431 0.062745 0.039216
vn -3.966978 -2.289038 -4.180877
v 0.006189 -0.001417 0.027243 0.078431 0.062745 0.039216
vn -3.686371 -3.686759 -3.315106
v 0.006413 -0.002416 0.027799 0.078431 0.062745 0.039216
vn -2.607224 -4.521196 -3.327875
v 0.007209 -0.003018 0.027799 0.078431 0.062745 0.039216
vn -1.485528 -5.005873 -3.345421
v 0.007905 -0.003311 0.027799 0.078431 0.062745 0.039216
vn -0.542734 -5.214580 -3.358132
v 0.008423 -0.003404 0.027799 0.078431 0.062745 0.039216
vn 0.000348 -5.263371 -3.369763
v 0.008828 -0.003416 0.027799 0.078431 0.062745 0.039216
vn 0.543440 -5.214580 -3.358015
v 0.009234 -0.003404 0.027799 0.078431 0.062745 0.039216
vn 1.486245 -5.005864 -3.345113
v 0.009751 -0.003311 0.027799 0.078431 0.062745 0.039216
vn 2.607913 -4.521191 -3.327391
v 0.010448 -0.003018 0.027799 0.078431 0.062745 0.039216
vn 3.687108 -3.686713 -3.314194
v 0.011244 -0.002416 0.027799 0.078431 0.062745 0.039216
vn 4.521507 -2.607582 -3.327214
v 0.011846 -0.001620 0.027799 0.078431 0.062745 0.039216
vn 5.006256 -1.485698 -3.344688
v 0.012139 -0.000923 0.027799 0.078431 0.062745 0.039216
vn 5.215012 -0.543159 -3.357606
v 0.012232 -0.000406 0.027799 0.078431 0.062745 0.039216
vn 5.263776 0.000001 -3.369042
v 0.012244 0.000000 0.027799 0.078431 0.062745 0.039216
vn 5.215012 0.543161 -3.357606
v 0.012232 0.000406 0.027799 0.078431 0.062745 0.039216
vn 5.006256 1.485700 -3.344687
v 0.012139 0.000923 0.027799 0.078431 0.062745 0.039216
vn 4.521506 2.607584 -3.327214
v 0.011846 0.001620 0.027799 0.078431 0.062745 0.039216
vn 3.687107 3.686714 -3.314194
v 0.011244 0.002416 0.027799 0.078431 0.062745 0.039216
vn 2.607908 4.521194 -3.327390
v 0.010448 0.003018 0.027799 0.078431 0.062745 0.039216
vn 1.486241 5.005868 -3.345113
v 0.009751 0.003311 0.027799 0.078431 0.062745 0.039216
vn 0.543441 5.214580 -3.358014
v 0.009234 0.003404 0.027799 0.078431 0.062745 0.039216
vn 0.000347 5.263371 -3.369763
v 0.008828 0.003416 0.027799 0.078431 0.062745 0.039216
vn -0.542732 5.214580 -3.358133
v 0.008423 0.003404 0.027799 0.078431 0.062745 0.039216
vn -1.485532 5.005869 -3.345421
v 0.007905 0.003311 0.027799 0.078431 0.062745 0.039216
vn -2.607229 4.521193 -3.327877
v 0.007209 0.003018 0.027799 0.078431 0.062745 0.039216
vn -3.686373 3.686758 -3.315106
v 0.006413 0.002416 0.027799 0.078431 0.062745 0.039216
vn -4.520723 2.607581 -3.328242
v 0.005811 0.001620 0.027799 0.078431 0.062745 0.039216
vn -5.005463 1.485604 -3.345843
v 0.005517 0.000923 0.027799 0.078431 0.062745 0.039216
vn -5.214307 0.543284 -3.358624
v 0.005424 0.000406 0.027799 0.078431 0.062745 0.039216
vn -5.263052 -0.000001 -3.370174
v 0.005412 0.000000 0.027799 0.078431 0.062745 0.039216
vn -5.214307 -0.543287 -3.358624
v 0.005424 -0.000406 0.027799 0.078431 0.062745 0.039216
vn -5.005462 -1.485607 -3.345844
v 0.005517 -0.000923 0.027799 0.078431 0.062745 0.039216
vn -4.520722 -2.607583 -3.328242
v 0.005811 -0.001620 0.027799 0.078431 0.062745 0.039216
vn -4.021622 -4.022044 -2.388263
v 0.006186 -0.002642 0.028408 0.078431 0.062745 0.039216
vn -2.845795 -4.935934 -2.399012
v 0.007057 -0.003300 0.028408 0.078431 0.062745 0.039216
vn -1.622898 -5.469866 -2.413556
v 0.007819 -0.003621 0.028408 0.078431 0.062745 0.039216
vn -0.593676 -5.701261 -2.423374
v 0.008385 -0.003723 0.028408 0.078431 0.062745 0.039216
vn 0.000248 -5.757258 -2.431991
v 0.008828 -0.003736 0.028408 0.078431 0.062745 0.039216
vn 0.594196 -5.701261 -2.423236
v 0.009272 -0.003723 0.028408 0.078431 0.062745 0.039216
vn 1.623380 -5.469905 -2.413174
v 0.009838 -0.003621 0.028408 0.078431 0.062745 0.039216
vn 2.846322 -4.935876 -2.398360
v 0.010600 -0.003300 0.028408 0.078431 0.062745 0.039216
vn 4.022214 -4.022032 -2.387348
v 0.011470 -0.002642 0.028408 0.078431 0.062745 0.039216
vn 4.936161 -2.846012 -2.398105
v 0.012129 -0.001772 0.028408 0.078431 0.062745 0.039216
vn 5.470257 -1.623318 -2.412632
v 0.012450 -0.001010 0.028408 0.078431 0.062745 0.039216
vn 5.701424 -0.594078 -2.422774
v 0.012552 -0.000444 0.028408 0.078431 0.062745 0.039216
vn 5.757443 0.000001 -2.431508
v 0.012565 0.000000 0.028408 0.078431 0.062745 0.039216
vn 5.701426 0.594084 -2.422765
v 0.012552 0.000444 0.028408 0.078431 0.062745 0.039216
vn 5.470257 1.623317 -2.412631
v 0.012450 0.001010 0.028408 0.078431 0.062745 0.039216
vn 4.936160 2.846013 -2.398105
v 0.012129 0.001772 0.028408 0.078431 0.062745 0.039216
vn 4.022213 4.022033 -2.387348
v 0.011470 0.002642 0.028408 0.078431 0.062745 0.039216
vn 2.846319 4.935877 -2.398362
v 0.010600 0.003300 0.028408 0.078431 0.062745 0.039216
vn 1.623381 5.469903 -2.413178
v 0.009838 0.003621 0.028408 0.078431 0.062745 0.039216
vn 0.594192 5.701260 -2.423243
v 0.009272 0.003723 0.028408 0.078431 0.062745 0.039216
vn 0.000246 5.757258 -2.431991
v 0.008828 0.003736 0.028408 0.078431 0.062745 0.039216
vn -0.593681 5.701263 -2.423365
v 0.008385 0.003723 0.028408 0.078431 0.062745 0.039216
vn -1.622896 5.469869 -2.413551
v 0.007819 0.003621 0.028408 0.078431 0.062745 0.039216
vn -2.845797 4.935933 -2.399011
v 0.007057 0.003300 0.028408 0.078431 0.062745 0.039216
vn -4.021622 4.022042 -2.388268
v 0.006186 0.002642 0.028408 0.078431 0.062745 0.039216
vn -4.935716 2.845990 -2.398973
v 0.005528 0.001772 0.028408 0.078431 0.062745 0.039216
vn -5.469774 1.623088 -2.413741
v 0.005207 0.001010 0.028408 0.078431 0.062745 0.039216
vn -5.701045 0.594242 -2.423891
v 0.005105 0.000444 0.028408 0.078431 0.062745 0.039216
vn -5.756940 -0.000001 -2.432582
v 0.005092 0.000000 0.028408 0.078431 0.062745 0.039216
vn -5.701046 -0.594246 -2.423888
v 0.005105 -0.000444 0.028408 0.078431 0.062745 0.039216
vn -5.469774 -1.623089 -2.413740
v 0.005207 -0.001010 0.028408 0.078431 0.062745 0.039216
vn -4.935714 -2.845992 -2.398972
v 0.005528 -0.001772 0.028408 0.078431 0.062745 0.039216
vn -4.239928 -4.239996 -1.429319
v 0.006040 -0.002788 0.029040 0.078431 0.062745 0.039216
vn -3.001182 -5.205960 -1.436236
v 0.006958 -0.003483 0.029040 0.078431 0.062745 0.039216
vn -1.712627 -5.772667 -1.445549
v 0.007763 -0.003822 0.029040 0.078431 0.062745 0.039216
vn -0.626927 -6.018595 -1.451703
v 0.008360 -0.003930 0.029041 0.078431 0.062745 0.039216
vn 0.000150 -6.078953 -1.456866
v 0.008828 -0.003943 0.029041 0.078431 0.062745 0.039216
vn 0.627240 -6.018597 -1.451564
v 0.009296 -0.003930 0.029041 0.078431 0.062745 0.039216
vn 1.712910 -5.772667 -1.445259
v 0.009894 -0.003822 0.029041 0.078431 0.062745 0.039216
vn 3.001482 -5.205998 -1.435609
v 0.010698 -0.003483 0.029041 0.078431 0.062745 0.039216
vn 4.240208 -4.240045 -1.428425
v 0.011617 -0.002788 0.029041 0.078431 0.062745 0.039216
vn 5.206237 -3.001180 -1.435154
v 0.012312 -0.001870 0.029041 0.078431 0.062745 0.039216
vn 5.772849 -1.712915 -1.444656
v 0.012650 -0.001066 0.029041 0.078431 0.062745 0.039216
vn 6.018704 -0.627424 -1.450779
v 0.012758 -0.000468 0.029041 0.078431 0.062745 0.039216
vn 6.079110 0.000011 -1.456215
v 0.012772 0.000000 0.029041 0.078431 0.062745 0.039216
vn 6.018711 0.627430 -1.450769
v 0.012758 0.000468 0.029041 0.078431 0.062745 0.039216
vn 5.772846 1.712906 -1.444664
v 0.012650 0.001066 0.029041 0.078431 0.062745 0.039216
vn 5.206235 3.001183 -1.435155
v 0.012312 0.001870 0.029041 0.078431 0.062745 0.039216
vn 4.240207 4.240047 -1.428425
v 0.011617 0.002788 0.029041 0.078431 0.062745 0.039216
vn 3.001479 5.206000 -1.435609
v 0.010698 0.003483 0.029041 0.078431 0.062745 0.039216
vn 1.712925 5.772673 -1.445204
v 0.009894 0.003822 0.029041 0.078431 0.062745 0.039216
vn 0.627237 6.018592 -1.451567
v 0.009296 0.003930 0.029041 0.078431 0.062745 0.039216
vn 0.000131 6.078953 -1.456864
v 0.008828 0.003943 0.029041 0.078431 0.062745 0.039216
vn -0.626932 6.018602 -1.451693
v 0.008360 0.003930 0.029041 0.078431 0.062745 0.039216
vn -1.712617 5.772665 -1.445558
v 0.007763 0.003822 0.029040 0.078431 0.062745 0.039216
vn -3.001184 5.205959 -1.436239
v 0.006958 0.003483 0.029040 0.078431 0.062745 0.039216
vn -4.239928 4.239993 -1.429323
v 0.006040 0.002788 0.029040 0.078431 0.062745 0.039216
vn -5.205970 3.001301 -1.436339
v 0.005345 0.001870 0.029040 0.078431 0.062745 0.039216
vn -5.772484 1.712807 -1.446010
v 0.005006 0.001066 0.029040 0.078431 0.062745 0.039216
vn -6.018466 0.627360 -1.452209
v 0.004898 0.000468 0.029040 0.078431 0.062745 0.039216
vn -6.078774 -0.000004 -1.457219
v 0.004885 0.000000 0.029040 0.078431 0.062745 0.039216
vn -6.018468 -0.627365 -1.452204
v 0.004898 -0.000468 0.029040 0.078431 0.062745 0.039216
vn -5.772484 -1.712806 -1.446012
v 0.005006 -0.001066 0.029040 0.078431 0.062745 0.039216
vn -5.205968 -3.001304 -1.436337
v 0.005345 -0.001870 0.029040 0.078431 0.062745 0.039216
vn -4.345626 -4.345591 -0.473807
v 0.005970 -0.002858 0.029669 0.078431 0.062745 0.039216
vn -3.076413 -5.336886 -0.475985
v 0.006912 -0.003570 0.029669 0.078431 0.062745 0.039216
vn -1.756158 -5.919324 -0.479154
v 0.007736 -0.003917 0.029669 0.078431 0.062745 0.039216
vn -0.643184 -6.172064 -0.481114
v 0.008348 -0.004027 0.029669 0.078431 0.062745 0.039216
vn 0.000040 -6.234115 -0.482738
v 0.008828 -0.004041 0.029669 0.078431 0.062745 0.039216
vn 0.643248 -6.172067 -0.480992
v 0.009308 -0.004027 0.029669 0.078431 0.062745 0.039216
vn 1.756238 -5.919305 -0.478858
v 0.009920 -0.003917 0.029669 0.078431 0.062745 0.039216
vn 3.076589 -5.336788 -0.475460
v 0.010744 -0.003570 0.029669 0.078431 0.062745 0.039216
vn 4.345757 -4.345590 -0.472868
v 0.011686 -0.002858 0.029669 0.078431 0.062745 0.039216
vn 5.336972 -3.076445 -0.475010
v 0.012398 -0.001916 0.029669 0.078431 0.062745 0.039216
vn 5.919378 -1.756189 -0.478331
v 0.012745 -0.001092 0.029669 0.078431 0.062745 0.039216
vn 6.172160 -0.643674 -0.480179
v 0.012856 -0.000480 0.029669 0.078431 0.062745 0.039216
vn 6.234137 0.000004 -0.481894
v 0.012870 0.000000 0.029669 0.078431 0.062745 0.039216
vn 6.172160 0.643674 -0.480180
v 0.012856 0.000480 0.029669 0.078431 0.062745 0.039216
vn 5.919377 1.756190 -0.478334
v 0.012745 0.001092 0.029669 0.078431 0.062745 0.039216
vn 5.336971 3.076447 -0.475009
v 0.012398 0.001916 0.029669 0.078431 0.062745 0.039216
vn 4.345756 4.345591 -0.472868
v 0.011686 0.002858 0.029669 0.078431 0.062745 0.039216
vn 3.076534 5.336810 -0.475438
v 0.010744 0.003570 0.029669 0.078431 0.062745 0.039216
vn 1.756201 5.919356 -0.478780
v 0.009920 0.003917 0.029669 0.078431 0.062745 0.039216
vn 0.643284 6.172060 -0.480977
v 0.009308 0.004027 0.029669 0.078431 0.062745 0.039216
vn 0.000034 6.234116 -0.482736
v 0.008828 0.004041 0.029669 0.078431 0.062745 0.039216
vn -0.643182 6.172064 -0.481116
v 0.008348 0.004027 0.029669 0.078431 0.062745 0.039216
vn -1.756157 5.919323 -0.479156
v 0.007736 0.003917 0.029669 0.078431 0.062745 0.039216
vn -3.076415 5.336884 -0.475988
v 0.006912 0.003570 0.029669 0.078431 0.062745 0.039216
vn -4.345628 4.345590 -0.473808
v 0.005970 0.002858 0.029669 0.078431 0.062745 0.039216
vn -5.336812 3.076464 -0.476342
v 0.005258 0.001916 0.029669 0.078431 0.062745 0.039216
vn -5.919275 1.756194 -0.479597
v 0.004911 0.001092 0.029669 0.078431 0.062745 0.039216
vn -6.172016 0.643211 -0.481708
v 0.004801 0.000480 0.029668 0.078431 0.062745 0.039216
vn -6.234083 -0.000002 -0.483288
v 0.004787 0.000000 0.029668 0.078431 0.062745 0.039216
vn -6.172016 -0.643213 -0.481706
v 0.004801 -0.000480 0.029668 0.078431 0.062745 0.039216
vn -5.919273 -1.756195 -0.479603
v 0.004911 -0.001092 0.029668 0.078431 0.062745 0.039216
vn -5.336811 -3.076467 -0.476339
v 0.005258 -0.001916 0.029669 0.078431 0.062745 0.039216
vn -4.345727 -4.345592 0.472876
v 0.005970 -0.002858 0.030279 0.078431 0.062745 0.039216
vn -3.076515 -5.336884 0.475331
v 0.006912 -0.003570 0.030279 0.078431 0.062745 0.039216
vn -1.756259 -5.919326 0.478771
v 0.007736 -0.003917 0.030279 0.078431 0.062745 0.039216
vn -0.643287 -6.172065 0.480972
v 0.008348 -0.004027 0.030279 0.078431 0.062745 0.039216
vn -0.000065 -6.234117 0.482731
v 0.008828 -0.004041 0.030279 0.078431 0.062745 0.039216
vn 0.643148 -6.172068 0.481124
v 0.009308 -0.004027 0.030279 0.078431 0.062745 0.039216
vn 1.756134 -5.919308 0.479224
v 0.009920 -0.003917 0.030279 0.078431 0.062745 0.039216
vn 3.076486 -5.336785 0.476129
v 0.010744 -0.003570 0.030279 0.078431 0.062745 0.039216
vn 4.345657 -4.345589 0.473802
v 0.011686 -0.002858 0.030279 0.078431 0.062745 0.039216
vn 5.336869 -3.076447 0.476155
v 0.012398 -0.001916 0.030279 0.078431 0.062745 0.039216
vn 5.919277 -1.756190 0.479593
v 0.012745 -0.001092 0.030280 0.078431 0.062745 0.039216
vn 6.172058 -0.643672 0.481502
v 0.012855 -0.000480 0.030280 0.078431 0.062745 0.039216
vn 6.234034 -0.000001 0.483231
v 0.012870 0.000000 0.030280 0.078431 0.062745 0.039216
vn 6.172057 0.643678 0.481498
v 0.012855 0.000480 0.030280 0.078431 0.062745 0.039216
vn 5.919277 1.756190 0.479592
v 0.012745 0.001092 0.030280 0.078431 0.062745 0.039216
vn 5.336866 3.076447 0.476163
v 0.012398 0.001916 0.030280 0.078431 0.062745 0.039216
vn 4.345654 4.345592 0.473802
v 0.011686 0.002858 0.030279 0.078431 0.062745 0.039216
vn 3.076434 5.336809 0.476099
v 0.010744 0.003570 0.030279 0.078431 0.062745 0.039216
vn 1.756099 5.919358 0.479148
v 0.009920 0.003917 0.030279 0.078431 0.062745 0.039216
vn 0.643179 6.172061 0.481113
v 0.009308 0.004027 0.030279 0.078431 0.062745 0.039216
vn -0.000065 6.234116 0.482735
v 0.008828 0.004041 0.030279 0.078431 0.062745 0.039216
vn -0.643290 6.172064 0.480972
v 0.008348 0.004027 0.030279 0.078431 0.062745 0.039216
vn -1.756261 5.919326 0.478767
v 0.007736 0.003917 0.030279 0.078431 0.062745 0.039216
vn -3.076516 5.336884 0.475329
v 0.006912 0.003570 0.030279 0.078431 0.062745 0.039216
vn -4.345730 4.345589 0.472875
v 0.005970 0.002858 0.030279 0.078431 0.062745 0.039216
vn -5.336914 3.076464 0.475196
v 0.005258 0.001916 0.030279 0.078431 0.062745 0.039216
vn -5.919378 1.756195 0.478326
v 0.004911 0.001092 0.030279 0.078431 0.062745 0.039216
vn -6.172119 0.643212 0.480384
v 0.004801 0.000480 0.030279 0.078431 0.062745 0.039216
vn -6.234187 0.000000 0.481948
v 0.004787 0.000000 0.030279 0.078431 0.062745 0.039216
vn -6.172119 -0.643216 0.480380
v 0.004801 -0.000480 0.030279 0.078431 0.062745 0.039216
vn -5.919379 -1.756196 0.478321
v 0.004911 -0.001092 0.030279 0.078431 0.062745 0.039216
vn -5.336911 -3.076465 0.475201
v 0.005258 -0.001916 0.030279 0.078431 0.062745 0.039216
vn -4.240240 -4.240006 1.428384
v 0.006039 -0.002788 0.030907 0.078431 0.062745 0.039216
vn -3.001500 -5.205970 1.435567
v 0.006958 -0.003483 0.030907 0.078431 0.062745 0.039216
vn -1.712944 -5.772672 1.445161
v 0.007762 -0.003822 0.030907 0.078431 0.062745 0.039216
vn -0.627244 -6.018604 1.451543
v 0.008360 -0.003930 0.030907 0.078431 0.062745 0.039216
vn -0.000170 -6.078960 1.456843
v 0.008828 -0.003943 0.030907 0.078431 0.062745 0.039216
vn 0.626932 -6.018600 1.451677
v 0.009296 -0.003930 0.030907 0.078431 0.062745 0.039216
vn 1.712612 -5.772675 1.445597
v 0.009894 -0.003822 0.030908 0.078431 0.062745 0.039216
vn 3.001183 -5.206005 1.436234
v 0.010698 -0.003483 0.030908 0.078431 0.062745 0.039216
vn 4.239912 -4.240054 1.429306
v 0.011616 -0.002788 0.030908 0.078431 0.062745 0.039216
vn 5.205936 -3.001193 1.436244
v 0.012311 -0.001870 0.030908 0.078431 0.062745 0.039216
vn 5.772539 -1.712910 1.445885
v 0.012650 -0.001066 0.030908 0.078431 0.062745 0.039216
vn 6.018407 -0.627422 1.452041
v 0.012758 -0.000468 0.030908 0.078431 0.062745 0.039216
vn 6.078806 -0.000010 1.457496
v 0.012771 0.000000 0.030908 0.078431 0.062745 0.039216
vn 6.018400 0.627424 1.452049
v 0.012758 0.000468 0.030908 0.078431 0.062745 0.039216
vn 5.772545 1.712922 1.445873
v 0.012650 0.001066 0.030908 0.078431 0.062745 0.039216
vn 5.205934 3.001192 1.436252
v 0.012311 0.001870 0.030908 0.078431 0.062745 0.039216
vn 4.239909 4.240057 1.429306
v 0.011616 0.002788 0.030908 0.078431 0.062745 0.039216
vn 3.001185 5.206008 1.436226
v 0.010698 0.003483 0.030908 0.078431 0.062745 0.039216
vn 1.712610 5.772673 1.445561
v 0.009894 0.003822 0.030908 0.078431 0.062745 0.039216
vn 0.626923 6.018607 1.451671
v 0.009296 0.003930 0.030907 0.078431 0.062745 0.039216
vn -0.000161 6.078962 1.456839
v 0.008828 0.003943 0.030907 0.078431 0.062745 0.039216
vn -0.627238 6.018603 1.451545
v 0.008360 0.003930 0.030907 0.078431 0.062745 0.039216
vn -1.712940 5.772675 1.445157
v 0.007762 0.003822 0.030907 0.078431 0.062745 0.039216
vn -3.001499 5.205963 1.435575
v 0.006958 0.003483 0.030907 0.078431 0.062745 0.039216
vn -4.240246 4.240001 1.428384
v 0.006039 0.002788 0.030907 0.078431 0.062745 0.039216
vn -5.206287 3.001307 1.435194
v 0.005345 0.001870 0.030907 0.078431 0.062745 0.039216
vn -5.772805 1.712814 1.444742
v 0.005006 0.001066 0.030907 0.078431 0.062745 0.039216
vn -6.018786 0.627360 1.450894
v 0.004898 0.000468 0.030907 0.078431 0.062745 0.039216
vn -6.079097 0.000006 1.455889
v 0.004884 0.000000 0.030907 0.078431 0.062745 0.039216
vn -6.018781 -0.627359 1.450899
v 0.004898 -0.000468 0.030907 0.078431 0.062745 0.039216
vn -5.772807 -1.712818 1.444738
v 0.005006 -0.001066 0.030907 0.078431 0.062745 0.039216
vn -5.206282 -3.001308 1.435205
v 0.005345 -0.001870 0.030907 0.078431 0.062745 0.039216
vn -4.022139 -4.022049 2.387369
v 0.006186 -0.002642 0.031540 0.078431 0.062745 0.039216
vn -2.846313 -4.935942 2.398366
v 0.007056 -0.003300 0.031540 0.078431 0.062745 0.039216
vn -1.623421 -5.469871 2.413183
v 0.007818 -0.003621 0.031540 0.078431 0.062745 0.039216
vn -0.594198 -5.701266 2.423227
v 0.008384 -0.003723 0.031540 0.078431 0.062745 0.039216
vn -0.000274 -5.757263 2.431974
v 0.008828 -0.003736 0.031540 0.078431 0.062745 0.039216
vn 0.593675 -5.701265 2.423350
v 0.009272 -0.003723 0.031540 0.078431 0.062745 0.039216
vn 1.622868 -5.469910 2.413499
v 0.009837 -0.003621 0.031540 0.078431 0.062745 0.039216
vn 2.845812 -4.935882 2.398940
v 0.010599 -0.003300 0.031540 0.078431 0.062745 0.039216
vn 4.021708 -4.022038 2.388176
v 0.011470 -0.002642 0.031540 0.078431 0.062745 0.039216
vn 4.935654 -2.846016 2.399129
v 0.012128 -0.001772 0.031540 0.078431 0.062745 0.039216
vn 5.469744 -1.623319 2.413782
v 0.012449 -0.001010 0.031540 0.078431 0.062745 0.039216
vn 5.700913 -0.594081 2.423966
v 0.012551 -0.000444 0.031540 0.078431 0.062745 0.039216
vn 5.756929 0.000001 2.432718
v 0.012564 0.000000 0.031540 0.078431 0.062745 0.039216
vn 5.700910 0.594080 2.423975
v 0.012551 0.000444 0.031540 0.078431 0.062745 0.039216
vn 5.469743 1.623325 2.413782
v 0.012449 0.001010 0.031540 0.078431 0.062745 0.039216
vn 4.935652 2.846018 2.399133
v 0.012128 0.001772 0.031540 0.078431 0.062745 0.039216
vn 4.021706 4.022039 2.388176
v 0.011470 0.002642 0.031540 0.078431 0.062745 0.039216
vn 2.845808 4.935884 2.398937
v 0.010599 0.003300 0.031540 0.078431 0.062745 0.039216
vn 1.622864 5.469909 2.413503
v 0.009837 0.003621 0.031540 0.078431 0.062745 0.039216
vn 0.593675 5.701268 2.423339
v 0.009272 0.003723 0.031540 0.078431 0.062745 0.039216
vn -0.000276 5.757266 2.431965
v 0.008828 0.003736 0.031540 0.078431 0.062745 0.039216
vn -0.594196 5.701267 2.423223
v 0.008384 0.003723 0.031540 0.078431 0.062745 0.039216
vn -1.623420 5.469874 2.413182
v 0.007818 0.003621 0.031540 0.078431 0.062745 0.039216
vn -2.846318 4.935937 2.398376
v 0.007056 0.003300 0.031540 0.078431 0.062745 0.039216
vn -4.022141 4.022047 2.387369
v 0.006186 0.002642 0.031540 0.078431 0.062745 0.039216
vn -4.936237 2.845994 2.397882
v 0.005527 0.001772 0.031540 0.078431 0.062745 0.039216
vn -5.470299 1.623091 2.412537
v 0.005206 0.001010 0.031540 0.078431 0.062745 0.039216
vn -5.701573 0.594241 2.422640
v 0.005104 0.000444 0.031540 0.078431 0.062745 0.039216
vn -5.757471 -0.000001 2.431316
v 0.005091 0.000000 0.031540 0.078431 0.062745 0.039216
vn -5.701572 -0.594241 2.422646
v 0.005104 -0.000444 0.031540 0.078431 0.062745 0.039216
vn -5.470298 -1.623094 2.412541
v 0.005206 -0.001010 0.031540 0.078431 0.062745 0.039216
vn -4.936233 -2.845996 2.397889
v 0.005527 -0.001772 0.031540 0.078431 0.062745 0.039216
vn -3.687011 -3.686687 3.314431
v 0.006412 -0.002416 0.032149 0.078431 0.062745 0.039216
vn -2.607887 -4.521108 3.327433
v 0.007208 -0.003018 0.032149 0.078431 0.062745 0.039216
vn -1.486217 -5.005775 3.345221
v 0.007905 -0.003311 0.032149 0.078431 0.062745 0.039216
vn -0.543444 -5.214478 3.358138
v 0.008422 -0.003404 0.032149 0.078431 0.062745 0.039216
vn -0.000375 -5.263270 3.369890
v 0.008828 -0.003416 0.032149 0.078431 0.062745 0.039216
vn 0.542708 -5.214479 3.358254
v 0.009233 -0.003404 0.032149 0.078431 0.062745 0.039216
vn 1.485498 -5.005766 3.345550
v 0.009751 -0.003311 0.032149 0.078431 0.062745 0.039216
vn 2.607148 -4.521102 3.328069
v 0.010447 -0.003018 0.032149 0.078431 0.062745 0.039216
vn 3.686325 -3.686641 3.315102
v 0.011243 -0.002416 0.032149 0.078431 0.062745 0.039216
vn 4.520704 -2.607531 3.328302
v 0.011845 -0.001620 0.032149 0.078431 0.062745 0.039216
vn 5.005439 -1.485669 3.345881
v 0.012139 -0.000923 0.032149 0.078431 0.062745 0.039216
vn 5.214190 -0.543148 3.358848
v 0.012232 -0.000406 0.032149 0.078431 0.062745 0.039216
vn 5.262951 0.000001 3.370298
v 0.012244 0.000000 0.032149 0.078431 0.062745 0.039216
vn 5.214190 0.543151 3.358848
v 0.012232 0.000406 0.032149 0.078431 0.062745 0.039216
vn 5.005439 1.485671 3.345880
v 0.012139 0.000923 0.032149 0.078431 0.062745 0.039216
vn 4.520703 2.607533 3.328302
v 0.011845 0.001620 0.032149 0.078431 0.062745 0.039216
vn 3.686323 3.686642 3.315101
v 0.011243 0.002416 0.032149 0.078431 0.062745 0.039216
vn 2.607143 4.521105 3.328067
v 0.010447 0.003018 0.032149 0.078431 0.062745 0.039216
vn 1.485494 5.005769 3.345550
v 0.009751 0.003311 0.032149 0.078431 0.062745 0.039216
vn 0.542710 5.214479 3.358253
v 0.009233 0.003404 0.032149 0.078431 0.062745 0.039216
vn -0.000377 5.263270 3.369890
v 0.008828 0.003416 0.032149 0.078431 0.062745 0.039216
vn -0.543443 5.214478 3.358139
v 0.008422 0.003404 0.032149 0.078431 0.062745 0.039216
vn -1.486221 5.005771 3.345221
v 0.007905 0.003311 0.032149 0.078431 0.062745 0.039216
vn -2.607892 4.521105 3.327434
v 0.007208 0.003018 0.032149 0.078431 0.062745 0.039216
vn -3.687012 3.686686 3.314431
v 0.006412 0.002416 0.032149 0.078431 0.062745 0.039216
vn -4.521349 2.607530 3.327389
v 0.005810 0.001620 0.032149 0.078431 0.062745 0.039216
vn -5.006083 1.485576 3.344887
v 0.005517 0.000923 0.032149 0.078431 0.062745 0.039216
vn -5.214927 0.543275 3.357627
v 0.005424 0.000406 0.032149 0.078431 0.062745 0.039216
vn -5.263674 -0.000001 3.369171
v 0.005412 0.000000 0.032149 0.078431 0.062745 0.039216
vn -5.214927 -0.543276 3.357627
v 0.005424 -0.000406 0.032149 0.078431 0.062745 0.039216
vn -5.006083 -1.485578 3.344887
v 0.005517 -0.000923 0.032149 0.078431 0.062745 0.039216
vn -4.521348 -2.607532 3.327389
v 0.005810 -0.001620 0.032149 0.078431 0.062745 0.039216
vn -3.238873 -3.238396 4.166845
v 0.006715 -0.002113 0.032704 0.078431 0.062745 0.039216
vn -2.289477 -3.967552 4.180161
v 0.007411 -0.002640 0.032704 0.078431 0.062745 0.039216
vn -1.303047 -4.387928 4.198029
v 0.008020 -0.002896 0.032704 0.078431 0.062745 0.039216
vn -0.476031 -4.567147 4.212012
v 0.008473 -0.002978 0.032704 0.078431 0.062745 0.039216
vn -0.000467 -4.606357 4.225066
v 0.008828 -0.002988 0.032704 0.078431 0.062745 0.039216
vn 0.475114 -4.567147 4.212112
v 0.009183 -0.002978 0.032705 0.078431 0.062745 0.039216
vn 1.302165 -4.387920 4.198308
v 0.009635 -0.002896 0.032705 0.078431 0.062745 0.039216
vn 2.288566 -3.967548 4.180676
v 0.010244 -0.002640 0.032705 0.078431 0.062745 0.039216
vn 3.237905 -3.238385 4.167649
v 0.010941 -0.002113 0.032705 0.078431 0.062745 0.039216
vn 3.967016 -2.289155 4.180915
v 0.011467 -0.001417 0.032705 0.078431 0.062745 0.039216
vn 4.387467 -1.302661 4.198594
v 0.011724 -0.000807 0.032705 0.078431 0.062745 0.039216
vn 4.566690 -0.475588 4.212509
v 0.011805 -0.000355 0.032705 0.078431 0.062745 0.039216
vn 4.605801 0.000001 4.225653
v 0.011816 0.000000 0.032705 0.078431 0.062745 0.039216
vn 4.566690 0.475589 4.212510
v 0.011805 0.000355 0.032705 0.078431 0.062745 0.039216
vn 4.387466 1.302663 4.198594
v 0.011724 0.000807 0.032705 0.078431 0.062745 0.039216
vn 3.967015 2.289157 4.180915
v 0.011467 0.001417 0.032705 0.078431 0.062745 0.039216
vn 3.237904 3.238387 4.167649
v 0.010941 0.002113 0.032705 0.078431 0.062745 0.039216
vn 2.288564 3.967549 4.180676
v 0.010244 0.002640 0.032705 0.078431 0.062745 0.039216
vn 1.302164 4.387921 4.198306
v 0.009635 0.002896 0.032705 0.078431 0.062745 0.039216
vn 0.475113 4.567147 4.212112
v 0.009183 0.002978 0.032705 0.078431 0.062745 0.039216
vn -0.000469 4.606357 4.225066
v 0.008828 0.002988 0.032704 0.078431 0.062745 0.039216
vn -0.476032 4.567146 4.212012
v 0.008473 0.002978 0.032704 0.078431 0.062745 0.039216
vn -1.303048 4.387927 4.198030
v 0.008020 0.002896 0.032704 0.078431 0.062745 0.039216
vn -2.289479 3.967551 4.180161
v 0.007411 0.002640 0.032704 0.078431 0.062745 0.039216
vn -3.238874 3.238395 4.166845
v 0.006715 0.002113 0.032704 0.078431 0.062745 0.039216
vn -3.967917 2.289061 4.180050
v 0.006188 0.001417 0.032704 0.078431 0.062745 0.039216
vn -4.388442 1.302785 4.197676
v 0.005932 0.000807 0.032704 0.078431 0.062745 0.039216
vn -4.567590 0.475846 4.211468
v 0.005850 0.000355 0.032704 0.078431 0.062745 0.039216
vn -4.606712 -0.000001 4.224658
v 0.005840 0.000000 0.032704 0.078431 0.062745 0.039216
vn -4.567590 -0.475846 4.211468
v 0.005850 -0.000355 0.032704 0.078431 0.062745 0.039216
vn -4.388441 -1.302786 4.197676
v 0.005932 -0.000807 0.032704 0.078431 0.062745 0.039216
vn -3.967916 -2.289063 4.180050
v 0.006188 -0.001417 0.032704 0.078431 0.062745 0.039216
vn -2.691832 -2.691150 4.904557
v 0.007082 -0.001745 0.033179 0.078431 0.062745 0.039216
vn -1.901391 -3.293371 4.916207
v 0.007657 -0.002180 0.033180 0.078431 0.062745 0.039216
vn -1.080943 -3.637584 4.931575
v 0.008161 -0.002392 0.033180 0.078431 0.062745 0.039216
vn -0.394324 -3.781871 4.944600
v 0.008535 -0.002460 0.033180 0.078431 0.062745 0.039216
vn -0.000546 -3.809798 4.957838
v 0.008828 -0.002468 0.033180 0.078431 0.062745 0.039216
vn 0.393195 -3.781950 4.944640
v 0.009121 -0.002460 0.033180 0.078431 0.062745 0.039216
vn 1.079955 -3.637757 4.931695
v 0.009495 -0.002392 0.033180 0.078431 0.062745 0.039216
vn 1.900436 -3.293402 4.916575
v 0.009998 -0.002180 0.033180 0.078431 0.062745 0.039216
vn 2.690700 -2.691213 4.905163
v 0.010573 -0.001745 0.033180 0.078431 0.062745 0.039216
vn 3.292930 -1.900998 4.916671
v 0.011008 -0.001170 0.033180 0.078431 0.062745 0.039216
vn 3.637236 -1.080309 4.931959
v 0.011220 -0.000667 0.033180 0.078431 0.062745 0.039216
vn 3.781425 -0.393780 4.945111
v 0.011287 -0.000293 0.033180 0.078431 0.062745 0.039216
vn 3.809350 0.000000 4.958123
v 0.011296 0.000000 0.033180 0.078431 0.062745 0.039216
vn 3.781424 0.393782 4.945110
v 0.011287 0.000293 0.033180 0.078431 0.062745 0.039216
vn 3.637235 1.080311 4.931959
v 0.011220 0.000667 0.033180 0.078431 0.062745 0.039216
vn 3.292929 1.901000 4.916671
v 0.011008 0.001170 0.033180 0.078431 0.062745 0.039216
vn 2.690699 2.691214 4.905163
v 0.010573 0.001745 0.033180 0.078431 0.062745 0.039216
vn 1.900435 3.293402 4.916575
v 0.009998 0.002180 0.033180 0.078431 0.062745 0.039216
vn 1.079954 3.637757 4.931695
v 0.009495 0.002392 0.033180 0.078431 0.062745 0.039216
vn 0.393194 3.781950 4.944640
v 0.009121 0.002460 0.033180 0.078431 0.062745 0.039216
vn -0.000547 3.809798 4.957838
v 0.008828 0.002468 0.033180 0.078431 0.062745 0.039216
vn -0.394271 3.781949 4.944557
v 0.008535 0.002460 0.033180 0.078431 0.062745 0.039216
vn -1.080996 3.637762 4.931466
v 0.008161 0.002392 0.033180 0.078431 0.062745 0.039216
vn -1.901472 3.293398 4.916172
v 0.007657 0.002180 0.033180 0.078431 0.062745 0.039216
vn -2.691833 2.691150 4.904557
v 0.007082 0.001745 0.033179 0.078431 0.062745 0.039216
vn -3.293907 1.901002 4.916087
v 0.006647 0.001170 0.033179 0.078431 0.062745 0.039216
vn -3.638093 1.080397 4.931246
v 0.006435 0.000667 0.033179 0.078431 0.062745 0.039216
vn -3.782340 0.393794 4.944384
v 0.006368 0.000293 0.033179 0.078431 0.062745 0.039216
vn -3.810316 -0.000000 4.957366
v 0.006359 0.000000 0.033179 0.078431 0.062745 0.039216
vn -3.782417 -0.393742 4.944341
v 0.006368 -0.000293 0.033179 0.078431 0.062745 0.039216
vn -3.638269 -1.080451 4.931139
v 0.006435 -0.000667 0.033179 0.078431 0.062745 0.039216
vn -3.293933 -1.901082 4.916052
v 0.006647 -0.001170 0.033179 0.078431 0.062745 0.039216
vn -2.068462 -2.068029 5.495664
v 0.007498 -0.001330 0.033554 0.078431 0.062745 0.039216
vn -1.459991 -2.527624 5.504125
v 0.007936 -0.001661 0.033554 0.078431 0.062745 0.039216
vn -0.829180 -2.788097 5.515255
v 0.008319 -0.001823 0.033554 0.078431 0.062745 0.039216
vn -0.302049 -2.893777 5.525962
v 0.008604 -0.001874 0.033554 0.078431 0.062745 0.039216
vn -0.000609 -2.910005 5.537342
v 0.008828 -0.001881 0.033554 0.078431 0.062745 0.039216
vn 0.300329 -2.893814 5.526084
v 0.009051 -0.001874 0.033554 0.078431 0.062745 0.039216
vn 0.827773 -2.787895 5.515420
v 0.009336 -0.001823 0.033554 0.078431 0.062745 0.039216
vn 1.459132 -2.527431 5.504480
v 0.009719 -0.001661 0.033554 0.078431 0.062745 0.039216
vn 2.067309 -2.068015 5.496108
v 0.010157 -0.001330 0.033554 0.078431 0.062745 0.039216
vn 2.526809 -1.459731 5.504592
v 0.010489 -0.000892 0.033554 0.078431 0.062745 0.039216
vn 2.787276 -0.828311 5.515631
v 0.010650 -0.000508 0.033554 0.078431 0.062745 0.039216
vn 2.893199 -0.300972 5.526349
v 0.010702 -0.000223 0.033554 0.078431 0.062745 0.039216
vn 2.909315 0.000001 5.537693
v 0.010708 0.000000 0.033554 0.078431 0.062745 0.039216
vn 2.893199 0.300973 5.526349
v 0.010702 0.000223 0.033554 0.078431 0.062745 0.039216
vn 2.787275 0.828312 5.515631
v 0.010650 0.000508 0.033554 0.078431 0.062745 0.039216
vn 2.526809 1.459732 5.504592
v 0.010489 0.000892 0.033554 0.078431 0.062745 0.039216
vn 2.067308 2.068015 5.496108
v 0.010157 0.001330 0.033554 0.078431 0.062745 0.039216
vn 1.459132 2.527432 5.504480
v 0.009719 0.001661 0.033554 0.078431 0.062745 0.039216
vn 0.827772 2.787895 5.515420
v 0.009336 0.001823 0.033554 0.078431 0.062745 0.039216
vn 0.300328 2.893815 5.526084
v 0.009051 0.001874 0.033554 0.078431 0.062745 0.039216
vn -0.000609 2.910005 5.537342
v 0.008828 0.001881 0.033554 0.078431 0.062745 0.039216
vn -0.301529 2.893813 5.526021
v 0.008604 0.001874 0.033554 0.078431 0.062745 0.039216
vn -0.828951 2.787893 5.515245
v 0.008319 0.001823 0.033554 0.078431 0.062745 0.039216
vn -1.460291 2.527430 5.504177
v 0.007936 0.001661 0.033554 0.078431 0.062745 0.039216
vn -2.068463 2.068028 5.495664
v 0.007498 0.001330 0.033554 0.078431 0.062745 0.039216
vn -2.528275 1.459440 5.503940
v 0.007166 0.000892 0.033554 0.078431 0.062745 0.039216
vn -2.788706 0.828356 5.515018
v 0.007005 0.000508 0.033554 0.078431 0.062745 0.039216
vn -2.894315 0.301544 5.525770
v 0.006954 0.000223 0.033554 0.078431 0.062745 0.039216
vn -2.910602 -0.000000 5.536965
v 0.006947 0.000000 0.033554 0.078431 0.062745 0.039216
vn -2.894350 -0.301023 5.525828
v 0.006954 -0.000223 0.033554 0.078431 0.062745 0.039216
vn -2.788503 -0.828123 5.515008
v 0.007005 -0.000508 0.033554 0.078431 0.062745 0.039216
vn -2.528084 -1.459737 5.503991
v 0.007166 -0.000892 0.033554 0.078431 0.062745 0.039216
vn -1.398469 -1.397949 5.920253
v 0.007941 -0.000887 0.033817 0.078431 0.062745 0.039216
vn -0.986541 -1.705834 5.925360
v 0.008233 -0.001108 0.033817 0.078431 0.062745 0.039216
vn -0.559256 -1.878804 5.931718
v 0.008489 -0.001216 0.033817 0.078431 0.062745 0.039216
vn -0.202888 -1.945373 5.939040
v 0.008679 -0.001250 0.033817 0.078431 0.062745 0.039216
vn -0.000653 -1.950408 5.947115
v 0.008828 -0.001254 0.033817 0.078431 0.062745 0.039216
vn 0.201599 -1.945375 5.939082
v 0.008977 -0.001250 0.033817 0.078431 0.062745 0.039216
vn 0.557954 -1.878735 5.931870
v 0.009167 -0.001216 0.033817 0.078431 0.062745 0.039216
vn 0.985273 -1.705841 5.925567
v 0.009422 -0.001108 0.033817 0.078431 0.062745 0.039216
vn 1.397252 -1.397936 5.920535
v 0.009715 -0.000887 0.033817 0.078431 0.062745 0.039216
vn 1.705290 -0.985794 5.925616
v 0.009936 -0.000595 0.033817 0.078431 0.062745 0.039216
vn 1.878102 -0.558442 5.932052
v 0.010043 -0.000339 0.033817 0.078431 0.062745 0.039216
vn 1.944674 -0.202237 5.939306
v 0.010078 -0.000149 0.033817 0.078431 0.062745 0.039216
vn 1.949709 0.000000 5.947358
v 0.010082 0.000000 0.033817 0.078431 0.062745 0.039216
vn 1.944674 0.202238 5.939306
v 0.010078 0.000149 0.033817 0.078431 0.062745 0.039216
vn 1.878102 0.558442 5.932052
v 0.010043 0.000339 0.033817 0.078431 0.062745 0.039216
vn 1.705287 0.985798 5.925615
v 0.009936 0.000595 0.033817 0.078431 0.062745 0.039216
vn 1.397246 1.397936 5.920539
v 0.009715 0.000887 0.033817 0.078431 0.062745 0.039216
vn 0.985275 1.705839 5.925567
v 0.009422 0.001108 0.033817 0.078431 0.062745 0.039216
vn 0.557953 1.878736 5.931870
v 0.009167 0.001216 0.033817 0.078431 0.062745 0.039216
vn 0.201599 1.945375 5.939082
v 0.008977 0.001250 0.033817 0.078431 0.062745 0.039216
vn -0.000653 1.950408 5.947115
v 0.008828 0.001254 0.033817 0.078431 0.062745 0.039216
vn -0.202888 1.945372 5.939040
v 0.008679 0.001250 0.033817 0.078431 0.062745 0.039216
vn -0.559232 1.878733 5.931749
v 0.008489 0.001216 0.033817 0.078431 0.062745 0.039216
vn -0.986542 1.705834 5.925360
v 0.008233 0.001108 0.033817 0.078431 0.062745 0.039216
vn -1.398471 1.397947 5.920252
v 0.007941 0.000887 0.033817 0.078431 0.062745 0.039216
vn -1.706531 0.985806 5.925252
v 0.007720 0.000595 0.033817 0.078431 0.062745 0.039216
vn -1.879474 0.558434 5.931604
v 0.007612 0.000339 0.033817 0.078431 0.062745 0.039216
vn -1.945987 0.202278 5.938866
v 0.007578 0.000149 0.033817 0.078431 0.062745 0.039216
vn -1.950970 -0.000000 5.946943
v 0.007573 0.000000 0.033817 0.078431 0.062745 0.039216
vn -1.945987 -0.202279 5.938866
v 0.007578 -0.000149 0.033817 0.078431 0.062745 0.039216
vn -1.879404 -0.558409 5.931636
v 0.007612 -0.000339 0.033817 0.078431 0.062745 0.039216
vn -1.706531 -0.985807 5.925252
v 0.007720 -0.000595 0.033817 0.078431 0.062745 0.039216
vn -0.712580 -0.711915 6.173784
v 0.008390 -0.000438 0.033968 0.078431 0.062745 0.039216
vn -0.502113 -0.866371 6.175843
v 0.008534 -0.000547 0.033968 0.078431 0.062745 0.039216
vn -0.283919 -0.951776 6.178389
v 0.008660 -0.000600 0.033968 0.078431 0.062745 0.039216
vn -0.102328 -0.979774 6.181916
v 0.008754 -0.000617 0.033968 0.078431 0.062745 0.039216
vn -0.000679 -0.974889 6.186027
v 0.008828 -0.000619 0.033968 0.078431 0.062745 0.039216
vn 0.100989 -0.979777 6.181936
v 0.008901 -0.000617 0.033968 0.078431 0.062745 0.039216
vn 0.282594 -0.951767 6.178450
v 0.008995 -0.000600 0.033968 0.078431 0.062745 0.039216
vn 0.500781 -0.866355 6.175953
v 0.009121 -0.000547 0.033968 0.078431 0.062745 0.039216
vn 0.711242 -0.711899 6.173938
v 0.009265 -0.000438 0.033968 0.078431 0.062745 0.039216
vn 0.865665 -0.501446 6.175997
v 0.009374 -0.000293 0.033968 0.078431 0.062745 0.039216
vn 0.951123 -0.283234 6.178516
v 0.009427 -0.000167 0.033968 0.078431 0.062745 0.039216
vn 0.979134 -0.101658 6.182024
v 0.009444 -0.000073 0.033968 0.078431 0.062745 0.039216
vn 0.974261 0.000000 6.186120
v 0.009447 0.000000 0.033968 0.078431 0.062745 0.039216
vn 0.979134 0.101658 6.182024
v 0.009444 0.000073 0.033968 0.078431 0.062745 0.039216
vn 0.951123 0.283236 6.178516
v 0.009427 0.000167 0.033968 0.078431 0.062745 0.039216
vn 0.865664 0.501447 6.175997
v 0.009374 0.000293 0.033968 0.078431 0.062745 0.039216
vn 0.711245 0.711900 6.173937
v 0.009265 0.000438 0.033968 0.078431 0.062745 0.039216
vn 0.500782 0.866355 6.175952
v 0.009121 0.000547 0.033968 0.078431 0.062745 0.039216
vn 0.282594 0.951767 6.178450
v 0.008995 0.000600 0.033968 0.078431 0.062745 0.039216
vn 0.100989 0.979777 6.181936
v 0.008901 0.000617 0.033968 0.078431 0.062745 0.039216
vn -0.000679 0.974889 6.186027
v 0.008828 0.000619 0.033968 0.078431 0.062745 0.039216
vn -0.102328 0.979774 6.181916
v 0.008754 0.000617 0.033968 0.078431 0.062745 0.039216
vn -0.283919 0.951776 6.178389
v 0.008660 0.000600 0.033968 0.078431 0.062745 0.039216
vn -0.502113 0.866371 6.175843
v 0.008534 0.000547 0.033968 0.078431 0.062745 0.039216
vn -0.712582 0.711914 6.173783
v 0.008390 0.000438 0.033968 0.078431 0.062745 0.039216
vn -0.867011 0.501448 6.175810
v 0.008281 0.000293 0.033968 0.078431 0.062745 0.039216
vn -0.952449 0.283245 6.178318
v 0.008228 0.000167 0.033968 0.078431 0.062745 0.039216
vn -0.980485 0.101656 6.181811
v 0.008211 0.000073 0.033968 0.078431 0.062745 0.039216
vn -0.975578 -0.000000 6.185920
v 0.008209 0.000000 0.033968 0.078431 0.062745 0.039216
vn -0.980485 -0.101656 6.181811
v 0.008211 -0.000073 0.033968 0.078431 0.062745 0.039216
vn -0.952449 -0.283244 6.178318
v 0.008228 -0.000167 0.033968 0.078431 0.062745 0.039216
vn -0.867011 -0.501449 6.175810
v 0.008281 -0.000293 0.033968 0.078431 0.062745 0.039216
vn 0.000000 0.000000 0.000000
v 0.008828 0.000000 0.034015 0.078431 0.062745 0.039216
vn -0.013605 -0.017944 0.291069
v 0.008828 0.000000 0.034015 0.078431 0.062745 0.039216
vn -0.008640 -0.026977 0.371857
v 0.008828 0.000000 0.034015 0.078431 0.062745 0.039216
vn -0.000276 -0.009022 0.117836
v 0.008828 0.000000 0.034015 0.078431 0.062745 0.039216
vn 0.000000 0.000000 0.000000
v 0.008828 0.000000 0.034015 0.078431 0.062745 0.039216
vn 0.000251 -0.009031 0.117959
v 0.008828 0.000000 0.034015 0.078431 0.062745 0.039216
vn 0.008560 -0.026975 0.371841
v 0.008828 0.000000 0.034015 0.078431 0.062745 0.039216
vn 0.013540 -0.017941 0.291053
v 0.008828 0.000000 0.034015 0.078431 0.062745 0.039216
vn 0.000000 0.000000 0.000000
v 0.008828 0.000000 0.034015 0.078431 0.062745 0.039216
vn 0.017910 -0.013571 0.291047
v 0.008828 0.000000 0.034015 0.078431 0.062745 0.039216
vn 0.026933 -0.008599 0.371832
v 0.008828 0.000000 0.034015 0.078431 0.062745 0.039216
vn 0.009013 -0.000264 0.117892
v 0.008828 0.000000 0.034015 0.078431 0.062745 0.039216
vn 0.000000 0.000000 0.000000
v 0.008828 0.000000 0.034015 0.078431 0.062745 0.039216
vn 0.009013 0.000264 0.117892
v 0.008828 0.000000 0.034015 0.078431 0.062745 0.039216
vn 0.026933 0.008599 0.371831
v 0.008828 0.000000 0.034015 0.078431 0.062745 0.039216
vn 0.017910 0.013571 0.291048
v 0.008828 0.000000 0.034015 0.078431 0.062745 0.039216
vn 0.000000 0.000000 0.000000
v 0.008828 0.000000 0.034015 0.078431 0.062745 0.039216
vn 0.013540 0.017941 0.291053
v 0.008828 0.000000 0.034015 0.078431 0.062745 0.039216
vn 0.008560 0.026975 0.371841
v 0.008828 0.000000 0.034015 0.078431 0.062745 0.039216
vn 0.000251 0.009031 0.117959
v 0.008828 0.000000 0.034015 0.078431 0.062745 0.039216
vn 0.000000 0.000000 0.000000
v 0.008828 0.000000 0.034015 0.078431 0.062745 0.039216
vn -0.000276 0.009022 0.117836
v 0.008828 0.000000 0.034015 0.078431 0.062745 0.039216
vn -0.008641 0.026977 0.371857
v 0.008828 0.000000 0.034015 0.078431 0.062745 0.039216
vn -0.013605 0.017944 0.291069
v 0.008828 0.000000 0.034015 0.078431 0.062745 0.039216
vn 0.000000 0.000000 0.000000
v 0.008828 0.000000 0.034015 0.078431 0.062745 0.039216
vn -0.017976 0.013574 0.291073
v 0.008828 0.000000 0.034015 0.078431 0.062745 0.039216
vn -0.027019 0.008601 0.371867
v 0.008828 0.000000 0.034015 0.078431 0.062745 0.039216
vn -0.009040 0.000263 0.117904
v 0.008828 0.000000 0.034015 0.078431 0.062745 0.039216
vn 0.000000 0.000000 0.000000
v 0.008828 0.000000 0.034015 0.078431 0.062745 0.039216
vn -0.009040 -0.000263 0.117904
v 0.008828 0.000000 0.034015 0.078431 0.062745 0.039216
vn -0.027019 -0.008601 0.371868
v 0.008828 0.000000 0.034015 0.078431 0.062745 0.039216
vn -0.017976 -0.013574 0.291072
v 0.008828 0.000000 0.034015 0.078431 0.062745 0.039216
# 640 vertices, 0 vertices normals

f 33//33 64//64 32//32
f 2//2 34//34 33//33
f 3//3 35//35 34//34
f 36//36 35//35 3//3
f 37//37 36//36 4//4
f 6//6 38//38 37//37
f 7//7 39//39 38//38
f 40//40 39//39 7//7
f 41//41 40//40 8//8
f 10//10 42//42 41//41
f 11//11 43//43 42//42
f 44//44 43//43 11//11
f 45//45 44//44 12//12
f 14//14 46//46 45//45
f 15//15 47//47 46//46
f 48//48 47//47 15//15
f 49//49 48//48 16//16
f 18//18 50//50 49//49
f 19//19 51//51 50//50
f 52//52 51//51 19//19
f 53//53 52//52 20//20
f 22//22 54//54 53//53
f 23//23 55//55 54//54
f 56//56 55//55 23//23
f 57//57 56//56 24//24
f 26//26 58//58 57//57
f 27//27 59//59 58//58
f 60//60 59//59 27//27
f 61//61 60//60 28//28
f 30//30 62//62 61//61
f 31//31 63//63 62//62
f 64//64 63//63 31//31
f 65//65 96//96 64//64
f 34//34 66//66 65//65
f 35//35 67//67 66//66
f 68//68 67//67 35//35
f 69//69 68//68 36//36
f 38//38 70//70 69//69
f 39//39 71//71 70//70
f 72//72 71//71 39//39
f 73//73 72//72 40//40
f 42//42 74//74 73//73
f 43//43 75//75 74//74
f 76//76 75//75 43//43
f 77//77 76//76 44//44
f 46//46 78//78 77//77
f 47//47 79//79 78//78
f 80//80 79//79 47//47
f 81//81 80//80 48//48
f 50//50 82//82 81//81
f 51//51 83//83 82//82
f 84//84 83//83 51//51
f 85//85 84//84 52//52
f 54//54 86//86 85//85
f 55//55 87//87 86//86
f 88//88 87//87 55//55
f 89//89 88//88 56//56
f 58//58 90//90 89//89
f 59//59 91//91 90//90
f 92//92 91//91 59//59
f 93//93 92//92 60//60
f 62//62 94//94 93//93
f 63//63 95//95 94//94
f 96//96 95//95 63//63
f 97//97 128//128 96//96
f 66//66 98//98 97//97
f 67//67 99//99 98//98
f 100//100 99//99 67//67
f 101//101 100//100 68//68
f 70//70 102//102 101//101
f 71//71 103//103 102//102
f 104//104 103//103 71//71
f 105//105 104//104 72//72
f 74//74 106//106 105//105
f 75//75 107//107 106//106
f 108//108 107//107 75//75
f 109//109 108//108 76//76
f 78//78 110//110 109//109
f 79//79 111//111 110//110
f 112//112 111//111 79//79
f 113//113 112//112 80//80
f 82//82 114//114 113//113
f 83//83 115//115 114//114
f 116//116 115//115 83//83
f 117//117 116//116 84//84
f 86//86 118//118 117//117
f 87//87 119//119 118//118
f 120//120 119//119 87//87
f 121//121 120//120 88//88
f 90//90 122//122 121//121
f 91//91 123//123 122//122
f 124//124 123//123 91//91
f 125//125 124//124 92//92
f 94//94 126//126 125//125
f 95//95 127//127 126//126
f 128//128 127//127 95//95
f 129//129 160//160 128//128
f 98//98 130//130 129//129
f 99//99 131//131 130//130
f 132//132 131//131 99//99
f 133//133 132//132 100//100
f 102//102 134//134 133//133
f 103//103 135//135 134//134
f 136//136 135//135 103//103
f 137//137 136//136 104//104
f 106//106 138//138 137//137
f 107//107 139//139 138//138
f 140//140 139//139 107//107
f 141//141 140//140 108//108
f 110//110 142//142 141//141
f 111//111 143//143 142//142
f 144//144 143//143 111//111
f 145//145 144//144 112//112
f 114//114 146//146 145//145
f 115//115 147//147 146//146
f 148//148 147//147 115//115
f 149//149 148//148 116//116
f 118//118 150//150 149//149
f 119//119 151//151 150//150
f 152//152 151//151 119//119
f 153//153 152//152 120//120
f 122//122 154//154 153//153
f 123//123 155//155 154//154
f 156//156 155//155 123//123
f 157//157 156//156 124//124
f 126//126 158//158 157//157
f 127//127 159//159 158//158
f 160//160 159//159 127//127
f 161//161 192//192 160//160
f 130//130 162//162 161//161
f 131//131 163//163 162//162
f 164//164 163//163 131//131
f 165//165 164//164 132//132
f 134//134 166//166 165//165
f 135//135 167//167 166//166
f 168//168 167//167 135//135
f 169//169 168//168 136//136
f 138//138 170//170 169//169
f 139//139 171//171 170//170
f 172//172 171//171 139//139
f 173//173 172//172 140//140
f 142//142 174//174 173//173
f 143//143 175//175 174//174
f 176//176 175//175 143//143
f 177//177 176//176 144//144
f 146//146 178//178 177//177
f 147//147 179//179 178//178
f 180//180 179//179 147//147
f 181//181 180//180 148//148
f 150//150 182//182 181//181
f 151//151 183//183 182//182
f 184//184 183//183 151//151
f 185//185 184//184 152//152
f 154//154 186//186 185//185
f 155//155 187//187 186//186
f 188//188 187//187 155//155
f 189//189 188//188 156//156
f 158//158 190//190 189//189
f 159//159 191//191 190//190
f 192//192 191//191 159//159
f 193//193 224//224 192//192
f 162//162 194//194 193//193
f 163//163 195//195 194//194
f 196//196 195//195 163//163
f 197//197 196//196 164//164
f 166//166 198//198 197//197
f 167//167 199//199 198//198
f 200//200 199//199 167//167
f 201//201 200//200 168//168
f 170//170 202//202 201//201
f 171//171 203//203 202//202
f 204//204 203//203 171//171
f 205//205 204//204 172//172
f 174//174 206//206 205//205
f 175//175 207//207 206//206
f 208//208 207//207 175//175
f 209//209 208//208 176//176
f 178//178 210//210 209//209
f 179//179 211//211 210//210
f 212//212 211//211 179//179
f 213//213 212//212 180//180
f 182//182 214//214 213//213
f 183//183 215//215 214//214
f 216//216 215//215 183//183
f 217//217 216//216 184//184
f 186//186 218//218 217//217
f 187//187 219//219 218//218
f 220//220 219//219 187//187
f 221//221 220//220 188//188
f 190//190 222//222 221//221
f 191//191 223//223 222//222
f 224//224 223//223 191//191
f 225//225 256//256 224//224
f 194//194 226//226 225//225
f 195//195 227//227 226//226
f 228//228 227//227 195//195
f 229//229 228//228 196//196
f 198//198 230//230 229//229
f 199//199 231//231 230//230
f 232//232 231//231 199//199
f 233//233 232//232 200//200
f 202//202 234//234 233//233
f 203//203 235//235 234//234
f 236//236 235//235 203//203
f 237//237 236//236 204//204
f 206//206 238//238 237//237
f 207//207 239//239 238//238
f 240//240 239//239 207//207
f 241//241 240//240 208//208
f 210//210 242//242 241//241
f 211//211 243//243 242//242
f 244//244 243//243 211//211
f 245//245 244//244 212//212
f 214//214 246//246 245//245
f 215//215 247//247 246//246
f 248//248 247//247 215//215
f 249//249 248//248 216//216
f 218//218 250//250 249//249
f 219//219 251//251 250//250
f 252//252 251//251 219//219
f 253//253 252//252 220//220
f 222//222 254//254 253//253
f 223//223 255//255 254//254
f 256//256 255//255 223//223
f 257//257 288//288 256//256
f 226//226 258//258 257//257
f 227//227 259//259 258//258
f 260//260 259//259 227//227
f 261//261 260//260 228//228
f 230//230 262//262 261//261
f 231//231 263//263 262//262
f 264//264 263//263 231//231
f 265//265 264//264 232//232
f 234//234 266//266 265//265
f 235//235 267//267 266//266
f 268//268 267//267 235//235
f 269//269 268//268 236//236
f 238//238 270//270 269//269
f 239//239 271//271 270//270
f 272//272 271//271 239//239
f 273//273 272//272 240//240
f 242//242 274//274 273//273
f 243//243 275//275 274//274
f 276//276 275//275 243//243
f 277//277 276//276 244//244
f 246//246 278//278 277//277
f 247//247 279//279 278//278
f 280//280 279//279 247//247
f 281//281 280//280 248//248
f 250//250 282//282 281//281
f 251//251 283//283 282//282
f 284//284 283//283 251//251
f 285//285 284//284 252//252
f 254//254 286//286 285//285
f 255//255 287//287 286//286
f 288//288 287//287 255//255
f 289//289 320//320 288//288
f 258//258 290//290 289//289
f 259//259 291//291 290//290
f 292//292 291//291 259//259
f 293//293 292//292 260//260
f 262//262 294//294 293//293
f 263//263 295//295 294//294
f 296//296 295//295 263//263
f 297//297 296//296 264//264
f 266//266 298//298 297//297
f 267//267 299//299 298//298
f 300//300 299//299 267//267
f 301//301 300//300 268//268
f 270//270 302//302 301//301
f 271//271 303//303 302//302
f 304//304 303//303 271//271
f 305//305 304//304 272//272
f 274//274 306//306 305//305
f 275//275 307//307 306//306
f 308//308 307//307 275//275
f 309//309 308//308 276//276
f 278//278 310//310 309//309
f 279//279 311//311 310//310
f 312//312 311//311 279//279
f 313//313 312//312 280//280
f 282//282 314//314 313//313
f 283//283 315//315 314//314
f 316//316 315//315 283//283
f 317//317 316//316 284//284
f 286//286 318//318 317//317
f 287//287 319//319 318//318
f 320//320 319//319 287//287
f 321//321 352//352 320//320
f 290//290 322//322 321//321
f 323//323 322//322 290//290
f 324//324 323//323 291//291
f 325//325 324//324 292//292
f 326//326 325//325 293//293
f 327//327 326//326 294//294
f 296//296 328//328 327//327
f 329//329 328//328 296//296
f 298//298 330//330 329//329
f 299//299 331//331 330//330
f 300//300 332//332 331//331
f 301//301 333//333 332//332
f 302//302 334//334 333//333
f 335//335 334//334 302//302
f 304//304 336//336 335//335
f 337//337 336//336 304//304
f 338//338 337//337 305//305
f 339//339 338//338 306//306
f 340//340 339//339 307//307
f 309//309 341//341 340//340
f 342//342 341//341 309//309
f 343//343 342//342 310//310
f 312//312 344//344 343//343
f 345//345 344//344 312//312
f 314//314 346//346 345//345
f 315//315 347//347 346//346
f 316//316 348//348 347//347
f 349//349 348//348 316//316
f 318//318 350//350 349//349
f 351//351 350//350 318//318
f 320//320 352//352 351//351
f 321//321 353//353 384//384
f 354//354 353//353 321//321
f 355//355 354//354 322//322
f 324//324 356//356 355//355
f 325//325 357//357 356//356
f 358//358 357//357 325//325
f 359//359 358//358 326//326
f 328//328 360//360 359//359
f 329//329 361//361 360//360
f 362//362 361//361 329//329
f 363//363 362//362 330//330
f 332//332 364//364 363//363
f 333//333 365//365 364//364
f 366//366 365//365 333//333
f 367//367 366//366 334//334
f 336//336 368//368 367//367
f 337//337 369//369 368//368
f 370//370 369//369 337//337
f 371//371 370//370 338//338
f 340//340 372//372 371//371
f 341//341 373//373 372//372
f 374//374 373//373 341//341
f 375//375 374//374 342//342
f 344//344 376//376 375//375
f 345//345 377//377 376//376
f 378//378 377//377 345//345
f 379//379 378//378 346//346
f 348//348 380//380 379//379
f 349//349 381//381 380//380
f 382//382 381//381 349//349
f 383//383 382//382 350//350
f 352//352 384//384 383//383
f 353//353 385//385 416//416
f 386//386 385//385 353//353
f 387//387 386//386 354//354
f 356//356 388//388 387//387
f 357//357 389//389 388//388
f 390//390 389//389 357//357
f 391//391 390//390 358//358
f 360//360 392//392 391//391
f 361//361 393//393 392//392
f 394//394 393//393 361//361
f 395//395 394//394 362//362
f 364//364 396//396 395//395
f 365//365 397//397 396//396
f 398//398 397//397 365//365
f 399//399 398//398 366//366
f 368//368 400//400 399//399
f 369//369 401//401 400//400
f 402//402 401//401 369//369
f 403//403 402//402 370//370
f 372//372 404//404 403//403
f 373//373 405//405 404//404
f 406//406 405//405 373//373
f 407//407 406//406 374//374
f 376//376 408//408 407//407
f 377//377 409//409 408//408
f 410//410 409//409 377//377
f 411//411 410//410 378//378
f 380//380 412//412 411//411
f 381//381 413//413 412//412
f 414//414 413//413 381//381
f 415//415 414//414 382//382
f 384//384 416//416 415//415
f 385//385 417//417 448//448
f 418//418 417//417 385//385
f 419//419 418//418 386//386
f 388//388 420//420 419//419
f 389//389 421//421 420//420
f 422//422 421//421 389//389
f 423//423 422//422 390//390
f 392//392 424//424 423//423
f 393//393 425//425 424//424
f 426//426 425//425 393//393
f 427//427 426//426 394//394
f 396//396 428//428 427//427
f 397//397 429//429 428//428
f 430//430 429//429 397//397
f 431//431 430//430 398//398
f 400//400 432//432 431//431
f 401//401 433//433 432//432
f 434//434 433//433 401//401
f 435//435 434//434 402//402
f 404//404 436//436 435//435
f 405//405 437//437 436//436
f 438//438 437//437 405//405
f 439//439 438//438 406//406
f 408//408 440//440 439//439
f 409//409 441//441 440//440
f 442//442 441//441 409//409
f 443//443 442//442 410//410
f 412//412 444//444 443//443
f 413//413 445//445 444//444
f 446//446 445//445 413//413
f 447//447 446//446 414//414
f 416//416 448//448 447//447
f 417//417 449//449 480//480
f 450//450 449//449 417//417
f 451//451 450//450 418//418
f 420//420 452//452 451//451
f 421//421 453//453 452//452
f 454//454 453//453 421//421
f 455//455 454//454 422//422
f 424//424 456//456 455//455
f 425//425 457//457 456//456
f 458//458 457//457 425//425
f 459//459 458//458 426//426
f 428//428 460//460 459//459
f 429//429 461//461 460//460
f 462//462 461//461 429//429
f 463//463 462//462 430//430
f 432//432 464//464 463//463
f 433//433 465//465 464//464
f 466//466 465//465 433//433
f 467//467 466//466 434//434
f 436//436 468//468 467//467
f 437//437 469//469 468//468
f 470//470 469//469 437//437
f 471//471 470//470 438//438
f 440//440 472//472 471//471
f 441//441 473//473 472//472
f 474//474 473//473 441//441
f 475//475 474//474 442//442
f 444//444 476//476 475//475
f 445//445 477//477 476//476
f 478//478 477//477 445//445
f 479//479 478//478 446//446
f 448//448 480//480 479//479
f 449//449 481//481 512//512
f 482//482 481//481 449//449
f 483//483 482//482 450//450
f 452//452 484//484 483//483
f 453//453 485//485 484//484
f 486//486 485//485 453//453
f 487//487 486//486 454//454
f 456//456 488//488 487//487
f 457//457 489//489 488//488
f 490//490 489//489 457//457
f 491//491 490//490 458//458
f 460//460 492//492 491//491
f 461//461 493//493 492//492
f 494//494 493//493 461//461
f 495//495 494//494 462//462
f 464//464 496//496 495//495
f 465//465 497//497 496//496
f 498//498 497//497 465//465
f 499//499 498//498 466//466
f 468//468 500//500 499//499
f 469//469 501//501 500//500
f 502//502 501//501 469//469
f 503//503 502//502 470//470
f 472//472 504//504 503//503
f 473//473 505//505 504//504
f 506//506 505//505 473//473
f 507//507 506//506 474//474
f 476//476 508//508 507//507
f 477//477 509//509 508//508
f 510//510 509//509 477//477
f 511//511 510//510 478//478
f 480//480 512//512 511//511
f 481//481 513//513 544//544
f 514//514 513//513 481//481
f 515//515 514//514 482//482
f 484//484 516//516 515//515
f 485//485 517//517 516//516
f 518//518 517//517 485//485
f 519//519 518//518 486//486
f 488//488 520//520 519//519
f 489//489 521//521 520//520
f 522//522 521//521 489//489
f 523//523 522//522 490//490
f 492//492 524//524 523//523
f 493//493 525//525 524//524
f 526//526 525//525 493//493
f 527//527 526//526 494//494
f 496//496 528//528 527//527
f 497//497 529//529 528//528
f 530//530 529//529 497//497
f 531//531 530//530 498//498
f 500//500 532//532 531//531
f 501//501 533//533 532//532
f 534//534 533//533 501//501
f 535//535 534//534 502//502
f 504//504 536//536 535//535
f 505//505 537//537 536//536
f 538//538 537//537 505//505
f 539//539 538//538 506//506
f 508//508 540//540 539//539
f 509//509 541//541 540//540
f 542//542 541//541 509//509
f 543//543 542//542 510//510
f 512//512 544//544 543//543
f 513//513 545//545 576//576
f 546//546 545//545 513//513
f 547//547 546//546 514//514
f 516//516 548//548 547//547
f 517//517 549//549 548//548
f 550//550 549//549 517//517
f 551//551 550//550 518//518
f 520//520 552//552 551//551
f 521//521 553//553 552//552
f 554//554 553//553 521//521
f 555//555 554//554 522//522
f 524//524 556//556 555//555
f 525//525 557//557 556//556
f 558//558 557//557 525//525
f 559//559 558//558 526//526
f 528//528 560//560 559//559
f 529//529 561//561 560//560
f 562//562 561//561 529//529
f 563//563 562//562 530//530
f 532//532 564//564 563//563
f 533//533 565//565 564//564
f 566//566 565//565 533//533
f 567//567 566//566 534//534
f 536//536 568//568 567//567
f 537//537 569//569 568//568
f 570//570 569//569 537//537
f 571//571 570//570 538//538
f 540//540 572//572 571//571
f 541//541 573//573 572//572
f 574//574 573//573 541//541
f 575//575 574//574 542//542
f 544//544 576//576 575//575
f 545//545 577//577 608//608
f 578//578 577//577 545//545
f 579//579 578//578 546//546
f 548//548 580//580 579//579
f 549//549 581//581 580//580
f 582//582 581//581 549//549
f 583//583 582//582 550//550
f 552//552 584//584 583//583
f 553//553 585//585 584//584
f 586//586 585//585 553//553
f 587//587 586//586 554//554
f 556//556 588//588 587//587
f 557//557 589//589 588//588
f 590//590 589//589 557//557
f 591//591 590//590 558//558
f 560//560 592//592 591//591
f 561//561 593//593 592//592
f 594//594 593//593 561//561
f 595//595 594//594 562//562
f 564//564 596//596 595//595
f 565//565 597//597 596//596
f 598//598 597//597 565//565
f 599//599 598//598 566//566
f 568//568 600//600 599//599
f 569//569 601//601 600//600
f 602//602 601//601 569//569
f 603//603 602//602 570//570
f 572//572 604//604 603//603
f 573//573 605//605 604//604
f 606//606 605//605 573//573
f 607//607 606//606 574//574
f 576//576 608//608 607//607
f 577//577 609//609 640//640
f 610//610 609//609 577//577
f 611//611 610//610 578//578
f 580//580 612//612 611//611
f 581//581 613//613 612//612
f 614//614 613//613 581//581
f 615//615 614//614 582//582
f 584//584 616//616 615//615
f 585//585 617//617 616//616
f 618//618 617//617 585//585
f 619//619 618//618 586//586
f 588//588 620//620 619//619
f 589//589 621//621 620//620
f 622//622 621//621 589//589
f 623//623 622//622 590//590
f 592//592 624//624 623//623
f 593//593 625//625 624//624
f 626//626 625//625 593//593
f 627//627 626//626 594//594
f 596//596 628//628 627//627
f 597//597 629//629 628//628
f 630//630 629//629 597//597
f 631//631 630//630 598//598
f 600//600 632//632 631//631
f 601//601 633//633 632//632
f 634//634 633//633 601//601
f 635//635 634//634 602//602
f 604//604 636//636 635//635
f 605//605 637//637 636//636
f 638//638 637//637 605//605
f 639//639 638//638 606//606
f 608//608 640//640 639//639
f 1//1 33//33 32//32
f 1//1 2//2 33//33
f 2//2 3//3 34//34
f 4//4 36//36 3//3
f 5//5 37//37 4//4
f 5//5 6//6 37//37
f 6//6 7//7 38//38
f 8//8 40//40 7//7
f 9//9 41//41 8//8
f 9//9 10//10 41//41
f 10//10 11//11 42//42
f 12//12 44//44 11//11
f 13//13 45//45 12//12
f 13//13 14//14 45//45
f 14//14 15//15 46//46
f 16//16 48//48 15//15
f 17//17 49//49 16//16
f 17//17 18//18 49//49
f 18//18 19//19 50//50
f 20//20 52//52 19//19
f 21//21 53//53 20//20
f 21//21 22//22 53//53
f 22//22 23//23 54//54
f 24//24 56//56 23//23
f 25//25 57//57 24//24
f 25//25 26//26 57//57
f 26//26 27//27 58//58
f 28//28 60//60 27//27
f 29//29 61//61 28//28
f 29//29 30//30 61//61
f 30//30 31//31 62//62
f 32//32 64//64 31//31
f 33//33 65//65 64//64
f 33//33 34//34 65//65
f 34//34 35//35 66//66
f 36//36 68//68 35//35
f 37//37 69//69 36//36
f 37//37 38//38 69//69
f 38//38 39//39 70//70
f 40//40 72//72 39//39
f 41//41 73//73 40//40
f 41//41 42//42 73//73
f 42//42 43//43 74//74
f 44//44 76//76 43//43
f 45//45 77//77 44//44
f 45//45 46//46 77//77
f 46//46 47//47 78//78
f 48//48 80//80 47//47
f 49//49 81//81 48//48
f 49//49 50//50 81//81
f 50//50 51//51 82//82
f 52//52 84//84 51//51
f 53//53 85//85 52//52
f 53//53 54//54 85//85
f 54//54 55//55 86//86
f 56//56 88//88 55//55
f 57//57 89//89 56//56
f 57//57 58//58 89//89
f 58//58 59//59 90//90
f 60//60 92//92 59//59
f 61//61 93//93 60//60
f 61//61 62//62 93//93
f 62//62 63//63 94//94
f 64//64 96//96 63//63
f 65//65 97//97 96//96
f 65//65 66//66 97//97
f 66//66 67//67 98//98
f 68//68 100//100 67//67
f 69//69 101//101 68//68
f 69//69 70//70 101//101
f 70//70 71//71 102//102
f 72//72 104//104 71//71
f 73//73 105//105 72//72
f 73//73 74//74 105//105
f 74//74 75//75 106//106
f 76//76 108//108 75//75
f 77//77 109//109 76//76
f 77//77 78//78 109//109
f 78//78 79//79 110//110
f 80//80 112//112 79//79
f 81//81 113//113 80//80
f 81//81 82//82 113//113
f 82//82 83//83 114//114
f 84//84 116//116 83//83
f 85//85 117//117 84//84
f 85//85 86//86 117//117
f 86//86 87//87 118//118
f 88//88 120//120 87//87
f 89//89 121//121 88//88
f 89//89 90//90 121//121
f 90//90 91//91 122//122
f 92//92 124//124 91//91
f 93//93 125//125 92//92
f 93//93 94//94 125//125
f 94//94 95//95 126//126
f 96//96 128//128 95//95
f 97//97 129//129 128//128
f 97//97 98//98 129//129
f 98//98 99//99 130//130
f 100//100 132//132 99//99
f 101//101 133//133 100//100
f 101//101 102//102 133//133
f 102//102 103//103 134//134
f 104//104 136//136 103//103
f 105//105 137//137 104//104
f 105//105 106//106 137//137
f 106//106 107//107 138//138
f 108//108 140//140 107//107
f 109//109 141//141 108//108
f 109//109 110//110 141//141
f 110//110 111//111 142//142
f 112//112 144//144 111//111
f 113//113 145//145 112//112
f 113//113 114//114 145//145
f 114//114 115//115 146//146
f 116//116 148//148 115//115
f 117//117 149//149 116//116
f 117//117 118//118 149//149
f 118//118 119//119 150//150
f 120//120 152//152 119//119
f 121//121 153//153 120//120
f 121//121 122//122 153//153
f 122//122 123//123 154//154
f 124//124 156//156 123//123
f 125//125 157//157 124//124
f 125//125 126//126 157//157
f 126//126 127//127 158//158
f 128//128 160//160 127//127
f 129//129 161//161 160//160
f 129//129 130//130 161//161
f 130//130 131//131 162//162
f 132//132 164//164 131//131
f 133//133 165//165 132//132
f 133//133 134//134 165//165
f 134//134 135//135 166//166
f 136//136 168//168 135//135
f 137//137 169//169 136//136
f 137//137 138//138 169//169
f 138//138 139//139 170//170
f 140//140 172//172 139//139
f 141//141 173//173 140//140
f 141//141 142//142 173//173
f 142//142 143//143 174//174
f 144//144 176//176 143//143
f 145//145 177//177 144//144
f 145//145 146//146 177//177
f 146//146 147//147 178//178
f 148//148 180//180 147//147
f 149//149 181//181 148//148
f 149//149 150//150 181//181
f 150//150 151//151 182//182
f 152//152 184//184 151//151
f 153//153 185//185 152//152
f 153//153 154//154 185//185
f 154//154 155//155 186//186
f 156//156 188//188 155//155
f 157//157 189//189 156//156
f 157//157 158//158 189//189
f 158//158 159//159 190//190
f 160//160 192//192 159//159
f 161//161 193//193 192//192
f 161//161 162//162 193//193
f 162//162 163//163 194//194
f 164//164 196//196 163//163
f 165//165 197//197 164//164
f 165//165 166//166 197//197
f 166//166 167//167 198//198
f 168//168 200//200 167//167
f 169//169 201//201 168//168
f 169//169 170//170 201//201
f 170//170 171//171 202//202
f 172//172 204//204 171//171
f 173//173 205//205 172//172
f 173//173 174//174 205//205
f 174//174 175//175 206//206
f 176//176 208//208 175//175
f 177//177 209//209 176//176
f 177//177 178//178 209//209
f 178//178 179//179 210//210
f 180//180 212//212 179//179
f 181//181 213//213 180//180
f 181//181 182//182 213//213
f 182//182 183//183 214//214
f 184//184 216//216 183//183
f 185//185 217//217 184//184
f 185//185 186//186 217//217
f 186//186 187//187 218//218
f 188//188 220//220 187//187
f 189//189 221//221 188//188
f 189//189 190//190 221//221
f 190//190 191//191 222//222
f 192//192 224//224 191//191
f 193//193 225//225 224//224
f 193//193 194//194 225//225
f 194//194 195//195 226//226
f 196//196 228//228 195//195
f 197//197 229//229 196//196
f 197//197 198//198 229//229
f 198//198 199//199 230//230
f 200//200 232//232 199//199
f 201//201 233//233 200//200
f 201//201 202//202 233//233
f 202//202 203//203 234//234
f 204//204 236//236 203//203
f 205//205 237//237 204//204
f 205//205 206//206 237//237
f 206//206 207//207 238//238
f 208//208 240//240 207//207
f 209//209 241//241 208//208
f 209//209 210//210 241//241
f 210//210 211//211 242//242
f 212//212 244//244 211//211
f 213//213 245//245 212//212
f 213//213 214//214 245//245
f 214//214 215//215 246//246
f 216//216 248//248 215//215
f 217//217 249//249 216//216
f 217//217 218//218 249//249
f 218//218 219//219 250//250
f 220//220 252//252 219//219
f 221//221 253//253 220//220
f 221//221 222//222 253//253
f 222//222 223//223 254//254
f 224//224 256//256 223//223
f 225//225 257//257 256//256
f 225//225 226//226 257//257
f 226//226 227//227 258//258
f 228//228 260//260 227//227
f 229//229 261//261 228//228
f 229//229 230//230 261//261
f 230//230 231//231 262//262
f 232//232 264//264 231//231
f 233//233 265//265 232//232
f 233//233 234//234 265//265
f 234//234 235//235 266//266
f 236//236 268//268 235//235
f 237//237 269//269 236//236
f 237//237 238//238 269//269
f 238//238 239//239 270//270
f 240//240 272//272 239//239
f 241//241 273//273 240//240
f 241//241 242//242 273//273
f 242//242 243//243 274//274
f 244//244 276//276 243//243
f 245//245 277//277 244//244
f 245//245 246//246 277//277
f 246//246 247//247 278//278
f 248//248 280//280 247//247
f 249//249 281//281 248//248
f 249//249 250//250 281//281
f 250//250 251//251 282//282
f 252//252 284//284 251//251
f 253//253 285//285 252//252
f 253//253 254//254 285//285
f 254//254 255//255 286//286
f 256//256 288//288 255//255
f 257//257 289//289 288//288
f 257//257 258//258 289//289
f 258//258 259//259 290//290
f 260//260 292//292 259//259
f 261//261 293//293 260//260
f 261//261 262//262 293//293
f 262//262 263//263 294//294
f 264//264 296//296 263//263
f 265//265 297//297 264//264
f 265//265 266//266 297//297
f 266//266 267//267 298//298
f 268//268 300//300 267//267
f 269//269 301//301 268//268
f 269//269 270//270 301//301
f 270//270 271//271 302//302
f 272//272 304//304 271//271
f 273//273 305//305 272//272
f 273//273 274//274 305//305
f 274//274 275//275 306//306
f 276//276 308//308 275//275
f 277//277 309//309 276//276
f 277//277 278//278 309//309
f 278//278 279//279 310//310
f 280//280 312//312 279//279
f 281//281 313//313 280//280
f 281//281 282//282 313//313
f 282//282 283//283 314//314
f 284//284 316//316 283//283
f 285//285 317//317 284//284
f 285//285 286//286 317//317
f 286//286 287//287 318//318
f 288//288 320//320 287//287
f 289//289 321//321 320//320
f 289//289 290//290 321//321
f 291//291 323//323 290//290
f 292//292 324//324 291//291
f 293//293 325//325 292//292
f 294//294 326//326 293//293
f 295//295 327//327 294//294
f 295//295 296//296 327//327
f 297//297 329//329 296//296
f 297//297 298//298 329//329
f 298//298 299//299 330//330
f 299//299 300//300 331//331
f 300//300 301//301 332//332
f 301//301 302//302 333//333
f 303//303 335//335 302//302
f 303//303 304//304 335//335
f 305//305 337//337 304//304
f 306//306 338//338 305//305
f 307//307 339//339 306//306
f 308//308 340//340 307//307
f 308//308 309//309 340//340
f 310//310 342//342 309//309
f 311//311 343//343 310//310
f 311//311 312//312 343//343
f 313//313 345//345 312//312
f 313//313 314//314 345//345
f 314//314 315//315 346//346
f 315//315 316//316 347//347
f 317//317 349//349 316//316
f 317//317 318//318 349//349
f 319//319 351//351 318//318
f 319//319 320//320 351//351
f 352//352 321//321 384//384
f 322//322 354//354 321//321
f 323//323 355//355 322//322
f 323//323 324//324 355//355
f 324//324 325//325 356//356
f 326//326 358//358 325//325
f 327//327 359//359 326//326
f 327//327 328//328 359//359
f 328//328 329//329 360//360
f 330//330 362//362 329//329
f 331//331 363//363 330//330
f 331//331 332//332 363//363
f 332//332 333//333 364//364
f 334//334 366//366 333//333
f 335//335 367//367 334//334
f 335//335 336//336 367//367
f 336//336 337//337 368//368
f 338//338 370//370 337//337
f 339//339 371//371 338//338
f 339//339 340//340 371//371
f 340//340 341//341 372//372
f 342//342 374//374 341//341
f 343//343 375//375 342//342
f 343//343 344//344 375//375
f 344//344 345//345 376//376
f 346//346 378//378 345//345
f 347//347 379//379 346//346
f 347//347 348//348 379//379
f 348//348 349//349 380//380
f 350//350 382//382 349//349
f 351//351 383//383 350//350
f 351//351 352//352 383//383
f 384//384 353//353 416//416
f 354//354 386//386 353//353
f 355//355 387//387 354//354
f 355//355 356//356 387//387
f 356//356 357//357 388//388
f 358//358 390//390 357//357
f 359//359 391//391 358//358
f 359//359 360//360 391//391
f 360//360 361//361 392//392
f 362//362 394//394 361//361
f 363//363 395//395 362//362
f 363//363 364//364 395//395
f 364//364 365//365 396//396
f 366//366 398//398 365//365
f 367//367 399//399 366//366
f 367//367 368//368 399//399
f 368//368 369//369 400//400
f 370//370 402//402 369//369
f 371//371 403//403 370//370
f 371//371 372//372 403//403
f 372//372 373//373 404//404
f 374//374 406//406 373//373
f 375//375 407//407 374//374
f 375//375 376//376 407//407
f 376//376 377//377 408//408
f 378//378 410//410 377//377
f 379//379 411//411 378//378
f 379//379 380//380 411//411
f 380//380 381//381 412//412
f 382//382 414//414 381//381
f 383//383 415//415 382//382
f 383//383 384//384 415//415
f 416//416 385//385 448//448
f 386//386 418//418 385//385
f 387//387 419//419 386//386
f 387//387 388//388 419//419
f 388//388 389//389 420//420
f 390//390 422//422 389//389
f 391//391 423//423 390//390
f 391//391 392//392 423//423
f 392//392 393//393 424//424
f 394//394 426//426 393//393
f 395//395 427//427 394//394
f 395//395 396//396 427//427
f 396//396 397//397 428//428
f 398//398 430//430 397//397
f 399//399 431//431 398//398
f 399//399 400//400 431//431
f 400//400 401//401 432//432
f 402//402 434//434 401//401
f 403//403 435//435 402//402
f 403//403 404//404 435//435
f 404//404 405//405 436//436
f 406//406 438//438 405//405
f 407//407 439//439 406//406
f 407//407 408//408 439//439
f 408//408 409//409 440//440
f 410//410 442//442 409//409
f 411//411 443//443 410//410
f 411//411 412//412 443//443
f 412//412 413//413 444//444
f 414//414 446//446 413//413
f 415//415 447//447 414//414
f 415//415 416//416 447//447
f 448//448 417//417 480//480
f 418//418 450//450 417//417
f 419//419 451//451 418//418
f 419//419 420//420 451//451
f 420//420 421//421 452//452
f 422//422 454//454 421//421
f 423//423 455//455 422//422
f 423//423 424//424 455//455
f 424//424 425//425 456//456
f 426//426 458//458 425//425
f 427//427 459//459 426//426
f 427//427 428//428 459//459
f 428//428 429//429 460//460
f 430//430 462//462 429//429
f 431//431 463//463 430//430
f 431//431 432//432 463//463
f 432//432 433//433 464//464
f 434//434 466//466 433//433
f 435//435 467//467 434//434
f 435//435 436//436 467//467
f 436//436 437//437 468//468
f 438//438 470//470 437//437
f 439//439 471//471 438//438
f 439//439 440//440 471//471
f 440//440 441//441 472//472
f 442//442 474//474 441//441
f 443//443 475//475 442//442
f 443//443 444//444 475//475
f 444//444 445//445 476//476
f 446//446 478//478 445//445
f 447//447 479//479 446//446
f 447//447 448//448 479//479
f 480//480 449//449 512//512
f 450//450 482//482 449//449
f 451//451 483//483 450//450
f 451//451 452//452 483//483
f 452//452 453//453 484//484
f 454//454 486//486 453//453
f 455//455 487//487 454//454
f 455//455 456//456 487//487
f 456//456 457//457 488//488
f 458//458 490//490 457//457
f 459//459 491//491 458//458
f 459//459 460//460 491//491
f 460//460 461//461 492//492
f 462//462 494//494 461//461
f 463//463 495//495 462//462
f 463//463 464//464 495//495
f 464//464 465//465 496//496
f 466//466 498//498 465//465
f 467//467 499//499 466//466
f 467//467 468//468 499//499
f 468//468 469//469 500//500
f 470//470 502//502 469//469
f 471//471 503//503 470//470
f 471//471 472//472 503//503
f 472//472 473//473 504//504
f 474//474 506//506 473//473
f 475//475 507//507 474//474
f 475//475 476//476 507//507
f 476//476 477//477 508//508
f 478//478 510//510 477//477
f 479//479 511//511 478//478
f 479//479 480//480 511//511
f 512//512 481//481 544//544
f 482//482 514//514 481//481
f 483//483 515//515 482//482
f 483//483 484//484 515//515
f 484//484 485//485 516//516
f 486//486 518//518 485//485
f 487//487 519//519 486//486
f 487//487 488//488 519//519
f 488//488 489//489 520//520
f 490//490 522//522 489//489
f 491//491 523//523 490//490
f 491//491 492//492 523//523
f 492//492 493//493 524//524
f 494//494 526//526 493//493
f 495//495 527//527 494//494
f 495//495 496//496 527//527
f 496//496 497//497 528//528
f 498//498 530//530 497//497
f 499//499 531//531 498//498
f 499//499 500//500 531//531
f 500//500 501//501 532//532
f 502//502 534//534 501//501
f 503//503 535//535 502//502
f 503//503 504//504 535//535
f 504//504 505//505 536//536
f 506//506 538//538 505//505
f 507//507 539//539 506//506
f 507//507 508//508 539//539
f 508//508 509//509 540//540
f 510//510 542//542 509//509
f 511//511 543//543 510//510
f 511//511 512//512 543//543
f 544//544 513//513 576//576
f 514//514 546//546 513//513
f 515//515 547//547 514//514
f 515//515 516//516 547//547
f 516//516 517//517 548//548
f 518//518 550//550 517//517
f 519//519 551//551 518//518
f 519//519 520//520 551//551
f 520//520 521//521 552//552
f 522//522 554//554 521//521
f 523//523 555//555 522//522
f 523//523 524//524 555//555
f 524//524 525//525 556//556
f 526//526 558//558 525//525
f 527//527 559//559 526//526
f 527//527 528//528 559//559
f 528//528 529//529 560//560
f 530//530 562//562 529//529
f 531//531 563//563 530//530
f 531//531 532//532 563//563
f 532//532 533//533 564//564
f 534//534 566//566 533//533
f 535//535 567//567 534//534
f 535//535 536//536 567//567
f 536//536 537//537 568//568
f 538//538 570//570 537//537
f 539//539 571//571 538//538
f 539//539 540//540 571//571
f 540//540 541//541 572//572
f 542//542 574//574 541//541
f 543//543 575//575 542//542
f 543//543 544//544 575//575
f 576//576 545//545 608//608
f 546//546 578//578 545//545
f 547//547 579//579 546//546
f 547//547 548//548 579//579
f 548//548 549//549 580//580
f 550//550 582//582 549//549
f 551//551 583//583 550//550
f 551//551 552//552 583//583
f 552//552 553//553 584//584
f 554//554 586//586 553//553
f 555//555 587//587 554//554
f 555//555 556//556 587//587
f 556//556 557//557 588//588
f 558//558 590//590 557//557
f 559//559 591//591 558//558
f 559//559 560//560 591//591
f 560//560 561//561 592//592
f 562//562 594//594 561//561
f 563//563 595//595 562//562
f 563//563 564//564 595//595
f 564//564 565//565 596//596
f 566//566 598//598 565//565
f 567//567 599//599 566//566
f 567//567 568//568 599//599
f 568//568 569//569 600//600
f 570//570 602//602 569//569
f 571//571 603//603 570//570
f 571//571 572//572 603//603
f 572//572 573//573 604//604
f 574//574 606//606 573//573
f 575//575 607//607 574//574
f 575//575 576//576 607//607
f 608//608 577//577 640//640
f 578//578 610//610 577//577
f 579//579 611//611 578//578
f 579//579 580//580 611//611
f 580//580 581//581 612//612
f 582//582 614//614 581//581
f 583//583 615//615 582//582
f 583//583 584//584 615//615
f 584//584 585//585 616//616
f 586//586 618//618 585//585
f 587//587 619//619 586//586
f 587//587 588//588 619//619
f 588//588 589//589 620//620
f 590//590 622//622 589//589
f 591//591 623//623 590//590
f 591//591 592//592 623//623
f 592//592 593//593 624//624
f 594//594 626//626 593//593
f 595//595 627//627 594//594
f 595//595 596//596 627//627
f 596//596 597//597 628//628
f 598//598 630//630 597//597
f 599//599 631//631 598//598
f 599//599 600//600 631//631
f 600//600 601//601 632//632
f 602//602 634//634 601//601
f 603//603 635//635 602//602
f 603//603 604//604 635//635
f 604//604 605//605 636//636
f 606//606 638//638 605//605
f 607//607 639//639 606//606
f 607//607 608//608 639//639
# 1216 faces, 0 coords texture

# End of File
