####
#
# OBJ File Generated by Meshlab
#
####
# Object LeftFingerJoint33y_joint_visu.obj
#
# Vertices: 98
# Faces: 192
#
####
vn -2.288037 -3.285937 -2.733430
v -0.003480 -0.003684 0.003458 0.654902 0.501961 0.313725
vn -1.999354 1.241871 -1.985351
v -0.004839 0.003644 0.001638 0.654902 0.501961 0.313725
vn 1.999843 1.242159 -1.985151
v 0.004848 0.003644 0.001639 0.654902 0.501961 0.313725
vn 2.293352 -3.272826 -2.721430
v 0.003513 -0.003684 0.003459 0.654902 0.501961 0.313725
vn -2.083363 -4.102589 3.512457
v -0.003506 -0.002353 0.010217 0.654902 0.501961 0.313725
vn -2.009533 2.337092 2.998414
v -0.003606 0.003630 0.012105 0.654902 0.501961 0.313725
vn 2.077679 2.286663 3.205979
v 0.003613 0.003480 0.012106 0.654902 0.501961 0.313725
vn 2.068979 -4.114638 3.522428
v 0.003489 -0.002353 0.010217 0.654902 0.501961 0.313725
vn -3.124258 -4.350392 0.881150
v -0.003919 -0.003764 0.006992 0.654902 0.501961 0.313725
vn -3.091514 2.685561 0.235261
v -0.005428 0.004007 0.007062 0.654902 0.501961 0.313725
vn 3.091455 2.685563 0.236037
v 0.005436 0.004007 0.007063 0.654902 0.501961 0.313725
vn 3.124206 -4.347274 0.901797
v 0.003927 -0.003764 0.006993 0.654902 0.501961 0.313725
vn 0.093477 2.748112 3.340391
v 0.000003 0.003841 0.012678 0.654902 0.501961 0.313725
vn 0.000323 2.282320 -3.021448
v 0.000005 0.004007 0.001014 0.654902 0.501961 0.313725
vn -0.000193 -4.585978 4.109062
v -0.000002 -0.002538 0.010410 0.654902 0.501961 0.313725
vn 0.000037 -4.179372 -3.571148
v 0.000010 -0.004026 0.003230 0.654902 0.501961 0.313725
vn -0.000001 6.283185 -0.000001
v 0.000004 0.004007 0.007062 0.654902 0.501961 0.313725
vn -0.000352 -5.949991 1.390524
v 0.000004 -0.004347 0.006987 0.654902 0.501961 0.313725
vn -3.309135 -1.404474 3.916312
v -0.004116 -0.000101 0.011445 0.654902 0.501961 0.313725
vn -3.506579 -1.346075 -4.059628
v -0.004225 -0.000288 0.002609 0.654902 0.501961 0.313725
vn 3.310150 -1.421412 3.910760
v 0.004119 -0.000101 0.011445 0.654902 0.501961 0.313725
vn 3.508976 -1.334610 -4.061984
v 0.004238 -0.000288 0.002610 0.654902 0.501961 0.313725
vn -6.216855 -0.678600 0.102010
v -0.005091 -0.000298 0.007050 0.654902 0.501961 0.313725
vn 6.216465 -0.679095 0.116196
v 0.005098 -0.000298 0.007051 0.654902 0.501961 0.313725
vn 0.000313 -1.385971 -6.118295
v 0.000005 -0.000329 0.002078 0.654902 0.501961 0.313725
vn -0.001847 -2.217808 5.800383
v 0.000003 -0.000118 0.011979 0.654902 0.501961 0.313725
vn -2.916809 -4.445623 2.160825
v -0.003821 -0.003052 0.008855 0.654902 0.501961 0.313725
vn -2.762992 2.848393 1.211630
v -0.004774 0.004007 0.010180 0.654902 0.501961 0.313725
vn 2.705755 2.836047 1.259225
v 0.004781 0.004007 0.010181 0.654902 0.501961 0.313725
vn 2.907781 -4.450565 2.181506
v 0.003813 -0.003052 0.008856 0.654902 0.501961 0.313725
vn 0.045224 6.276424 0.197934
v 0.000004 0.004007 0.010181 0.654902 0.501961 0.313725
vn -0.000024 -5.501845 2.911714
v 0.000000 -0.003532 0.008871 0.654902 0.501961 0.313725
vn -5.836005 -0.772647 1.545170
v -0.004933 -0.000196 0.009529 0.654902 0.501961 0.313725
vn 5.828572 -0.791380 1.551719
v 0.004938 -0.000196 0.009530 0.654902 0.501961 0.313725
vn -2.862946 2.413451 -0.614003
v -0.005428 0.004007 0.003898 0.654902 0.501961 0.313725
vn 2.863154 2.413753 -0.613360
v 0.005437 0.004007 0.003899 0.654902 0.501961 0.313725
vn 3.333970 -4.402331 -0.526451
v 0.003828 -0.003859 0.004971 0.654902 0.501961 0.313725
vn -3.328587 -4.411993 -0.548190
v -0.003804 -0.003859 0.004971 0.654902 0.501961 0.313725
vn -0.000001 6.283185 -0.000001
v 0.000004 0.004007 0.003899 0.654902 0.501961 0.313725
vn -0.000535 -6.102422 -0.588742
v 0.000008 -0.004467 0.004924 0.654902 0.501961 0.313725
vn -5.950970 -0.906539 -1.243854
v -0.005001 -0.000298 0.004538 0.654902 0.501961 0.313725
vn 5.956209 -0.891014 -1.238063
v 0.005012 -0.000298 0.004539 0.654902 0.501961 0.313725
vn -3.385579 -1.721897 -4.000421
v -0.003927 -0.002238 0.003044 0.654902 0.501961 0.313725
vn 3.051930 -2.748235 3.804379
v 0.003925 -0.001427 0.010804 0.654902 0.501961 0.313725
vn -5.673885 -2.096915 0.310987
v -0.004804 -0.002225 0.007021 0.654902 0.501961 0.313725
vn 0.000100 -1.895260 -5.918144
v 0.000008 -0.002381 0.002525 0.654902 0.501961 0.313725
vn -0.000143 -3.392180 5.204738
v -0.000000 -0.001446 0.011298 0.654902 0.501961 0.313725
vn -3.063035 -2.724890 3.799699
v -0.003934 -0.001427 0.010803 0.654902 0.501961 0.313725
vn 3.391662 -1.704028 -3.995434
v 0.003951 -0.002238 0.003045 0.654902 0.501961 0.313725
vn 5.670675 -2.098457 0.341576
v 0.004812 -0.002225 0.007022 0.654902 0.501961 0.313725
vn 5.129426 -2.363575 1.683041
v 0.004665 -0.001815 0.009159 0.654902 0.501961 0.313725
vn -5.143147 -2.344173 1.662926
v -0.004668 -0.001815 0.009158 0.654902 0.501961 0.313725
vn 5.603415 -1.938103 -1.139866
v 0.004680 -0.002272 0.004787 0.654902 0.501961 0.313725
vn -5.595067 -1.954857 -1.161430
v -0.004661 -0.002272 0.004786 0.654902 0.501961 0.313725
vn -3.374844 -0.414479 4.328090
v -0.003924 0.001850 0.011940 0.654902 0.501961 0.313725
vn 3.572297 -1.495773 -3.874440
v 0.004496 0.001835 0.002100 0.654902 0.501961 0.313725
vn 6.250576 -0.463022 0.283538
v 0.005218 0.001833 0.007056 0.654902 0.501961 0.313725
vn -3.571182 -1.498394 -3.873853
v -0.004486 0.001835 0.002099 0.654902 0.501961 0.313725
vn 3.371574 -0.422836 4.324525
v 0.003930 0.001818 0.011941 0.654902 0.501961 0.313725
vn -6.250697 -0.463004 0.280169
v -0.005210 0.001833 0.007055 0.654902 0.501961 0.313725
vn 0.000599 -1.517299 -6.092613
v 0.000005 0.001831 0.001583 0.654902 0.501961 0.313725
vn -0.009829 -1.107124 6.141426
v 0.000003 0.001825 0.012482 0.654902 0.501961 0.313725
vn -5.977226 -0.111154 1.737825
v -0.004868 0.001841 0.009827 0.654902 0.501961 0.313725
vn 5.976512 -0.115674 1.739094
v 0.004875 0.001841 0.009828 0.654902 0.501961 0.313725
vn -6.074188 -0.801423 -1.015376
v -0.005181 0.001834 0.004267 0.654902 0.501961 0.313725
vn 6.075394 -0.797507 -1.013490
v 0.005190 0.001834 0.004269 0.654902 0.501961 0.313725
vn -0.515922 1.976868 -2.735400
v -0.002712 0.004007 0.001014 0.654902 0.501961 0.313725
vn -0.475839 -4.618770 4.099147
v -0.001892 -0.002453 0.010335 0.654902 0.501961 0.313725
vn -0.000001 6.283185 -0.000001
v -0.002712 0.004007 0.007062 0.654902 0.501961 0.313725
vn -0.567356 2.625060 3.035791
v -0.001822 0.003924 0.012606 0.654902 0.501961 0.313725
vn -0.658402 -4.217836 -3.592038
v -0.001872 -0.003893 0.003313 0.654902 0.501961 0.313725
vn -0.897831 -5.904994 1.351458
v -0.002037 -0.004179 0.006989 0.654902 0.501961 0.313725
vn -0.785901 -2.181419 5.742504
v -0.002150 -0.000106 0.011854 0.654902 0.501961 0.313725
vn -0.789303 -1.465050 -6.043003
v -0.002208 -0.000309 0.002202 0.654902 0.501961 0.313725
vn -0.698740 -5.525350 2.823789
v -0.001983 -0.003389 0.008843 0.654902 0.501961 0.313725
vn -0.145982 6.262382 0.301487
v -0.002385 0.004007 0.010181 0.654902 0.501961 0.313725
vn -0.916364 -6.082906 -0.522729
v -0.001970 -0.004289 0.004958 0.654902 0.501961 0.313725
vn -0.128080 6.275456 -0.130241
v -0.002712 0.004007 0.003898 0.654902 0.501961 0.313725
vn -0.629553 -3.382775 5.191734
v -0.002053 -0.001411 0.011175 0.654902 0.501961 0.313725
vn -0.789188 -1.872935 -5.886432
v -0.002045 -0.002312 0.002653 0.654902 0.501961 0.313725
vn -0.894736 -1.030338 6.061581
v -0.002035 0.001838 0.012369 0.654902 0.501961 0.313725
vn -0.661380 -1.693206 -6.001749
v -0.002344 0.001833 0.001685 0.654902 0.501961 0.313725
vn 0.655169 2.600304 3.202328
v 0.001829 0.003795 0.012606 0.654902 0.501961 0.313725
vn 0.657446 -4.217362 -3.591267
v 0.001899 -0.003893 0.003314 0.654902 0.501961 0.313725
vn 0.897022 -5.904122 1.356892
v 0.002045 -0.004179 0.006989 0.654902 0.501961 0.313725
vn 0.516487 1.976905 -2.735306
v 0.002721 0.004007 0.001014 0.654902 0.501961 0.313725
vn 0.476284 -4.619057 4.099204
v 0.001881 -0.002453 0.010335 0.654902 0.501961 0.313725
vn -0.000001 6.283185 -0.000001
v 0.002720 0.004007 0.007063 0.654902 0.501961 0.313725
vn 0.789427 -1.462628 -6.043685
v 0.002220 -0.000309 0.002202 0.654902 0.501961 0.313725
vn 0.784121 -2.191890 5.739863
v 0.002154 -0.000106 0.011855 0.654902 0.501961 0.313725
vn 0.165611 6.236205 0.492094
v 0.002393 0.004007 0.010181 0.654902 0.501961 0.313725
vn 0.698939 -5.523639 2.827380
v 0.001979 -0.003389 0.008844 0.654902 0.501961 0.313725
vn 0.128106 6.275456 -0.130214
v 0.002720 0.004007 0.003899 0.654902 0.501961 0.313725
vn 0.914681 -6.083533 -0.518315
v 0.001990 -0.004289 0.004958 0.654902 0.501961 0.313725
vn 0.788686 -1.869889 -5.887580
v 0.002066 -0.002312 0.002653 0.654902 0.501961 0.313725
vn 0.629398 -3.385665 5.189889
v 0.002049 -0.001411 0.011175 0.654902 0.501961 0.313725
vn 0.662407 -1.692712 -6.001791
v 0.002353 0.001833 0.001685 0.654902 0.501961 0.313725
vn 0.888508 -1.052511 6.060235
v 0.002042 0.001821 0.012370 0.654902 0.501961 0.313725
# 98 vertices, 0 vertices normals

f 35//35 2//2 58//58
f 93//93 36//36 3//3
f 53//53 37//37 4//4
f 77//77 38//38 1//1
f 86//86 3//3 56//56
f 81//81 70//70 6//6
f 63//63 28//28 10//10
f 29//29 11//11 88//88
f 30//30 12//12 50//50
f 75//75 27//27 9//9
f 78//78 39//39 14//14
f 40//40 16//16 84//84
f 82//82 67//67 14//14
f 83//83 13//13 62//62
f 76//76 31//31 17//17
f 32//32 18//18 85//85
f 41//41 20//20 43//43
f 66//66 42//42 22//22
f 89//89 22//22 49//49
f 73//73 19//19 48//48
f 52//52 33//33 23//23
f 34//34 24//24 57//57
f 80//80 74//74 25//25
f 96//96 90//90 26//26
f 55//55 6//6 28//28
f 7//7 29//29 91//91
f 8//8 30//30 51//51
f 5//5 27//27 75//75
f 70//70 13//13 31//31
f 87//87 15//15 32//32
f 48//48 19//19 33//33
f 21//21 34//34 64//64
f 10//10 35//35 65//65
f 88//88 11//11 36//36
f 12//12 37//37 53//53
f 72//72 9//9 38//38
f 17//17 39//39 78//78
f 18//18 40//40 94//94
f 23//23 41//41 54//54
f 57//57 24//24 42//42
f 42//42 53//53 49//49
f 51//51 50//50 24//24
f 54//54 43//43 1//1
f 95//95 49//49 4//4
f 79//79 48//48 5//5
f 27//27 52//52 45//45
f 71//71 80//80 46//46
f 87//87 96//96 47//47
f 44//44 51//51 34//34
f 5//5 48//48 52//52
f 24//24 50//50 53//53
f 9//9 45//45 54//54
f 65//65 58//58 20//20
f 97//97 56//56 22//22
f 73//73 81//81 55//55
f 33//33 63//63 60//60
f 74//74 82//82 61//61
f 98//98 62//62 26//26
f 36//36 66//66 56//56
f 64//64 57//57 11//11
f 19//19 55//55 63//63
f 59//59 64//64 29//29
f 60//60 65//65 41//41
f 11//11 57//57 66//66
f 40//40 77//77 71//71
f 62//62 13//13 70//70
f 32//32 75//75 72//72
f 78//78 67//67 2//2
f 58//58 2//2 67//67
f 28//28 76//76 69//69
f 26//26 73//73 79//79
f 43//43 20//20 74//74
f 68//68 75//75 32//32
f 6//6 70//70 76//76
f 18//18 72//72 77//77
f 69//69 78//78 35//35
f 47//47 79//79 68//68
f 1//1 43//43 80//80
f 26//26 62//62 81//81
f 20//20 58//58 82//82
f 93//93 86//86 14//14
f 14//14 86//86 97//97
f 91//91 88//88 17//17
f 94//94 84//84 4//4
f 7//7 83//83 98//98
f 92//92 85//85 12//12
f 25//25 89//89 95//95
f 44//44 21//21 90//90
f 83//83 91//91 31//31
f 8//8 87//87 92//92
f 88//88 93//93 39//39
f 85//85 94//94 37//37
f 46//46 95//95 84//84
f 8//8 44//44 96//96
f 61//61 97//97 89//89
f 59//59 98//98 90//90
f 65//65 35//35 58//58
f 86//86 93//93 3//3
f 49//49 53//53 4//4
f 71//71 77//77 1//1
f 97//97 86//86 56//56
f 55//55 81//81 6//6
f 60//60 63//63 10//10
f 91//91 29//29 88//88
f 51//51 30//30 50//50
f 72//72 75//75 9//9
f 67//67 78//78 14//14
f 94//94 40//40 84//84
f 61//61 82//82 14//14
f 98//98 83//83 62//62
f 69//69 76//76 17//17
f 92//92 32//32 85//85
f 54//54 41//41 43//43
f 56//56 66//66 22//22
f 95//95 89//89 49//49
f 79//79 73//73 48//48
f 45//45 52//52 23//23
f 64//64 34//34 57//57
f 46//46 80//80 25//25
f 47//47 96//96 26//26
f 63//63 55//55 28//28
f 83//83 7//7 91//91
f 44//44 8//8 51//51
f 68//68 5//5 75//75
f 76//76 70//70 31//31
f 92//92 87//87 32//32
f 52//52 48//48 33//33
f 59//59 21//21 64//64
f 60//60 10//10 65//65
f 93//93 88//88 36//36
f 50//50 12//12 53//53
f 77//77 72//72 38//38
f 69//69 17//17 78//78
f 85//85 18//18 94//94
f 45//45 23//23 54//54
f 66//66 57//57 42//42
f 22//22 42//42 49//49
f 34//34 51//51 24//24
f 38//38 54//54 1//1
f 84//84 95//95 4//4
f 68//68 79//79 5//5
f 9//9 27//27 45//45
f 16//16 71//71 46//46
f 15//15 87//87 47//47
f 21//21 44//44 34//34
f 27//27 5//5 52//52
f 42//42 24//24 53//53
f 38//38 9//9 54//54
f 41//41 65//65 20//20
f 89//89 97//97 22//22
f 19//19 73//73 55//55
f 23//23 33//33 60//60
f 25//25 74//74 61//61
f 90//90 98//98 26//26
f 3//3 36//36 56//56
f 29//29 64//64 11//11
f 33//33 19//19 63//63
f 7//7 59//59 29//29
f 23//23 60//60 41//41
f 36//36 11//11 66//66
f 16//16 40//40 71//71
f 81//81 62//62 70//70
f 18//18 32//32 72//72
f 35//35 78//78 2//2
f 82//82 58//58 67//67
f 10//10 28//28 69//69
f 47//47 26//26 79//79
f 80//80 43//43 74//74
f 15//15 68//68 32//32
f 28//28 6//6 76//76
f 40//40 18//18 77//77
f 10//10 69//69 35//35
f 15//15 47//47 68//68
f 71//71 1//1 80//80
f 73//73 26//26 81//81
f 74//74 20//20 82//82
f 39//39 93//93 14//14
f 61//61 14//14 97//97
f 31//31 91//91 17//17
f 37//37 94//94 4//4
f 59//59 7//7 98//98
f 30//30 92//92 12//12
f 46//46 25//25 95//95
f 96//96 44//44 90//90
f 13//13 83//83 31//31
f 30//30 8//8 92//92
f 17//17 88//88 39//39
f 12//12 85//85 37//37
f 16//16 46//46 84//84
f 87//87 8//8 96//96
f 25//25 61//61 89//89
f 21//21 59//59 90//90
# 192 faces, 0 coords texture

# End of File
