####
#
# OBJ File Generated by Meshlab
#
####
# Object RHsegment_joint_visu.obj
#
# Vertices: 245
# Faces: 448
#
####
vn 0.078526 -0.000055 -6.282315
v -0.005325 -0.001593 -0.049787 0.654902 0.501961 0.313725
vn 0.170595 -0.000272 -6.280000
v 0.013494 -0.002561 -0.049466 0.654902 0.501961 0.313725
vn 0.082433 -0.104005 -6.281218
v -0.005686 -0.021523 -0.049650 0.654902 0.501961 0.313725
vn 0.029753 0.000242 -6.282868
v -0.027754 -0.000760 -0.049954 0.654902 0.501961 0.313725
vn 0.091831 0.103768 -6.281065
v -0.005544 0.018377 -0.049650 0.654902 0.501961 0.313725
vn 0.190180 0.115915 -6.278153
v 0.012384 0.015042 -0.049347 0.654902 0.501961 0.313725
vn 0.176859 -0.116861 -6.278584
v 0.012258 -0.020017 -0.049347 0.654902 0.501961 0.313725
vn 0.030000 -0.098868 -6.281959
v -0.027828 -0.021929 -0.049811 0.654902 0.501961 0.313725
vn 0.035335 0.099209 -6.281907
v -0.027676 0.020413 -0.049811 0.654902 0.501961 0.313725
vn 0.141600 -0.070790 6.275693
v -0.033742 -0.004177 0.074922 0.654902 0.501961 0.313725
vn 0.025669 -0.068217 6.278833
v -0.042532 -0.004010 0.075000 0.654902 0.501961 0.313725
vn 0.147466 -0.373954 6.267646
v -0.031983 -0.013256 0.074502 0.654902 0.501961 0.313725
vn 0.322921 -0.070100 6.270817
v -0.023646 -0.004322 0.074521 0.654902 0.501961 0.313725
vn 0.157623 0.235063 6.274059
v -0.031918 0.005053 0.074701 0.654902 0.501961 0.313725
vn 0.038634 0.258569 6.276082
v -0.041502 0.005763 0.074785 0.654902 0.501961 0.313725
vn 0.031498 -0.394089 6.269172
v -0.041571 -0.013602 0.074579 0.654902 0.501961 0.313725
vn 0.301327 -0.323941 6.264797
v -0.024138 -0.012381 0.074270 0.654902 0.501961 0.313725
vn 0.321425 0.188624 6.269083
v -0.024080 0.003787 0.074448 0.654902 0.501961 0.313725
vn 4.059452 -0.025128 -3.905079
v 0.040669 -0.004176 -0.046393 0.654902 0.501961 0.313725
vn 5.856591 -0.035095 -1.349197
v 0.042305 -0.004217 -0.042595 0.654902 0.501961 0.313725
vn 3.751727 -1.327041 -3.943185
v 0.037653 -0.022476 -0.046401 0.654902 0.501961 0.313725
vn 1.555784 -0.006564 -5.978629
v 0.036277 -0.003936 -0.048223 0.654902 0.501961 0.313725
vn 3.819923 1.257151 -3.936537
v 0.037785 0.014484 -0.046401 0.654902 0.501961 0.313725
vn 5.530459 1.824665 -1.424289
v 0.039332 0.015188 -0.042617 0.654902 0.501961 0.313725
vn 5.459954 -1.946365 -1.408542
v 0.039195 -0.023252 -0.042617 0.654902 0.501961 0.313725
vn 1.427014 -0.494134 -5.999810
v 0.033526 -0.020515 -0.048187 0.654902 0.501961 0.313725
vn 1.463700 0.486290 -5.989749
v 0.033645 0.012973 -0.048187 0.654902 0.501961 0.313725
vn 6.196329 -0.028449 0.000307
v 0.043500 -0.003899 -0.013029 0.654902 0.501961 0.313725
vn 6.177467 -0.027400 0.386329
v 0.043139 -0.003834 0.001044 0.654902 0.501961 0.313725
vn 5.844180 -1.977203 -0.047841
v 0.040346 -0.024277 -0.013048 0.654902 0.501961 0.313725
vn 6.195790 -0.029468 -0.241949
v 0.043197 -0.004016 -0.025757 0.654902 0.501961 0.313725
vn 5.893148 1.863111 -0.070559
v 0.040493 0.016846 -0.013043 0.654902 0.501961 0.313725
vn 5.885225 1.830872 0.336029
v 0.040146 0.017228 0.001040 0.654902 0.501961 0.313725
vn 5.839252 -1.940132 0.334854
v 0.039996 -0.024537 0.001021 0.654902 0.501961 0.313725
vn 5.830569 -2.012222 -0.287785
v 0.040055 -0.023888 -0.025776 0.654902 0.501961 0.313725
vn 5.880919 1.893278 -0.326524
v 0.040199 0.016227 -0.025776 0.654902 0.501961 0.313725
vn 1.772793 5.959113 -0.485378
v -0.004036 0.056160 -0.013261 0.654902 0.501961 0.313725
vn 1.755474 5.942630 -0.767658
v -0.004192 0.054776 -0.026027 0.654902 0.501961 0.313725
vn 0.737497 6.193894 -0.510942
v -0.027125 0.060511 -0.013335 0.654902 0.501961 0.313725
vn 1.782108 5.964746 -0.033931
v -0.004213 0.056947 0.000866 0.654902 0.501961 0.313725
vn 3.199075 5.281716 -0.398944
v 0.015959 0.047937 -0.013171 0.654902 0.501961 0.313725
vn 3.164210 5.287091 -0.682497
v 0.015740 0.046664 -0.025925 0.654902 0.501961 0.313725
vn 0.734344 6.169983 -0.790801
v -0.027209 0.059097 -0.026111 0.654902 0.501961 0.313725
vn 0.736794 6.206864 -0.062865
v -0.027215 0.061285 0.000803 0.654902 0.501961 0.313725
vn 3.219857 5.266574 0.052494
v 0.015706 0.048688 0.000941 0.654902 0.501961 0.313725
vn 1.068877 3.640056 -4.377182
v -0.004905 0.050228 -0.046711 0.654902 0.501961 0.313725
vn 0.403805 1.272501 -6.066133
v -0.005416 0.045047 -0.048538 0.654902 0.501961 0.313725
vn 0.442784 3.666439 -4.521323
v -0.027511 0.054337 -0.046817 0.654902 0.501961 0.313725
vn 1.601200 5.527914 -1.950075
v -0.004647 0.052410 -0.042907 0.654902 0.501961 0.313725
vn 1.981173 3.348846 -4.178650
v 0.014359 0.042645 -0.046572 0.654902 0.501961 0.313725
vn 0.765975 1.224361 -6.027080
v 0.012507 0.038302 -0.048344 0.654902 0.501961 0.313725
vn 0.161937 1.227623 -6.099954
v -0.027557 0.048773 -0.048662 0.654902 0.501961 0.313725
vn 0.673820 5.702122 -2.047453
v -0.027449 0.056661 -0.043003 0.654902 0.501961 0.313725
vn 2.906059 4.966245 -1.787804
v 0.015099 0.044507 -0.042789 0.654902 0.501961 0.313725
vn 1.289375 -6.095907 -0.448016
v -0.004446 -0.058612 -0.013274 0.654902 0.501961 0.313725
vn 1.264590 -6.088661 -0.652987
v -0.004593 -0.057421 -0.026027 0.654902 0.501961 0.313725
vn 2.747417 -5.529132 -0.361323
v 0.015601 -0.052424 -0.013183 0.654902 0.501961 0.313725
vn 1.308645 -6.099360 -0.116904
v -0.004629 -0.059395 0.000815 0.654902 0.501961 0.313725
vn 0.413008 -6.238814 -0.477358
v -0.027560 -0.061269 -0.013348 0.654902 0.501961 0.313725
vn 0.406384 -6.223663 -0.675910
v -0.027635 -0.060036 -0.026111 0.654902 0.501961 0.313725
vn 2.709427 -5.541096 -0.581563
v 0.015390 -0.051360 -0.025925 0.654902 0.501961 0.313725
vn 2.783250 -5.508951 -0.002708
v 0.015342 -0.053124 0.000895 0.654902 0.501961 0.313725
vn 0.420382 -6.250136 -0.162423
v -0.027656 -0.062079 0.000751 0.654902 0.501961 0.313725
vn 0.760839 -3.722057 -4.364407
v -0.005275 -0.053351 -0.046711 0.654902 0.501961 0.313725
vn 0.288458 -1.279700 -6.074260
v -0.005749 -0.048163 -0.048538 0.654902 0.501961 0.313725
vn 1.663675 -3.481800 -4.177437
v 0.014036 -0.047764 -0.046572 0.654902 0.501961 0.313725
vn 1.144630 -5.674662 -1.858819
v -0.005033 -0.055459 -0.042907 0.654902 0.501961 0.313725
vn 0.246716 -3.711513 -4.500545
v -0.027904 -0.055774 -0.046817 0.654902 0.501961 0.313725
vn 0.093746 -1.228286 -6.102959
v -0.027911 -0.050257 -0.048662 0.654902 0.501961 0.313725
vn 0.632507 -1.245666 -6.042811
v 0.012216 -0.043250 -0.048344 0.654902 0.501961 0.313725
vn 2.467069 -5.193264 -1.721275
v 0.014763 -0.049607 -0.042789 0.654902 0.501961 0.313725
vn 0.373810 -5.782646 -1.941493
v -0.027859 -0.058004 -0.043003 0.654902 0.501961 0.313725
vn 5.359006 -0.035817 3.098694
v 0.032713 -0.004248 0.040665 0.654902 0.501961 0.313725
vn 5.327647 -0.039169 3.268303
v 0.025745 -0.004471 0.051055 0.654902 0.501961 0.313725
vn 5.093493 -1.678843 3.047488
v 0.029913 -0.022961 0.040582 0.654902 0.501961 0.313725
vn 5.770034 -0.032039 2.024545
v 0.038723 -0.004050 0.028638 0.654902 0.501961 0.313725
vn 5.110027 1.558950 3.100010
v 0.030048 0.014735 0.040735 0.654902 0.501961 0.313725
vn 5.071386 1.557000 3.289034
v 0.023299 0.012799 0.051153 0.654902 0.501961 0.313725
vn 5.067449 -1.685867 3.223100
v 0.023177 -0.021516 0.050948 0.654902 0.501961 0.313725
vn 5.471508 -1.790246 1.966106
v 0.035725 -0.024149 0.028581 0.654902 0.501961 0.313725
vn 5.501344 1.678890 2.021131
v 0.035870 0.016360 0.028678 0.654902 0.501961 0.313725
vn 2.319460 -0.068578 5.774332
v 0.007929 -0.004897 0.069699 0.654902 0.501961 0.313725
vn 1.291157 -0.071059 6.114801
v -0.001879 -0.004784 0.072506 0.654902 0.501961 0.313725
vn 2.187875 -0.811686 5.762640
v 0.005985 -0.017580 0.069539 0.654902 0.501961 0.313725
vn 3.855755 -0.062542 4.658834
v 0.016102 -0.004903 0.065549 0.654902 0.501961 0.313725
vn 2.212031 0.663641 5.773174
v 0.006076 0.007920 0.069806 0.654902 0.501961 0.313725
vn 1.224831 0.375933 6.120842
v -0.003337 0.005434 0.072525 0.654902 0.501961 0.313725
vn 1.207017 -0.521544 6.113744
v -0.003410 -0.014892 0.072303 0.654902 0.501961 0.313725
vn 3.661542 -1.273029 4.611412
v 0.013852 -0.019585 0.065408 0.654902 0.501961 0.313725
vn 3.679915 1.119939 4.650959
v 0.013958 0.009942 0.065687 0.654902 0.501961 0.313725
vn 0.706888 2.584626 5.604184
v -0.021550 0.031490 0.070044 0.654902 0.501961 0.313725
vn 1.133394 4.077275 4.364339
v -0.017798 0.037390 0.065884 0.654902 0.501961 0.313725
vn 0.279494 2.727369 5.584974
v -0.036167 0.033932 0.070064 0.654902 0.501961 0.313725
vn 0.400476 1.384447 6.072694
v -0.025573 0.023954 0.072835 0.654902 0.501961 0.313725
vn 1.264398 2.185964 5.661463
v -0.009077 0.026727 0.069977 0.654902 0.501961 0.313725
vn 2.045984 3.508189 4.458375
v -0.003538 0.031810 0.065858 0.654902 0.501961 0.313725
vn 0.458508 4.291334 4.322399
v -0.034263 0.040245 0.065887 0.654902 0.501961 0.313725
vn 0.146207 1.451198 6.073381
v -0.038143 0.025867 0.072889 0.654902 0.501961 0.313725
vn 0.727203 1.163297 6.089079
v -0.015345 0.020272 0.072671 0.654902 0.501961 0.313725
vn 1.565326 5.361329 2.741831
v -0.009448 0.050116 0.040766 0.654902 0.501961 0.313725
vn 1.687614 5.676866 1.734280
v -0.006428 0.054532 0.028632 0.654902 0.501961 0.313725
vn 0.638865 5.611260 2.668658
v -0.029929 0.053866 0.040743 0.654902 0.501961 0.313725
vn 1.515684 5.304621 2.968625
v -0.012950 0.044888 0.051254 0.654902 0.501961 0.313725
vn 2.829744 4.671490 2.880757
v 0.008288 0.042860 0.040784 0.654902 0.501961 0.313725
vn 3.046073 4.960172 1.833515
v 0.012566 0.046674 0.028670 0.654902 0.501961 0.313725
vn 0.691384 5.933661 1.686242
v -0.028362 0.058613 0.028595 0.654902 0.501961 0.313725
vn 0.614048 5.535595 2.893408
v -0.031747 0.048265 0.051242 0.654902 0.501961 0.313725
vn 2.766483 4.646725 3.110272
v 0.003328 0.038330 0.051253 0.654902 0.501961 0.313725
vn 1.245112 -5.658249 2.280075
v -0.009823 -0.054685 0.040372 0.654902 0.501961 0.313725
vn 1.238655 -5.640741 2.432657
v -0.013291 -0.050552 0.050725 0.654902 0.501961 0.313725
vn 0.412355 -5.865664 2.135094
v -0.030326 -0.057187 0.040335 0.654902 0.501961 0.313725
vn 1.300068 -5.897892 1.331821
v -0.006830 -0.058088 0.028381 0.654902 0.501961 0.313725
vn 2.557275 -4.992408 2.554087
v 0.007960 -0.048927 0.040427 0.654902 0.501961 0.313725
vn 2.539540 -4.995683 2.726704
v 0.003029 -0.045244 0.050775 0.654902 0.501961 0.313725
vn 0.414987 -5.837152 2.275654
v -0.032108 -0.052884 0.050696 0.654902 0.501961 0.313725
vn 0.424000 -6.090904 1.223895
v -0.028789 -0.060727 0.028336 0.654902 0.501961 0.313725
vn 2.704350 -5.239462 1.542182
v 0.012214 -0.051961 0.028443 0.654902 0.501961 0.313725
vn 0.600182 -2.805351 5.500106
v -0.021803 -0.039356 0.069352 0.654902 0.501961 0.313725
vn 0.342981 -1.541967 6.036421
v -0.025773 -0.032051 0.072254 0.654902 0.501961 0.313725
vn 0.204034 -2.944261 5.468795
v -0.036435 -0.041168 0.069349 0.654902 0.501961 0.313725
vn 0.958840 -4.378137 4.048744
v -0.018091 -0.044819 0.065163 0.654902 0.501961 0.313725
vn 1.165679 -2.398090 5.586711
v -0.009299 -0.035329 0.069353 0.654902 0.501961 0.313725
vn 0.670526 -1.324907 6.061029
v -0.015521 -0.028928 0.072149 0.654902 0.501961 0.313725
vn 0.107590 -1.601486 6.034751
v -0.038355 -0.033456 0.072288 0.654902 0.501961 0.313725
vn 0.332207 -4.590010 3.963988
v -0.034575 -0.046912 0.065144 0.654902 0.501961 0.313725
vn 1.892866 -3.793462 4.226301
v -0.003796 -0.040147 0.065208 0.654902 0.501961 0.313725
vn 0.372541 -0.159296 -6.266996
v 0.025498 -0.019114 -0.048871 0.654902 0.501961 0.313725
vn 0.391224 -0.000824 -6.267192
v 0.027697 -0.003423 -0.048956 0.654902 0.501961 0.313725
vn 0.390340 0.156744 -6.265862
v 0.025611 0.012533 -0.048871 0.654902 0.501961 0.313725
vn 0.573134 -0.377014 6.239714
v -0.012468 -0.013166 0.073484 0.654902 0.501961 0.313725
vn 0.607297 -0.070990 6.244346
v -0.011398 -0.004597 0.073729 0.654902 0.501961 0.313725
vn 0.571115 0.246172 6.245826
v -0.012406 0.004055 0.073673 0.654902 0.501961 0.313725
vn 0.260336 0.297991 -6.267746
v 0.011273 0.029696 -0.048978 0.654902 0.501961 0.313725
vn 0.136458 0.300577 -6.271955
v -0.005767 0.035039 -0.049234 0.654902 0.501961 0.313725
vn 0.054285 0.291753 -6.274219
v -0.027607 0.038091 -0.049380 0.654902 0.501961 0.313725
vn 0.226888 -0.300394 -6.269147
v 0.011043 -0.034517 -0.048978 0.654902 0.501961 0.313725
vn 0.109458 -0.300858 -6.272627
v -0.006028 -0.038138 -0.049234 0.654902 0.501961 0.313725
vn 0.038304 -0.290853 -6.274489
v -0.027884 -0.039594 -0.049380 0.654902 0.501961 0.313725
vn 0.465341 0.468197 6.240149
v -0.019723 0.013076 0.073766 0.654902 0.501961 0.313725
vn 0.225691 0.580776 6.244715
v -0.028479 0.015636 0.074013 0.654902 0.501961 0.313725
vn 0.069123 0.611216 6.247474
v -0.039605 0.016998 0.074095 0.654902 0.501961 0.313725
vn 0.427821 -0.637676 6.228946
v -0.019848 -0.021709 0.073388 0.654902 0.501961 0.313725
vn 0.201335 -0.718868 6.231371
v -0.028620 -0.023821 0.073590 0.654902 0.501961 0.313725
vn 0.053547 -0.744004 6.233387
v -0.039755 -0.024755 0.073657 0.654902 0.501961 0.313725
vn 0.007566 0.048877 -3.141043
v -0.051914 0.021132 -0.049856 0.654902 0.501961 0.313725
vn 0.005968 0.000225 -3.141490
v -0.051991 -0.000352 -0.050000 0.654902 0.501961 0.313725
vn 0.005849 -0.048557 -3.141059
v -0.052068 -0.021832 -0.049856 0.654902 0.501961 0.313725
vn 0.002575 0.129896 3.138234
v -0.051960 0.005990 0.074785 0.654902 0.501961 0.313725
vn -0.000353 -0.033642 3.139871
v -0.051995 -0.003922 0.075000 0.654902 0.501961 0.313725
vn 0.000114 -0.196648 3.134795
v -0.052030 -0.013633 0.074578 0.654902 0.501961 0.313725
vn 5.812800 1.789434 0.954713
v 0.038742 0.017142 0.015328 0.654902 0.501961 0.313725
vn 6.097923 -0.027272 0.975598
v 0.041689 -0.003869 0.015316 0.654902 0.501961 0.313725
vn 5.774955 -1.894746 0.920735
v 0.038593 -0.024538 0.015280 0.654902 0.501961 0.313725
vn 3.193572 5.202918 0.744073
v 0.014676 0.048430 0.015268 0.654902 0.501961 0.313725
vn 1.765398 5.913429 0.662393
v -0.004939 0.056587 0.015211 0.654902 0.501961 0.313725
vn 0.725726 6.161307 0.630731
v -0.027590 0.060845 0.015161 0.654902 0.501961 0.313725
vn 2.791275 -5.454970 0.554657
v 0.014314 -0.053093 0.015155 0.654902 0.501961 0.313725
vn 1.320600 -6.071174 0.403777
v -0.005353 -0.059357 0.015085 0.654902 0.501961 0.313725
vn 0.425496 -6.234461 0.334111
v -0.028029 -0.062041 0.015031 0.654902 0.501961 0.313725
vn 1.180211 0.930381 -6.004614
v 0.025699 0.027843 -0.048191 0.654902 0.501961 0.313725
vn 3.045894 2.477084 -3.997855
v 0.029012 0.030945 -0.046451 0.654902 0.501961 0.313725
vn 4.416940 3.632462 -1.590401
v 0.030267 0.032313 -0.042681 0.654902 0.501961 0.313725
vn 4.809401 3.763401 0.199220
v 0.031005 0.035714 0.001006 0.654902 0.501961 0.313725
vn 4.796923 3.800935 -0.235833
v 0.031317 0.035084 -0.013090 0.654902 0.501961 0.313725
vn 4.765080 3.832637 -0.510413
v 0.031049 0.034050 -0.025832 0.654902 0.501961 0.313725
vn 1.086943 -0.958565 -6.020917
v 0.025476 -0.034405 -0.048191 0.654902 0.501961 0.313725
vn 2.851225 -2.611480 -3.992683
v 0.028766 -0.037857 -0.046451 0.654902 0.501961 0.313725
vn 4.159150 -3.847020 -1.547670
v 0.030011 -0.039265 -0.042681 0.654902 0.501961 0.313725
vn 4.587817 -3.987685 0.178291
v 0.030727 -0.041946 0.000970 0.654902 0.501961 0.313725
vn 4.564504 -4.033231 -0.200536
v 0.031043 -0.041411 -0.013099 0.654902 0.501961 0.313725
vn 4.526391 -4.073214 -0.438239
v 0.030783 -0.040600 -0.025832 0.654902 0.501961 0.313725
vn 0.035133 0.602781 -3.055340
v -0.051811 0.049906 -0.048707 0.654902 0.501961 0.313725
vn 0.096585 1.830552 -2.285847
v -0.051791 0.055548 -0.046861 0.654902 0.501961 0.313725
vn 0.147930 2.873744 -1.037023
v -0.051782 0.057898 -0.043046 0.654902 0.501961 0.313725
vn 0.154225 3.130747 -0.032622
v -0.051762 0.062500 0.000775 0.654902 0.501961 0.313725
vn 0.155948 3.123425 -0.255865
v -0.051766 0.061743 -0.013368 0.654902 0.501961 0.313725
vn 0.157227 3.110688 -0.395224
v -0.051772 0.060335 -0.026148 0.654902 0.501961 0.313725
vn 0.014834 -0.600867 -3.056681
v -0.052170 -0.050574 -0.048707 0.654902 0.501961 0.313725
vn 0.035390 -1.846109 -2.277362
v -0.052190 -0.056169 -0.046861 0.654902 0.501961 0.313725
vn 0.051972 -2.903998 -0.983500
v -0.052198 -0.058425 -0.043046 0.654902 0.501961 0.313725
vn 0.054152 -3.137288 -0.085645
v -0.052209 -0.062500 0.000723 0.654902 0.501961 0.313725
vn 0.053871 -3.130465 -0.241027
v -0.052207 -0.061690 -0.013381 0.654902 0.501961 0.313725
vn 0.054106 -3.122233 -0.337728
v -0.052204 -0.060456 -0.026148 0.654902 0.501961 0.313725
vn 5.874525 1.921774 -0.423336
v 0.039674 0.015598 -0.036015 0.654902 0.501961 0.313725
vn 6.198246 -0.030690 -0.332316
v 0.042657 -0.004138 -0.035995 0.654902 0.501961 0.313725
vn 5.822303 -2.045436 -0.377791
v 0.039534 -0.023503 -0.036015 0.654902 0.501961 0.313725
vn 3.136340 5.303270 -0.793583
v 0.015352 0.045358 -0.036178 0.654902 0.501961 0.313725
vn 1.741080 5.940353 -0.877752
v -0.004468 0.053344 -0.036290 0.654902 0.501961 0.313725
vn 0.731565 6.160925 -0.898994
v -0.027354 0.057622 -0.036382 0.654902 0.501961 0.313725
vn 2.677020 -5.559330 -0.674273
v 0.015010 -0.050298 -0.036178 0.654902 0.501961 0.313725
vn 1.242353 -6.089439 -0.739406
v -0.004859 -0.056233 -0.036290 0.654902 0.501961 0.313725
vn 0.402789 -6.217762 -0.753096
v -0.027770 -0.058806 -0.036382 0.654902 0.501961 0.313725
vn 1.007966 0.806692 6.113653
v -0.007816 0.014279 0.072525 0.654902 0.501961 0.313725
vn 1.837005 1.480230 5.728978
v 0.000412 0.019064 0.069888 0.654902 0.501961 0.313725
vn 3.032526 2.423295 4.556724
v 0.007414 0.022873 0.065798 0.654902 0.501961 0.313725
vn 4.513774 3.491183 1.942469
v 0.027154 0.034222 0.028691 0.654902 0.501961 0.313725
vn 4.200076 3.274827 3.022188
v 0.021910 0.031325 0.040779 0.654902 0.501961 0.313725
vn 4.149963 3.275928 3.250002
v 0.015830 0.027873 0.051225 0.654902 0.501961 0.313725
vn 0.971249 -0.962417 6.096572
v -0.007950 -0.023428 0.072117 0.654902 0.501961 0.313725
vn 1.777944 -1.661365 5.691839
v 0.000243 -0.028324 0.069399 0.654902 0.501961 0.313725
vn 2.954601 -2.650373 4.430958
v 0.007217 -0.032025 0.065286 0.654902 0.501961 0.313725
vn 4.347096 -3.716532 1.786419
v 0.026885 -0.041073 0.028513 0.654902 0.501961 0.313725
vn 4.077338 -3.516451 2.857667
v 0.021659 -0.038742 0.040499 0.654902 0.501961 0.313725
vn 4.061229 -3.533280 3.055238
v 0.015602 -0.035914 0.050849 0.654902 0.501961 0.313725
vn 0.026985 0.727553 3.038548
v -0.051887 0.026394 0.072888 0.654902 0.501961 0.313725
vn 0.056158 1.375138 2.793534
v -0.051858 0.034589 0.070062 0.654902 0.501961 0.313725
vn 0.093018 2.169226 2.161830
v -0.051835 0.041009 0.065884 0.654902 0.501961 0.313725
vn 0.141777 2.996982 0.839236
v -0.051770 0.059733 0.028577 0.654902 0.501961 0.313725
vn 0.130667 2.833862 1.326195
v -0.051787 0.054888 0.040729 0.654902 0.501961 0.313725
vn 0.125467 2.792036 1.436537
v -0.051806 0.049178 0.051233 0.654902 0.501961 0.313725
vn 0.014063 -0.800923 3.019330
v -0.052102 -0.033715 0.072287 0.654902 0.501961 0.313725
vn 0.030575 -1.482218 2.734513
v -0.052130 -0.041504 0.069348 0.654902 0.501961 0.313725
vn 0.050040 -2.318664 1.976963
v -0.052150 -0.047296 0.065140 0.654902 0.501961 0.313725
vn 0.055850 -3.065210 0.598305
v -0.052202 -0.061149 0.028318 0.654902 0.501961 0.313725
vn 0.056425 -2.953813 1.048168
v -0.052189 -0.057602 0.040322 0.654902 0.501961 0.313725
vn 0.059355 -2.936482 1.114337
v -0.052173 -0.053285 0.050687 0.654902 0.501961 0.313725
vn 4.871401 1.491139 3.456607
v 0.018793 0.011323 0.059589 0.654902 0.501961 0.313725
vn 5.119356 -0.050487 3.439686
v 0.021093 -0.004743 0.059466 0.654902 0.501961 0.313725
vn 4.862716 -1.636245 3.384508
v 0.018678 -0.020618 0.059337 0.654902 0.501961 0.313725
vn 2.663808 4.486878 3.293334
v 0.000015 0.035028 0.059734 0.654902 0.501961 0.313725
vn 1.462588 5.148733 3.168955
v -0.015289 0.041094 0.059749 0.654902 0.501961 0.313725
vn 0.591839 5.388636 3.100876
v -0.032961 0.044207 0.059747 0.654902 0.501961 0.313725
vn 2.466971 -4.822331 2.910615
v -0.000263 -0.042793 0.059145 0.654902 0.501961 0.313725
vn 1.224773 -5.489721 2.639896
v -0.015607 -0.047797 0.059097 0.654902 0.501961 0.313725
vn 0.418228 -5.711660 2.490095
v -0.033298 -0.050019 0.059073 0.654902 0.501961 0.313725
vn 0.337107 -0.271155 -6.267137
v 0.021119 -0.029818 -0.048698 0.654902 0.501961 0.313725
vn 0.367651 0.266662 -6.265551
v 0.021311 0.023775 -0.048698 0.654902 0.501961 0.313725
vn 0.593231 -0.626268 6.223508
v -0.014603 -0.019061 0.073113 0.654902 0.501961 0.313725
vn 0.539645 0.417195 6.245464
v -0.014499 0.010123 0.073431 0.654902 0.501961 0.313725
vn 0.012122 0.143485 -3.137431
v -0.051850 0.039069 -0.049425 0.654902 0.501961 0.313725
vn 0.007279 -0.142659 -3.137532
v -0.052132 -0.039756 -0.049425 0.654902 0.501961 0.313725
vn 0.009257 0.306035 3.124354
v -0.051919 0.017393 0.074095 0.654902 0.501961 0.313725
vn 0.004117 -0.371251 3.117346
v -0.052071 -0.024915 0.073657 0.654902 0.501961 0.313725
vn 4.758480 3.697032 0.860866
v 0.029741 0.035555 0.015314 0.654902 0.501961 0.313725
vn 4.560537 -3.918496 0.760253
v 0.029464 -0.041926 0.015225 0.654902 0.501961 0.313725
vn 0.150445 3.108969 0.313537
v -0.051763 0.062024 0.015138 0.654902 0.501961 0.313725
vn 0.055109 -3.131481 0.158585
v -0.052208 -0.062462 0.015008 0.654902 0.501961 0.313725
vn 4.742379 3.868512 -0.617251
v 0.030575 0.032998 -0.036076 0.654902 0.501961 0.313725
vn 4.496751 -4.115808 -0.530013
v 0.030315 -0.039791 -0.036076 0.654902 0.501961 0.313725
vn 0.158307 3.105299 -0.448590
v -0.051778 0.058859 -0.036422 0.654902 0.501961 0.313725
vn 0.054459 -3.118591 -0.375321
v -0.052200 -0.059226 -0.036422 0.654902 0.501961 0.313725
vn 3.983039 3.144658 3.404867
v 0.011769 0.025330 0.059685 0.654902 0.501961 0.313725
vn 3.896978 -3.396556 3.198956
v 0.011557 -0.034052 0.059223 0.654902 0.501961 0.313725
vn 0.119544 2.721324 1.542986
v -0.051821 0.045044 0.059741 0.654902 0.501961 0.313725
vn 0.061085 -2.880061 1.224325
v -0.052162 -0.050416 0.059068 0.654902 0.501961 0.313725
# 245 vertices, 0 vertices normals

f 1//1 5//5 6//6
f 2//2 6//6 129//129
f 5//5 134//134 133//133
f 6//6 133//133 227//227
f 1//1 2//2 7//7
f 3//3 7//7 136//136
f 2//2 128//128 127//127
f 7//7 127//127 226//226
f 3//3 8//8 4//4
f 4//4 8//8 147//147
f 137//137 138//138 8//8
f 138//138 231//231 147//147
f 4//4 9//9 5//5
f 9//9 135//135 134//134
f 146//146 145//145 9//9
f 145//145 230//230 135//135
f 10//10 14//14 15//15
f 11//11 15//15 148//148
f 14//14 140//140 141//141
f 15//15 141//141 232//232
f 10//10 11//11 16//16
f 12//12 16//16 144//144
f 11//11 149//149 150//150
f 16//16 150//150 233//233
f 12//12 17//17 13//13
f 13//13 17//17 130//130
f 143//143 142//142 17//17
f 142//142 228//228 130//130
f 13//13 18//18 14//14
f 18//18 139//139 140//140
f 13//13 131//131 132//132
f 18//18 132//132 229//229
f 23//23 24//24 20//20
f 24//24 184//184 185//185
f 161//161 162//162 24//24
f 162//162 238//238 184//184
f 20//20 25//25 21//21
f 25//25 168//168 167//167
f 185//185 186//186 25//25
f 186//186 239//239 168//168
f 19//19 21//21 26//26
f 26//26 127//127 128//128
f 21//21 167//167 166//166
f 166//166 226//226 127//127
f 22//22 27//27 23//23
f 23//23 27//27 160//160
f 128//128 129//129 27//27
f 129//129 227//227 160//160
f 32//32 33//33 29//29
f 33//33 151//151 152//152
f 164//164 163//163 33//33
f 163//163 234//234 151//151
f 29//29 34//34 30//30
f 34//34 169//169 170//170
f 152//152 153//153 34//34
f 153//153 235//235 169//169
f 28//28 30//30 35//35
f 31//31 35//35 186//186
f 30//30 170//170 171//171
f 35//35 171//171 239//239
f 28//28 31//31 36//36
f 32//32 36//36 165//165
f 31//31 185//185 184//184
f 36//36 184//184 238//238
f 41//41 42//42 38//38
f 42//42 187//187 188//188
f 164//164 165//165 42//42
f 165//165 238//238 187//187
f 37//37 38//38 43//43
f 39//39 43//43 177//177
f 38//38 188//188 189//189
f 189//189 240//240 177//177
f 39//39 44//44 40//40
f 44//44 156//156 155//155
f 176//176 175//175 44//44
f 175//175 236//236 156//156
f 37//37 40//40 45//45
f 41//41 45//45 163//163
f 40//40 155//155 154//154
f 45//45 154//154 234//234
f 50//50 51//51 47//47
f 51//51 133//133 134//134
f 161//161 160//160 51//51
f 160//160 227//227 133//133
f 46//46 47//47 52//52
f 48//48 52//52 172//172
f 47//47 134//134 135//135
f 52//52 135//135 230//230
f 48//48 53//53 49//49
f 53//53 189//189 188//188
f 173//173 174//174 53//53
f 53//53 174//174 240//240
f 46//46 49//49 54//54
f 50//50 54//54 162//162
f 49//49 188//188 187//187
f 54//54 187//187 238//238
f 59//59 60//60 56//56
f 60//60 192//192 191//191
f 182//182 183//183 60//60
f 183//183 241//241 192//192
f 56//56 61//61 57//57
f 61//61 171//171 170//170
f 56//56 191//191 190//190
f 190//190 239//239 171//171
f 55//55 57//57 62//62
f 58//58 62//62 157//157
f 57//57 170//170 169//169
f 62//62 169//169 235//235
f 58//58 63//63 59//59
f 63//63 181//181 182//182
f 158//158 159//159 63//63
f 159//159 237//237 181//181
f 64//64 68//68 69//69
f 65//65 69//69 138//138
f 68//68 179//179 178//178
f 69//69 178//178 231//231
f 65//65 70//70 66//66
f 70//70 166//166 167//167
f 137//137 136//136 70//70
f 136//136 226//226 166//166
f 64//64 66//66 71//71
f 71//71 190//190 191//191
f 66//66 167//167 168//168
f 71//71 168//168 239//239
f 67//67 72//72 68//68
f 72//72 180//180 179//179
f 67//67 191//191 192//192
f 72//72 192//192 241//241
f 73//73 77//77 78//78
f 74//74 78//78 217//217
f 197//197 198//198 78//78
f 198//198 242//242 217//217
f 74//74 79//79 75//75
f 79//79 204//204 203//203
f 218//218 219//219 79//79
f 219//219 243//243 204//204
f 73//73 75//75 80//80
f 76//76 80//80 153//153
f 75//75 203//203 202//202
f 80//80 202//202 235//235
f 76//76 81//81 77//77
f 77//77 81//81 196//196
f 152//152 151//151 81//81
f 81//81 151//151 234//234
f 86//86 87//87 83//83
f 87//87 132//132 131//131
f 194//194 193//193 87//87
f 193//193 229//229 132//132
f 83//83 88//88 84//84
f 88//88 199//199 200//200
f 131//131 130//130 88//88
f 130//130 228//228 199//199
f 82//82 84//84 89//89
f 85//85 89//89 219//219
f 84//84 200//200 201//201
f 89//89 201//201 243//243
f 82//82 85//85 90//90
f 86//86 90//90 195//195
f 218//218 217//217 90//90
f 90//90 217//217 242//242
f 95//95 96//96 92//92
f 96//96 220//220 221//221
f 194//194 195//195 96//96
f 195//195 242//242 220//220
f 91//91 92//92 97//97
f 93//93 97//97 207//207
f 92//92 221//221 222//222
f 97//97 222//222 244//244
f 93//93 98//98 94//94
f 98//98 141//141 140//140
f 206//206 205//205 98//98
f 205//205 232//232 141//141
f 91//91 94//94 99//99
f 95//95 99//99 193//193
f 94//94 140//140 139//139
f 99//99 139//139 229//229
f 104//104 105//105 101//101
f 105//105 154//154 155//155
f 197//197 196//196 105//105
f 196//196 234//234 154//154
f 100//100 101//101 106//106
f 102//102 106//106 208//208
f 101//101 155//155 156//156
f 106//106 156//156 236//236
f 102//102 107//107 103//103
f 107//107 222//222 221//221
f 209//209 210//210 107//107
f 210//210 244//244 222//222
f 100//100 103//103 108//108
f 104//104 108//108 198//198
f 103//103 221//221 220//220
f 108//108 220//220 242//242
f 109//109 113//113 114//114
f 110//110 114//114 223//223
f 113//113 203//203 204//204
f 114//114 204//204 243//243
f 110//110 115//115 111//111
f 115//115 216//216 215//215
f 224//224 225//225 115//115
f 225//225 245//245 216//216
f 109//109 111//111 116//116
f 112//112 116//116 159//159
f 111//111 215//215 214//214
f 116//116 214//214 237//237
f 112//112 117//117 113//113
f 117//117 202//202 203//203
f 158//158 157//157 117//117
f 157//157 235//235 202//202
f 118//118 122//122 123//123
f 119//119 123//123 142//142
f 122//122 200//200 199//199
f 123//123 199//199 228//228
f 119//119 124//124 120//120
f 124//124 211//211 212//212
f 143//143 144//144 124//124
f 144//144 233//233 211//211
f 118//118 120//120 125//125
f 121//121 125//125 225//225
f 120//120 212//212 213//213
f 125//125 213//213 245//245
f 121//121 126//126 122//122
f 126//126 201//201 200//200
f 224//224 223//223 126//126
f 223//223 243//243 201//201
f 2//2 1//1 6//6
f 128//128 2//2 129//129
f 6//6 5//5 133//133
f 129//129 6//6 227//227
f 3//3 1//1 7//7
f 137//137 3//3 136//136
f 7//7 2//2 127//127
f 136//136 7//7 226//226
f 1//1 3//3 4//4
f 146//146 4//4 147//147
f 3//3 137//137 8//8
f 8//8 138//138 147//147
f 1//1 4//4 5//5
f 5//5 9//9 134//134
f 4//4 146//146 9//9
f 9//9 145//145 135//135
f 11//11 10//10 15//15
f 149//149 11//11 148//148
f 15//15 14//14 141//141
f 148//148 15//15 232//232
f 12//12 10//10 16//16
f 143//143 12//12 144//144
f 16//16 11//11 150//150
f 144//144 16//16 233//233
f 10//10 12//12 13//13
f 131//131 13//13 130//130
f 12//12 143//143 17//17
f 17//17 142//142 130//130
f 10//10 13//13 14//14
f 14//14 18//18 140//140
f 18//18 13//13 132//132
f 139//139 18//18 229//229
f 19//19 23//23 20//20
f 20//20 24//24 185//185
f 23//23 161//161 24//24
f 24//24 162//162 184//184
f 19//19 20//20 21//21
f 21//21 25//25 167//167
f 20//20 185//185 25//25
f 25//25 186//186 168//168
f 22//22 19//19 26//26
f 22//22 26//26 128//128
f 26//26 21//21 166//166
f 26//26 166//166 127//127
f 19//19 22//22 23//23
f 161//161 23//23 160//160
f 22//22 128//128 27//27
f 27//27 129//129 160//160
f 28//28 32//32 29//29
f 29//29 33//33 152//152
f 32//32 164//164 33//33
f 33//33 163//163 151//151
f 28//28 29//29 30//30
f 30//30 34//34 170//170
f 29//29 152//152 34//34
f 34//34 153//153 169//169
f 31//31 28//28 35//35
f 185//185 31//31 186//186
f 35//35 30//30 171//171
f 186//186 35//35 239//239
f 32//32 28//28 36//36
f 164//164 32//32 165//165
f 36//36 31//31 184//184
f 165//165 36//36 238//238
f 37//37 41//41 38//38
f 38//38 42//42 188//188
f 41//41 164//164 42//42
f 42//42 165//165 187//187
f 39//39 37//37 43//43
f 176//176 39//39 177//177
f 43//43 38//38 189//189
f 43//43 189//189 177//177
f 37//37 39//39 40//40
f 40//40 44//44 155//155
f 39//39 176//176 44//44
f 44//44 175//175 156//156
f 41//41 37//37 45//45
f 164//164 41//41 163//163
f 45//45 40//40 154//154
f 163//163 45//45 234//234
f 46//46 50//50 47//47
f 47//47 51//51 134//134
f 50//50 161//161 51//51
f 51//51 160//160 133//133
f 48//48 46//46 52//52
f 173//173 48//48 172//172
f 52//52 47//47 135//135
f 172//172 52//52 230//230
f 46//46 48//48 49//49
f 49//49 53//53 188//188
f 48//48 173//173 53//53
f 189//189 53//53 240//240
f 50//50 46//46 54//54
f 161//161 50//50 162//162
f 54//54 49//49 187//187
f 162//162 54//54 238//238
f 55//55 59//59 56//56
f 56//56 60//60 191//191
f 59//59 182//182 60//60
f 60//60 183//183 192//192
f 55//55 56//56 57//57
f 57//57 61//61 170//170
f 61//61 56//56 190//190
f 61//61 190//190 171//171
f 58//58 55//55 62//62
f 158//158 58//58 157//157
f 62//62 57//57 169//169
f 157//157 62//62 235//235
f 55//55 58//58 59//59
f 59//59 63//63 182//182
f 58//58 158//158 63//63
f 63//63 159//159 181//181
f 65//65 64//64 69//69
f 137//137 65//65 138//138
f 69//69 68//68 178//178
f 138//138 69//69 231//231
f 64//64 65//65 66//66
f 66//66 70//70 167//167
f 65//65 137//137 70//70
f 70//70 136//136 166//166
f 67//67 64//64 71//71
f 67//67 71//71 191//191
f 71//71 66//66 168//168
f 190//190 71//71 239//239
f 64//64 67//67 68//68
f 68//68 72//72 179//179
f 72//72 67//67 192//192
f 180//180 72//72 241//241
f 74//74 73//73 78//78
f 218//218 74//74 217//217
f 77//77 197//197 78//78
f 78//78 198//198 217//217
f 73//73 74//74 75//75
f 75//75 79//79 203//203
f 74//74 218//218 79//79
f 79//79 219//219 204//204
f 76//76 73//73 80//80
f 152//152 76//76 153//153
f 80//80 75//75 202//202
f 153//153 80//80 235//235
f 73//73 76//76 77//77
f 197//197 77//77 196//196
f 76//76 152//152 81//81
f 196//196 81//81 234//234
f 82//82 86//86 83//83
f 83//83 87//87 131//131
f 86//86 194//194 87//87
f 87//87 193//193 132//132
f 82//82 83//83 84//84
f 84//84 88//88 200//200
f 83//83 131//131 88//88
f 88//88 130//130 199//199
f 85//85 82//82 89//89
f 218//218 85//85 219//219
f 89//89 84//84 201//201
f 219//219 89//89 243//243
f 86//86 82//82 90//90
f 194//194 86//86 195//195
f 85//85 218//218 90//90
f 195//195 90//90 242//242
f 91//91 95//95 92//92
f 92//92 96//96 221//221
f 95//95 194//194 96//96
f 96//96 195//195 220//220
f 93//93 91//91 97//97
f 206//206 93//93 207//207
f 97//97 92//92 222//222
f 207//207 97//97 244//244
f 91//91 93//93 94//94
f 94//94 98//98 140//140
f 93//93 206//206 98//98
f 98//98 205//205 141//141
f 95//95 91//91 99//99
f 194//194 95//95 193//193
f 99//99 94//94 139//139
f 193//193 99//99 229//229
f 100//100 104//104 101//101
f 101//101 105//105 155//155
f 104//104 197//197 105//105
f 105//105 196//196 154//154
f 102//102 100//100 106//106
f 209//209 102//102 208//208
f 106//106 101//101 156//156
f 208//208 106//106 236//236
f 100//100 102//102 103//103
f 103//103 107//107 221//221
f 102//102 209//209 107//107
f 107//107 210//210 222//222
f 104//104 100//100 108//108
f 197//197 104//104 198//198
f 108//108 103//103 220//220
f 198//198 108//108 242//242
f 110//110 109//109 114//114
f 224//224 110//110 223//223
f 114//114 113//113 204//204
f 223//223 114//114 243//243
f 109//109 110//110 111//111
f 111//111 115//115 215//215
f 110//110 224//224 115//115
f 115//115 225//225 216//216
f 112//112 109//109 116//116
f 158//158 112//112 159//159
f 116//116 111//111 214//214
f 159//159 116//116 237//237
f 109//109 112//112 113//113
f 113//113 117//117 203//203
f 112//112 158//158 117//117
f 117//117 157//157 202//202
f 119//119 118//118 123//123
f 143//143 119//119 142//142
f 123//123 122//122 199//199
f 142//142 123//123 228//228
f 118//118 119//119 120//120
f 120//120 124//124 212//212
f 119//119 143//143 124//124
f 124//124 144//144 211//211
f 121//121 118//118 125//125
f 224//224 121//121 225//225
f 125//125 120//120 213//213
f 225//225 125//125 245//245
f 118//118 121//121 122//122
f 122//122 126//126 200//200
f 121//121 224//224 126//126
f 126//126 223//223 201//201
# 448 faces, 0 coords texture

# End of File
