####
#
# OBJ File Generated by Meshlab
#
####
# Object RightFingerJoint50y_joint_visu.obj
#
# Vertices: 640
# Faces: 1216
#
####
vn 0.000000 0.000000 -0.000000
v -0.008828 0.000000 0.025732 0.078431 0.062745 0.039216
vn 0.299980 -0.403782 -0.291095
v -0.008828 0.000000 0.025732 0.078431 0.062745 0.039216
vn -0.158719 0.503001 -0.371827
v -0.008828 0.000000 0.025732 0.078431 0.062745 0.039216
vn 0.012090 -0.203880 -0.117900
v -0.008828 0.000000 0.025732 0.078431 0.062745 0.039216
vn 0.000000 0.000000 0.000000
v -0.008828 0.000000 0.025732 0.078431 0.062745 0.039216
vn -0.012115 -0.203880 -0.117898
v -0.008828 0.000000 0.025732 0.078431 0.062745 0.039216
vn 1.475484 -0.203812 -0.372002
v -0.008828 0.000000 0.025732 0.078431 0.062745 0.039216
vn -0.013600 -0.017955 -0.291061
v -0.008828 0.000000 0.025732 0.078431 0.062745 0.039216
vn 0.000000 0.000000 0.000000
v -0.008828 0.000000 0.025732 0.078431 0.062745 0.039216
vn -0.017971 -0.013584 -0.291061
v -0.008828 0.000000 0.025732 0.078431 0.062745 0.039216
vn -0.027023 -0.008602 -0.371842
v -0.008828 0.000000 0.025732 0.078431 0.062745 0.039216
vn -0.009042 -0.000254 -0.117898
v -0.008828 0.000000 0.025732 0.078431 0.062745 0.039216
vn 0.000001 1.494362 0.000000
v -0.008828 0.000000 0.025732 0.078431 0.062745 0.039216
vn -0.009040 1.647485 -0.117898
v -0.008828 0.000000 0.025732 0.078431 0.062745 0.039216
vn -0.805944 -1.442598 -0.371759
v -0.008828 0.000000 0.025732 0.078431 0.062745 0.039216
vn -0.724795 -1.303277 -0.290985
v -0.008828 0.000000 0.025732 0.078431 0.062745 0.039216
vn 0.000000 0.000000 0.000000
v -0.008828 0.000000 0.025732 0.078431 0.062745 0.039216
vn -0.013615 0.017940 -0.291061
v -0.008828 0.000000 0.025732 0.078431 0.062745 0.039216
vn -0.008642 0.026984 -0.371843
v -0.008828 0.000000 0.025732 0.078431 0.062745 0.039216
vn -0.000266 0.009029 -0.117899
v -0.008828 0.000000 0.025732 0.078431 0.062745 0.039216
vn 1.494362 -0.000001 -0.000160
v -0.008828 0.000000 0.025732 0.078431 0.062745 0.039216
vn 1.647472 0.009027 -0.118075
v -0.008828 0.000000 0.025732 0.078431 0.062745 0.039216
vn -1.442638 0.805904 -0.371690
v -0.008828 0.000000 0.025732 0.078431 0.062745 0.039216
vn -1.303308 0.724764 -0.290930
v -0.008828 0.000000 0.025732 0.078431 0.062745 0.039216
vn 1.056665 -1.056682 -0.000113
v -0.008828 0.000000 0.025732 0.078431 0.062745 0.039216
vn 0.403742 0.300003 -0.291099
v -0.008828 0.000000 0.025732 0.078431 0.062745 0.039216
vn -0.503043 -0.158679 -0.371792
v -0.008828 0.000000 0.025732 0.078431 0.062745 0.039216
vn 0.203864 0.012102 -0.117919
v -0.008828 0.000000 0.025732 0.078431 0.062745 0.039216
vn 0.000001 1.494362 0.000000
v -0.008828 0.000000 0.025732 0.078431 0.062745 0.039216
vn 0.009016 -0.000263 -0.117898
v -0.008828 0.000000 0.025732 0.078431 0.062745 0.039216
vn -0.679868 -1.325459 -0.371773
v -0.008828 0.000000 0.025732 0.078431 0.062745 0.039216
vn 0.403756 -0.300015 -0.291106
v -0.008828 0.000000 0.025732 0.078431 0.062745 0.039216
vn 0.711465 -0.711814 -6.173921
v -0.008391 -0.000438 0.025780 0.078431 0.062745 0.039216
vn 0.500776 -0.866432 -6.175920
v -0.008535 -0.000547 0.025780 0.078431 0.062745 0.039216
vn 0.282667 -0.951904 -6.178450
v -0.008661 -0.000600 0.025780 0.078431 0.062745 0.039216
vn 0.100975 -0.979838 -6.181895
v -0.008755 -0.000617 0.025780 0.078431 0.062745 0.039216
vn -0.000663 -0.974994 -6.186036
v -0.008828 -0.000619 0.025780 0.078431 0.062745 0.039216
vn -0.102294 -0.979837 -6.181874
v -0.008902 -0.000617 0.025780 0.078431 0.062745 0.039216
vn -0.284217 -0.951783 -6.178381
v -0.008996 -0.000600 0.025780 0.078431 0.062745 0.039216
vn -0.502217 -0.866431 -6.175849
v -0.009122 -0.000547 0.025780 0.078431 0.062745 0.039216
vn -0.712477 -0.712128 -6.173774
v -0.009266 -0.000438 0.025780 0.078431 0.062745 0.039216
vn -0.867109 -0.501423 -6.175775
v -0.009375 -0.000293 0.025780 0.078431 0.062745 0.039216
vn -0.952582 -0.283322 -6.178314
v -0.009428 -0.000167 0.025780 0.078431 0.062745 0.039216
vn -0.980531 -0.101659 -6.181774
v -0.009445 -0.000073 0.025780 0.078431 0.062745 0.039216
vn -0.975667 0.000282 -6.185917
v -0.009447 0.000000 0.025780 0.078431 0.062745 0.039216
vn -0.980515 0.101690 -6.181807
v -0.009445 0.000073 0.025780 0.078431 0.062745 0.039216
vn -0.952436 0.283356 -6.178307
v -0.009428 0.000167 0.025780 0.078431 0.062745 0.039216
vn -0.867090 0.501535 -6.175810
v -0.009375 0.000293 0.025780 0.078431 0.062745 0.039216
vn -0.712790 0.711817 -6.173774
v -0.009266 0.000438 0.025780 0.078431 0.062745 0.039216
vn -0.502092 0.866441 -6.175815
v -0.009122 0.000547 0.025780 0.078431 0.062745 0.039216
vn -0.283988 0.951923 -6.178384
v -0.008996 0.000600 0.025780 0.078431 0.062745 0.039216
vn -0.102316 0.979869 -6.181868
v -0.008902 0.000617 0.025780 0.078431 0.062745 0.039216
vn -0.000381 0.975006 -6.186021
v -0.008828 0.000619 0.025780 0.078431 0.062745 0.039216
vn 0.101028 0.979853 -6.181923
v -0.008755 0.000617 0.025780 0.078431 0.062745 0.039216
vn 0.282693 0.951774 -6.178439
v -0.008661 0.000600 0.025780 0.078431 0.062745 0.039216
vn 0.500878 0.866435 -6.175955
v -0.008535 0.000547 0.025780 0.078431 0.062745 0.039216
vn 0.711180 0.712137 -6.173916
v -0.008391 0.000438 0.025780 0.078431 0.062745 0.039216
vn 0.865763 0.501444 -6.175962
v -0.008282 0.000293 0.025780 0.078431 0.062745 0.039216
vn 0.951244 0.283348 -6.178518
v -0.008229 0.000167 0.025780 0.078431 0.062745 0.039216
vn 0.979194 0.101599 -6.181984
v -0.008212 0.000073 0.025780 0.078431 0.062745 0.039216
vn 0.974318 -0.000261 -6.186134
v -0.008210 0.000000 0.025780 0.078431 0.062745 0.039216
vn 0.979238 -0.101654 -6.182010
v -0.008212 -0.000073 0.025780 0.078431 0.062745 0.039216
vn 0.951142 -0.283381 -6.178506
v -0.008229 -0.000167 0.025780 0.078431 0.062745 0.039216
vn 0.865748 -0.501578 -6.175995
v -0.008282 -0.000293 0.025780 0.078431 0.062745 0.039216
vn 1.397287 -1.397878 -5.920570
v -0.007941 -0.000887 0.025931 0.078431 0.062745 0.039216
vn 0.985266 -1.705908 -5.925531
v -0.008234 -0.001108 0.025931 0.078431 0.062745 0.039216
vn 0.557838 -1.878804 -5.931870
v -0.008489 -0.001216 0.025931 0.078431 0.062745 0.039216
vn 0.201589 -1.945426 -5.939075
v -0.008680 -0.001250 0.025931 0.078431 0.062745 0.039216
vn -0.000638 -1.950484 -5.947096
v -0.008828 -0.001254 0.025931 0.078431 0.062745 0.039216
vn -0.202772 -1.945449 -5.939034
v -0.008977 -0.001250 0.025931 0.078431 0.062745 0.039216
vn -0.559087 -1.878794 -5.931734
v -0.009167 -0.001216 0.025931 0.078431 0.062745 0.039216
vn -0.986579 -1.705908 -5.925315
v -0.009423 -0.001108 0.025931 0.078431 0.062745 0.039216
vn -1.398533 -1.397920 -5.920251
v -0.009715 -0.000887 0.025931 0.078431 0.062745 0.039216
vn -1.706567 -0.985884 -5.925242
v -0.009937 -0.000595 0.025931 0.078431 0.062745 0.039216
vn -1.879446 -0.558388 -5.931606
v -0.010044 -0.000339 0.025931 0.078431 0.062745 0.039216
vn -1.946079 -0.202240 -5.938861
v -0.010079 -0.000149 0.025931 0.078431 0.062745 0.039216
vn -1.951110 -0.000114 -5.946882
v -0.010083 0.000000 0.025931 0.078431 0.062745 0.039216
vn -1.946071 0.202128 -5.938850
v -0.010079 0.000149 0.025931 0.078431 0.062745 0.039216
vn -1.879434 0.558457 -5.931589
v -0.010044 0.000339 0.025931 0.078431 0.062745 0.039216
vn -1.706549 0.985942 -5.925235
v -0.009937 0.000595 0.025931 0.078431 0.062745 0.039216
vn -1.398548 1.397894 -5.920254
v -0.009715 0.000887 0.025931 0.078431 0.062745 0.039216
vn -0.986516 1.705933 -5.925320
v -0.009423 0.001108 0.025931 0.078431 0.062745 0.039216
vn -0.559023 1.878809 -5.931749
v -0.009167 0.001216 0.025931 0.078431 0.062745 0.039216
vn -0.202875 1.945444 -5.939048
v -0.008977 0.001250 0.025931 0.078431 0.062745 0.039216
vn -0.000752 1.950473 -5.947091
v -0.008828 0.001254 0.025931 0.078431 0.062745 0.039216
vn 0.201497 1.945436 -5.939079
v -0.008680 0.001250 0.025931 0.078431 0.062745 0.039216
vn 0.557815 1.878794 -5.931854
v -0.008489 0.001216 0.025931 0.078431 0.062745 0.039216
vn 0.985341 1.705887 -5.925521
v -0.008234 0.001108 0.025931 0.078431 0.062745 0.039216
vn 1.397291 1.397925 -5.920553
v -0.007941 0.000887 0.025931 0.078431 0.062745 0.039216
vn 1.705262 0.985934 -5.925609
v -0.007720 0.000595 0.025931 0.078431 0.062745 0.039216
vn 1.878177 0.558463 -5.932003
v -0.007613 0.000339 0.025931 0.078431 0.062745 0.039216
vn 1.944783 0.202190 -5.939271
v -0.007578 0.000149 0.025931 0.078431 0.062745 0.039216
vn 1.949816 -0.000009 -5.947317
v -0.007574 0.000000 0.025931 0.078431 0.062745 0.039216
vn 1.944793 -0.202098 -5.939275
v -0.007578 -0.000149 0.025931 0.078431 0.062745 0.039216
vn 1.878161 -0.558428 -5.931992
v -0.007613 -0.000339 0.025931 0.078431 0.062745 0.039216
vn 1.705213 -0.985976 -5.925618
v -0.007720 -0.000595 0.025931 0.078431 0.062745 0.039216
vn 2.067365 -2.067912 -5.496126
v -0.007499 -0.001330 0.026194 0.078431 0.062745 0.039216
vn 1.459062 -2.527441 -5.504492
v -0.007937 -0.001661 0.026194 0.078431 0.062745 0.039216
vn 0.827644 -2.787901 -5.515436
v -0.008320 -0.001823 0.026194 0.078431 0.062745 0.039216
vn 0.300313 -2.893803 -5.526092
v -0.008605 -0.001874 0.026194 0.078431 0.062745 0.039216
vn -0.000672 -2.910001 -5.537344
v -0.008828 -0.001881 0.026194 0.078431 0.062745 0.039216
vn -0.301446 -2.893822 -5.526048
v -0.009052 -0.001874 0.026194 0.078431 0.062745 0.039216
vn -0.828817 -2.787858 -5.515257
v -0.009337 -0.001823 0.026194 0.078431 0.062745 0.039216
vn -1.460331 -2.527397 -5.504210
v -0.009720 -0.001661 0.026194 0.078431 0.062745 0.039216
vn -2.068477 -2.067968 -5.495693
v -0.010158 -0.001330 0.026194 0.078431 0.062745 0.039216
vn -2.528043 -1.459646 -5.504053
v -0.010490 -0.000892 0.026194 0.078431 0.062745 0.039216
vn -2.788489 -0.828262 -5.515055
v -0.010651 -0.000508 0.026194 0.078431 0.062745 0.039216
vn -2.894371 -0.300920 -5.525759
v -0.010703 -0.000223 0.026194 0.078431 0.062745 0.039216
vn -2.910583 0.000072 -5.537037
v -0.010709 0.000000 0.026194 0.078431 0.062745 0.039216
vn -2.894407 0.300878 -5.525771
v -0.010703 0.000223 0.026194 0.078431 0.062745 0.039216
vn -2.788440 0.828259 -5.515054
v -0.010651 0.000508 0.026194 0.078431 0.062745 0.039216
vn -2.528007 1.459729 -5.504093
v -0.010490 0.000892 0.026194 0.078431 0.062745 0.039216
vn -2.068569 2.067890 -5.495681
v -0.010158 0.001330 0.026194 0.078431 0.062745 0.039216
vn -1.460246 2.527438 -5.504177
v -0.009720 0.001661 0.026194 0.078431 0.062745 0.039216
vn -0.828838 2.787895 -5.515261
v -0.009337 0.001823 0.026194 0.078431 0.062745 0.039216
vn -0.301483 2.893779 -5.526041
v -0.009052 0.001874 0.026194 0.078431 0.062745 0.039216
vn -0.000521 2.909991 -5.537348
v -0.008828 0.001881 0.026194 0.078431 0.062745 0.039216
vn 0.300258 2.893823 -5.526112
v -0.008605 0.001874 0.026194 0.078431 0.062745 0.039216
vn 0.827642 2.787856 -5.515432
v -0.008320 0.001823 0.026194 0.078431 0.062745 0.039216
vn 1.459170 2.527388 -5.504521
v -0.007937 0.001661 0.026194 0.078431 0.062745 0.039216
vn 2.067303 2.067965 -5.496146
v -0.007499 0.001330 0.026194 0.078431 0.062745 0.039216
vn 2.526832 1.459675 -5.504604
v -0.007167 0.000892 0.026194 0.078431 0.062745 0.039216
vn 2.787324 0.828247 -5.515639
v -0.007006 0.000508 0.026194 0.078431 0.062745 0.039216
vn 2.893212 0.300962 -5.526376
v -0.006954 0.000223 0.026194 0.078431 0.062745 0.039216
vn 2.909407 -0.000079 -5.537640
v -0.006948 0.000000 0.026194 0.078431 0.062745 0.039216
vn 2.893254 -0.300925 -5.526379
v -0.006954 -0.000223 0.026194 0.078431 0.062745 0.039216
vn 2.787309 -0.828189 -5.515633
v -0.007006 -0.000508 0.026194 0.078431 0.062745 0.039216
vn 2.526823 -1.459716 -5.504624
v -0.007167 -0.000892 0.026194 0.078431 0.062745 0.039216
vn 2.690605 -2.691135 -4.905262
v -0.007083 -0.001745 0.026568 0.078431 0.062745 0.039216
vn 1.900416 -3.293314 -4.916657
v -0.007658 -0.002180 0.026568 0.078431 0.062745 0.039216
vn 1.079692 -3.637642 -4.931784
v -0.008161 -0.002392 0.026568 0.078431 0.062745 0.039216
vn 0.393103 -3.781834 -4.944852
v -0.008535 -0.002460 0.026568 0.078431 0.062745 0.039216
vn -0.000491 -3.809712 -4.957869
v -0.008828 -0.002468 0.026568 0.078431 0.062745 0.039216
vn -0.394191 -3.781825 -4.944748
v -0.009121 -0.002460 0.026568 0.078431 0.062745 0.039216
vn -1.080785 -3.637696 -4.931533
v -0.009495 -0.002392 0.026568 0.078431 0.062745 0.039216
vn -1.901446 -3.293302 -4.916248
v -0.009999 -0.002180 0.026568 0.078431 0.062745 0.039216
vn -2.691679 -2.691125 -4.904667
v -0.010574 -0.001745 0.026569 0.078431 0.062745 0.039216
vn -3.293850 -1.900949 -4.916101
v -0.011009 -0.001170 0.026569 0.078431 0.062745 0.039216
vn -3.638159 -1.080274 -4.931275
v -0.011221 -0.000667 0.026569 0.078431 0.062745 0.039216
vn -3.782345 -0.393631 -4.944401
v -0.011288 -0.000293 0.026569 0.078431 0.062745 0.039216
vn -3.810238 -0.000029 -4.957473
v -0.011297 0.000000 0.026569 0.078431 0.062745 0.039216
vn -3.782347 0.393659 -4.944378
v -0.011288 0.000293 0.026569 0.078431 0.062745 0.039216
vn -3.638201 1.080297 -4.931265
v -0.011221 0.000667 0.026569 0.078431 0.062745 0.039216
vn -3.293825 1.900920 -4.916107
v -0.011009 0.001170 0.026569 0.078431 0.062745 0.039216
vn -2.691664 2.691128 -4.904677
v -0.010574 0.001745 0.026569 0.078431 0.062745 0.039216
vn -1.901467 3.293326 -4.916244
v -0.009999 0.002180 0.026568 0.078431 0.062745 0.039216
vn -1.080787 3.637648 -4.931546
v -0.009495 0.002392 0.026568 0.078431 0.062745 0.039216
vn -0.394157 3.781823 -4.944759
v -0.009121 0.002460 0.026568 0.078431 0.062745 0.039216
vn -0.000520 3.809711 -4.957874
v -0.008828 0.002468 0.026568 0.078431 0.062745 0.039216
vn 0.393126 3.781826 -4.944833
v -0.008535 0.002460 0.026568 0.078431 0.062745 0.039216
vn 1.079737 3.637683 -4.931770
v -0.008161 0.002392 0.026568 0.078431 0.062745 0.039216
vn 1.900407 3.293292 -4.916663
v -0.007658 0.002180 0.026568 0.078431 0.062745 0.039216
vn 2.690606 2.691126 -4.905259
v -0.007083 0.001745 0.026568 0.078431 0.062745 0.039216
vn 3.292808 1.900918 -4.916802
v -0.006648 0.001170 0.026568 0.078431 0.062745 0.039216
vn 3.637135 1.080274 -4.932052
v -0.006436 0.000667 0.026568 0.078431 0.062745 0.039216
vn 3.781289 0.393672 -4.945203
v -0.006369 0.000293 0.026568 0.078431 0.062745 0.039216
vn 3.809186 -0.000057 -4.958273
v -0.006360 0.000000 0.026568 0.078431 0.062745 0.039216
vn 3.781308 -0.393678 -4.945202
v -0.006369 -0.000293 0.026568 0.078431 0.062745 0.039216
vn 3.637159 -1.080218 -4.932049
v -0.006436 -0.000667 0.026568 0.078431 0.062745 0.039216
vn 3.292791 -1.900911 -4.916802
v -0.006648 -0.001170 0.026568 0.078431 0.062745 0.039216
vn 3.237958 -3.238410 -4.167521
v -0.006715 -0.002113 0.027043 0.078431 0.062745 0.039216
vn 2.288596 -3.967536 -4.180630
v -0.007412 -0.002640 0.027043 0.078431 0.062745 0.039216
vn 1.302225 -4.387988 -4.198228
v -0.008021 -0.002896 0.027043 0.078431 0.062745 0.039216
vn 0.475177 -4.567103 -4.212063
v -0.008474 -0.002978 0.027043 0.078431 0.062745 0.039216
vn -0.000483 -4.606229 -4.225172
v -0.008828 -0.002988 0.027043 0.078431 0.062745 0.039216
vn -0.476077 -4.567119 -4.211964
v -0.009183 -0.002978 0.027044 0.078431 0.062745 0.039216
vn -1.303078 -4.387961 -4.197969
v -0.009636 -0.002896 0.027044 0.078431 0.062745 0.039216
vn -2.289504 -3.967521 -4.180146
v -0.010245 -0.002640 0.027044 0.078431 0.062745 0.039216
vn -3.238862 -3.238388 -4.166855
v -0.010941 -0.002113 0.027044 0.078431 0.062745 0.039216
vn -3.967969 -2.289041 -4.179978
v -0.011468 -0.001417 0.027044 0.078431 0.062745 0.039216
vn -4.388431 -1.302707 -4.197633
v -0.011724 -0.000807 0.027044 0.078431 0.062745 0.039216
vn -4.567545 -0.475663 -4.211531
v -0.011806 -0.000355 0.027044 0.078431 0.062745 0.039216
vn -4.606680 0.000030 -4.224686
v -0.011816 0.000000 0.027044 0.078431 0.062745 0.039216
vn -4.567576 0.475649 -4.211518
v -0.011806 0.000355 0.027044 0.078431 0.062745 0.039216
vn -4.388402 1.302649 -4.197637
v -0.011724 0.000807 0.027044 0.078431 0.062745 0.039216
vn -3.967966 2.289062 -4.179978
v -0.011468 0.001417 0.027044 0.078431 0.062745 0.039216
vn -3.238845 3.238408 -4.166839
v -0.010941 0.002113 0.027044 0.078431 0.062745 0.039216
vn -2.289486 3.967532 -4.180150
v -0.010245 0.002640 0.027044 0.078431 0.062745 0.039216
vn -1.303129 4.387973 -4.197968
v -0.009636 0.002896 0.027044 0.078431 0.062745 0.039216
vn -0.476073 4.567099 -4.211972
v -0.009183 0.002978 0.027044 0.078431 0.062745 0.039216
vn -0.000416 4.606236 -4.225166
v -0.008828 0.002988 0.027043 0.078431 0.062745 0.039216
vn 0.475151 4.567123 -4.212068
v -0.008474 0.002978 0.027043 0.078431 0.062745 0.039216
vn 1.302176 4.387952 -4.198238
v -0.008021 0.002896 0.027043 0.078431 0.062745 0.039216
vn 2.288626 3.967513 -4.180641
v -0.007412 0.002640 0.027043 0.078431 0.062745 0.039216
vn 3.237965 3.238397 -4.167535
v -0.006715 0.002113 0.027043 0.078431 0.062745 0.039216
vn 3.967080 2.289033 -4.180817
v -0.006189 0.001417 0.027043 0.078431 0.062745 0.039216
vn 4.387524 1.302663 -4.198574
v -0.005932 0.000807 0.027043 0.078431 0.062745 0.039216
vn 4.566650 0.475653 -4.212504
v -0.005851 0.000355 0.027043 0.078431 0.062745 0.039216
vn 4.605765 -0.000042 -4.225678
v -0.005840 0.000000 0.027043 0.078431 0.062745 0.039216
vn 4.566635 -0.475587 -4.212555
v -0.005851 -0.000355 0.027043 0.078431 0.062745 0.039216
vn 4.387477 -1.302628 -4.198603
v -0.005932 -0.000807 0.027043 0.078431 0.062745 0.039216
vn 3.967078 -2.289060 -4.180815
v -0.006189 -0.001417 0.027043 0.078431 0.062745 0.039216
vn 3.686349 -3.686706 -3.315145
v -0.006413 -0.002416 0.027599 0.078431 0.062745 0.039216
vn 2.607158 -4.521115 -3.328040
v -0.007209 -0.003018 0.027599 0.078431 0.062745 0.039216
vn 1.485341 -5.005828 -3.345505
v -0.007905 -0.003311 0.027599 0.078431 0.062745 0.039216
vn 0.542869 -5.214586 -3.358205
v -0.008423 -0.003404 0.027599 0.078431 0.062745 0.039216
vn -0.000368 -5.263344 -3.369726
v -0.008828 -0.003416 0.027599 0.078431 0.062745 0.039216
vn -0.543596 -5.214578 -3.358097
v -0.009234 -0.003404 0.027599 0.078431 0.062745 0.039216
vn -1.486072 -5.005844 -3.345175
v -0.009751 -0.003311 0.027599 0.078431 0.062745 0.039216
vn -2.607871 -4.521113 -3.327483
v -0.010448 -0.003018 0.027599 0.078431 0.062745 0.039216
vn -3.687061 -3.686693 -3.314356
v -0.011244 -0.002416 0.027599 0.078431 0.062745 0.039216
vn -4.521478 -2.607506 -3.327260
v -0.011846 -0.001620 0.027599 0.078431 0.062745 0.039216
vn -5.006169 -1.485743 -3.344819
v -0.012139 -0.000923 0.027599 0.078431 0.062745 0.039216
vn -5.214925 -0.543265 -3.357591
v -0.012233 -0.000406 0.027599 0.078431 0.062745 0.039216
vn -5.263707 0.000052 -3.369145
v -0.012244 0.000000 0.027599 0.078431 0.062745 0.039216
vn -5.214939 0.543297 -3.357589
v -0.012233 0.000406 0.027599 0.078431 0.062745 0.039216
vn -5.006208 1.485734 -3.344799
v -0.012139 0.000923 0.027599 0.078431 0.062745 0.039216
vn -4.521478 2.607502 -3.327266
v -0.011846 0.001620 0.027599 0.078431 0.062745 0.039216
vn -3.687059 3.686700 -3.314351
v -0.011244 0.002416 0.027599 0.078431 0.062745 0.039216
vn -2.607875 4.521112 -3.327476
v -0.010448 0.003018 0.027599 0.078431 0.062745 0.039216
vn -1.486082 5.005821 -3.345182
v -0.009751 0.003311 0.027599 0.078431 0.062745 0.039216
vn -0.543564 5.214567 -3.358093
v -0.009234 0.003404 0.027599 0.078431 0.062745 0.039216
vn -0.000308 5.263344 -3.369732
v -0.008828 0.003416 0.027599 0.078431 0.062745 0.039216
vn 0.542898 5.214581 -3.358202
v -0.008423 0.003404 0.027599 0.078431 0.062745 0.039216
vn 1.485381 5.005869 -3.345472
v -0.007905 0.003311 0.027599 0.078431 0.062745 0.039216
vn 2.607145 4.521135 -3.328018
v -0.007209 0.003018 0.027599 0.078431 0.062745 0.039216
vn 3.686344 3.686696 -3.315164
v -0.006413 0.002416 0.027599 0.078431 0.062745 0.039216
vn 4.520767 2.607510 -3.328236
v -0.005811 0.001620 0.027599 0.078431 0.062745 0.039216
vn 5.005468 1.485708 -3.345878
v -0.005517 0.000923 0.027599 0.078431 0.062745 0.039216
vn 5.214224 0.543267 -3.358711
v -0.005424 0.000406 0.027599 0.078431 0.062745 0.039216
vn 5.262971 0.000074 -3.370307
v -0.005412 0.000000 0.027599 0.078431 0.062745 0.039216
vn 5.214194 -0.543231 -3.358713
v -0.005424 -0.000406 0.027599 0.078431 0.062745 0.039216
vn 5.005485 -1.485773 -3.345850
v -0.005517 -0.000923 0.027599 0.078431 0.062745 0.039216
vn 4.520760 -2.607526 -3.328238
v -0.005811 -0.001620 0.027599 0.078431 0.062745 0.039216
vn 4.021706 -4.021965 -2.388246
v -0.006186 -0.002642 0.028208 0.078431 0.062745 0.039216
vn 2.845734 -4.935937 -2.398868
v -0.007057 -0.003301 0.028208 0.078431 0.062745 0.039216
vn 1.622898 -5.469958 -2.413430
v -0.007819 -0.003621 0.028208 0.078431 0.062745 0.039216
vn 0.593846 -5.701253 -2.423358
v -0.008385 -0.003723 0.028208 0.078431 0.062745 0.039216
vn -0.000252 -5.757223 -2.431983
v -0.008828 -0.003736 0.028208 0.078431 0.062745 0.039216
vn -0.594364 -5.701247 -2.423233
v -0.009272 -0.003723 0.028208 0.078431 0.062745 0.039216
vn -1.623416 -5.469957 -2.413078
v -0.009838 -0.003621 0.028208 0.078431 0.062745 0.039216
vn -2.846251 -4.935926 -2.398261
v -0.010600 -0.003301 0.028208 0.078431 0.062745 0.039216
vn -4.022236 -4.021959 -2.387372
v -0.011470 -0.002642 0.028208 0.078431 0.062745 0.039216
vn -4.936196 -2.846009 -2.398044
v -0.012129 -0.001772 0.028208 0.078431 0.062745 0.039216
vn -5.470213 -1.623163 -2.412662
v -0.012450 -0.001010 0.028208 0.078431 0.062745 0.039216
vn -5.701523 -0.594129 -2.422651
v -0.012552 -0.000444 0.028208 0.078431 0.062745 0.039216
vn -5.757491 -0.000002 -2.431351
v -0.012565 0.000000 0.028208 0.078431 0.062745 0.039216
vn -5.701505 0.594125 -2.422673
v -0.012552 0.000444 0.028208 0.078431 0.062745 0.039216
vn -5.470200 1.623162 -2.412680
v -0.012450 0.001010 0.028208 0.078431 0.062745 0.039216
vn -4.936182 2.846002 -2.398054
v -0.012129 0.001772 0.028208 0.078431 0.062745 0.039216
vn -4.022222 4.021974 -2.387372
v -0.011470 0.002642 0.028208 0.078431 0.062745 0.039216
vn -2.846255 4.935941 -2.398251
v -0.010600 0.003301 0.028208 0.078431 0.062745 0.039216
vn -1.623417 5.469966 -2.413065
v -0.009838 0.003621 0.028208 0.078431 0.062745 0.039216
vn -0.594368 5.701265 -2.423211
v -0.009272 0.003723 0.028208 0.078431 0.062745 0.039216
vn -0.000262 5.757228 -2.431974
v -0.008828 0.003736 0.028208 0.078431 0.062745 0.039216
vn 0.593867 5.701246 -2.423344
v -0.008385 0.003723 0.028208 0.078431 0.062745 0.039216
vn 1.622904 5.469942 -2.413441
v -0.007819 0.003621 0.028208 0.078431 0.062745 0.039216
vn 2.845733 4.935938 -2.398883
v -0.007057 0.003301 0.028208 0.078431 0.062745 0.039216
vn 4.021704 4.021960 -2.388239
v -0.006186 0.002642 0.028208 0.078431 0.062745 0.039216
vn 4.935685 2.845989 -2.399110
v -0.005528 0.001772 0.028208 0.078431 0.062745 0.039216
vn 5.469704 1.623147 -2.413846
v -0.005207 0.001010 0.028208 0.078431 0.062745 0.039216
vn 5.700997 0.594159 -2.423883
v -0.005105 0.000444 0.028208 0.078431 0.062745 0.039216
vn 5.756965 0.000025 -2.432581
v -0.005092 0.000000 0.028208 0.078431 0.062745 0.039216
vn 5.701009 -0.594172 -2.423850
v -0.005105 -0.000444 0.028208 0.078431 0.062745 0.039216
vn 5.469703 -1.623155 -2.413839
v -0.005207 -0.001010 0.028208 0.078431 0.062745 0.039216
vn 4.935671 -2.845996 -2.399117
v -0.005528 -0.001772 0.028208 0.078431 0.062745 0.039216
vn 4.239900 -4.240061 -1.429183
v -0.006040 -0.002788 0.028840 0.078431 0.062745 0.039216
vn 3.001129 -5.206087 -1.436031
v -0.006958 -0.003483 0.028840 0.078431 0.062745 0.039216
vn 1.712637 -5.772680 -1.445478
v -0.007763 -0.003822 0.028840 0.078431 0.062745 0.039216
vn 0.627095 -6.018614 -1.451571
v -0.008360 -0.003930 0.028841 0.078431 0.062745 0.039216
vn -0.000163 -6.078962 -1.456681
v -0.008828 -0.003943 0.028841 0.078431 0.062745 0.039216
vn -0.627435 -6.018617 -1.451420
v -0.009296 -0.003930 0.028841 0.078431 0.062745 0.039216
vn -1.712954 -5.772686 -1.445124
v -0.009894 -0.003822 0.028841 0.078431 0.062745 0.039216
vn -3.001433 -5.206089 -1.435384
v -0.010698 -0.003483 0.028841 0.078431 0.062745 0.039216
vn -4.240217 -4.240050 -1.428302
v -0.011617 -0.002788 0.028841 0.078431 0.062745 0.039216
vn -5.206234 -3.001268 -1.435174
v -0.012312 -0.001870 0.028841 0.078431 0.062745 0.039216
vn -5.772847 -1.712786 -1.444683
v -0.012650 -0.001066 0.028841 0.078431 0.062745 0.039216
vn -6.018779 -0.627279 -1.450848
v -0.012758 -0.000468 0.028841 0.078431 0.062745 0.039216
vn -6.079122 0.000007 -1.455979
v -0.012772 0.000000 0.028841 0.078431 0.062745 0.039216
vn -6.018787 0.627283 -1.450836
v -0.012758 0.000468 0.028841 0.078431 0.062745 0.039216
vn -5.772844 1.712779 -1.444688
v -0.012650 0.001066 0.028841 0.078431 0.062745 0.039216
vn -5.206237 3.001277 -1.435160
v -0.012312 0.001870 0.028841 0.078431 0.062745 0.039216
vn -4.240210 4.240057 -1.428302
v -0.011617 0.002788 0.028841 0.078431 0.062745 0.039216
vn -3.001424 5.206087 -1.435397
v -0.010698 0.003483 0.028841 0.078431 0.062745 0.039216
vn -1.712962 5.772689 -1.445112
v -0.009894 0.003822 0.028841 0.078431 0.062745 0.039216
vn -0.627423 6.018612 -1.451421
v -0.009296 0.003930 0.028841 0.078431 0.062745 0.039216
vn -0.000114 6.078966 -1.456639
v -0.008828 0.003943 0.028841 0.078431 0.062745 0.039216
vn 0.627126 6.018632 -1.451547
v -0.008360 0.003930 0.028841 0.078431 0.062745 0.039216
vn 1.712618 5.772689 -1.445494
v -0.007763 0.003822 0.028840 0.078431 0.062745 0.039216
vn 3.001123 5.206083 -1.436055
v -0.006958 0.003483 0.028840 0.078431 0.062745 0.039216
vn 4.239902 4.240059 -1.429186
v -0.006040 0.002788 0.028840 0.078431 0.062745 0.039216
vn 5.205926 3.001265 -1.436270
v -0.005345 0.001870 0.028840 0.078431 0.062745 0.039216
vn 5.772526 1.712749 -1.445945
v -0.005006 0.001066 0.028840 0.078431 0.062745 0.039216
vn 6.018475 0.627290 -1.452144
v -0.004898 0.000468 0.028840 0.078431 0.062745 0.039216
vn 6.078805 -0.000007 -1.457276
v -0.004885 0.000000 0.028840 0.078431 0.062745 0.039216
vn 6.018482 -0.627298 -1.452132
v -0.004898 -0.000468 0.028840 0.078431 0.062745 0.039216
vn 5.772528 -1.712746 -1.445944
v -0.005006 -0.001066 0.028840 0.078431 0.062745 0.039216
vn 5.205927 -3.001272 -1.436261
v -0.005345 -0.001870 0.028840 0.078431 0.062745 0.039216
vn 4.345596 -4.345658 -0.473722
v -0.005970 -0.002858 0.029469 0.078431 0.062745 0.039216
vn 3.076427 -5.336880 -0.475978
v -0.006912 -0.003570 0.029469 0.078431 0.062745 0.039216
vn 1.756161 -5.919333 -0.479108
v -0.007736 -0.003917 0.029469 0.078431 0.062745 0.039216
vn 0.643270 -6.172082 -0.481034
v -0.008348 -0.004027 0.029469 0.078431 0.062745 0.039216
vn -0.000055 -6.234120 -0.482627
v -0.008828 -0.004042 0.029469 0.078431 0.062745 0.039216
vn -0.643376 -6.172080 -0.480907
v -0.009308 -0.004027 0.029469 0.078431 0.062745 0.039216
vn -1.756267 -5.919319 -0.478773
v -0.009920 -0.003917 0.029469 0.078431 0.062745 0.039216
vn -3.076533 -5.336877 -0.475328
v -0.010744 -0.003570 0.029469 0.078431 0.062745 0.039216
vn -4.345701 -4.345646 -0.472815
v -0.011686 -0.002858 0.029469 0.078431 0.062745 0.039216
vn -5.336934 -3.076472 -0.475082
v -0.012398 -0.001916 0.029469 0.078431 0.062745 0.039216
vn -5.919375 -1.756213 -0.478320
v -0.012745 -0.001092 0.029469 0.078431 0.062745 0.039216
vn -6.172126 -0.643277 -0.480336
v -0.012856 -0.000480 0.029469 0.078431 0.062745 0.039216
vn -6.234177 0.000003 -0.481966
v -0.012870 0.000000 0.029469 0.078431 0.062745 0.039216
vn -6.172126 0.643277 -0.480338
v -0.012856 0.000480 0.029469 0.078431 0.062745 0.039216
vn -5.919373 1.756216 -0.478323
v -0.012745 0.001092 0.029469 0.078431 0.062745 0.039216
vn -5.336931 3.076478 -0.475081
v -0.012398 0.001916 0.029469 0.078431 0.062745 0.039216
vn -4.345698 4.345649 -0.472814
v -0.011686 0.002858 0.029469 0.078431 0.062745 0.039216
vn -3.076522 5.336882 -0.475326
v -0.010744 0.003570 0.029469 0.078431 0.062745 0.039216
vn -1.756261 5.919327 -0.478760
v -0.009920 0.003917 0.029469 0.078431 0.062745 0.039216
vn -0.643338 6.172079 -0.480902
v -0.009308 0.004027 0.029469 0.078431 0.062745 0.039216
vn -0.000038 6.234127 -0.482637
v -0.008828 0.004042 0.029469 0.078431 0.062745 0.039216
vn 0.643228 6.172075 -0.481064
v -0.008348 0.004027 0.029469 0.078431 0.062745 0.039216
vn 1.756152 5.919329 -0.479137
v -0.007736 0.003917 0.029469 0.078431 0.062745 0.039216
vn 3.076427 5.336870 -0.475999
v -0.006912 0.003570 0.029469 0.078431 0.062745 0.039216
vn 4.345604 4.345650 -0.473729
v -0.005970 0.002858 0.029469 0.078431 0.062745 0.039216
vn 5.336830 3.076490 -0.476202
v -0.005258 0.001916 0.029469 0.078431 0.062745 0.039216
vn 5.919271 1.756197 -0.479578
v -0.004911 0.001092 0.029468 0.078431 0.062745 0.039216
vn 6.172032 0.643285 -0.481656
v -0.004801 0.000480 0.029468 0.078431 0.062745 0.039216
vn 6.234068 -0.000003 -0.483301
v -0.004787 0.000000 0.029468 0.078431 0.062745 0.039216
vn 6.172031 -0.643287 -0.481659
v -0.004801 -0.000480 0.029468 0.078431 0.062745 0.039216
vn 5.919268 -1.756200 -0.479586
v -0.004911 -0.001092 0.029468 0.078431 0.062745 0.039216
vn 5.336827 -3.076495 -0.476203
v -0.005258 -0.001916 0.029469 0.078431 0.062745 0.039216
vn 4.345696 -4.345659 0.472794
v -0.005970 -0.002858 0.030079 0.078431 0.062745 0.039216
vn 3.076523 -5.336881 0.475328
v -0.006912 -0.003570 0.030079 0.078431 0.062745 0.039216
vn 1.756260 -5.919329 0.478754
v -0.007736 -0.003917 0.030079 0.078431 0.062745 0.039216
vn 0.643380 -6.172081 0.480898
v -0.008348 -0.004027 0.030079 0.078431 0.062745 0.039216
vn 0.000050 -6.234122 0.482620
v -0.008828 -0.004042 0.030079 0.078431 0.062745 0.039216
vn -0.643277 -6.172081 0.481037
v -0.009308 -0.004027 0.030079 0.078431 0.062745 0.039216
vn -1.756163 -5.919323 0.479138
v -0.009920 -0.003917 0.030079 0.078431 0.062745 0.039216
vn -3.076430 -5.336874 0.475997
v -0.010744 -0.003570 0.030079 0.078431 0.062745 0.039216
vn -4.345601 -4.345645 0.473744
v -0.011686 -0.002858 0.030079 0.078431 0.062745 0.039216
vn -5.336831 -3.076474 0.476222
v -0.012398 -0.001916 0.030079 0.078431 0.062745 0.039216
vn -5.919275 -1.756213 0.479578
v -0.012745 -0.001092 0.030080 0.078431 0.062745 0.039216
vn -6.172024 -0.643275 0.481655
v -0.012856 -0.000480 0.030080 0.078431 0.062745 0.039216
vn -6.234075 0.000001 0.483298
v -0.012870 0.000000 0.030080 0.078431 0.062745 0.039216
vn -6.172024 0.643281 0.481653
v -0.012856 0.000480 0.030080 0.078431 0.062745 0.039216
vn -5.919274 1.756214 0.479581
v -0.012745 0.001092 0.030080 0.078431 0.062745 0.039216
vn -5.336826 3.076476 0.476235
v -0.012398 0.001916 0.030079 0.078431 0.062745 0.039216
vn -4.345597 4.345649 0.473745
v -0.011686 0.002858 0.030079 0.078431 0.062745 0.039216
vn -3.076423 5.336881 0.475984
v -0.010744 0.003570 0.030079 0.078431 0.062745 0.039216
vn -1.756159 5.919329 0.479128
v -0.009920 0.003917 0.030079 0.078431 0.062745 0.039216
vn -0.643265 6.172081 0.481030
v -0.009308 0.004027 0.030079 0.078431 0.062745 0.039216
vn 0.000062 6.234119 0.482600
v -0.008828 0.004042 0.030079 0.078431 0.062745 0.039216
vn 0.643368 6.172077 0.480912
v -0.008348 0.004027 0.030079 0.078431 0.062745 0.039216
vn 1.756255 5.919332 0.478754
v -0.007736 0.003917 0.030079 0.078431 0.062745 0.039216
vn 3.076528 5.336870 0.475343
v -0.006912 0.003570 0.030079 0.078431 0.062745 0.039216
vn 4.345706 4.345649 0.472798
v -0.005970 0.002858 0.030079 0.078431 0.062745 0.039216
vn 5.336932 3.076490 0.475060
v -0.005258 0.001916 0.030079 0.078431 0.062745 0.039216
vn 5.919374 1.756199 0.478310
v -0.004911 0.001092 0.030079 0.078431 0.062745 0.039216
vn 6.172133 0.643283 0.480342
v -0.004801 0.000480 0.030079 0.078431 0.062745 0.039216
vn 6.234172 -0.000001 0.481962
v -0.004786 0.000000 0.030079 0.078431 0.062745 0.039216
vn 6.172134 -0.643289 0.480338
v -0.004801 -0.000480 0.030079 0.078431 0.062745 0.039216
vn 5.919374 -1.756200 0.478307
v -0.004911 -0.001092 0.030079 0.078431 0.062745 0.039216
vn 5.336928 -3.076492 0.475067
v -0.005258 -0.001916 0.030079 0.078431 0.062745 0.039216
vn 4.240206 -4.240064 1.428276
v -0.006039 -0.002788 0.030707 0.078431 0.062745 0.039216
vn 3.001425 -5.206092 1.435389
v -0.006958 -0.003483 0.030707 0.078431 0.062745 0.039216
vn 1.712963 -5.772687 1.445111
v -0.007762 -0.003822 0.030707 0.078431 0.062745 0.039216
vn 0.627430 -6.018608 1.451433
v -0.008360 -0.003930 0.030707 0.078431 0.062745 0.039216
vn 0.000154 -6.078959 1.456688
v -0.008828 -0.003943 0.030707 0.078431 0.062745 0.039216
vn -0.627124 -6.018607 1.451568
v -0.009296 -0.003930 0.030707 0.078431 0.062745 0.039216
vn -1.712655 -5.772686 1.445485
v -0.009894 -0.003822 0.030708 0.078431 0.062745 0.039216
vn -3.001127 -5.206085 1.436041
v -0.010698 -0.003483 0.030708 0.078431 0.062745 0.039216
vn -4.239910 -4.240054 1.429205
v -0.011616 -0.002788 0.030708 0.078431 0.062745 0.039216
vn -5.205927 -3.001274 1.436284
v -0.012311 -0.001870 0.030708 0.078431 0.062745 0.039216
vn -5.772527 -1.712779 1.445936
v -0.012650 -0.001066 0.030708 0.078431 0.062745 0.039216
vn -6.018470 -0.627269 1.452139
v -0.012758 -0.000468 0.030708 0.078431 0.062745 0.039216
vn -6.078810 -0.000006 1.457286
v -0.012771 0.000000 0.030708 0.078431 0.062745 0.039216
vn -6.018465 0.627273 1.452144
v -0.012758 0.000468 0.030708 0.078431 0.062745 0.039216
vn -5.772535 1.712790 1.445920
v -0.012650 0.001066 0.030708 0.078431 0.062745 0.039216
vn -5.205924 3.001278 1.436290
v -0.012311 0.001870 0.030708 0.078431 0.062745 0.039216
vn -4.239903 4.240058 1.429209
v -0.011616 0.002788 0.030708 0.078431 0.062745 0.039216
vn -3.001123 5.206079 1.436054
v -0.010698 0.003483 0.030708 0.078431 0.062745 0.039216
vn -1.712645 5.772678 1.445497
v -0.009894 0.003822 0.030708 0.078431 0.062745 0.039216
vn -0.627110 6.018611 1.451569
v -0.009296 0.003930 0.030707 0.078431 0.062745 0.039216
vn 0.000186 6.078961 1.456677
v -0.008828 0.003943 0.030707 0.078431 0.062745 0.039216
vn 0.627436 6.018619 1.451442
v -0.008360 0.003930 0.030707 0.078431 0.062745 0.039216
vn 1.712936 5.772690 1.445121
v -0.007762 0.003822 0.030707 0.078431 0.062745 0.039216
vn 3.001428 5.206075 1.435428
v -0.006958 0.003483 0.030707 0.078431 0.062745 0.039216
vn 4.240207 4.240060 1.428280
v -0.006039 0.002788 0.030707 0.078431 0.062745 0.039216
vn 5.206236 3.001265 1.435151
v -0.005344 0.001870 0.030707 0.078431 0.062745 0.039216
vn 5.772834 1.712750 1.444712
v -0.005006 0.001066 0.030707 0.078431 0.062745 0.039216
vn 6.018785 0.627288 1.450860
v -0.004898 0.000468 0.030707 0.078431 0.062745 0.039216
vn 6.079116 0.000005 1.455979
v -0.004884 0.000000 0.030707 0.078431 0.062745 0.039216
vn 6.018781 -0.627288 1.450865
v -0.004898 -0.000468 0.030707 0.078431 0.062745 0.039216
vn 5.772839 -1.712754 1.444702
v -0.005006 -0.001066 0.030707 0.078431 0.062745 0.039216
vn 5.206229 -3.001270 1.435161
v -0.005344 -0.001870 0.030707 0.078431 0.062745 0.039216
vn 4.022215 -4.021963 2.387382
v -0.006186 -0.002642 0.031340 0.078431 0.062745 0.039216
vn 2.846245 -4.935942 2.398255
v -0.007056 -0.003301 0.031340 0.078431 0.062745 0.039216
vn 1.623418 -5.469961 2.413074
v -0.007818 -0.003621 0.031340 0.078431 0.062745 0.039216
vn 0.594365 -5.701252 2.423238
v -0.008384 -0.003723 0.031340 0.078431 0.062745 0.039216
vn 0.000257 -5.757221 2.431988
v -0.008828 -0.003736 0.031340 0.078431 0.062745 0.039216
vn -0.593843 -5.701253 2.423367
v -0.009272 -0.003723 0.031340 0.078431 0.062745 0.039216
vn -1.622902 -5.469959 2.413422
v -0.009838 -0.003621 0.031340 0.078431 0.062745 0.039216
vn -2.845742 -4.935936 2.398862
v -0.010599 -0.003301 0.031340 0.078431 0.062745 0.039216
vn -4.021716 -4.021962 2.388231
v -0.011470 -0.002642 0.031340 0.078431 0.062745 0.039216
vn -4.935683 -2.845998 2.399102
v -0.012128 -0.001772 0.031340 0.078431 0.062745 0.039216
vn -5.469692 -1.623154 2.413850
v -0.012449 -0.001010 0.031340 0.078431 0.062745 0.039216
vn -5.700994 -0.594124 2.423890
v -0.012551 -0.000444 0.031340 0.078431 0.062745 0.039216
vn -5.756967 0.000002 2.432589
v -0.012564 0.000000 0.031340 0.078431 0.062745 0.039216
vn -5.700992 0.594120 2.423898
v -0.012551 0.000444 0.031340 0.078431 0.062745 0.039216
vn -5.469685 1.623164 2.413849
v -0.012449 0.001010 0.031340 0.078431 0.062745 0.039216
vn -4.935677 2.846006 2.399104
v -0.012128 0.001772 0.031340 0.078431 0.062745 0.039216
vn -4.021707 4.021971 2.388227
v -0.011470 0.002642 0.031340 0.078431 0.062745 0.039216
vn -2.845742 4.935943 2.398872
v -0.010599 0.003301 0.031340 0.078431 0.062745 0.039216
vn -1.622904 5.469954 2.413435
v -0.009838 0.003621 0.031340 0.078431 0.062745 0.039216
vn -0.593845 5.701254 2.423358
v -0.009272 0.003723 0.031340 0.078431 0.062745 0.039216
vn 0.000262 5.757224 2.431980
v -0.008828 0.003736 0.031340 0.078431 0.062745 0.039216
vn 0.594375 5.701257 2.423217
v -0.008384 0.003723 0.031340 0.078431 0.062745 0.039216
vn 1.623425 5.469956 2.413074
v -0.007818 0.003621 0.031340 0.078431 0.062745 0.039216
vn 2.846261 4.935940 2.398273
v -0.007056 0.003301 0.031340 0.078431 0.062745 0.039216
vn 4.022210 4.021966 2.387378
v -0.006186 0.002642 0.031340 0.078431 0.062745 0.039216
vn 4.936194 2.845984 2.398055
v -0.005527 0.001772 0.031340 0.078431 0.062745 0.039216
vn 5.470226 1.623141 2.412672
v -0.005206 0.001010 0.031340 0.078431 0.062745 0.039216
vn 5.701517 0.594159 2.422662
v -0.005104 0.000444 0.031340 0.078431 0.062745 0.039216
vn 5.757478 -0.000002 2.431361
v -0.005091 0.000000 0.031340 0.078431 0.062745 0.039216
vn 5.701515 -0.594156 2.422669
v -0.005104 -0.000444 0.031340 0.078431 0.062745 0.039216
vn 5.470218 -1.623149 2.412676
v -0.005206 -0.001010 0.031340 0.078431 0.062745 0.039216
vn 4.936186 -2.845994 2.398065
v -0.005527 -0.001772 0.031340 0.078431 0.062745 0.039216
vn 3.687055 -3.686703 3.314366
v -0.006412 -0.002416 0.031949 0.078431 0.062745 0.039216
vn 2.607873 -4.521118 3.327478
v -0.007208 -0.003018 0.031949 0.078431 0.062745 0.039216
vn 1.486061 -5.005840 3.345171
v -0.007905 -0.003311 0.031949 0.078431 0.062745 0.039216
vn 0.543583 -5.214592 3.358082
v -0.008422 -0.003404 0.031949 0.078431 0.062745 0.039216
vn 0.000359 -5.263349 3.369718
v -0.008828 -0.003416 0.031949 0.078431 0.062745 0.039216
vn -0.542870 -5.214591 3.358198
v -0.009233 -0.003404 0.031949 0.078431 0.062745 0.039216
vn -1.485347 -5.005836 3.345492
v -0.009751 -0.003311 0.031949 0.078431 0.062745 0.039216
vn -2.607165 -4.521115 3.328035
v -0.010447 -0.003018 0.031949 0.078431 0.062745 0.039216
vn -3.686356 -3.686698 3.315142
v -0.011243 -0.002416 0.031949 0.078431 0.062745 0.039216
vn -4.520768 -2.607500 3.328232
v -0.011845 -0.001620 0.031949 0.078431 0.062745 0.039216
vn -5.005475 -1.485719 3.345879
v -0.012139 -0.000923 0.031949 0.078431 0.062745 0.039216
vn -5.214229 -0.543291 3.358694
v -0.012232 -0.000406 0.031949 0.078431 0.062745 0.039216
vn -5.262991 0.000001 3.370258
v -0.012244 0.000000 0.031949 0.078431 0.062745 0.039216
vn -5.214229 0.543294 3.358694
v -0.012232 0.000406 0.031949 0.078431 0.062745 0.039216
vn -5.005473 1.485721 3.345883
v -0.012139 0.000923 0.031949 0.078431 0.062745 0.039216
vn -4.520766 2.607502 3.328233
v -0.011845 0.001620 0.031949 0.078431 0.062745 0.039216
vn -3.686346 3.686696 3.315151
v -0.011243 0.002416 0.031949 0.078431 0.062745 0.039216
vn -2.607155 4.521123 3.328022
v -0.010447 0.003018 0.031949 0.078431 0.062745 0.039216
vn -1.485348 5.005843 3.345484
v -0.009751 0.003311 0.031949 0.078431 0.062745 0.039216
vn -0.542871 5.214590 3.358197
v -0.009233 0.003404 0.031949 0.078431 0.062745 0.039216
vn 0.000364 5.263349 3.369719
v -0.008828 0.003416 0.031949 0.078431 0.062745 0.039216
vn 0.543587 5.214591 3.358083
v -0.008422 0.003404 0.031949 0.078431 0.062745 0.039216
vn 1.486071 5.005839 3.345166
v -0.007905 0.003311 0.031949 0.078431 0.062745 0.039216
vn 2.607875 4.521125 3.327461
v -0.007208 0.003018 0.031949 0.078431 0.062745 0.039216
vn 3.687058 3.686700 3.314367
v -0.006412 0.002416 0.031949 0.078431 0.062745 0.039216
vn 4.521475 2.607516 3.327273
v -0.005810 0.001620 0.031949 0.078431 0.062745 0.039216
vn 5.006196 1.485707 3.344794
v -0.005517 0.000923 0.031949 0.078431 0.062745 0.039216
vn 5.214948 0.543262 3.357589
v -0.005424 0.000406 0.031949 0.078431 0.062745 0.039216
vn 5.263696 -0.000007 3.369162
v -0.005412 0.000000 0.031949 0.078431 0.062745 0.039216
vn 5.214941 -0.543261 3.357597
v -0.005424 -0.000406 0.031949 0.078431 0.062745 0.039216
vn 5.006194 -1.485710 3.344797
v -0.005517 -0.000923 0.031949 0.078431 0.062745 0.039216
vn 4.521473 -2.607519 3.327273
v -0.005810 -0.001620 0.031949 0.078431 0.062745 0.039216
vn 3.238844 -3.238397 4.166839
v -0.006715 -0.002113 0.032504 0.078431 0.062745 0.039216
vn 2.289497 -3.967524 4.180150
v -0.007411 -0.002640 0.032504 0.078431 0.062745 0.039216
vn 1.303105 -4.387956 4.197968
v -0.008020 -0.002896 0.032504 0.078431 0.062745 0.039216
vn 0.476071 -4.567115 4.211955
v -0.008473 -0.002978 0.032504 0.078431 0.062745 0.039216
vn 0.000456 -4.606249 4.225158
v -0.008828 -0.002988 0.032505 0.078431 0.062745 0.039216
vn -0.475184 -4.567117 4.212054
v -0.009183 -0.002978 0.032505 0.078431 0.062745 0.039216
vn -1.302198 -4.387940 4.198265
v -0.009635 -0.002896 0.032505 0.078431 0.062745 0.039216
vn -2.288591 -3.967530 4.180639
v -0.010245 -0.002640 0.032505 0.078431 0.062745 0.039216
vn -3.237964 -3.238389 4.167528
v -0.010941 -0.002113 0.032505 0.078431 0.062745 0.039216
vn -3.967084 -2.289032 4.180828
v -0.011467 -0.001417 0.032505 0.078431 0.062745 0.039216
vn -4.387498 -1.302678 4.198589
v -0.011724 -0.000807 0.032505 0.078431 0.062745 0.039216
vn -4.566652 -0.475667 4.212497
v -0.011806 -0.000355 0.032505 0.078431 0.062745 0.039216
vn -4.605782 -0.000005 4.225670
v -0.011816 0.000000 0.032505 0.078431 0.062745 0.039216
vn -4.566662 0.475675 4.212488
v -0.011806 0.000355 0.032505 0.078431 0.062745 0.039216
vn -4.387501 1.302680 4.198586
v -0.011724 0.000807 0.032505 0.078431 0.062745 0.039216
vn -3.967076 2.289042 4.180829
v -0.011467 0.001417 0.032505 0.078431 0.062745 0.039216
vn -3.237952 3.238400 4.167538
v -0.010941 0.002113 0.032505 0.078431 0.062745 0.039216
vn -2.288592 3.967529 4.180646
v -0.010245 0.002640 0.032505 0.078431 0.062745 0.039216
vn -1.302201 4.387938 4.198264
v -0.009635 0.002896 0.032505 0.078431 0.062745 0.039216
vn -0.475174 4.567107 4.212063
v -0.009183 0.002978 0.032505 0.078431 0.062745 0.039216
vn 0.000453 4.606242 4.225164
v -0.008828 0.002988 0.032505 0.078431 0.062745 0.039216
vn 0.476081 4.567108 4.211960
v -0.008473 0.002978 0.032504 0.078431 0.062745 0.039216
vn 1.303104 4.387939 4.197982
v -0.008020 0.002896 0.032504 0.078431 0.062745 0.039216
vn 2.289494 3.967532 4.180145
v -0.007411 0.002640 0.032504 0.078431 0.062745 0.039216
vn 3.238851 3.238400 4.166834
v -0.006715 0.002113 0.032504 0.078431 0.062745 0.039216
vn 3.967982 2.289048 4.179961
v -0.006188 0.001417 0.032504 0.078431 0.062745 0.039216
vn 4.388417 1.302652 4.197631
v -0.005932 0.000807 0.032504 0.078431 0.062745 0.039216
vn 4.567555 0.475622 4.211529
v -0.005850 0.000355 0.032504 0.078431 0.062745 0.039216
vn 4.606682 -0.000029 4.224682
v -0.005840 0.000000 0.032504 0.078431 0.062745 0.039216
vn 4.567572 -0.475645 4.211525
v -0.005850 -0.000355 0.032504 0.078431 0.062745 0.039216
vn 4.388407 -1.302628 4.197643
v -0.005932 -0.000807 0.032504 0.078431 0.062745 0.039216
vn 3.967968 -2.289047 4.179972
v -0.006188 -0.001417 0.032504 0.078431 0.062745 0.039216
vn 2.691654 -2.691125 4.904702
v -0.007082 -0.001745 0.032979 0.078431 0.062745 0.039216
vn 1.901438 -3.293281 4.916272
v -0.007657 -0.002180 0.032980 0.078431 0.062745 0.039216
vn 1.080812 -3.637616 4.931576
v -0.008161 -0.002392 0.032980 0.078431 0.062745 0.039216
vn 0.394185 -3.781790 4.944762
v -0.008535 -0.002460 0.032980 0.078431 0.062745 0.039216
vn 0.000578 -3.809697 4.957896
v -0.008828 -0.002468 0.032980 0.078431 0.062745 0.039216
vn -0.393156 -3.781784 4.944829
v -0.009121 -0.002460 0.032980 0.078431 0.062745 0.039216
vn -1.079801 -3.637670 4.931786
v -0.009495 -0.002392 0.032980 0.078431 0.062745 0.039216
vn -1.900358 -3.293313 4.916658
v -0.009998 -0.002180 0.032980 0.078431 0.062745 0.039216
vn -2.690612 -2.691111 4.905283
v -0.010573 -0.001745 0.032980 0.078431 0.062745 0.039216
vn -3.292778 -1.900891 4.916815
v -0.011008 -0.001170 0.032980 0.078431 0.062745 0.039216
vn -3.637138 -1.080313 4.932057
v -0.011220 -0.000667 0.032980 0.078431 0.062745 0.039216
vn -3.781266 -0.393693 4.945199
v -0.011287 -0.000293 0.032980 0.078431 0.062745 0.039216
vn -3.809169 -0.000048 4.958302
v -0.011296 0.000000 0.032980 0.078431 0.062745 0.039216
vn -3.781252 0.393680 4.945195
v -0.011287 0.000293 0.032980 0.078431 0.062745 0.039216
vn -3.637134 1.080353 4.932053
v -0.011220 0.000667 0.032980 0.078431 0.062745 0.039216
vn -3.292786 1.900905 4.916806
v -0.011008 0.001170 0.032980 0.078431 0.062745 0.039216
vn -2.690611 2.691126 4.905273
v -0.010573 0.001745 0.032980 0.078431 0.062745 0.039216
vn -1.900360 3.293305 4.916658
v -0.009998 0.002180 0.032980 0.078431 0.062745 0.039216
vn -1.079766 3.637670 4.931788
v -0.009495 0.002392 0.032980 0.078431 0.062745 0.039216
vn -0.393164 3.781797 4.944835
v -0.009121 0.002460 0.032980 0.078431 0.062745 0.039216
vn 0.000523 3.809701 4.957890
v -0.008828 0.002468 0.032980 0.078431 0.062745 0.039216
vn 0.394214 3.781784 4.944758
v -0.008535 0.002460 0.032980 0.078431 0.062745 0.039216
vn 1.080830 3.637671 4.931555
v -0.008161 0.002392 0.032980 0.078431 0.062745 0.039216
vn 1.901419 3.293307 4.916248
v -0.007657 0.002180 0.032980 0.078431 0.062745 0.039216
vn 2.691661 2.691120 4.904707
v -0.007082 0.001745 0.032979 0.078431 0.062745 0.039216
vn 3.293814 1.900907 4.916116
v -0.006647 0.001170 0.032979 0.078431 0.062745 0.039216
vn 3.638152 1.080220 4.931300
v -0.006435 0.000667 0.032979 0.078431 0.062745 0.039216
vn 3.782335 0.393685 4.944410
v -0.006368 0.000293 0.032979 0.078431 0.062745 0.039216
vn 3.810241 0.000047 4.957457
v -0.006359 0.000000 0.032979 0.078431 0.062745 0.039216
vn 3.782339 -0.393704 4.944385
v -0.006368 -0.000293 0.032979 0.078431 0.062745 0.039216
vn 3.638166 -1.080293 4.931285
v -0.006435 -0.000667 0.032979 0.078431 0.062745 0.039216
vn 3.293825 -1.900923 4.916116
v -0.006647 -0.001170 0.032979 0.078431 0.062745 0.039216
vn 2.068535 -2.067984 5.495649
v -0.007498 -0.001330 0.033354 0.078431 0.062745 0.039216
vn 1.460227 -2.527508 5.504173
v -0.007936 -0.001661 0.033354 0.078431 0.062745 0.039216
vn 0.828895 -2.787912 5.515264
v -0.008319 -0.001823 0.033354 0.078431 0.062745 0.039216
vn 0.301679 -2.893809 5.526033
v -0.008604 -0.001874 0.033354 0.078431 0.062745 0.039216
vn 0.000593 -2.910010 5.537317
v -0.008828 -0.001881 0.033354 0.078431 0.062745 0.039216
vn -0.300438 -2.893800 5.526111
v -0.009051 -0.001874 0.033354 0.078431 0.062745 0.039216
vn -0.827669 -2.787906 5.515440
v -0.009336 -0.001823 0.033354 0.078431 0.062745 0.039216
vn -1.459067 -2.527452 5.504495
v -0.009719 -0.001661 0.033354 0.078431 0.062745 0.039216
vn -2.067383 -2.067938 5.496103
v -0.010158 -0.001330 0.033354 0.078431 0.062745 0.039216
vn -2.526872 -1.459669 5.504613
v -0.010489 -0.000892 0.033354 0.078431 0.062745 0.039216
vn -2.787299 -0.828281 5.515649
v -0.010650 -0.000508 0.033354 0.078431 0.062745 0.039216
vn -2.893222 -0.301079 5.526381
v -0.010702 -0.000223 0.033354 0.078431 0.062745 0.039216
vn -2.909439 0.000001 5.537610
v -0.010708 0.000000 0.033354 0.078431 0.062745 0.039216
vn -2.893214 0.301067 5.526388
v -0.010702 0.000223 0.033354 0.078431 0.062745 0.039216
vn -2.787317 0.828262 5.515649
v -0.010650 0.000508 0.033354 0.078431 0.062745 0.039216
vn -2.526872 1.459656 5.504603
v -0.010489 0.000892 0.033354 0.078431 0.062745 0.039216
vn -2.067341 2.067976 5.496104
v -0.010158 0.001330 0.033354 0.078431 0.062745 0.039216
vn -1.459079 2.527451 5.504506
v -0.009719 0.001661 0.033354 0.078431 0.062745 0.039216
vn -0.827687 2.787886 5.515442
v -0.009336 0.001823 0.033354 0.078431 0.062745 0.039216
vn -0.300448 2.893807 5.526104
v -0.009051 0.001874 0.033354 0.078431 0.062745 0.039216
vn 0.000594 2.910009 5.537318
v -0.008828 0.001881 0.033354 0.078431 0.062745 0.039216
vn 0.301624 2.893802 5.526044
v -0.008604 0.001874 0.033354 0.078431 0.062745 0.039216
vn 0.828844 2.787897 5.515264
v -0.008319 0.001823 0.033354 0.078431 0.062745 0.039216
vn 1.460242 2.527444 5.504189
v -0.007936 0.001661 0.033354 0.078431 0.062745 0.039216
vn 2.068545 2.067969 5.495654
v -0.007498 0.001330 0.033354 0.078431 0.062745 0.039216
vn 2.528085 1.459607 5.504058
v -0.007166 0.000892 0.033354 0.078431 0.062745 0.039216
vn 2.788503 0.828253 5.515062
v -0.007005 0.000508 0.033354 0.078431 0.062745 0.039216
vn 2.894394 0.301107 5.525755
v -0.006953 0.000223 0.033354 0.078431 0.062745 0.039216
vn 2.910587 -0.000001 5.537016
v -0.006947 0.000000 0.033354 0.078431 0.062745 0.039216
vn 2.894397 -0.301037 5.525766
v -0.006953 -0.000223 0.033354 0.078431 0.062745 0.039216
vn 2.788503 -0.828254 5.515049
v -0.007005 -0.000508 0.033354 0.078431 0.062745 0.039216
vn 2.528070 -1.459653 5.504054
v -0.007166 -0.000892 0.033354 0.078431 0.062745 0.039216
vn 1.398545 -1.397874 5.920276
v -0.007941 -0.000887 0.033617 0.078431 0.062745 0.039216
vn 0.986521 -1.705916 5.925299
v -0.008233 -0.001108 0.033617 0.078431 0.062745 0.039216
vn 0.559073 -1.878886 5.931722
v -0.008489 -0.001216 0.033617 0.078431 0.062745 0.039216
vn 0.202839 -1.945422 5.939035
v -0.008679 -0.001250 0.033617 0.078431 0.062745 0.039216
vn 0.000635 -1.950439 5.947112
v -0.008828 -0.001254 0.033617 0.078431 0.062745 0.039216
vn -0.201562 -1.945420 5.939080
v -0.008977 -0.001250 0.033617 0.078431 0.062745 0.039216
vn -0.557834 -1.878842 5.931850
v -0.009167 -0.001216 0.033617 0.078431 0.062745 0.039216
vn -0.985284 -1.705909 5.925526
v -0.009422 -0.001108 0.033617 0.078431 0.062745 0.039216
vn -1.397273 -1.397895 5.920564
v -0.009715 -0.000887 0.033617 0.078431 0.062745 0.039216
vn -1.705291 -0.985902 5.925595
v -0.009936 -0.000595 0.033617 0.078431 0.062745 0.039216
vn -1.878204 -0.558517 5.931994
v -0.010043 -0.000339 0.033617 0.078431 0.062745 0.039216
vn -1.944790 -0.202228 5.939255
v -0.010078 -0.000149 0.033617 0.078431 0.062745 0.039216
vn -1.949776 0.000000 5.947335
v -0.010082 0.000000 0.033617 0.078431 0.062745 0.039216
vn -1.944788 0.202196 5.939259
v -0.010078 0.000149 0.033617 0.078431 0.062745 0.039216
vn -1.878201 0.558495 5.931993
v -0.010043 0.000339 0.033617 0.078431 0.062745 0.039216
vn -1.705267 0.985925 5.925603
v -0.009936 0.000595 0.033617 0.078431 0.062745 0.039216
vn -1.397253 1.397903 5.920571
v -0.009715 0.000887 0.033617 0.078431 0.062745 0.039216
vn -0.985273 1.705921 5.925518
v -0.009422 0.001108 0.033617 0.078431 0.062745 0.039216
vn -0.557855 1.878845 5.931851
v -0.009167 0.001216 0.033617 0.078431 0.062745 0.039216
vn -0.201593 1.945421 5.939076
v -0.008977 0.001250 0.033617 0.078431 0.062745 0.039216
vn 0.000636 1.950438 5.947112
v -0.008828 0.001254 0.033617 0.078431 0.062745 0.039216
vn 0.202871 1.945422 5.939032
v -0.008679 0.001250 0.033617 0.078431 0.062745 0.039216
vn 0.559119 1.878837 5.931736
v -0.008489 0.001216 0.033617 0.078431 0.062745 0.039216
vn 0.986533 1.705921 5.925313
v -0.008233 0.001108 0.033617 0.078431 0.062745 0.039216
vn 1.398488 1.397930 5.920276
v -0.007941 0.000887 0.033617 0.078431 0.062745 0.039216
vn 1.706571 0.985819 5.925219
v -0.007720 0.000595 0.033617 0.078431 0.062745 0.039216
vn 1.879549 0.558444 5.931591
v -0.007612 0.000339 0.033617 0.078431 0.062745 0.039216
vn 1.946044 0.202329 5.938845
v -0.007578 0.000149 0.033617 0.078431 0.062745 0.039216
vn 1.951094 -0.000001 5.946890
v -0.007573 0.000000 0.033617 0.078431 0.062745 0.039216
vn 1.946053 -0.202231 5.938853
v -0.007578 -0.000149 0.033617 0.078431 0.062745 0.039216
vn 1.879483 -0.558451 5.931589
v -0.007612 -0.000339 0.033617 0.078431 0.062745 0.039216
vn 1.706549 -0.985910 5.925234
v -0.007720 -0.000595 0.033617 0.078431 0.062745 0.039216
vn 0.712563 -0.712066 6.173757
v -0.008390 -0.000438 0.033768 0.078431 0.062745 0.039216
vn 0.502235 -0.866381 6.175856
v -0.008534 -0.000547 0.033768 0.078431 0.062745 0.039216
vn 0.284034 -0.951802 6.178374
v -0.008660 -0.000600 0.033768 0.078431 0.062745 0.039216
vn 0.102309 -0.979899 6.181895
v -0.008754 -0.000617 0.033768 0.078431 0.062745 0.039216
vn 0.000662 -0.974991 6.186014
v -0.008828 -0.000619 0.033768 0.078431 0.062745 0.039216
vn -0.100987 -0.979899 6.181916
v -0.008901 -0.000617 0.033768 0.078431 0.062745 0.039216
vn -0.282613 -0.951870 6.178435
v -0.008995 -0.000600 0.033768 0.078431 0.062745 0.039216
vn -0.500859 -0.866421 6.175940
v -0.009121 -0.000547 0.033768 0.078431 0.062745 0.039216
vn -0.711399 -0.711892 6.173914
v -0.009265 -0.000438 0.033768 0.078431 0.062745 0.039216
vn -0.865745 -0.501575 6.175996
v -0.009374 -0.000293 0.033768 0.078431 0.062745 0.039216
vn -0.951145 -0.283385 6.178505
v -0.009427 -0.000167 0.033768 0.078431 0.062745 0.039216
vn -0.979234 -0.101652 6.182011
v -0.009444 -0.000073 0.033768 0.078431 0.062745 0.039216
vn -0.974328 -0.000000 6.186119
v -0.009447 0.000000 0.033768 0.078431 0.062745 0.039216
vn -0.979234 0.101651 6.182011
v -0.009444 0.000073 0.033768 0.078431 0.062745 0.039216
vn -0.951202 0.283272 6.178509
v -0.009427 0.000167 0.033768 0.078431 0.062745 0.039216
vn -0.865767 0.501515 6.175978
v -0.009374 0.000293 0.033768 0.078431 0.062745 0.039216
vn -0.711234 0.712063 6.173913
v -0.009265 0.000438 0.033768 0.078431 0.062745 0.039216
vn -0.500923 0.866399 6.175958
v -0.009121 0.000547 0.033768 0.078431 0.062745 0.039216
vn -0.282725 0.951811 6.178431
v -0.008995 0.000600 0.033768 0.078431 0.062745 0.039216
vn -0.100986 0.979898 6.181917
v -0.008901 0.000617 0.033768 0.078431 0.062745 0.039216
vn 0.000663 0.974990 6.186015
v -0.008828 0.000619 0.033768 0.078431 0.062745 0.039216
vn 0.102310 0.979898 6.181895
v -0.008754 0.000617 0.033768 0.078431 0.062745 0.039216
vn 0.283936 0.951870 6.178374
v -0.008660 0.000600 0.033768 0.078431 0.062745 0.039216
vn 0.502174 0.866424 6.175833
v -0.008534 0.000547 0.033768 0.078431 0.062745 0.039216
vn 0.712732 0.711896 6.173757
v -0.008390 0.000438 0.033768 0.078431 0.062745 0.039216
vn 0.867037 0.501549 6.175819
v -0.008281 0.000293 0.033768 0.078431 0.062745 0.039216
vn 0.952439 0.283358 6.178305
v -0.008228 0.000167 0.033768 0.078431 0.062745 0.039216
vn 0.980543 0.101663 6.181802
v -0.008211 0.000073 0.033768 0.078431 0.062745 0.039216
vn 0.975647 -0.000001 6.185912
v -0.008209 0.000000 0.033768 0.078431 0.062745 0.039216
vn 0.980560 -0.101658 6.181801
v -0.008211 -0.000073 0.033768 0.078431 0.062745 0.039216
vn 0.952528 -0.283268 6.178305
v -0.008228 -0.000167 0.033768 0.078431 0.062745 0.039216
vn 0.867090 -0.501504 6.175794
v -0.008281 -0.000293 0.033768 0.078431 0.062745 0.039216
vn -1.056670 -1.056677 0.000113
v -0.008828 0.000000 0.033816 0.078431 0.062745 0.039216
vn 0.300054 -0.403798 0.291039
v -0.008828 0.000000 0.033816 0.078431 0.062745 0.039216
vn 1.325682 0.550401 2.055772
v -0.008828 0.000000 0.033816 0.078431 0.062745 0.039216
vn -1.493931 -0.120329 1.566341
v -0.008828 0.000000 0.033816 0.078431 0.062745 0.039216
vn 0.000000 -0.000000 0.000000
v -0.008828 0.000000 0.033816 0.078431 0.062745 0.039216
vn 1.494111 -0.009030 0.117738
v -0.008828 0.000000 0.033816 0.078431 0.062745 0.039216
vn -0.008563 -0.026983 0.371846
v -0.008828 0.000000 0.033816 0.078431 0.062745 0.039216
vn -0.013545 -0.017947 0.291064
v -0.008828 0.000000 0.033816 0.078431 0.062745 0.039216
vn -1.056673 1.056673 0.000113
v -0.008828 0.000000 0.033816 0.078431 0.062745 0.039216
vn -0.403756 -0.300015 0.291106
v -0.008828 0.000000 0.033816 0.078431 0.062745 0.039216
vn 0.679867 -1.325459 0.371772
v -0.008828 0.000000 0.033816 0.078431 0.062745 0.039216
vn -0.009016 1.494098 0.117899
v -0.008828 0.000000 0.033816 0.078431 0.062745 0.039216
vn 0.000000 0.000000 0.000000
v -0.008828 0.000000 0.033816 0.078431 0.062745 0.039216
vn -0.009017 -1.494098 0.117898
v -0.008828 0.000000 0.033816 0.078431 0.062745 0.039216
vn -0.026943 0.008603 0.371848
v -0.008828 0.000000 0.033816 0.078431 0.062745 0.039216
vn -0.017916 0.013577 0.291064
v -0.008828 0.000000 0.033816 0.078431 0.062745 0.039216
vn 1.056673 1.056673 -0.000113
v -0.008828 0.000000 0.033816 0.078431 0.062745 0.039216
vn -0.299984 0.403787 0.291095
v -0.008828 0.000000 0.033816 0.078431 0.062745 0.039216
vn -1.325420 -0.679828 0.371987
v -0.008828 0.000000 0.033816 0.078431 0.062745 0.039216
vn 1.494111 0.009029 0.117738
v -0.008828 0.000000 0.033816 0.078431 0.062745 0.039216
vn 0.000000 -0.000000 0.000000
v -0.008828 0.000000 0.033816 0.078431 0.062745 0.039216
vn -1.493931 0.120330 1.566341
v -0.008828 0.000000 0.033816 0.078431 0.062745 0.039216
vn 0.008823 0.156404 2.055913
v -0.008828 0.000000 0.033816 0.078431 0.062745 0.039216
vn 0.013608 0.017948 0.291069
v -0.008828 0.000000 0.033816 0.078431 0.062745 0.039216
vn 1.056669 -1.056677 -0.000113
v -0.008828 0.000000 0.033816 0.078431 0.062745 0.039216
vn 1.182740 -1.151199 0.290930
v -0.008828 0.000000 0.033816 0.078431 0.062745 0.039216
vn -0.167835 1.643994 0.371866
v -0.008828 0.000000 0.033816 0.078431 0.062745 0.039216
vn -0.167790 -0.009962 0.117916
v -0.008828 0.000000 0.033816 0.078431 0.062745 0.039216
vn -0.000000 0.000000 -0.000000
v -0.008828 0.000000 0.033816 0.078431 0.062745 0.039216
vn 0.009042 1.494098 0.117898
v -0.008828 0.000000 0.033816 0.078431 0.062745 0.039216
vn 0.027023 -0.008603 0.371844
v -0.008828 0.000000 0.033816 0.078431 0.062745 0.039216
vn 0.017979 -0.013576 0.291054
v -0.008828 0.000000 0.033816 0.078431 0.062745 0.039216
# 640 vertices, 0 vertices normals

f 32//32 64//64 33//33
f 2//2 1//1 33//33
f 3//3 2//2 34//34
f 3//3 35//35 36//36
f 4//4 36//36 37//37
f 6//6 5//5 37//37
f 7//7 6//6 38//38
f 7//7 39//39 40//40
f 8//8 40//40 41//41
f 10//10 9//9 41//41
f 11//11 10//10 42//42
f 11//11 43//43 44//44
f 12//12 44//44 45//45
f 14//14 13//13 45//45
f 15//15 14//14 46//46
f 15//15 47//47 48//48
f 16//16 48//48 49//49
f 18//18 17//17 49//49
f 19//19 18//18 50//50
f 19//19 51//51 52//52
f 20//20 52//52 53//53
f 22//22 21//21 53//53
f 23//23 22//22 54//54
f 23//23 55//55 56//56
f 24//24 56//56 57//57
f 26//26 25//25 57//57
f 27//27 26//26 58//58
f 27//27 59//59 60//60
f 28//28 60//60 61//61
f 30//30 29//29 61//61
f 31//31 30//30 62//62
f 31//31 63//63 64//64
f 64//64 96//96 65//65
f 34//34 33//33 65//65
f 35//35 34//34 66//66
f 35//35 67//67 68//68
f 36//36 68//68 69//69
f 38//38 37//37 69//69
f 39//39 38//38 70//70
f 39//39 71//71 72//72
f 40//40 72//72 73//73
f 42//42 41//41 73//73
f 43//43 42//42 74//74
f 43//43 75//75 76//76
f 44//44 76//76 77//77
f 46//46 45//45 77//77
f 47//47 46//46 78//78
f 47//47 79//79 80//80
f 48//48 80//80 81//81
f 50//50 49//49 81//81
f 51//51 50//50 82//82
f 51//51 83//83 84//84
f 52//52 84//84 85//85
f 54//54 53//53 85//85
f 55//55 54//54 86//86
f 55//55 87//87 88//88
f 56//56 88//88 89//89
f 58//58 57//57 89//89
f 59//59 58//58 90//90
f 59//59 91//91 92//92
f 60//60 92//92 93//93
f 62//62 61//61 93//93
f 63//63 62//62 94//94
f 63//63 95//95 96//96
f 96//96 128//128 97//97
f 66//66 65//65 97//97
f 67//67 66//66 98//98
f 67//67 99//99 100//100
f 68//68 100//100 101//101
f 70//70 69//69 101//101
f 71//71 70//70 102//102
f 71//71 103//103 104//104
f 72//72 104//104 105//105
f 74//74 73//73 105//105
f 75//75 74//74 106//106
f 75//75 107//107 108//108
f 76//76 108//108 109//109
f 78//78 77//77 109//109
f 79//79 78//78 110//110
f 79//79 111//111 112//112
f 80//80 112//112 113//113
f 82//82 81//81 113//113
f 83//83 82//82 114//114
f 83//83 115//115 116//116
f 84//84 116//116 117//117
f 86//86 85//85 117//117
f 87//87 86//86 118//118
f 87//87 119//119 120//120
f 88//88 120//120 121//121
f 90//90 89//89 121//121
f 91//91 90//90 122//122
f 91//91 123//123 124//124
f 92//92 124//124 125//125
f 94//94 93//93 125//125
f 95//95 94//94 126//126
f 95//95 127//127 128//128
f 128//128 160//160 129//129
f 98//98 97//97 129//129
f 99//99 98//98 130//130
f 99//99 131//131 132//132
f 100//100 132//132 133//133
f 102//102 101//101 133//133
f 103//103 102//102 134//134
f 103//103 135//135 136//136
f 104//104 136//136 137//137
f 106//106 105//105 137//137
f 107//107 106//106 138//138
f 107//107 139//139 140//140
f 108//108 140//140 141//141
f 110//110 109//109 141//141
f 111//111 110//110 142//142
f 111//111 143//143 144//144
f 112//112 144//144 145//145
f 114//114 113//113 145//145
f 115//115 114//114 146//146
f 115//115 147//147 148//148
f 116//116 148//148 149//149
f 118//118 117//117 149//149
f 119//119 118//118 150//150
f 119//119 151//151 152//152
f 120//120 152//152 153//153
f 122//122 121//121 153//153
f 123//123 122//122 154//154
f 123//123 155//155 156//156
f 124//124 156//156 157//157
f 126//126 125//125 157//157
f 127//127 126//126 158//158
f 127//127 159//159 160//160
f 160//160 192//192 161//161
f 130//130 129//129 161//161
f 131//131 130//130 162//162
f 131//131 163//163 164//164
f 132//132 164//164 165//165
f 134//134 133//133 165//165
f 135//135 134//134 166//166
f 135//135 167//167 168//168
f 136//136 168//168 169//169
f 138//138 137//137 169//169
f 139//139 138//138 170//170
f 139//139 171//171 172//172
f 140//140 172//172 173//173
f 142//142 141//141 173//173
f 143//143 142//142 174//174
f 143//143 175//175 176//176
f 144//144 176//176 177//177
f 146//146 145//145 177//177
f 147//147 146//146 178//178
f 147//147 179//179 180//180
f 148//148 180//180 181//181
f 150//150 149//149 181//181
f 151//151 150//150 182//182
f 151//151 183//183 184//184
f 152//152 184//184 185//185
f 154//154 153//153 185//185
f 155//155 154//154 186//186
f 155//155 187//187 188//188
f 156//156 188//188 189//189
f 158//158 157//157 189//189
f 159//159 158//158 190//190
f 159//159 191//191 192//192
f 192//192 224//224 193//193
f 162//162 161//161 193//193
f 163//163 162//162 194//194
f 163//163 195//195 196//196
f 164//164 196//196 197//197
f 166//166 165//165 197//197
f 167//167 166//166 198//198
f 167//167 199//199 200//200
f 168//168 200//200 201//201
f 170//170 169//169 201//201
f 171//171 170//170 202//202
f 171//171 203//203 204//204
f 172//172 204//204 205//205
f 174//174 173//173 205//205
f 175//175 174//174 206//206
f 175//175 207//207 208//208
f 176//176 208//208 209//209
f 178//178 177//177 209//209
f 179//179 178//178 210//210
f 179//179 211//211 212//212
f 180//180 212//212 213//213
f 182//182 181//181 213//213
f 183//183 182//182 214//214
f 183//183 215//215 216//216
f 184//184 216//216 217//217
f 186//186 185//185 217//217
f 187//187 186//186 218//218
f 187//187 219//219 220//220
f 188//188 220//220 221//221
f 190//190 189//189 221//221
f 191//191 190//190 222//222
f 191//191 223//223 224//224
f 224//224 256//256 225//225
f 194//194 193//193 225//225
f 195//195 194//194 226//226
f 195//195 227//227 228//228
f 196//196 228//228 229//229
f 198//198 197//197 229//229
f 199//199 198//198 230//230
f 199//199 231//231 232//232
f 200//200 232//232 233//233
f 202//202 201//201 233//233
f 203//203 202//202 234//234
f 203//203 235//235 236//236
f 204//204 236//236 237//237
f 206//206 205//205 237//237
f 207//207 206//206 238//238
f 207//207 239//239 240//240
f 208//208 240//240 241//241
f 210//210 209//209 241//241
f 211//211 210//210 242//242
f 211//211 243//243 244//244
f 212//212 244//244 245//245
f 214//214 213//213 245//245
f 215//215 214//214 246//246
f 215//215 247//247 248//248
f 216//216 248//248 249//249
f 218//218 217//217 249//249
f 219//219 218//218 250//250
f 219//219 251//251 252//252
f 220//220 252//252 253//253
f 222//222 221//221 253//253
f 223//223 222//222 254//254
f 223//223 255//255 256//256
f 256//256 288//288 257//257
f 226//226 225//225 257//257
f 227//227 226//226 258//258
f 227//227 259//259 260//260
f 228//228 260//260 261//261
f 230//230 229//229 261//261
f 231//231 230//230 262//262
f 231//231 263//263 264//264
f 232//232 264//264 265//265
f 234//234 233//233 265//265
f 235//235 234//234 266//266
f 235//235 267//267 268//268
f 236//236 268//268 269//269
f 238//238 237//237 269//269
f 239//239 238//238 270//270
f 239//239 271//271 272//272
f 240//240 272//272 273//273
f 242//242 241//241 273//273
f 243//243 242//242 274//274
f 243//243 275//275 276//276
f 244//244 276//276 277//277
f 246//246 245//245 277//277
f 247//247 246//246 278//278
f 247//247 279//279 280//280
f 248//248 280//280 281//281
f 250//250 249//249 281//281
f 251//251 250//250 282//282
f 251//251 283//283 284//284
f 252//252 284//284 285//285
f 254//254 253//253 285//285
f 255//255 254//254 286//286
f 255//255 287//287 288//288
f 288//288 320//320 289//289
f 258//258 257//257 289//289
f 259//259 258//258 290//290
f 259//259 291//291 292//292
f 260//260 292//292 293//293
f 262//262 261//261 293//293
f 263//263 262//262 294//294
f 263//263 295//295 296//296
f 264//264 296//296 297//297
f 266//266 265//265 297//297
f 267//267 266//266 298//298
f 267//267 299//299 300//300
f 268//268 300//300 301//301
f 270//270 269//269 301//301
f 271//271 270//270 302//302
f 271//271 303//303 304//304
f 272//272 304//304 305//305
f 274//274 273//273 305//305
f 275//275 274//274 306//306
f 275//275 307//307 308//308
f 276//276 308//308 309//309
f 278//278 277//277 309//309
f 279//279 278//278 310//310
f 279//279 311//311 312//312
f 280//280 312//312 313//313
f 282//282 281//281 313//313
f 283//283 282//282 314//314
f 283//283 315//315 316//316
f 284//284 316//316 317//317
f 286//286 285//285 317//317
f 287//287 286//286 318//318
f 287//287 319//319 320//320
f 320//320 352//352 321//321
f 290//290 289//289 321//321
f 290//290 322//322 323//323
f 291//291 323//323 324//324
f 292//292 324//324 325//325
f 293//293 325//325 326//326
f 294//294 326//326 327//327
f 296//296 295//295 327//327
f 296//296 328//328 329//329
f 298//298 297//297 329//329
f 299//299 298//298 330//330
f 300//300 299//299 331//331
f 301//301 300//300 332//332
f 302//302 301//301 333//333
f 302//302 334//334 335//335
f 304//304 303//303 335//335
f 304//304 336//336 337//337
f 305//305 337//337 338//338
f 306//306 338//338 339//339
f 307//307 339//339 340//340
f 309//309 308//308 340//340
f 309//309 341//341 342//342
f 310//310 342//342 343//343
f 312//312 311//311 343//343
f 312//312 344//344 345//345
f 314//314 313//313 345//345
f 315//315 314//314 346//346
f 316//316 315//315 347//347
f 316//316 348//348 349//349
f 318//318 317//317 349//349
f 318//318 350//350 351//351
f 320//320 319//319 351//351
f 321//321 352//352 384//384
f 321//321 353//353 354//354
f 322//322 354//354 355//355
f 324//324 323//323 355//355
f 325//325 324//324 356//356
f 325//325 357//357 358//358
f 326//326 358//358 359//359
f 328//328 327//327 359//359
f 329//329 328//328 360//360
f 329//329 361//361 362//362
f 330//330 362//362 363//363
f 332//332 331//331 363//363
f 333//333 332//332 364//364
f 333//333 365//365 366//366
f 334//334 366//366 367//367
f 336//336 335//335 367//367
f 337//337 336//336 368//368
f 337//337 369//369 370//370
f 338//338 370//370 371//371
f 340//340 339//339 371//371
f 341//341 340//340 372//372
f 341//341 373//373 374//374
f 342//342 374//374 375//375
f 344//344 343//343 375//375
f 345//345 344//344 376//376
f 345//345 377//377 378//378
f 346//346 378//378 379//379
f 348//348 347//347 379//379
f 349//349 348//348 380//380
f 349//349 381//381 382//382
f 350//350 382//382 383//383
f 352//352 351//351 383//383
f 353//353 384//384 416//416
f 353//353 385//385 386//386
f 354//354 386//386 387//387
f 356//356 355//355 387//387
f 357//357 356//356 388//388
f 357//357 389//389 390//390
f 358//358 390//390 391//391
f 360//360 359//359 391//391
f 361//361 360//360 392//392
f 361//361 393//393 394//394
f 362//362 394//394 395//395
f 364//364 363//363 395//395
f 365//365 364//364 396//396
f 365//365 397//397 398//398
f 366//366 398//398 399//399
f 368//368 367//367 399//399
f 369//369 368//368 400//400
f 369//369 401//401 402//402
f 370//370 402//402 403//403
f 372//372 371//371 403//403
f 373//373 372//372 404//404
f 373//373 405//405 406//406
f 374//374 406//406 407//407
f 376//376 375//375 407//407
f 377//377 376//376 408//408
f 377//377 409//409 410//410
f 378//378 410//410 411//411
f 380//380 379//379 411//411
f 381//381 380//380 412//412
f 381//381 413//413 414//414
f 382//382 414//414 415//415
f 384//384 383//383 415//415
f 385//385 416//416 448//448
f 385//385 417//417 418//418
f 386//386 418//418 419//419
f 388//388 387//387 419//419
f 389//389 388//388 420//420
f 389//389 421//421 422//422
f 390//390 422//422 423//423
f 392//392 391//391 423//423
f 393//393 392//392 424//424
f 393//393 425//425 426//426
f 394//394 426//426 427//427
f 396//396 395//395 427//427
f 397//397 396//396 428//428
f 397//397 429//429 430//430
f 398//398 430//430 431//431
f 400//400 399//399 431//431
f 401//401 400//400 432//432
f 401//401 433//433 434//434
f 402//402 434//434 435//435
f 404//404 403//403 435//435
f 405//405 404//404 436//436
f 405//405 437//437 438//438
f 406//406 438//438 439//439
f 408//408 407//407 439//439
f 409//409 408//408 440//440
f 409//409 441//441 442//442
f 410//410 442//442 443//443
f 412//412 411//411 443//443
f 413//413 412//412 444//444
f 413//413 445//445 446//446
f 414//414 446//446 447//447
f 416//416 415//415 447//447
f 417//417 448//448 480//480
f 417//417 449//449 450//450
f 418//418 450//450 451//451
f 420//420 419//419 451//451
f 421//421 420//420 452//452
f 421//421 453//453 454//454
f 422//422 454//454 455//455
f 424//424 423//423 455//455
f 425//425 424//424 456//456
f 425//425 457//457 458//458
f 426//426 458//458 459//459
f 428//428 427//427 459//459
f 429//429 428//428 460//460
f 429//429 461//461 462//462
f 430//430 462//462 463//463
f 432//432 431//431 463//463
f 433//433 432//432 464//464
f 433//433 465//465 466//466
f 434//434 466//466 467//467
f 436//436 435//435 467//467
f 437//437 436//436 468//468
f 437//437 469//469 470//470
f 438//438 470//470 471//471
f 440//440 439//439 471//471
f 441//441 440//440 472//472
f 441//441 473//473 474//474
f 442//442 474//474 475//475
f 444//444 443//443 475//475
f 445//445 444//444 476//476
f 445//445 477//477 478//478
f 446//446 478//478 479//479
f 448//448 447//447 479//479
f 449//449 480//480 512//512
f 449//449 481//481 482//482
f 450//450 482//482 483//483
f 452//452 451//451 483//483
f 453//453 452//452 484//484
f 453//453 485//485 486//486
f 454//454 486//486 487//487
f 456//456 455//455 487//487
f 457//457 456//456 488//488
f 457//457 489//489 490//490
f 458//458 490//490 491//491
f 460//460 459//459 491//491
f 461//461 460//460 492//492
f 461//461 493//493 494//494
f 462//462 494//494 495//495
f 464//464 463//463 495//495
f 465//465 464//464 496//496
f 465//465 497//497 498//498
f 466//466 498//498 499//499
f 468//468 467//467 499//499
f 469//469 468//468 500//500
f 469//469 501//501 502//502
f 470//470 502//502 503//503
f 472//472 471//471 503//503
f 473//473 472//472 504//504
f 473//473 505//505 506//506
f 474//474 506//506 507//507
f 476//476 475//475 507//507
f 477//477 476//476 508//508
f 477//477 509//509 510//510
f 478//478 510//510 511//511
f 480//480 479//479 511//511
f 481//481 512//512 544//544
f 481//481 513//513 514//514
f 482//482 514//514 515//515
f 484//484 483//483 515//515
f 485//485 484//484 516//516
f 485//485 517//517 518//518
f 486//486 518//518 519//519
f 488//488 487//487 519//519
f 489//489 488//488 520//520
f 489//489 521//521 522//522
f 490//490 522//522 523//523
f 492//492 491//491 523//523
f 493//493 492//492 524//524
f 493//493 525//525 526//526
f 494//494 526//526 527//527
f 496//496 495//495 527//527
f 497//497 496//496 528//528
f 497//497 529//529 530//530
f 498//498 530//530 531//531
f 500//500 499//499 531//531
f 501//501 500//500 532//532
f 501//501 533//533 534//534
f 502//502 534//534 535//535
f 504//504 503//503 535//535
f 505//505 504//504 536//536
f 505//505 537//537 538//538
f 506//506 538//538 539//539
f 508//508 507//507 539//539
f 509//509 508//508 540//540
f 509//509 541//541 542//542
f 510//510 542//542 543//543
f 512//512 511//511 543//543
f 513//513 544//544 576//576
f 513//513 545//545 546//546
f 514//514 546//546 547//547
f 516//516 515//515 547//547
f 517//517 516//516 548//548
f 517//517 549//549 550//550
f 518//518 550//550 551//551
f 520//520 519//519 551//551
f 521//521 520//520 552//552
f 521//521 553//553 554//554
f 522//522 554//554 555//555
f 524//524 523//523 555//555
f 525//525 524//524 556//556
f 525//525 557//557 558//558
f 526//526 558//558 559//559
f 528//528 527//527 559//559
f 529//529 528//528 560//560
f 529//529 561//561 562//562
f 530//530 562//562 563//563
f 532//532 531//531 563//563
f 533//533 532//532 564//564
f 533//533 565//565 566//566
f 534//534 566//566 567//567
f 536//536 535//535 567//567
f 537//537 536//536 568//568
f 537//537 569//569 570//570
f 538//538 570//570 571//571
f 540//540 539//539 571//571
f 541//541 540//540 572//572
f 541//541 573//573 574//574
f 542//542 574//574 575//575
f 544//544 543//543 575//575
f 545//545 576//576 608//608
f 545//545 577//577 578//578
f 546//546 578//578 579//579
f 548//548 547//547 579//579
f 549//549 548//548 580//580
f 549//549 581//581 582//582
f 550//550 582//582 583//583
f 552//552 551//551 583//583
f 553//553 552//552 584//584
f 553//553 585//585 586//586
f 554//554 586//586 587//587
f 556//556 555//555 587//587
f 557//557 556//556 588//588
f 557//557 589//589 590//590
f 558//558 590//590 591//591
f 560//560 559//559 591//591
f 561//561 560//560 592//592
f 561//561 593//593 594//594
f 562//562 594//594 595//595
f 564//564 563//563 595//595
f 565//565 564//564 596//596
f 565//565 597//597 598//598
f 566//566 598//598 599//599
f 568//568 567//567 599//599
f 569//569 568//568 600//600
f 569//569 601//601 602//602
f 570//570 602//602 603//603
f 572//572 571//571 603//603
f 573//573 572//572 604//604
f 573//573 605//605 606//606
f 574//574 606//606 607//607
f 576//576 575//575 607//607
f 577//577 608//608 640//640
f 577//577 609//609 610//610
f 578//578 610//610 611//611
f 580//580 579//579 611//611
f 581//581 580//580 612//612
f 581//581 613//613 614//614
f 582//582 614//614 615//615
f 584//584 583//583 615//615
f 585//585 584//584 616//616
f 585//585 617//617 618//618
f 586//586 618//618 619//619
f 588//588 587//587 619//619
f 589//589 588//588 620//620
f 589//589 621//621 622//622
f 590//590 622//622 623//623
f 592//592 591//591 623//623
f 593//593 592//592 624//624
f 593//593 625//625 626//626
f 594//594 626//626 627//627
f 596//596 595//595 627//627
f 597//597 596//596 628//628
f 597//597 629//629 630//630
f 598//598 630//630 631//631
f 600//600 599//599 631//631
f 601//601 600//600 632//632
f 601//601 633//633 634//634
f 602//602 634//634 635//635
f 604//604 603//603 635//635
f 605//605 604//604 636//636
f 605//605 637//637 638//638
f 606//606 638//638 639//639
f 608//608 607//607 639//639
f 1//1 32//32 33//33
f 34//34 2//2 33//33
f 35//35 3//3 34//34
f 4//4 3//3 36//36
f 5//5 4//4 37//37
f 38//38 6//6 37//37
f 39//39 7//7 38//38
f 8//8 7//7 40//40
f 9//9 8//8 41//41
f 42//42 10//10 41//41
f 43//43 11//11 42//42
f 12//12 11//11 44//44
f 13//13 12//12 45//45
f 46//46 14//14 45//45
f 47//47 15//15 46//46
f 16//16 15//15 48//48
f 17//17 16//16 49//49
f 50//50 18//18 49//49
f 51//51 19//19 50//50
f 20//20 19//19 52//52
f 21//21 20//20 53//53
f 54//54 22//22 53//53
f 55//55 23//23 54//54
f 24//24 23//23 56//56
f 25//25 24//24 57//57
f 58//58 26//26 57//57
f 59//59 27//27 58//58
f 28//28 27//27 60//60
f 29//29 28//28 61//61
f 62//62 30//30 61//61
f 63//63 31//31 62//62
f 32//32 31//31 64//64
f 33//33 64//64 65//65
f 66//66 34//34 65//65
f 67//67 35//35 66//66
f 36//36 35//35 68//68
f 37//37 36//36 69//69
f 70//70 38//38 69//69
f 71//71 39//39 70//70
f 40//40 39//39 72//72
f 41//41 40//40 73//73
f 74//74 42//42 73//73
f 75//75 43//43 74//74
f 44//44 43//43 76//76
f 45//45 44//44 77//77
f 78//78 46//46 77//77
f 79//79 47//47 78//78
f 48//48 47//47 80//80
f 49//49 48//48 81//81
f 82//82 50//50 81//81
f 83//83 51//51 82//82
f 52//52 51//51 84//84
f 53//53 52//52 85//85
f 86//86 54//54 85//85
f 87//87 55//55 86//86
f 56//56 55//55 88//88
f 57//57 56//56 89//89
f 90//90 58//58 89//89
f 91//91 59//59 90//90
f 60//60 59//59 92//92
f 61//61 60//60 93//93
f 94//94 62//62 93//93
f 95//95 63//63 94//94
f 64//64 63//63 96//96
f 65//65 96//96 97//97
f 98//98 66//66 97//97
f 99//99 67//67 98//98
f 68//68 67//67 100//100
f 69//69 68//68 101//101
f 102//102 70//70 101//101
f 103//103 71//71 102//102
f 72//72 71//71 104//104
f 73//73 72//72 105//105
f 106//106 74//74 105//105
f 107//107 75//75 106//106
f 76//76 75//75 108//108
f 77//77 76//76 109//109
f 110//110 78//78 109//109
f 111//111 79//79 110//110
f 80//80 79//79 112//112
f 81//81 80//80 113//113
f 114//114 82//82 113//113
f 115//115 83//83 114//114
f 84//84 83//83 116//116
f 85//85 84//84 117//117
f 118//118 86//86 117//117
f 119//119 87//87 118//118
f 88//88 87//87 120//120
f 89//89 88//88 121//121
f 122//122 90//90 121//121
f 123//123 91//91 122//122
f 92//92 91//91 124//124
f 93//93 92//92 125//125
f 126//126 94//94 125//125
f 127//127 95//95 126//126
f 96//96 95//95 128//128
f 97//97 128//128 129//129
f 130//130 98//98 129//129
f 131//131 99//99 130//130
f 100//100 99//99 132//132
f 101//101 100//100 133//133
f 134//134 102//102 133//133
f 135//135 103//103 134//134
f 104//104 103//103 136//136
f 105//105 104//104 137//137
f 138//138 106//106 137//137
f 139//139 107//107 138//138
f 108//108 107//107 140//140
f 109//109 108//108 141//141
f 142//142 110//110 141//141
f 143//143 111//111 142//142
f 112//112 111//111 144//144
f 113//113 112//112 145//145
f 146//146 114//114 145//145
f 147//147 115//115 146//146
f 116//116 115//115 148//148
f 117//117 116//116 149//149
f 150//150 118//118 149//149
f 151//151 119//119 150//150
f 120//120 119//119 152//152
f 121//121 120//120 153//153
f 154//154 122//122 153//153
f 155//155 123//123 154//154
f 124//124 123//123 156//156
f 125//125 124//124 157//157
f 158//158 126//126 157//157
f 159//159 127//127 158//158
f 128//128 127//127 160//160
f 129//129 160//160 161//161
f 162//162 130//130 161//161
f 163//163 131//131 162//162
f 132//132 131//131 164//164
f 133//133 132//132 165//165
f 166//166 134//134 165//165
f 167//167 135//135 166//166
f 136//136 135//135 168//168
f 137//137 136//136 169//169
f 170//170 138//138 169//169
f 171//171 139//139 170//170
f 140//140 139//139 172//172
f 141//141 140//140 173//173
f 174//174 142//142 173//173
f 175//175 143//143 174//174
f 144//144 143//143 176//176
f 145//145 144//144 177//177
f 178//178 146//146 177//177
f 179//179 147//147 178//178
f 148//148 147//147 180//180
f 149//149 148//148 181//181
f 182//182 150//150 181//181
f 183//183 151//151 182//182
f 152//152 151//151 184//184
f 153//153 152//152 185//185
f 186//186 154//154 185//185
f 187//187 155//155 186//186
f 156//156 155//155 188//188
f 157//157 156//156 189//189
f 190//190 158//158 189//189
f 191//191 159//159 190//190
f 160//160 159//159 192//192
f 161//161 192//192 193//193
f 194//194 162//162 193//193
f 195//195 163//163 194//194
f 164//164 163//163 196//196
f 165//165 164//164 197//197
f 198//198 166//166 197//197
f 199//199 167//167 198//198
f 168//168 167//167 200//200
f 169//169 168//168 201//201
f 202//202 170//170 201//201
f 203//203 171//171 202//202
f 172//172 171//171 204//204
f 173//173 172//172 205//205
f 206//206 174//174 205//205
f 207//207 175//175 206//206
f 176//176 175//175 208//208
f 177//177 176//176 209//209
f 210//210 178//178 209//209
f 211//211 179//179 210//210
f 180//180 179//179 212//212
f 181//181 180//180 213//213
f 214//214 182//182 213//213
f 215//215 183//183 214//214
f 184//184 183//183 216//216
f 185//185 184//184 217//217
f 218//218 186//186 217//217
f 219//219 187//187 218//218
f 188//188 187//187 220//220
f 189//189 188//188 221//221
f 222//222 190//190 221//221
f 223//223 191//191 222//222
f 192//192 191//191 224//224
f 193//193 224//224 225//225
f 226//226 194//194 225//225
f 227//227 195//195 226//226
f 196//196 195//195 228//228
f 197//197 196//196 229//229
f 230//230 198//198 229//229
f 231//231 199//199 230//230
f 200//200 199//199 232//232
f 201//201 200//200 233//233
f 234//234 202//202 233//233
f 235//235 203//203 234//234
f 204//204 203//203 236//236
f 205//205 204//204 237//237
f 238//238 206//206 237//237
f 239//239 207//207 238//238
f 208//208 207//207 240//240
f 209//209 208//208 241//241
f 242//242 210//210 241//241
f 243//243 211//211 242//242
f 212//212 211//211 244//244
f 213//213 212//212 245//245
f 246//246 214//214 245//245
f 247//247 215//215 246//246
f 216//216 215//215 248//248
f 217//217 216//216 249//249
f 250//250 218//218 249//249
f 251//251 219//219 250//250
f 220//220 219//219 252//252
f 221//221 220//220 253//253
f 254//254 222//222 253//253
f 255//255 223//223 254//254
f 224//224 223//223 256//256
f 225//225 256//256 257//257
f 258//258 226//226 257//257
f 259//259 227//227 258//258
f 228//228 227//227 260//260
f 229//229 228//228 261//261
f 262//262 230//230 261//261
f 263//263 231//231 262//262
f 232//232 231//231 264//264
f 233//233 232//232 265//265
f 266//266 234//234 265//265
f 267//267 235//235 266//266
f 236//236 235//235 268//268
f 237//237 236//236 269//269
f 270//270 238//238 269//269
f 271//271 239//239 270//270
f 240//240 239//239 272//272
f 241//241 240//240 273//273
f 274//274 242//242 273//273
f 275//275 243//243 274//274
f 244//244 243//243 276//276
f 245//245 244//244 277//277
f 278//278 246//246 277//277
f 279//279 247//247 278//278
f 248//248 247//247 280//280
f 249//249 248//248 281//281
f 282//282 250//250 281//281
f 283//283 251//251 282//282
f 252//252 251//251 284//284
f 253//253 252//252 285//285
f 286//286 254//254 285//285
f 287//287 255//255 286//286
f 256//256 255//255 288//288
f 257//257 288//288 289//289
f 290//290 258//258 289//289
f 291//291 259//259 290//290
f 260//260 259//259 292//292
f 261//261 260//260 293//293
f 294//294 262//262 293//293
f 295//295 263//263 294//294
f 264//264 263//263 296//296
f 265//265 264//264 297//297
f 298//298 266//266 297//297
f 299//299 267//267 298//298
f 268//268 267//267 300//300
f 269//269 268//268 301//301
f 302//302 270//270 301//301
f 303//303 271//271 302//302
f 272//272 271//271 304//304
f 273//273 272//272 305//305
f 306//306 274//274 305//305
f 307//307 275//275 306//306
f 276//276 275//275 308//308
f 277//277 276//276 309//309
f 310//310 278//278 309//309
f 311//311 279//279 310//310
f 280//280 279//279 312//312
f 281//281 280//280 313//313
f 314//314 282//282 313//313
f 315//315 283//283 314//314
f 284//284 283//283 316//316
f 285//285 284//284 317//317
f 318//318 286//286 317//317
f 319//319 287//287 318//318
f 288//288 287//287 320//320
f 289//289 320//320 321//321
f 322//322 290//290 321//321
f 291//291 290//290 323//323
f 292//292 291//291 324//324
f 293//293 292//292 325//325
f 294//294 293//293 326//326
f 295//295 294//294 327//327
f 328//328 296//296 327//327
f 297//297 296//296 329//329
f 330//330 298//298 329//329
f 331//331 299//299 330//330
f 332//332 300//300 331//331
f 333//333 301//301 332//332
f 334//334 302//302 333//333
f 303//303 302//302 335//335
f 336//336 304//304 335//335
f 305//305 304//304 337//337
f 306//306 305//305 338//338
f 307//307 306//306 339//339
f 308//308 307//307 340//340
f 341//341 309//309 340//340
f 310//310 309//309 342//342
f 311//311 310//310 343//343
f 344//344 312//312 343//343
f 313//313 312//312 345//345
f 346//346 314//314 345//345
f 347//347 315//315 346//346
f 348//348 316//316 347//347
f 317//317 316//316 349//349
f 350//350 318//318 349//349
f 319//319 318//318 351//351
f 352//352 320//320 351//351
f 353//353 321//321 384//384
f 322//322 321//321 354//354
f 323//323 322//322 355//355
f 356//356 324//324 355//355
f 357//357 325//325 356//356
f 326//326 325//325 358//358
f 327//327 326//326 359//359
f 360//360 328//328 359//359
f 361//361 329//329 360//360
f 330//330 329//329 362//362
f 331//331 330//330 363//363
f 364//364 332//332 363//363
f 365//365 333//333 364//364
f 334//334 333//333 366//366
f 335//335 334//334 367//367
f 368//368 336//336 367//367
f 369//369 337//337 368//368
f 338//338 337//337 370//370
f 339//339 338//338 371//371
f 372//372 340//340 371//371
f 373//373 341//341 372//372
f 342//342 341//341 374//374
f 343//343 342//342 375//375
f 376//376 344//344 375//375
f 377//377 345//345 376//376
f 346//346 345//345 378//378
f 347//347 346//346 379//379
f 380//380 348//348 379//379
f 381//381 349//349 380//380
f 350//350 349//349 382//382
f 351//351 350//350 383//383
f 384//384 352//352 383//383
f 385//385 353//353 416//416
f 354//354 353//353 386//386
f 355//355 354//354 387//387
f 388//388 356//356 387//387
f 389//389 357//357 388//388
f 358//358 357//357 390//390
f 359//359 358//358 391//391
f 392//392 360//360 391//391
f 393//393 361//361 392//392
f 362//362 361//361 394//394
f 363//363 362//362 395//395
f 396//396 364//364 395//395
f 397//397 365//365 396//396
f 366//366 365//365 398//398
f 367//367 366//366 399//399
f 400//400 368//368 399//399
f 401//401 369//369 400//400
f 370//370 369//369 402//402
f 371//371 370//370 403//403
f 404//404 372//372 403//403
f 405//405 373//373 404//404
f 374//374 373//373 406//406
f 375//375 374//374 407//407
f 408//408 376//376 407//407
f 409//409 377//377 408//408
f 378//378 377//377 410//410
f 379//379 378//378 411//411
f 412//412 380//380 411//411
f 413//413 381//381 412//412
f 382//382 381//381 414//414
f 383//383 382//382 415//415
f 416//416 384//384 415//415
f 417//417 385//385 448//448
f 386//386 385//385 418//418
f 387//387 386//386 419//419
f 420//420 388//388 419//419
f 421//421 389//389 420//420
f 390//390 389//389 422//422
f 391//391 390//390 423//423
f 424//424 392//392 423//423
f 425//425 393//393 424//424
f 394//394 393//393 426//426
f 395//395 394//394 427//427
f 428//428 396//396 427//427
f 429//429 397//397 428//428
f 398//398 397//397 430//430
f 399//399 398//398 431//431
f 432//432 400//400 431//431
f 433//433 401//401 432//432
f 402//402 401//401 434//434
f 403//403 402//402 435//435
f 436//436 404//404 435//435
f 437//437 405//405 436//436
f 406//406 405//405 438//438
f 407//407 406//406 439//439
f 440//440 408//408 439//439
f 441//441 409//409 440//440
f 410//410 409//409 442//442
f 411//411 410//410 443//443
f 444//444 412//412 443//443
f 445//445 413//413 444//444
f 414//414 413//413 446//446
f 415//415 414//414 447//447
f 448//448 416//416 447//447
f 449//449 417//417 480//480
f 418//418 417//417 450//450
f 419//419 418//418 451//451
f 452//452 420//420 451//451
f 453//453 421//421 452//452
f 422//422 421//421 454//454
f 423//423 422//422 455//455
f 456//456 424//424 455//455
f 457//457 425//425 456//456
f 426//426 425//425 458//458
f 427//427 426//426 459//459
f 460//460 428//428 459//459
f 461//461 429//429 460//460
f 430//430 429//429 462//462
f 431//431 430//430 463//463
f 464//464 432//432 463//463
f 465//465 433//433 464//464
f 434//434 433//433 466//466
f 435//435 434//434 467//467
f 468//468 436//436 467//467
f 469//469 437//437 468//468
f 438//438 437//437 470//470
f 439//439 438//438 471//471
f 472//472 440//440 471//471
f 473//473 441//441 472//472
f 442//442 441//441 474//474
f 443//443 442//442 475//475
f 476//476 444//444 475//475
f 477//477 445//445 476//476
f 446//446 445//445 478//478
f 447//447 446//446 479//479
f 480//480 448//448 479//479
f 481//481 449//449 512//512
f 450//450 449//449 482//482
f 451//451 450//450 483//483
f 484//484 452//452 483//483
f 485//485 453//453 484//484
f 454//454 453//453 486//486
f 455//455 454//454 487//487
f 488//488 456//456 487//487
f 489//489 457//457 488//488
f 458//458 457//457 490//490
f 459//459 458//458 491//491
f 492//492 460//460 491//491
f 493//493 461//461 492//492
f 462//462 461//461 494//494
f 463//463 462//462 495//495
f 496//496 464//464 495//495
f 497//497 465//465 496//496
f 466//466 465//465 498//498
f 467//467 466//466 499//499
f 500//500 468//468 499//499
f 501//501 469//469 500//500
f 470//470 469//469 502//502
f 471//471 470//470 503//503
f 504//504 472//472 503//503
f 505//505 473//473 504//504
f 474//474 473//473 506//506
f 475//475 474//474 507//507
f 508//508 476//476 507//507
f 509//509 477//477 508//508
f 478//478 477//477 510//510
f 479//479 478//478 511//511
f 512//512 480//480 511//511
f 513//513 481//481 544//544
f 482//482 481//481 514//514
f 483//483 482//482 515//515
f 516//516 484//484 515//515
f 517//517 485//485 516//516
f 486//486 485//485 518//518
f 487//487 486//486 519//519
f 520//520 488//488 519//519
f 521//521 489//489 520//520
f 490//490 489//489 522//522
f 491//491 490//490 523//523
f 524//524 492//492 523//523
f 525//525 493//493 524//524
f 494//494 493//493 526//526
f 495//495 494//494 527//527
f 528//528 496//496 527//527
f 529//529 497//497 528//528
f 498//498 497//497 530//530
f 499//499 498//498 531//531
f 532//532 500//500 531//531
f 533//533 501//501 532//532
f 502//502 501//501 534//534
f 503//503 502//502 535//535
f 536//536 504//504 535//535
f 537//537 505//505 536//536
f 506//506 505//505 538//538
f 507//507 506//506 539//539
f 540//540 508//508 539//539
f 541//541 509//509 540//540
f 510//510 509//509 542//542
f 511//511 510//510 543//543
f 544//544 512//512 543//543
f 545//545 513//513 576//576
f 514//514 513//513 546//546
f 515//515 514//514 547//547
f 548//548 516//516 547//547
f 549//549 517//517 548//548
f 518//518 517//517 550//550
f 519//519 518//518 551//551
f 552//552 520//520 551//551
f 553//553 521//521 552//552
f 522//522 521//521 554//554
f 523//523 522//522 555//555
f 556//556 524//524 555//555
f 557//557 525//525 556//556
f 526//526 525//525 558//558
f 527//527 526//526 559//559
f 560//560 528//528 559//559
f 561//561 529//529 560//560
f 530//530 529//529 562//562
f 531//531 530//530 563//563
f 564//564 532//532 563//563
f 565//565 533//533 564//564
f 534//534 533//533 566//566
f 535//535 534//534 567//567
f 568//568 536//536 567//567
f 569//569 537//537 568//568
f 538//538 537//537 570//570
f 539//539 538//538 571//571
f 572//572 540//540 571//571
f 573//573 541//541 572//572
f 542//542 541//541 574//574
f 543//543 542//542 575//575
f 576//576 544//544 575//575
f 577//577 545//545 608//608
f 546//546 545//545 578//578
f 547//547 546//546 579//579
f 580//580 548//548 579//579
f 581//581 549//549 580//580
f 550//550 549//549 582//582
f 551//551 550//550 583//583
f 584//584 552//552 583//583
f 585//585 553//553 584//584
f 554//554 553//553 586//586
f 555//555 554//554 587//587
f 588//588 556//556 587//587
f 589//589 557//557 588//588
f 558//558 557//557 590//590
f 559//559 558//558 591//591
f 592//592 560//560 591//591
f 593//593 561//561 592//592
f 562//562 561//561 594//594
f 563//563 562//562 595//595
f 596//596 564//564 595//595
f 597//597 565//565 596//596
f 566//566 565//565 598//598
f 567//567 566//566 599//599
f 600//600 568//568 599//599
f 601//601 569//569 600//600
f 570//570 569//569 602//602
f 571//571 570//570 603//603
f 604//604 572//572 603//603
f 605//605 573//573 604//604
f 574//574 573//573 606//606
f 575//575 574//574 607//607
f 608//608 576//576 607//607
f 609//609 577//577 640//640
f 578//578 577//577 610//610
f 579//579 578//578 611//611
f 612//612 580//580 611//611
f 613//613 581//581 612//612
f 582//582 581//581 614//614
f 583//583 582//582 615//615
f 616//616 584//584 615//615
f 617//617 585//585 616//616
f 586//586 585//585 618//618
f 587//587 586//586 619//619
f 620//620 588//588 619//619
f 621//621 589//589 620//620
f 590//590 589//589 622//622
f 591//591 590//590 623//623
f 624//624 592//592 623//623
f 625//625 593//593 624//624
f 594//594 593//593 626//626
f 595//595 594//594 627//627
f 628//628 596//596 627//627
f 629//629 597//597 628//628
f 598//598 597//597 630//630
f 599//599 598//598 631//631
f 632//632 600//600 631//631
f 633//633 601//601 632//632
f 602//602 601//601 634//634
f 603//603 602//602 635//635
f 636//636 604//604 635//635
f 637//637 605//605 636//636
f 606//606 605//605 638//638
f 607//607 606//606 639//639
f 640//640 608//608 639//639
# 1216 faces, 0 coords texture

# End of File
