####
#
# OBJ File Generated by Meshlab
#
####
# Object RightFingerJoint33y_joint_visu.obj
#
# Vertices: 98
# Faces: 192
#
####
vn 2.288072 -3.285960 -2.733450
v 0.003480 -0.003684 0.003458 0.654902 0.501961 0.313725
vn 1.999355 1.241853 -1.985349
v 0.004839 0.003644 0.001638 0.654902 0.501961 0.313725
vn -1.999843 1.242128 -1.985154
v -0.004848 0.003644 0.001639 0.654902 0.501961 0.313725
vn -2.293394 -3.272828 -2.721457
v -0.003513 -0.003684 0.003459 0.654902 0.501961 0.313725
vn 2.083385 -4.102646 3.512486
v 0.003506 -0.002353 0.010217 0.654902 0.501961 0.313725
vn 2.009499 2.337102 2.998395
v 0.003606 0.003630 0.012105 0.654902 0.501961 0.313725
vn -2.077685 2.286644 3.205962
v -0.003613 0.003480 0.012106 0.654902 0.501961 0.313725
vn -2.068971 -4.114646 3.522430
v -0.003489 -0.002353 0.010217 0.654902 0.501961 0.313725
vn 3.124251 -4.350367 0.881121
v 0.003919 -0.003764 0.006992 0.654902 0.501961 0.313725
vn 3.091519 2.685532 0.235267
v 0.005428 0.004007 0.007062 0.654902 0.501961 0.313725
vn -3.091460 2.685539 0.236048
v -0.005436 0.004007 0.007063 0.654902 0.501961 0.313725
vn -3.124169 -4.347313 0.901776
v -0.003927 -0.003764 0.006993 0.654902 0.501961 0.313725
vn -0.093483 2.748046 3.340410
v -0.000003 0.003841 0.012678 0.654902 0.501961 0.313725
vn -0.000322 2.282277 -3.021438
v -0.000005 0.004007 0.001014 0.654902 0.501961 0.313725
vn 0.000184 -4.585969 4.109020
v 0.000002 -0.002538 0.010410 0.654902 0.501961 0.313725
vn -0.000046 -4.179473 -3.571226
v -0.000010 -0.004026 0.003230 0.654902 0.501961 0.313725
vn 0.000002 6.283185 0.000004
v -0.000004 0.004007 0.007062 0.654902 0.501961 0.313725
vn 0.000340 -5.950030 1.390478
v -0.000004 -0.004347 0.006987 0.654902 0.501961 0.313725
vn 3.309050 -1.404498 3.916280
v 0.004116 -0.000101 0.011445 0.654902 0.501961 0.313725
vn 3.506601 -1.346025 -4.059656
v 0.004225 -0.000288 0.002609 0.654902 0.501961 0.313725
vn -3.310086 -1.421391 3.910745
v -0.004119 -0.000101 0.011445 0.654902 0.501961 0.313725
vn -3.508991 -1.334588 -4.062040
v -0.004238 -0.000288 0.002610 0.654902 0.501961 0.313725
vn 6.216854 -0.678596 0.102035
v 0.005091 -0.000298 0.007050 0.654902 0.501961 0.313725
vn -6.216474 -0.679045 0.116176
v -0.005099 -0.000298 0.007051 0.654902 0.501961 0.313725
vn -0.000309 -1.385929 -6.118300
v -0.000005 -0.000329 0.002078 0.654902 0.501961 0.313725
vn 0.001853 -2.217747 5.800394
v -0.000003 -0.000118 0.011979 0.654902 0.501961 0.313725
vn 2.916794 -4.445564 2.160850
v 0.003821 -0.003052 0.008855 0.654902 0.501961 0.313725
vn 2.762998 2.848396 1.211614
v 0.004774 0.004007 0.010180 0.654902 0.501961 0.313725
vn -2.705757 2.836042 1.259227
v -0.004782 0.004007 0.010181 0.654902 0.501961 0.313725
vn -2.907741 -4.450578 2.181509
v -0.003813 -0.003052 0.008856 0.654902 0.501961 0.313725
vn -0.045228 6.276425 0.197913
v -0.000004 0.004007 0.010181 0.654902 0.501961 0.313725
vn 0.000011 -5.501877 2.911646
v -0.000000 -0.003532 0.008871 0.654902 0.501961 0.313725
vn 5.836035 -0.772628 1.545150
v 0.004933 -0.000196 0.009529 0.654902 0.501961 0.313725
vn -5.828575 -0.791343 1.551677
v -0.004938 -0.000196 0.009530 0.654902 0.501961 0.313725
vn 2.862950 2.413449 -0.614020
v 0.005428 0.004007 0.003898 0.654902 0.501961 0.313725
vn -2.863146 2.413760 -0.613387
v -0.005437 0.004007 0.003899 0.654902 0.501961 0.313725
vn -3.333909 -4.402391 -0.526485
v -0.003828 -0.003859 0.004971 0.654902 0.501961 0.313725
vn 3.328551 -4.411986 -0.548247
v 0.003804 -0.003859 0.004971 0.654902 0.501961 0.313725
vn 0.000002 6.283185 0.000001
v -0.000004 0.004007 0.003899 0.654902 0.501961 0.313725
vn 0.000541 -6.102423 -0.588706
v -0.000008 -0.004467 0.004924 0.654902 0.501961 0.313725
vn 5.950968 -0.906549 -1.243811
v 0.005001 -0.000298 0.004538 0.654902 0.501961 0.313725
vn -5.956182 -0.891017 -1.238104
v -0.005012 -0.000298 0.004539 0.654902 0.501961 0.313725
vn 3.385570 -1.721926 -4.000356
v 0.003927 -0.002238 0.003044 0.654902 0.501961 0.313725
vn -3.051964 -2.748231 3.804387
v -0.003925 -0.001427 0.010804 0.654902 0.501961 0.313725
vn 5.673909 -2.096897 0.310972
v 0.004804 -0.002225 0.007021 0.654902 0.501961 0.313725
vn -0.000092 -1.895267 -5.918141
v -0.000008 -0.002381 0.002525 0.654902 0.501961 0.313725
vn 0.000143 -3.392159 5.204757
v -0.000000 -0.001446 0.011298 0.654902 0.501961 0.313725
vn 3.063040 -2.724915 3.799674
v 0.003934 -0.001427 0.010803 0.654902 0.501961 0.313725
vn -3.391655 -1.704038 -3.995485
v -0.003951 -0.002238 0.003045 0.654902 0.501961 0.313725
vn -5.670646 -2.098440 0.341558
v -0.004812 -0.002225 0.007022 0.654902 0.501961 0.313725
vn -5.129423 -2.363551 1.683067
v -0.004665 -0.001815 0.009159 0.654902 0.501961 0.313725
vn 5.143143 -2.344117 1.662964
v 0.004668 -0.001815 0.009158 0.654902 0.501961 0.313725
vn -5.603381 -1.938130 -1.139910
v -0.004680 -0.002272 0.004787 0.654902 0.501961 0.313725
vn 5.595082 -1.954891 -1.161403
v 0.004661 -0.002272 0.004786 0.654902 0.501961 0.313725
vn 3.374840 -0.414468 4.328051
v 0.003924 0.001850 0.011940 0.654902 0.501961 0.313725
vn -3.572335 -1.495783 -3.874493
v -0.004496 0.001836 0.002100 0.654902 0.501961 0.313725
vn -6.250577 -0.463037 0.283555
v -0.005218 0.001833 0.007056 0.654902 0.501961 0.313725
vn 3.571218 -1.498392 -3.873900
v 0.004486 0.001836 0.002099 0.654902 0.501961 0.313725
vn -3.371554 -0.422830 4.324551
v -0.003930 0.001818 0.011941 0.654902 0.501961 0.313725
vn 6.250695 -0.463036 0.280203
v 0.005210 0.001833 0.007055 0.654902 0.501961 0.313725
vn -0.000598 -1.517299 -6.092617
v -0.000005 0.001831 0.001583 0.654902 0.501961 0.313725
vn 0.009834 -1.107075 6.141436
v -0.000003 0.001825 0.012482 0.654902 0.501961 0.313725
vn 5.977240 -0.111186 1.737793
v 0.004868 0.001841 0.009827 0.654902 0.501961 0.313725
vn -5.976513 -0.115644 1.739102
v -0.004875 0.001841 0.009828 0.654902 0.501961 0.313725
vn 6.074175 -0.801413 -1.015404
v 0.005181 0.001834 0.004267 0.654902 0.501961 0.313725
vn -6.075372 -0.797496 -1.013529
v -0.005190 0.001834 0.004269 0.654902 0.501961 0.313725
vn 0.515933 1.976834 -2.735389
v 0.002712 0.004007 0.001014 0.654902 0.501961 0.313725
vn 0.475917 -4.618776 4.099120
v 0.001892 -0.002453 0.010335 0.654902 0.501961 0.313725
vn -0.000001 6.283185 0.000003
v 0.002712 0.004007 0.007062 0.654902 0.501961 0.313725
vn 0.567338 2.625106 3.035752
v 0.001822 0.003924 0.012606 0.654902 0.501961 0.313725
vn 0.658434 -4.217751 -3.591944
v 0.001872 -0.003893 0.003313 0.654902 0.501961 0.313725
vn 0.897774 -5.905007 1.351410
v 0.002037 -0.004179 0.006989 0.654902 0.501961 0.313725
vn 0.785948 -2.181369 5.742548
v 0.002150 -0.000106 0.011854 0.654902 0.501961 0.313725
vn 0.789320 -1.465039 -6.042998
v 0.002208 -0.000309 0.002202 0.654902 0.501961 0.313725
vn 0.698748 -5.525355 2.823781
v 0.001983 -0.003389 0.008843 0.654902 0.501961 0.313725
vn 0.145975 6.262386 0.301451
v 0.002385 0.004007 0.010181 0.654902 0.501961 0.313725
vn 0.916365 -6.082935 -0.522667
v 0.001970 -0.004289 0.004958 0.654902 0.501961 0.313725
vn 0.128081 6.275455 -0.130243
v 0.002712 0.004007 0.003898 0.654902 0.501961 0.313725
vn 0.629615 -3.382724 5.191737
v 0.002053 -0.001412 0.011175 0.654902 0.501961 0.313725
vn 0.789203 -1.872932 -5.886455
v 0.002045 -0.002312 0.002653 0.654902 0.501961 0.313725
vn 0.894739 -1.030316 6.061588
v 0.002035 0.001838 0.012369 0.654902 0.501961 0.313725
vn 0.661392 -1.693202 -6.001746
v 0.002344 0.001833 0.001685 0.654902 0.501961 0.313725
vn -0.655168 2.600352 3.202307
v -0.001829 0.003795 0.012606 0.654902 0.501961 0.313725
vn -0.657462 -4.217291 -3.591198
v -0.001899 -0.003893 0.003314 0.654902 0.501961 0.313725
vn -0.896980 -5.904137 1.356870
v -0.002045 -0.004179 0.006989 0.654902 0.501961 0.313725
vn -0.516499 1.976868 -2.735292
v -0.002721 0.004007 0.001014 0.654902 0.501961 0.313725
vn -0.476310 -4.619086 4.099172
v -0.001881 -0.002453 0.010335 0.654902 0.501961 0.313725
vn 0.000005 6.283185 0.000007
v -0.002720 0.004007 0.007063 0.654902 0.501961 0.313725
vn -0.789460 -1.462610 -6.043678
v -0.002220 -0.000309 0.002202 0.654902 0.501961 0.313725
vn -0.784169 -2.191842 5.739903
v -0.002154 -0.000106 0.011855 0.654902 0.501961 0.313725
vn -0.165613 6.236207 0.492083
v -0.002393 0.004007 0.010181 0.654902 0.501961 0.313725
vn -0.698944 -5.523656 2.827358
v -0.001979 -0.003389 0.008844 0.654902 0.501961 0.313725
vn -0.128102 6.275455 -0.130220
v -0.002721 0.004007 0.003899 0.654902 0.501961 0.313725
vn -0.914688 -6.083549 -0.518256
v -0.001990 -0.004289 0.004958 0.654902 0.501961 0.313725
vn -0.788719 -1.869885 -5.887593
v -0.002066 -0.002312 0.002653 0.654902 0.501961 0.313725
vn -0.629448 -3.385608 5.189897
v -0.002049 -0.001412 0.011175 0.654902 0.501961 0.313725
vn -0.662426 -1.692710 -6.001786
v -0.002353 0.001833 0.001685 0.654902 0.501961 0.313725
vn -0.888519 -1.052487 6.060237
v -0.002042 0.001821 0.012370 0.654902 0.501961 0.313725
# 98 vertices, 0 vertices normals

f 58//58 2//2 35//35
f 93//93 86//86 3//3
f 53//53 49//49 4//4
f 77//77 71//71 1//1
f 56//56 3//3 86//86
f 81//81 55//55 6//6
f 63//63 60//60 10//10
f 88//88 11//11 29//29
f 50//50 12//12 30//30
f 75//75 72//72 9//9
f 78//78 67//67 14//14
f 84//84 16//16 40//40
f 82//82 61//61 14//14
f 62//62 13//13 83//83
f 76//76 69//69 17//17
f 85//85 18//18 32//32
f 43//43 20//20 41//41
f 66//66 56//56 22//22
f 49//49 22//22 89//89
f 48//48 19//19 73//73
f 52//52 45//45 23//23
f 57//57 24//24 34//34
f 80//80 46//46 25//25
f 96//96 47//47 26//26
f 55//55 63//63 28//28
f 91//91 29//29 7//7
f 51//51 30//30 8//8
f 75//75 27//27 5//5
f 70//70 76//76 31//31
f 87//87 92//92 32//32
f 48//48 52//52 33//33
f 64//64 34//34 21//21
f 65//65 35//35 10//10
f 88//88 93//93 36//36
f 53//53 37//37 12//12
f 72//72 77//77 38//38
f 78//78 39//39 17//17
f 94//94 40//40 18//18
f 54//54 41//41 23//23
f 57//57 66//66 42//42
f 42//42 22//22 49//49
f 24//24 50//50 51//51
f 1//1 43//43 54//54
f 4//4 49//49 95//95
f 5//5 48//48 79//79
f 27//27 9//9 45//45
f 71//71 16//16 46//46
f 87//87 15//15 47//47
f 34//34 51//51 44//44
f 5//5 27//27 52//52
f 24//24 42//42 53//53
f 9//9 38//38 54//54
f 20//20 58//58 65//65
f 22//22 56//56 97//97
f 73//73 19//19 55//55
f 33//33 23//23 60//60
f 74//74 25//25 61//61
f 26//26 62//62 98//98
f 36//36 3//3 56//56
f 11//11 57//57 64//64
f 19//19 33//33 63//63
f 29//29 64//64 59//59
f 41//41 65//65 60//60
f 11//11 36//36 66//66
f 40//40 16//16 71//71
f 62//62 81//81 70//70
f 32//32 18//18 72//72
f 2//2 67//67 78//78
f 58//58 82//82 67//67
f 28//28 10//10 69//69
f 79//79 73//73 26//26
f 43//43 80//80 74//74
f 32//32 75//75 68//68
f 6//6 28//28 76//76
f 18//18 40//40 77//77
f 35//35 78//78 69//69
f 68//68 79//79 47//47
f 1//1 71//71 80//80
f 26//26 73//73 81//81
f 20//20 74//74 82//82
f 14//14 86//86 93//93
f 97//97 86//86 14//14
f 17//17 88//88 91//91
f 4//4 84//84 94//94
f 98//98 83//83 7//7
f 12//12 85//85 92//92
f 95//95 89//89 25//25
f 44//44 96//96 90//90
f 31//31 91//91 83//83
f 8//8 30//30 92//92
f 39//39 93//93 88//88
f 37//37 94//94 85//85
f 84//84 95//95 46//46
f 8//8 87//87 96//96
f 89//89 97//97 61//61
f 90//90 98//98 59//59
f 65//65 58//58 35//35
f 36//36 93//93 3//3
f 37//37 53//53 4//4
f 38//38 77//77 1//1
f 97//97 56//56 86//86
f 70//70 81//81 6//6
f 28//28 63//63 10//10
f 91//91 88//88 29//29
f 51//51 50//50 30//30
f 27//27 75//75 9//9
f 39//39 78//78 14//14
f 94//94 84//84 40//40
f 67//67 82//82 14//14
f 98//98 62//62 83//83
f 31//31 76//76 17//17
f 92//92 85//85 32//32
f 54//54 43//43 41//41
f 42//42 66//66 22//22
f 95//95 49//49 89//89
f 79//79 48//48 73//73
f 33//33 52//52 23//23
f 64//64 57//57 34//34
f 74//74 80//80 25//25
f 90//90 96//96 26//26
f 6//6 55//55 28//28
f 83//83 91//91 7//7
f 44//44 51//51 8//8
f 68//68 75//75 5//5
f 13//13 70//70 31//31
f 15//15 87//87 32//32
f 19//19 48//48 33//33
f 59//59 64//64 21//21
f 60//60 65//65 10//10
f 11//11 88//88 36//36
f 50//50 53//53 12//12
f 9//9 72//72 38//38
f 69//69 78//78 17//17
f 85//85 94//94 18//18
f 45//45 54//54 23//23
f 24//24 57//57 42//42
f 53//53 42//42 49//49
f 34//34 24//24 51//51
f 38//38 1//1 54//54
f 84//84 4//4 95//95
f 68//68 5//5 79//79
f 52//52 27//27 45//45
f 80//80 71//71 46//46
f 96//96 87//87 47//47
f 21//21 34//34 44//44
f 48//48 5//5 52//52
f 50//50 24//24 53//53
f 45//45 9//9 54//54
f 41//41 20//20 65//65
f 89//89 22//22 97//97
f 81//81 73//73 55//55
f 63//63 33//33 60//60
f 82//82 74//74 61//61
f 90//90 26//26 98//98
f 66//66 36//36 56//56
f 29//29 11//11 64//64
f 55//55 19//19 63//63
f 7//7 29//29 59//59
f 23//23 41//41 60//60
f 57//57 11//11 66//66
f 77//77 40//40 71//71
f 13//13 62//62 70//70
f 75//75 32//32 72//72
f 35//35 2//2 78//78
f 2//2 58//58 67//67
f 76//76 28//28 69//69
f 47//47 79//79 26//26
f 20//20 43//43 74//74
f 15//15 32//32 68//68
f 70//70 6//6 76//76
f 72//72 18//18 77//77
f 10//10 35//35 69//69
f 15//15 68//68 47//47
f 43//43 1//1 80//80
f 62//62 26//26 81//81
f 58//58 20//20 82//82
f 39//39 14//14 93//93
f 61//61 97//97 14//14
f 31//31 17//17 91//91
f 37//37 4//4 94//94
f 59//59 98//98 7//7
f 30//30 12//12 92//92
f 46//46 95//95 25//25
f 21//21 44//44 90//90
f 13//13 31//31 83//83
f 87//87 8//8 92//92
f 17//17 39//39 88//88
f 12//12 37//37 85//85
f 16//16 84//84 46//46
f 44//44 8//8 96//96
f 25//25 89//89 61//61
f 21//21 90//90 59//59
# 192 faces, 0 coords texture

# End of File
