####
#
# OBJ File Generated by Meshlab
#
####
# Object RSsegment_joint_visu.obj
#
# Vertices: 530
# Faces: 1056
#
####
vn 6.120762 -1.322354 -0.052151
v 0.018161 -0.003911 -0.008696 0.654902 0.501961 0.313725
vn 5.987168 -1.567603 -0.682608
v 0.017916 -0.004696 -0.010214 0.654902 0.501961 0.313725
vn 6.191629 -0.630358 -0.192966
v 0.018453 -0.002258 -0.008861 0.654902 0.501961 0.313725
vn 5.948220 -1.662539 0.633841
v 0.017950 -0.004711 -0.007077 0.654902 0.501961 0.313725
vn 5.761452 -2.357463 0.060080
v 0.017417 -0.006458 -0.008570 0.654902 0.501961 0.313725
vn 6.091784 -0.702730 -1.155524
v 0.018124 -0.002496 -0.011395 0.654902 0.501961 0.313725
vn 6.111527 -0.781086 0.888295
v 0.018287 -0.002508 -0.006379 0.654902 0.501961 0.313725
vn 4.964781 -2.587918 2.706357
v 0.014303 -0.007712 0.000129 0.654902 0.501961 0.313725
vn 5.335422 -2.357604 2.156371
v 0.015976 -0.006733 -0.002413 0.654902 0.501961 0.313725
vn 5.174049 -1.388670 3.147558
v 0.014902 -0.004016 0.001622 0.654902 0.501961 0.313725
vn 4.549986 -2.772755 3.197349
v 0.012219 -0.008611 0.002683 0.654902 0.501961 0.313725
vn 4.669623 -3.603010 1.966264
v 0.013384 -0.010906 -0.002200 0.654902 0.501961 0.313725
vn 5.070301 -3.301886 1.450319
v 0.015178 -0.009486 -0.004455 0.654902 0.501961 0.313725
vn 5.536845 -1.239905 2.540563
v 0.016493 -0.003519 -0.001145 0.654902 0.501961 0.313725
vn 4.765491 -1.498058 3.685372
v 0.012890 -0.004475 0.004365 0.654902 0.501961 0.313725
vn 4.229458 -3.851606 2.418923
v 0.011189 -0.012194 0.000084 0.654902 0.501961 0.313725
vn 3.037244 -3.118234 4.420874
v 0.003849 -0.010447 0.009533 0.654902 0.501961 0.313725
vn 3.558573 -3.040822 4.073828
v 0.006947 -0.010003 0.007450 0.654902 0.501961 0.313725
vn 3.271114 -1.685811 4.986266
v 0.004666 -0.005412 0.011581 0.654902 0.501961 0.313725
vn 2.500773 -3.162490 4.714016
v 0.000517 -0.010714 0.011371 0.654902 0.501961 0.313725
vn 2.680891 -4.327944 3.540213
v 0.002595 -0.014809 0.006368 0.654902 0.501961 0.313725
vn 3.208715 -4.220994 3.217743
v 0.005748 -0.014176 0.004423 0.654902 0.501961 0.313725
vn 3.788958 -1.644310 4.622062
v 0.007729 -0.005187 0.009409 0.654902 0.501961 0.313725
vn 2.734979 -1.709247 5.290158
v 0.001356 -0.005546 0.013473 0.654902 0.501961 0.313725
vn 2.142133 -4.389274 3.818504
v -0.000770 -0.015192 0.008122 0.654902 0.501961 0.313725
vn 0.765449 -3.112098 5.312385
v -0.010318 -0.010408 0.015092 0.654902 0.501961 0.313725
vn 1.357832 -3.159382 5.162518
v -0.006626 -0.010695 0.014174 0.654902 0.501961 0.313725
vn 0.985308 -1.679649 5.883315
v -0.009500 -0.005374 0.017140 0.654902 0.501961 0.313725
vn 0.147596 -3.031628 5.412356
v -0.014003 -0.009946 0.015671 0.654902 0.501961 0.313725
vn 0.422044 -4.321806 4.426664
v -0.011571 -0.014770 0.011927 0.654902 0.501961 0.313725
vn 1.005946 -4.386199 4.264369
v -0.007913 -0.015172 0.010925 0.654902 0.501961 0.313725
vn 1.584826 -1.706139 5.741501
v -0.005787 -0.005527 0.016276 0.654902 0.501961 0.313725
vn 0.358204 -1.634963 5.968365
v -0.013222 -0.005130 0.017630 0.654902 0.501961 0.313725
vn -0.183779 -4.211784 4.549021
v -0.015203 -0.014119 0.012644 0.654902 0.501961 0.313725
vn -1.811324 -2.569510 5.365419
v -0.024365 -0.007607 0.015303 0.654902 0.501961 0.313725
vn -1.174068 -2.757172 5.443591
v -0.021104 -0.008521 0.015760 0.654902 0.501961 0.313725
vn -1.658892 -1.370110 5.828989
v -0.023771 -0.003911 0.016799 0.654902 0.501961 0.313725
vn -2.455941 -2.336443 5.213871
v -0.027315 -0.006616 0.014576 0.654902 0.501961 0.313725
vn -2.102997 -3.584568 4.623987
v -0.025289 -0.010801 0.012977 0.654902 0.501961 0.313725
vn -1.473479 -3.836130 4.656961
v -0.022133 -0.012104 0.013160 0.654902 0.501961 0.313725
vn -0.994173 -1.482420 5.945634
v -0.020432 -0.004385 0.017442 0.654902 0.501961 0.313725
vn -2.337046 -1.218594 5.630433
v -0.026817 -0.003401 0.015851 0.654902 0.501961 0.313725
vn -2.746238 -3.280655 4.517669
v -0.028132 -0.009369 0.012541 0.654902 0.501961 0.313725
vn -4.528806 -1.293485 4.126967
v -0.033177 -0.003771 0.011451 0.654902 0.501961 0.313725
vn -3.937331 -1.635778 4.513129
v -0.031925 -0.004576 0.012496 0.654902 0.501961 0.313725
vn -4.673301 -0.600890 4.070641
v -0.033495 -0.002117 0.011525 0.654902 0.501961 0.313725
vn -4.860779 -1.538132 3.574393
v -0.034033 -0.004555 0.010172 0.654902 0.501961 0.313725
vn -4.193946 -2.330496 3.966821
v -0.032558 -0.006323 0.011041 0.654902 0.501961 0.313725
vn -3.879852 -0.753934 4.809168
v -0.031687 -0.002373 0.013232 0.654902 0.501961 0.313725
vn -5.255085 -0.671929 3.297239
v -0.034979 -0.002352 0.009444 0.654902 0.501961 0.313725
vn -3.354366 -5.073067 1.310907
v -0.029376 -0.015239 0.002587 0.654902 0.501961 0.313725
vn -2.830578 -5.425033 1.105019
v -0.026708 -0.017056 0.001538 0.654902 0.501961 0.313725
vn -2.922276 -4.901699 2.468766
v -0.027877 -0.014742 0.006410 0.654902 0.501961 0.313725
vn -3.862515 -4.635716 1.510798
v -0.031681 -0.013267 0.003494 0.654902 0.501961 0.313725
vn -3.824937 -4.899253 0.168614
v -0.030877 -0.014733 -0.001234 0.654902 0.501961 0.313725
vn -3.319599 -5.250719 -0.114056
v -0.028386 -0.016500 -0.002743 0.654902 0.501961 0.313725
vn -2.359871 -5.253324 2.331613
v -0.025026 -0.016509 0.005820 0.654902 0.501961 0.313725
vn -3.475469 -4.459022 2.594173
v -0.030391 -0.012809 0.006809 0.654902 0.501961 0.313725
vn -4.315448 -4.456763 0.453654
v -0.032989 -0.012802 0.000188 0.654902 0.501961 0.313725
vn -1.128940 -6.091000 0.436542
v -0.017140 -0.020799 -0.002220 0.654902 0.501961 0.313725
vn -0.576021 -6.178411 0.219466
v -0.013629 -0.021361 -0.003598 0.654902 0.501961 0.313725
vn -0.593045 -5.905009 1.810158
v -0.015092 -0.020133 0.002992 0.654902 0.501961 0.313725
vn -1.688066 -5.940965 0.656106
v -0.020529 -0.019886 -0.000889 0.654902 0.501961 0.313725
vn -1.670139 -5.902084 -0.934615
v -0.019183 -0.020122 -0.007433 0.654902 0.501961 0.313725
vn -1.123380 -5.987332 -1.171826
v -0.015727 -0.020666 -0.008949 0.654902 0.501961 0.313725
vn -0.030944 -5.990291 1.612064
v -0.011528 -0.020678 0.001752 0.654902 0.501961 0.313725
vn -1.166720 -5.758709 1.996485
v -0.018571 -0.019249 0.004097 0.654902 0.501961 0.313725
vn -2.217343 -5.755838 -0.680811
v -0.022484 -0.019238 -0.005875 0.654902 0.501961 0.313725
vn 1.095819 -6.097036 -0.436535
v -0.002973 -0.020838 -0.007779 0.654902 0.501961 0.313725
vn 1.655809 -5.950038 -0.656128
v 0.000421 -0.019943 -0.009111 0.654902 0.501961 0.313725
vn 1.638060 -5.911061 0.934639
v -0.000926 -0.020172 -0.002567 0.654902 0.501961 0.313725
vn 0.542454 -6.181456 -0.219467
v -0.006487 -0.021381 -0.006401 0.654902 0.501961 0.313725
vn 0.560930 -5.908153 -1.810152
v -0.005017 -0.020160 -0.012992 0.654902 0.501961 0.313725
vn 1.135407 -5.764951 -1.996498
v -0.001534 -0.019295 -0.014097 0.654902 0.501961 0.313725
vn 2.186083 -5.767794 0.680740
v 0.002379 -0.019306 -0.004125 0.654902 0.501961 0.313725
vn 1.090860 -5.993328 1.171851
v -0.004385 -0.020697 -0.001051 0.654902 0.501961 0.313725
vn -0.001578 -5.990377 -1.612047
v -0.008584 -0.020686 -0.011752 0.654902 0.501961 0.313725
vn 3.326770 -5.091213 -1.310909
v 0.009292 -0.015344 -0.012587 0.654902 0.501961 0.313725
vn 3.837294 -4.656622 -1.510781
v 0.011609 -0.013384 -0.013494 0.654902 0.501961 0.313725
vn 3.798263 -4.919954 -0.168590
v 0.010796 -0.014847 -0.008766 0.654902 0.501961 0.313725
vn 2.801092 -5.440319 -1.105013
v 0.006615 -0.017147 -0.011538 0.654902 0.501961 0.313725
vn 2.895634 -4.917522 -2.468708
v 0.007797 -0.014839 -0.016410 0.654902 0.501961 0.313725
vn 3.451243 -4.477823 -2.594122
v 0.010321 -0.012920 -0.016808 0.654902 0.501961 0.313725
vn 4.291187 -4.480123 -0.453750
v 0.012919 -0.012927 -0.010188 0.654902 0.501961 0.313725
vn 3.291020 -5.268676 0.114078
v 0.008296 -0.016600 -0.007256 0.654902 0.501961 0.313725
vn 2.331302 -5.266077 -2.331600
v 0.004936 -0.016591 -0.015820 0.654902 0.501961 0.313725
vn 5.298958 -2.608765 -2.082129
v 0.015648 -0.007738 -0.015073 0.654902 0.501961 0.313725
vn 5.217574 -2.172001 -2.613288
v 0.015425 -0.006870 -0.016546 0.654902 0.501961 0.313725
vn 5.600828 -2.173081 -1.636752
v 0.016487 -0.006873 -0.013840 0.654902 0.501961 0.313725
vn 4.905379 -3.283383 -1.928488
v 0.014912 -0.009338 -0.014786 0.654902 0.501961 0.313725
vn 4.632226 -3.104727 -2.768141
v 0.014104 -0.008881 -0.016997 0.654902 0.501961 0.313725
vn 5.664277 -1.382221 -2.224259
v 0.016538 -0.004911 -0.015419 0.654902 0.501961 0.313725
vn 5.276339 -3.106427 -1.126819
v 0.015823 -0.008885 -0.012614 0.654902 0.501961 0.313725
vn 4.521705 -1.318064 -4.126976
v 0.013156 -0.003897 -0.021450 0.654902 0.501961 0.313725
vn 4.669943 -0.626258 -4.070647
v 0.013484 -0.002244 -0.021525 0.654902 0.501961 0.313725
vn 4.852388 -1.564549 -3.574337
v 0.014008 -0.004686 -0.020172 0.654902 0.501961 0.313725
vn 3.928389 -1.657062 -4.513161
v 0.011900 -0.004695 -0.022495 0.654902 0.501961 0.313725
vn 3.875690 -0.774982 -4.809199
v 0.011674 -0.002490 -0.023232 0.654902 0.501961 0.313725
vn 5.251352 -0.700461 -3.297238
v 0.014966 -0.002487 -0.019443 0.654902 0.501961 0.313725
vn 4.181295 -2.353210 -3.966754
v 0.012523 -0.006445 -0.021041 0.654902 0.501961 0.313725
vn 1.797309 -2.579266 -5.365390
v 0.004323 -0.007685 -0.025303 0.654902 0.501961 0.313725
vn 2.443291 -2.349700 -5.213885
v 0.007278 -0.006710 -0.024575 0.654902 0.501961 0.313725
vn 2.083453 -3.595985 -4.624020
v 0.005230 -0.010883 -0.022976 0.654902 0.501961 0.313725
vn 1.159019 -2.763574 -5.443603
v 0.001057 -0.008581 -0.025760 0.654902 0.501961 0.313725
vn 1.651513 -1.379061 -5.829000
v 0.003749 -0.003985 -0.026798 0.654902 0.501961 0.313725
vn 2.330415 -1.231231 -5.630437
v 0.006798 -0.003492 -0.025851 0.654902 0.501961 0.313725
vn 2.728264 -3.295440 -4.517743
v 0.008081 -0.009467 -0.022541 0.654902 0.501961 0.313725
vn 1.452623 -3.844065 -4.656963
v 0.002067 -0.012169 -0.023160 0.654902 0.501961 0.313725
vn 0.986088 -1.487761 -5.945583
v 0.000408 -0.004442 -0.027442 0.654902 0.501961 0.313725
vn -0.782321 -3.107867 -5.312354
v -0.009739 -0.010410 -0.025092 0.654902 0.501961 0.313725
vn -0.163976 -3.030789 -5.412370
v -0.006051 -0.009968 -0.025671 0.654902 0.501961 0.313725
vn -0.445496 -4.319481 -4.426656
v -0.008509 -0.014778 -0.021927 0.654902 0.501961 0.313725
vn -1.375053 -3.151958 -5.162509
v -0.013432 -0.010676 -0.024173 0.654902 0.501961 0.313725
vn -0.994457 -1.674268 -5.883320
v -0.010529 -0.005371 -0.027140 0.654902 0.501961 0.313725
vn -0.367009 -1.633042 -5.968375
v -0.006806 -0.005148 -0.027630 0.654902 0.501961 0.313725
vn 0.160900 -4.212712 -4.549019
v -0.004874 -0.014147 -0.022644 0.654902 0.501961 0.313725
vn -1.029735 -4.380682 -4.264377
v -0.012169 -0.015161 -0.020925 0.654902 0.501961 0.313725
vn -1.594082 -1.697503 -5.741496
v -0.014243 -0.005504 -0.026276 0.654902 0.501961 0.313725
vn -3.054104 -3.101631 -4.420903
v -0.023905 -0.010371 -0.019533 0.654902 0.501961 0.313725
vn -2.517844 -3.148829 -4.714079
v -0.020575 -0.010657 -0.021370 0.654902 0.501961 0.313725
vn -2.704411 -4.313300 -3.540167
v -0.022675 -0.014740 -0.016368 0.654902 0.501961 0.313725
vn -3.575133 -3.021506 -4.073727
v -0.027001 -0.009911 -0.017450 0.654902 0.501961 0.313725
vn -3.280175 -1.668000 -4.986348
v -0.024695 -0.005333 -0.021581 0.654902 0.501961 0.313725
vn -2.744216 -1.694381 -5.290154
v -0.021385 -0.005484 -0.023472 0.654902 0.501961 0.313725
vn -2.165870 -4.377556 -3.818559
v -0.019312 -0.015141 -0.018122 0.654902 0.501961 0.313725
vn -3.231676 -4.203514 -3.217672
v -0.025824 -0.014090 -0.014422 0.654902 0.501961 0.313725
vn -3.797799 -1.623661 -4.622045
v -0.027757 -0.005091 -0.019409 0.654902 0.501961 0.313725
vn -4.978758 -2.560882 -2.706370
v -0.034345 -0.007580 -0.010129 0.654902 0.501961 0.313725
vn -4.564971 -2.747972 -3.197405
v -0.032265 -0.008490 -0.012683 0.654902 0.501961 0.313725
vn -4.689174 -3.577583 -1.966231
v -0.033443 -0.010778 -0.007800 0.654902 0.501961 0.313725
vn -5.348154 -2.328604 -2.156342
v -0.036012 -0.006592 -0.007587 0.654902 0.501961 0.313725
vn -5.181517 -1.360547 -3.147582
v -0.034924 -0.003880 -0.011622 0.654902 0.501961 0.313725
vn -4.773568 -1.472162 -3.685353
v -0.032914 -0.004351 -0.014365 0.654902 0.501961 0.313725
vn -4.250292 -3.828532 -2.418967
v -0.031255 -0.012079 -0.010083 0.654902 0.501961 0.313725
vn -5.088159 -3.274300 -1.450289
v -0.035229 -0.009349 -0.005545 0.654902 0.501961 0.313725
vn -5.543475 -1.209815 -2.540620
v -0.036512 -0.003375 -0.008855 0.654902 0.501961 0.313725
vn -6.127850 -1.289163 0.052170
v -0.038182 -0.003758 -0.001304 0.654902 0.501961 0.313725
vn -5.957143 -1.630244 -0.633703
v -0.037975 -0.004559 -0.002923 0.654902 0.501961 0.313725
vn -5.995572 -1.535064 0.682652
v -0.037941 -0.004544 0.000214 0.654902 0.501961 0.313725
vn -6.194947 -0.596728 0.193010
v -0.038465 -0.002103 -0.001139 0.654902 0.501961 0.313725
vn -6.115680 -0.747884 -0.888251
v -0.038301 -0.002355 -0.003621 0.654902 0.501961 0.313725
vn -5.774178 -2.326180 -0.060077
v -0.037452 -0.006309 -0.001429 0.654902 0.501961 0.313725
vn -6.095526 -0.669651 1.155519
v -0.038137 -0.002343 0.001396 0.654902 0.501961 0.313725
vn -6.120769 1.322354 0.052124
v -0.038161 0.003911 -0.001304 0.654902 0.501961 0.313725
vn -5.948215 1.662545 -0.633838
v -0.037950 0.004711 -0.002923 0.654902 0.501961 0.313725
vn -6.191620 0.630353 0.193018
v -0.038453 0.002258 -0.001139 0.654902 0.501961 0.313725
vn -5.987160 1.567544 0.682668
v -0.037916 0.004696 0.000214 0.654902 0.501961 0.313725
vn -5.761458 2.357454 -0.060072
v -0.037417 0.006458 -0.001429 0.654902 0.501961 0.313725
vn -6.111542 0.781088 -0.888238
v -0.038287 0.002508 -0.003621 0.654902 0.501961 0.313725
vn -6.091812 0.702735 1.155518
v -0.038124 0.002496 0.001396 0.654902 0.501961 0.313725
vn -4.964835 2.587922 -2.706292
v -0.034303 0.007712 -0.010129 0.654902 0.501961 0.313725
vn -4.549947 2.772720 -3.197383
v -0.032219 0.008611 -0.012683 0.654902 0.501961 0.313725
vn -5.174038 1.388631 -3.147554
v -0.034902 0.004016 -0.011622 0.654902 0.501961 0.313725
vn -5.335438 2.357587 -2.156359
v -0.035976 0.006733 -0.007587 0.654902 0.501961 0.313725
vn -4.669626 3.602987 -1.966280
v -0.033384 0.010906 -0.007800 0.654902 0.501961 0.313725
vn -4.229443 3.851601 -2.418949
v -0.031189 0.012194 -0.010083 0.654902 0.501961 0.313725
vn -4.765467 1.498015 -3.685439
v -0.032890 0.004475 -0.014365 0.654902 0.501961 0.313725
vn -5.536848 1.239924 -2.540577
v -0.036493 0.003519 -0.008855 0.654902 0.501961 0.313725
vn -5.070295 3.301868 -1.450314
v -0.035178 0.009486 -0.005545 0.654902 0.501961 0.313725
vn -3.037223 3.118258 -4.420877
v -0.023849 0.010447 -0.019533 0.654902 0.501961 0.313725
vn -2.500773 3.162490 -4.714016
v -0.020517 0.010714 -0.021370 0.654902 0.501961 0.313725
vn -3.271059 1.685838 -4.986314
v -0.024666 0.005412 -0.021581 0.654902 0.501961 0.313725
vn -3.558584 3.040870 -4.073795
v -0.026947 0.010003 -0.017450 0.654902 0.501961 0.313725
vn -2.680894 4.327936 -3.540223
v -0.022595 0.014809 -0.016368 0.654902 0.501961 0.313725
vn -2.142141 4.389264 -3.818514
v -0.019230 0.015192 -0.018122 0.654902 0.501961 0.313725
vn -2.734964 1.709266 -5.290164
v -0.021356 0.005546 -0.023472 0.654902 0.501961 0.313725
vn -3.788919 1.644282 -4.622042
v -0.027729 0.005187 -0.019409 0.654902 0.501961 0.313725
vn -3.208721 4.220999 -3.217727
v -0.025748 0.014176 -0.014422 0.654902 0.501961 0.313725
vn -0.765465 3.111998 -5.312401
v -0.009682 0.010408 -0.025092 0.654902 0.501961 0.313725
vn -0.147474 3.031620 -5.412382
v -0.005997 0.009946 -0.025671 0.654902 0.501961 0.313725
vn -0.985367 1.679629 -5.883326
v -0.010500 0.005374 -0.027140 0.654902 0.501961 0.313725
vn -1.357955 3.159337 -5.162534
v -0.013374 0.010695 -0.024173 0.654902 0.501961 0.313725
vn -0.421925 4.321800 -4.426650
v -0.008429 0.014770 -0.021927 0.654902 0.501961 0.313725
vn 0.183875 4.211793 -4.549024
v -0.004797 0.014119 -0.022644 0.654902 0.501961 0.313725
vn -0.358147 1.635009 -5.968373
v -0.006778 0.005130 -0.027630 0.654902 0.501961 0.313725
vn -1.584828 1.706139 -5.741501
v -0.014213 0.005527 -0.026276 0.654902 0.501961 0.313725
vn -1.006056 4.386154 -4.264361
v -0.012087 0.015172 -0.020925 0.654902 0.501961 0.313725
vn 1.811195 2.569475 -5.365430
v 0.004365 0.007607 -0.025303 0.654902 0.501961 0.313725
vn 2.455978 2.336333 -5.213858
v 0.007315 0.006616 -0.024576 0.654902 0.501961 0.313725
vn 1.658996 1.370065 -5.828998
v 0.003771 0.003911 -0.026798 0.654902 0.501961 0.313725
vn 1.174019 2.757255 -5.443586
v 0.001104 0.008521 -0.025760 0.654902 0.501961 0.313725
vn 2.102917 3.584666 -4.623989
v 0.005289 0.010801 -0.022976 0.654902 0.501961 0.313725
vn 2.746184 3.280642 -4.517677
v 0.008132 0.009369 -0.022541 0.654902 0.501961 0.313725
vn 2.337036 1.218471 -5.630484
v 0.006817 0.003401 -0.025851 0.654902 0.501961 0.313725
vn 0.994156 1.482384 -5.945577
v 0.000432 0.004385 -0.027442 0.654902 0.501961 0.313725
vn 1.473476 3.836138 -4.656967
v 0.002133 0.012104 -0.023160 0.654902 0.501961 0.313725
vn 4.528873 1.293429 -4.126886
v 0.013177 0.003771 -0.021450 0.654902 0.501961 0.313725
vn 4.860820 1.538094 -3.574373
v 0.014033 0.004555 -0.020172 0.654902 0.501961 0.313725
vn 4.673320 0.600843 -4.070633
v 0.013495 0.002117 -0.021525 0.654902 0.501961 0.313725
vn 3.937329 1.635743 -4.513129
v 0.011925 0.004576 -0.022495 0.654902 0.501961 0.313725
vn 4.193982 2.330479 -3.966833
v 0.012558 0.006323 -0.021041 0.654902 0.501961 0.313725
vn 5.255058 0.671929 -3.297292
v 0.014979 0.002352 -0.019443 0.654902 0.501961 0.313725
vn 3.879848 0.753886 -4.809187
v 0.011687 0.002373 -0.023232 0.654902 0.501961 0.313725
vn 5.313097 2.579968 -2.082074
v 0.015690 0.007599 -0.015073 0.654902 0.501961 0.313725
vn 5.612528 2.142646 -1.636737
v 0.016524 0.006729 -0.013840 0.654902 0.501961 0.313725
vn 5.229348 2.143625 -2.613183
v 0.015462 0.006732 -0.016546 0.654902 0.501961 0.313725
vn 4.923185 3.256555 -1.928447
v 0.014963 0.009203 -0.014786 0.654902 0.501961 0.313725
vn 5.293157 3.077719 -1.126777
v 0.015871 0.008745 -0.012614 0.654902 0.501961 0.313725
vn 5.671715 1.351445 -2.224234
v 0.016565 0.004767 -0.015419 0.654902 0.501961 0.313725
vn 4.649035 3.079468 -2.768151
v 0.014151 0.008750 -0.016997 0.654902 0.501961 0.313725
vn 3.354361 5.073071 -1.310910
v 0.009376 0.015239 -0.012587 0.654902 0.501961 0.313725
vn 3.862519 4.635718 -1.510794
v 0.011681 0.013267 -0.013494 0.654902 0.501961 0.313725
vn 2.922293 4.901717 -2.468726
v 0.007877 0.014742 -0.016410 0.654902 0.501961 0.313725
vn 2.830578 5.425033 -1.105019
v 0.006708 0.017056 -0.011538 0.654902 0.501961 0.313725
vn 3.824934 4.899256 -0.168596
v 0.010877 0.014733 -0.008766 0.654902 0.501961 0.313725
vn 4.315456 4.456737 -0.453716
v 0.012989 0.012802 -0.010188 0.654902 0.501961 0.313725
vn 3.475455 4.459062 -2.594147
v 0.010391 0.012809 -0.016808 0.654902 0.501961 0.313725
vn 2.359866 5.253334 -2.331602
v 0.005026 0.016509 -0.015820 0.654902 0.501961 0.313725
vn 3.319602 5.250715 0.114069
v 0.008386 0.016500 -0.007256 0.654902 0.501961 0.313725
vn 1.128934 6.091004 -0.436530
v -0.002860 0.020799 -0.007779 0.654902 0.501961 0.313725
vn 1.688067 5.940961 -0.656115
v 0.000529 0.019886 -0.009111 0.654902 0.501961 0.313725
vn 0.593014 5.905018 -1.810151
v -0.004908 0.020133 -0.012992 0.654902 0.501961 0.313725
vn 0.576021 6.178411 -0.219466
v -0.006371 0.021361 -0.006401 0.654902 0.501961 0.313725
vn 1.670149 5.902080 0.934613
v -0.000817 0.020122 -0.002567 0.654902 0.501961 0.313725
vn 2.217348 5.755846 0.680778
v 0.002484 0.019238 -0.004125 0.654902 0.501961 0.313725
vn 1.166688 5.758692 -1.996505
v -0.001429 0.019249 -0.014097 0.654902 0.501961 0.313725
vn 0.030953 5.990296 -1.612053
v -0.008472 0.020678 -0.011752 0.654902 0.501961 0.313725
vn 1.123379 5.987325 1.171847
v -0.004273 0.020666 -0.001051 0.654902 0.501961 0.313725
vn -1.095831 6.097030 0.436537
v -0.017027 0.020838 -0.002220 0.654902 0.501961 0.313725
vn -0.542443 6.181457 0.219477
v -0.013513 0.021381 -0.003598 0.654902 0.501961 0.313725
vn -1.638087 5.911053 -0.934614
v -0.019074 0.020172 -0.007433 0.654902 0.501961 0.313725
vn -1.655812 5.950038 0.656102
v -0.020421 0.019943 -0.000889 0.654902 0.501961 0.313725
vn -0.560921 5.908143 1.810159
v -0.014983 0.020160 0.002992 0.654902 0.501961 0.313725
vn 0.001580 5.990392 1.612033
v -0.011416 0.020686 0.001752 0.654902 0.501961 0.313725
vn -1.090852 5.993331 -1.171846
v -0.015615 0.020697 -0.008949 0.654902 0.501961 0.313725
vn -2.186068 5.767804 -0.680808
v -0.022379 0.019306 -0.005875 0.654902 0.501961 0.313725
vn -1.135439 5.764968 1.996478
v -0.018466 0.019295 0.004097 0.654902 0.501961 0.313725
vn -3.326741 5.091221 1.310922
v -0.029292 0.015344 0.002587 0.654902 0.501961 0.313725
vn -2.801083 5.440329 1.104998
v -0.026615 0.017147 0.001538 0.654902 0.501961 0.313725
vn -3.798272 4.919943 0.168603
v -0.030796 0.014847 -0.001234 0.654902 0.501961 0.313725
vn -3.837296 4.656623 1.510763
v -0.031609 0.013384 0.003494 0.654902 0.501961 0.313725
vn -2.895633 4.917529 2.468720
v -0.027797 0.014839 0.006410 0.654902 0.501961 0.313725
vn -2.331338 5.266056 2.331589
v -0.024936 0.016591 0.005820 0.654902 0.501961 0.313725
vn -3.291038 5.268669 -0.114060
v -0.028296 0.016600 -0.002743 0.654902 0.501961 0.313725
vn -4.291196 4.480123 0.453678
v -0.032919 0.012927 0.000188 0.654902 0.501961 0.313725
vn -3.451180 4.477827 2.594171
v -0.030321 0.012920 0.006809 0.654902 0.501961 0.313725
vn -5.298972 2.608698 2.082175
v -0.035648 0.007738 0.005073 0.654902 0.501961 0.313725
vn -4.905383 3.283334 1.928473
v -0.034912 0.009338 0.004786 0.654902 0.501961 0.313725
vn -5.600836 2.173026 1.636772
v -0.036487 0.006873 0.003841 0.654902 0.501961 0.313725
vn -5.217596 2.171932 2.613291
v -0.035425 0.006870 0.006546 0.654902 0.501961 0.313725
vn -4.632203 3.104715 2.768202
v -0.034104 0.008881 0.006997 0.654902 0.501961 0.313725
vn -5.276366 3.106404 1.126784
v -0.035823 0.008885 0.002615 0.654902 0.501961 0.313725
vn -5.664291 1.382244 2.224276
v -0.036538 0.004911 0.005420 0.654902 0.501961 0.313725
vn -4.521700 1.318061 4.126991
v -0.033156 0.003897 0.011451 0.654902 0.501961 0.313725
vn -3.928385 1.657094 4.513142
v -0.031900 0.004695 0.012496 0.654902 0.501961 0.313725
vn -4.852377 1.564546 3.574351
v -0.034008 0.004686 0.010172 0.654902 0.501961 0.313725
vn -4.669938 0.626269 4.070648
v -0.033484 0.002244 0.011525 0.654902 0.501961 0.313725
vn -3.875692 0.774984 4.809196
v -0.031674 0.002490 0.013232 0.654902 0.501961 0.313725
vn -4.181224 2.353243 3.966790
v -0.032523 0.006445 0.011041 0.654902 0.501961 0.313725
vn -5.251355 0.700463 3.297232
v -0.034966 0.002487 0.009444 0.654902 0.501961 0.313725
vn -1.797326 2.579312 5.365422
v -0.024323 0.007685 0.015303 0.654902 0.501961 0.313725
vn -1.159113 2.763572 5.443575
v -0.021057 0.008581 0.015760 0.654902 0.501961 0.313725
vn -2.083501 3.595927 4.624007
v -0.025230 0.010883 0.012977 0.654902 0.501961 0.313725
vn -2.443207 2.349746 5.213873
v -0.027278 0.006710 0.014576 0.654902 0.501961 0.313725
vn -1.651555 1.379135 5.828957
v -0.023749 0.003985 0.016799 0.654902 0.501961 0.313725
vn -0.986086 1.487765 5.945581
v -0.020408 0.004442 0.017442 0.654902 0.501961 0.313725
vn -1.452616 3.844056 4.656967
v -0.022067 0.012169 0.013160 0.654902 0.501961 0.313725
vn -2.728375 3.295514 4.517674
v -0.028081 0.009467 0.012541 0.654902 0.501961 0.313725
vn -2.330386 1.231262 5.630441
v -0.026798 0.003492 0.015851 0.654902 0.501961 0.313725
vn 0.782322 3.107909 5.312383
v -0.010261 0.010410 0.015092 0.654902 0.501961 0.313725
vn 0.164073 3.030774 5.412362
v -0.013949 0.009968 0.015671 0.654902 0.501961 0.313725
vn 0.994399 1.674288 5.883309
v -0.009471 0.005371 0.017140 0.654902 0.501961 0.313725
vn 1.374959 3.151969 5.162514
v -0.006568 0.010676 0.014174 0.654902 0.501961 0.313725
vn 0.445537 4.319445 4.426672
v -0.011491 0.014778 0.011927 0.654902 0.501961 0.313725
vn -0.160900 4.212711 4.549019
v -0.015126 0.014147 0.012644 0.654902 0.501961 0.313725
vn 0.367065 1.632997 5.968366
v -0.013194 0.005148 0.017630 0.654902 0.501961 0.313725
vn 1.594082 1.697503 5.741496
v -0.005757 0.005504 0.016276 0.654902 0.501961 0.313725
vn 1.029711 4.380689 4.264367
v -0.007831 0.015161 0.010925 0.654902 0.501961 0.313725
vn 3.054123 3.101725 4.420872
v 0.003905 0.010371 0.009533 0.654902 0.501961 0.313725
vn 2.517912 3.148864 4.714002
v 0.000575 0.010657 0.011371 0.654902 0.501961 0.313725
vn 3.280169 1.668001 4.986321
v 0.004695 0.005333 0.011581 0.654902 0.501961 0.313725
vn 3.575044 3.021510 4.073781
v 0.007001 0.009911 0.007450 0.654902 0.501961 0.313725
vn 2.704365 4.313311 3.540221
v 0.002675 0.014740 0.006368 0.654902 0.501961 0.313725
vn 2.165940 4.377596 3.818481
v -0.000688 0.015141 0.008122 0.654902 0.501961 0.313725
vn 2.744216 1.694359 5.290160
v 0.001386 0.005484 0.013473 0.654902 0.501961 0.313725
vn 3.797797 1.623691 4.622035
v 0.007757 0.005091 0.009409 0.654902 0.501961 0.313725
vn 3.231660 4.203498 3.217680
v 0.005824 0.014090 0.004423 0.654902 0.501961 0.313725
vn 4.978778 2.560924 2.706354
v 0.014345 0.007580 0.000129 0.654902 0.501961 0.313725
vn 5.348131 2.328589 2.156392
v 0.016012 0.006592 -0.002413 0.654902 0.501961 0.313725
vn 4.689140 3.577579 1.966277
v 0.013443 0.010778 -0.002200 0.654902 0.501961 0.313725
vn 4.564984 2.748002 3.197338
v 0.012265 0.008490 0.002683 0.654902 0.501961 0.313725
vn 5.181517 1.360584 3.147555
v 0.014924 0.003880 0.001622 0.654902 0.501961 0.313725
vn 5.543479 1.209825 2.540585
v 0.016512 0.003375 -0.001145 0.654902 0.501961 0.313725
vn 5.088142 3.274321 1.450300
v 0.015229 0.009349 -0.004455 0.654902 0.501961 0.313725
vn 4.250270 3.828558 2.418972
v 0.011255 0.012079 0.000084 0.654902 0.501961 0.313725
vn 4.773568 1.472162 3.685353
v 0.012914 0.004351 0.004365 0.654902 0.501961 0.313725
vn 6.127841 1.289193 -0.052115
v 0.018182 0.003758 -0.008696 0.654902 0.501961 0.313725
vn 6.194947 0.596728 -0.193010
v 0.018465 0.002103 -0.008861 0.654902 0.501961 0.313725
vn 5.995572 1.535064 -0.682652
v 0.017941 0.004544 -0.010214 0.654902 0.501961 0.313725
vn 5.957154 1.630256 0.633815
v 0.017975 0.004559 -0.007077 0.654902 0.501961 0.313725
vn 6.115656 0.747921 0.888308
v 0.018301 0.002355 -0.006379 0.654902 0.501961 0.313725
vn 6.095526 0.669651 -1.155519
v 0.018137 0.002343 -0.011395 0.654902 0.501961 0.313725
vn 5.774190 2.326145 0.060090
v 0.017452 0.006309 -0.008570 0.654902 0.501961 0.313725
vn -5.313044 -2.579872 2.082202
v -0.035690 -0.007599 0.005073 0.654902 0.501961 0.313725
vn -4.923133 -3.256690 1.928476
v -0.034963 -0.009203 0.004786 0.654902 0.501961 0.313725
vn -5.229327 -2.143604 2.613286
v -0.035462 -0.006732 0.006546 0.654902 0.501961 0.313725
vn -5.612558 -2.142545 1.636754
v -0.036524 -0.006729 0.003841 0.654902 0.501961 0.313725
vn -5.293164 -3.077708 1.126793
v -0.035871 -0.008745 0.002615 0.654902 0.501961 0.313725
vn -4.649015 -3.079514 2.768169
v -0.034151 -0.008750 0.006997 0.654902 0.501961 0.313725
vn -5.671708 -1.351457 2.224285
v -0.036565 -0.004767 0.005420 0.654902 0.501961 0.313725
vn 2.822303 -0.007670 5.496626
v 0.001670 -0.000032 0.014237 0.654902 0.501961 0.313725
vn 3.358223 -0.009126 5.188815
v 0.004973 -0.000041 0.012325 0.654902 0.501961 0.313725
vn 3.874607 -0.010577 4.818160
v 0.008022 -0.000049 0.010121 0.654902 0.501961 0.313725
vn 4.721879 -4.007315 0.532837
v 0.014145 -0.011607 -0.007103 0.654902 0.501961 0.313725
vn 4.269407 -4.403466 0.957169
v 0.012197 -0.013362 -0.005214 0.654902 0.501961 0.313725
vn 3.790844 -4.719067 1.340361
v 0.009861 -0.014949 -0.003281 0.654902 0.501961 0.313725
vn 4.295087 -1.581462 4.182459
v 0.010488 -0.004874 0.006992 0.654902 0.501961 0.313725
vn 4.072053 -2.924207 3.658859
v 0.009755 -0.009389 0.005155 0.654902 0.501961 0.313725
vn 3.733759 -4.059815 2.838671
v 0.008631 -0.013301 0.002317 0.654902 0.501961 0.313725
vn 2.728659 -5.171125 2.032737
v 0.004202 -0.017383 0.000505 0.654902 0.501961 0.313725
vn 2.191736 -5.300967 2.322606
v 0.000979 -0.018162 0.002273 0.654902 0.501961 0.313725
vn 1.649456 -5.375494 2.581212
v -0.002430 -0.018634 0.003918 0.654902 0.501961 0.313725
vn 2.170227 -1.715798 5.542180
v -0.002147 -0.005585 0.015050 0.654902 0.501961 0.313725
vn 1.938442 -3.175820 4.961576
v -0.002994 -0.010799 0.012929 0.654902 0.501961 0.313725
vn 1.581386 -4.408174 4.060295
v -0.004292 -0.015316 0.009652 0.654902 0.501961 0.313725
vn 0.521026 -5.372418 3.024041
v -0.009572 -0.018615 0.006721 0.654902 0.501961 0.313725
vn -0.052109 -5.294859 3.203124
v -0.013188 -0.018124 0.007832 0.654902 0.501961 0.313725
vn -0.642259 -5.161967 3.355560
v -0.016749 -0.017326 0.008727 0.654902 0.501961 0.313725
vn -1.889650 -4.703612 3.569549
v -0.023461 -0.014858 0.009796 0.654902 0.501961 0.313725
vn -2.499743 -4.385077 3.613464
v -0.026481 -0.013257 0.009964 0.654902 0.501961 0.313725
vn -3.118018 -3.986052 3.609475
v -0.029185 -0.011490 0.009901 0.654902 0.501961 0.313725
vn -4.033473 -3.889506 2.706152
v -0.032504 -0.010787 0.007007 0.654902 0.501961 0.313725
vn -4.369415 -4.076808 1.710348
v -0.033564 -0.011226 0.004235 0.654902 0.501961 0.313725
vn -4.800277 -3.887401 0.752067
v -0.034672 -0.010781 0.001483 0.654902 0.501961 0.313725
vn -1.764681 -5.539456 2.172842
v -0.021902 -0.018037 0.005046 0.654902 0.501961 0.313725
vn -2.265153 -5.716011 0.882799
v -0.023738 -0.018634 0.000371 0.654902 0.501961 0.313725
vn -2.775509 -5.536715 -0.402926
v -0.025571 -0.018027 -0.004303 0.654902 0.501961 0.313725
vn -4.743609 -3.981598 -0.532800
v -0.034207 -0.011476 -0.002897 0.654902 0.501961 0.313725
vn -4.293279 -4.380183 -0.957129
v -0.032269 -0.013242 -0.004785 0.654902 0.501961 0.313725
vn -3.816420 -4.698396 -1.340376
v -0.029942 -0.014841 -0.006719 0.654902 0.501961 0.313725
vn 0.532372 -6.019040 1.398305
v -0.007938 -0.020870 0.000398 0.654902 0.501961 0.313725
vn -0.016849 -6.207888 -0.000008
v -0.010059 -0.021559 -0.005000 0.654902 0.501961 0.313725
vn -0.565039 -6.016071 -1.398287
v -0.012175 -0.020858 -0.010398 0.654902 0.501961 0.313725
vn -2.756723 -5.156240 -2.032753
v -0.024296 -0.017306 -0.010505 0.654902 0.501961 0.313725
vn -2.220562 -5.288992 -2.322499
v -0.021077 -0.018102 -0.012273 0.654902 0.501961 0.313725
vn -1.678586 -5.366454 -2.581200
v -0.017671 -0.018593 -0.013918 0.654902 0.501961 0.313725
vn 2.745411 -5.551707 0.402949
v 0.005473 -0.018111 -0.005697 0.654902 0.501961 0.313725
vn 2.234072 -5.728222 -0.882810
v 0.003637 -0.018708 -0.010371 0.654902 0.501961 0.313725
vn 1.734636 -5.548964 -2.172813
v 0.001804 -0.018101 -0.015046 0.654902 0.501961 0.313725
vn -0.550167 -5.369506 -3.024034
v -0.010529 -0.018612 -0.016721 0.654902 0.501961 0.313725
vn 0.023353 -5.295064 -3.203128
v -0.006911 -0.018141 -0.017832 0.654902 0.501961 0.313725
vn 0.614137 -5.165389 -3.355572
v -0.003345 -0.017363 -0.018726 0.654902 0.501961 0.313725
vn 4.779090 -3.913446 -0.752106
v 0.014613 -0.010915 -0.011483 0.654902 0.501961 0.313725
vn 4.347226 -4.100442 -1.710322
v 0.013503 -0.011354 -0.014235 0.654902 0.501961 0.313725
vn 4.012329 -3.911339 -2.706136
v 0.012445 -0.010909 -0.017007 0.654902 0.501961 0.313725
vn 1.864128 -4.713817 -3.569537
v 0.003380 -0.014931 -0.019796 0.654902 0.501961 0.313725
vn 2.475802 -4.398595 -3.613467
v 0.006409 -0.013347 -0.019964 0.654902 0.501961 0.313725
vn 3.096410 -4.002916 -3.609403
v 0.009123 -0.011594 -0.019901 0.654902 0.501961 0.313725
vn 3.424346 -2.904865 -4.310261
v 0.010539 -0.007971 -0.021885 0.654902 0.501961 0.313725
vn 3.132245 -2.061027 -4.956627
v 0.009834 -0.005699 -0.023624 0.654902 0.501961 0.313725
vn 3.045514 -1.032762 -5.324495
v 0.009468 -0.002986 -0.024647 0.654902 0.501961 0.313725
vn 2.316377 -0.006289 -5.762845
v 0.006643 -0.000045 -0.026299 0.654902 0.501961 0.313725
vn 1.612803 -0.004383 -5.988900
v 0.003551 -0.000037 -0.027338 0.654902 0.501961 0.313725
vn 0.929583 -0.002530 -6.123741
v 0.000180 -0.000028 -0.028053 0.654902 0.501961 0.313725
vn 0.803658 -4.051908 -4.627954
v -0.001327 -0.013274 -0.023060 0.654902 0.501961 0.313725
vn 0.494687 -2.914555 -5.457140
v -0.002431 -0.009356 -0.025898 0.654902 0.501961 0.313725
vn 0.303089 -1.570624 -5.990258
v -0.003139 -0.004837 -0.027735 0.654902 0.501961 0.313725
vn -0.436322 0.001184 -6.167362
v -0.007072 -0.000008 -0.028342 0.654902 0.501961 0.313725
vn -1.067116 0.002901 -6.087892
v -0.010806 0.000002 -0.027884 0.654902 0.501961 0.313725
vn -1.669359 0.004536 -5.949097
v -0.014528 0.000012 -0.027040 0.654902 0.501961 0.313725
vn -1.605245 -4.399512 -4.060329
v -0.015791 -0.015285 -0.019651 0.654902 0.501961 0.313725
vn -1.955647 -3.165234 -4.961599
v -0.017065 -0.010761 -0.022929 0.654902 0.501961 0.313725
vn -2.179513 -1.703983 -5.542184
v -0.017883 -0.005542 -0.025049 0.654902 0.501961 0.313725
vn -2.822234 0.007671 -5.496675
v -0.021670 0.000032 -0.024237 0.654902 0.501961 0.313725
vn -3.358227 0.009112 -5.188766
v -0.024973 0.000041 -0.022325 0.654902 0.501961 0.313725
vn -3.874634 0.010516 -4.818156
v -0.028022 0.000049 -0.020121 0.654902 0.501961 0.313725
vn -3.755710 -4.039484 -2.838744
v -0.028703 -0.013200 -0.012317 0.654902 0.501961 0.313725
vn -4.087889 -2.902047 -3.658843
v -0.029806 -0.009282 -0.015155 0.654902 0.501961 0.313725
vn -4.303688 -1.558132 -4.182392
v -0.030515 -0.004763 -0.016992 0.654902 0.501961 0.313725
vn -4.846319 0.013155 -3.857125
v -0.033142 0.000063 -0.014977 0.654902 0.501961 0.313725
vn -5.255433 0.014219 -3.293643
v -0.035127 0.000068 -0.012160 0.654902 0.501961 0.313725
vn -5.617511 0.015230 -2.649481
v -0.036687 0.000072 -0.009295 0.654902 0.501961 0.313725
vn -5.455474 -2.880845 -0.825553
v -0.036578 -0.007843 -0.003395 0.654902 0.501961 0.313725
vn -5.676963 -2.037158 -1.499526
v -0.037233 -0.005571 -0.005154 0.654902 0.501961 0.313725
vn -5.858760 -1.008607 -1.830198
v -0.037648 -0.002858 -0.006157 0.654902 0.501961 0.313725
vn -5.853178 1.040414 -1.830208
v -0.037632 0.003008 -0.006157 0.654902 0.501961 0.313725
vn -5.665841 2.067965 -1.499536
v -0.037202 0.005719 -0.005154 0.654902 0.501961 0.313725
vn -5.439733 2.910396 -0.825650
v -0.036535 0.007987 -0.003395 0.654902 0.501961 0.313725
vn -4.295156 1.581481 -4.182397
v -0.030488 0.004874 -0.016992 0.654902 0.501961 0.313725
vn -4.072014 2.924211 -3.658911
v -0.029755 0.009389 -0.015155 0.654902 0.501961 0.313725
vn -3.733717 4.059838 -2.838711
v -0.028631 0.013301 -0.012317 0.654902 0.501961 0.313725
vn -4.721885 4.007347 -0.532812
v -0.034145 0.011607 -0.002897 0.654902 0.501961 0.313725
vn -4.269434 4.403461 -0.957100
v -0.032197 0.013362 -0.004785 0.654902 0.501961 0.313725
vn -3.790857 4.719047 -1.340370
v -0.029861 0.014949 -0.006719 0.654902 0.501961 0.313725
vn -2.170227 1.715798 -5.542180
v -0.017853 0.005585 -0.025049 0.654902 0.501961 0.313725
vn -1.938442 3.175820 -4.961576
v -0.017006 0.010799 -0.022929 0.654902 0.501961 0.313725
vn -1.581468 4.408155 -4.060303
v -0.015708 0.015316 -0.019651 0.654902 0.501961 0.313725
vn -2.728667 5.171145 -2.032739
v -0.024202 0.017383 -0.010505 0.654902 0.501961 0.313725
vn -2.191774 5.300955 -2.322572
v -0.020979 0.018162 -0.012273 0.654902 0.501961 0.313725
vn -1.649462 5.375495 -2.581201
v -0.017570 0.018634 -0.013918 0.654902 0.501961 0.313725
vn 0.311604 1.568955 -5.990259
v -0.003113 0.004800 -0.027735 0.654902 0.501961 0.313725
vn 0.510494 2.911828 -5.457144
v -0.002380 0.009315 -0.025898 0.654902 0.501961 0.313725
vn 0.825658 4.047491 -4.627934
v -0.001256 0.013227 -0.023060 0.654902 0.501961 0.313725
vn -0.520992 5.372433 -3.024005
v -0.010427 0.018615 -0.016721 0.654902 0.501961 0.313725
vn 0.052184 5.294889 -3.203098
v -0.006812 0.018124 -0.017832 0.654902 0.501961 0.313725
vn 0.642177 5.161977 -3.355583
v -0.003251 0.017326 -0.018726 0.654902 0.501961 0.313725
vn 3.051090 1.016154 -5.324514
v 0.009484 0.002880 -0.024647 0.654902 0.501961 0.313725
vn 3.143493 2.043971 -4.956587
v 0.009864 0.005591 -0.023624 0.654902 0.501961 0.313725
vn 3.440084 2.886239 -4.310233
v 0.010582 0.007859 -0.021885 0.654902 0.501961 0.313725
vn 1.889691 4.703618 -3.569545
v 0.003461 0.014858 -0.019796 0.654902 0.501961 0.313725
vn 2.499665 4.385095 -3.613464
v 0.006481 0.013257 -0.019964 0.654902 0.501961 0.313725
vn 3.118088 3.986056 -3.609395
v 0.009185 0.011490 -0.019901 0.654902 0.501961 0.313725
vn 4.465220 2.719600 -3.391669
v 0.013372 0.007689 -0.019123 0.654902 0.501961 0.313725
vn 5.116928 1.793583 -3.093514
v 0.014858 0.005591 -0.018369 0.654902 0.501961 0.313725
vn 5.534988 0.931141 -2.742045
v 0.016036 0.003196 -0.017303 0.654902 0.501961 0.313725
vn 4.033377 3.889533 -2.706200
v 0.012504 0.010787 -0.017007 0.654902 0.501961 0.313725
vn 4.369429 4.076858 -1.710227
v 0.013564 0.011226 -0.014235 0.654902 0.501961 0.313725
vn 4.800285 3.887427 -0.752081
v 0.014672 0.010781 -0.011483 0.654902 0.501961 0.313725
vn 4.743598 3.981619 0.532789
v 0.014207 0.011476 -0.007103 0.654902 0.501961 0.313725
vn 4.293275 4.380199 0.957113
v 0.012269 0.013242 -0.005215 0.654902 0.501961 0.313725
vn 3.816424 4.698405 1.340366
v 0.009942 0.014841 -0.003281 0.654902 0.501961 0.313725
vn 1.764757 5.539455 -2.172816
v 0.001902 0.018037 -0.015046 0.654902 0.501961 0.313725
vn 2.265167 5.716007 -0.882797
v 0.003738 0.018634 -0.010371 0.654902 0.501961 0.313725
vn 2.775507 5.536710 0.402952
v 0.005571 0.018027 -0.005697 0.654902 0.501961 0.313725
vn 2.756751 5.156225 2.032730
v 0.004296 0.017306 0.000505 0.654902 0.501961 0.313725
vn 2.220519 5.288966 2.322567
v 0.001077 0.018102 0.002273 0.654902 0.501961 0.313725
vn 1.678565 5.366457 2.581236
v -0.002329 0.018593 0.003918 0.654902 0.501961 0.313725
vn -0.532367 6.019046 -1.398295
v -0.012062 0.020870 -0.010398 0.654902 0.501961 0.313725
vn 0.016846 6.207887 0.000012
v -0.009941 0.021559 -0.005000 0.654902 0.501961 0.313725
vn 0.565026 6.016056 1.398322
v -0.007825 0.020858 0.000398 0.654902 0.501961 0.313725
vn 0.550213 5.369513 3.024026
v -0.009471 0.018612 0.006721 0.654902 0.501961 0.313725
vn -0.023311 5.295068 3.203109
v -0.013089 0.018141 0.007832 0.654902 0.501961 0.313725
vn -0.614219 5.165380 3.355548
v -0.016655 0.017363 0.008727 0.654902 0.501961 0.313725
vn -2.745383 5.551703 -0.402979
v -0.025473 0.018111 -0.004303 0.654902 0.501961 0.313725
vn -2.234084 5.728228 0.882793
v -0.023637 0.018708 0.000371 0.654902 0.501961 0.313725
vn -1.734572 5.548964 2.172823
v -0.021804 0.018101 0.005046 0.654902 0.501961 0.313725
vn -1.864083 4.713807 3.569546
v -0.023380 0.014931 0.009796 0.654902 0.501961 0.313725
vn -2.475899 4.398582 3.613440
v -0.026409 0.013347 0.009964 0.654902 0.501961 0.313725
vn -3.096355 4.002912 3.609460
v -0.029123 0.011594 0.009901 0.654902 0.501961 0.313725
vn -4.779081 3.913462 0.752087
v -0.034613 0.010915 0.001483 0.654902 0.501961 0.313725
vn -4.347199 4.100484 1.710313
v -0.033503 0.011354 0.004235 0.654902 0.501961 0.313725
vn -4.012303 3.911331 2.706179
v -0.032445 0.010909 0.007007 0.654902 0.501961 0.313725
vn -3.424276 2.904965 4.310276
v -0.030539 0.007971 0.011885 0.654902 0.501961 0.313725
vn -3.132248 2.061116 4.956569
v -0.029834 0.005699 0.013624 0.654902 0.501961 0.313725
vn -3.045507 1.032763 5.324498
v -0.029468 0.002986 0.014647 0.654902 0.501961 0.313725
vn -0.803699 4.051930 4.627917
v -0.018673 0.013274 0.013060 0.654902 0.501961 0.313725
vn -0.494694 2.914554 5.457139
v -0.017569 0.009356 0.015898 0.654902 0.501961 0.313725
vn -0.303082 1.570623 5.990260
v -0.016861 0.004837 0.017735 0.654902 0.501961 0.313725
vn -2.316378 0.006293 5.762844
v -0.026643 0.000045 0.016299 0.654902 0.501961 0.313725
vn -1.612766 0.004341 5.988902
v -0.023551 0.000037 0.017338 0.654902 0.501961 0.313725
vn -0.929618 0.002447 6.123722
v -0.020180 0.000028 0.018054 0.654902 0.501961 0.313725
vn 5.455463 2.880837 0.825549
v 0.016578 0.007843 -0.006605 0.654902 0.501961 0.313725
vn 5.676975 2.037093 1.499534
v 0.017233 0.005571 -0.004846 0.654902 0.501961 0.313725
vn 5.858776 1.008581 1.830208
v 0.017648 0.002858 -0.003843 0.654902 0.501961 0.313725
vn 6.117783 -0.016595 -1.263471
v 0.018159 -0.000076 -0.011871 0.654902 0.501961 0.313725
vn 6.237401 -0.016945 -0.267666
v 0.018535 -0.000077 -0.008958 0.654902 0.501961 0.313725
vn 6.168498 -0.016781 0.885632
v 0.018410 -0.000077 -0.006230 0.654902 0.501961 0.313725
vn 4.846319 -0.013155 3.857125
v 0.013142 -0.000063 0.004977 0.654902 0.501961 0.313725
vn 5.255436 -0.014250 3.293631
v 0.015127 -0.000068 0.002160 0.654902 0.501961 0.313725
vn 5.617521 -0.015244 2.649440
v 0.016687 -0.000072 -0.000705 0.654902 0.501961 0.313725
vn 4.303688 1.558132 4.182392
v 0.010515 0.004763 0.006992 0.654902 0.501961 0.313725
vn 4.087889 2.902074 3.658812
v 0.009806 0.009282 0.005155 0.654902 0.501961 0.313725
vn 3.755752 4.039522 2.838683
v 0.008703 0.013200 0.002317 0.654902 0.501961 0.313725
vn 1.669359 -0.004536 5.949097
v -0.005472 -0.000012 0.017040 0.654902 0.501961 0.313725
vn 1.066971 -0.002901 6.087897
v -0.009194 -0.000002 0.017885 0.654902 0.501961 0.313725
vn 0.436384 -0.001184 6.167425
v -0.012928 0.000008 0.018342 0.654902 0.501961 0.313725
vn 2.179513 1.703983 5.542184
v -0.002117 0.005542 0.015050 0.654902 0.501961 0.313725
vn 1.955647 3.165234 4.961599
v -0.002935 0.010761 0.012929 0.654902 0.501961 0.313725
vn 1.605261 4.399546 4.060263
v -0.004209 0.015285 0.009652 0.654902 0.501961 0.313725
vn 5.923313 0.930121 -1.752481
v 0.017457 0.003192 -0.013682 0.654902 0.501961 0.313725
vn 5.856451 1.791701 -1.208924
v 0.017320 0.005584 -0.012095 0.654902 0.501961 0.313725
vn 5.582151 2.716637 -0.545519
v 0.016745 0.007680 -0.010527 0.654902 0.501961 0.313725
vn 3.919780 -0.010653 -4.844598
v 0.011664 -0.000059 -0.023421 0.654902 0.501961 0.313725
vn 4.754728 -0.012871 -4.045886
v 0.013611 -0.000064 -0.021505 0.654902 0.501961 0.313725
vn 5.344332 -0.014500 -3.234491
v 0.015316 -0.000069 -0.019114 0.654902 0.501961 0.313725
vn 4.450520 -2.743846 -3.391550
v 0.013330 -0.007816 -0.019123 0.654902 0.501961 0.313725
vn 5.107065 -1.821452 -3.093525
v 0.014827 -0.005726 -0.018369 0.654902 0.501961 0.313725
vn 5.529853 -0.961218 -2.742032
v 0.016018 -0.003337 -0.017303 0.654902 0.501961 0.313725
vn -3.440005 -2.886316 4.310273
v -0.030582 -0.007859 0.011885 0.654902 0.501961 0.313725
vn -3.143396 -2.044049 4.956572
v -0.029864 -0.005591 0.013624 0.654902 0.501961 0.313725
vn -3.051065 -1.016211 5.324508
v -0.029484 -0.002880 0.014647 0.654902 0.501961 0.313725
vn -0.825690 -4.047515 4.627897
v -0.018744 -0.013227 0.013060 0.654902 0.501961 0.313725
vn -0.510519 -2.911793 5.457155
v -0.017620 -0.009315 0.015898 0.654902 0.501961 0.313725
vn -0.311728 -1.568969 5.990234
v -0.016887 -0.004800 0.017735 0.654902 0.501961 0.313725
vn 5.439743 -2.910425 0.825594
v 0.016535 -0.007987 -0.006605 0.654902 0.501961 0.313725
vn 5.665815 -2.067910 1.499539
v 0.017203 -0.005719 -0.004846 0.654902 0.501961 0.313725
vn 5.853211 -1.040363 1.830196
v 0.017632 -0.003008 -0.003843 0.654902 0.501961 0.313725
vn 5.567332 -2.746895 -0.545574
v 0.016703 -0.007825 -0.010527 0.654902 0.501961 0.313725
vn 5.846611 -1.823506 -1.208920
v 0.017289 -0.005732 -0.012095 0.654902 0.501961 0.313725
vn 5.918173 -0.962248 -1.752534
v 0.017439 -0.003341 -0.013682 0.654902 0.501961 0.313725
vn -5.567330 2.746900 0.545574
v -0.036703 0.007825 0.000528 0.654902 0.501961 0.313725
vn -5.846608 1.823481 1.208955
v -0.037289 0.005732 0.002095 0.654902 0.501961 0.313725
vn -5.918168 0.962300 1.752502
v -0.037439 0.003341 0.003682 0.654902 0.501961 0.313725
vn -4.450486 2.743880 3.391556
v -0.033330 0.007816 0.009123 0.654902 0.501961 0.313725
vn -5.107079 1.821440 3.093503
v -0.034827 0.005726 0.008369 0.654902 0.501961 0.313725
vn -5.529856 0.961264 2.742014
v -0.036018 0.003337 0.007303 0.654902 0.501961 0.313725
vn -6.168516 0.016781 -0.885567
v -0.038410 0.000077 -0.003770 0.654902 0.501961 0.313725
vn -6.237397 0.016965 0.267685
v -0.038535 0.000077 -0.001042 0.654902 0.501961 0.313725
vn -6.117788 0.016642 1.263433
v -0.038159 0.000076 0.001871 0.654902 0.501961 0.313725
vn -5.582151 -2.716637 0.545519
v -0.036745 -0.007680 0.000528 0.654902 0.501961 0.313725
vn -5.856445 -1.791695 1.208948
v -0.037320 -0.005584 0.002095 0.654902 0.501961 0.313725
vn -5.923290 -0.930174 1.752515
v -0.037457 -0.003192 0.003682 0.654902 0.501961 0.313725
vn -4.465320 -2.719639 3.391572
v -0.033372 -0.007689 0.009123 0.654902 0.501961 0.313725
vn -5.116894 -1.793674 3.093476
v -0.034858 -0.005591 0.008369 0.654902 0.501961 0.313725
vn -5.535009 -0.931180 2.742028
v -0.036036 -0.003196 0.007303 0.654902 0.501961 0.313725
vn -3.919780 0.010653 4.844598
v -0.031664 0.000059 0.013421 0.654902 0.501961 0.313725
vn -4.754728 0.012871 4.045886
v -0.033611 0.000064 0.011506 0.654902 0.501961 0.313725
vn -5.344325 0.014482 3.234503
v -0.035316 0.000069 0.009114 0.654902 0.501961 0.313725
vn 2.256534 -0.006128 5.750277
v -0.001830 -0.000022 0.015821 0.654902 0.501961 0.313725
vn 4.377806 -0.011911 4.369406
v 0.010764 -0.000056 0.007660 0.654902 0.501961 0.313725
vn 5.157170 -3.486228 0.049551
v 0.015661 -0.009742 -0.008892 0.654902 0.501961 0.313725
vn 3.269395 -4.975486 1.701733
v 0.007182 -0.016309 -0.001356 0.654902 0.501961 0.313725
vn 1.090244 -5.398617 2.815516
v -0.005966 -0.018789 0.005410 0.654902 0.501961 0.313725
vn -1.262724 -4.963183 3.480327
v -0.020194 -0.016234 0.009387 0.654902 0.501961 0.313725
vn -3.763336 -3.461976 3.550278
v -0.031505 -0.009614 0.009617 0.654902 0.501961 0.313725
vn -5.176043 -3.458156 -0.049604
v -0.035714 -0.009603 -0.001107 0.654902 0.501961 0.313725
vn -3.296301 -4.957659 -1.701821
v -0.027270 -0.016215 -0.008644 0.654902 0.501961 0.313725
vn -1.119494 -5.392612 -2.815552
v -0.014136 -0.018766 -0.015410 0.654902 0.501961 0.313725
vn 1.235734 -4.969907 -3.480346
v 0.000106 -0.016289 -0.019387 0.654902 0.501961 0.313725
vn 3.744579 -3.482353 -3.550203
v 0.011453 -0.009731 -0.019617 0.654902 0.501961 0.313725
vn 3.060342 -0.008311 -5.417461
v 0.009375 -0.000053 -0.024979 0.654902 0.501961 0.313725
vn 0.237758 -0.000646 -6.180681
v -0.003388 -0.000018 -0.028402 0.654902 0.501961 0.313725
vn -2.256534 0.006127 -5.750277
v -0.018170 0.000022 -0.025820 0.654902 0.501961 0.313725
vn -4.377826 0.011884 -4.369393
v -0.030764 0.000056 -0.017659 0.654902 0.501961 0.313725
vn -5.928005 0.016094 -1.890194
v -0.037792 0.000075 -0.006470 0.654902 0.501961 0.313725
vn -5.157151 3.486251 -0.049573
v -0.035661 0.009742 -0.001107 0.654902 0.501961 0.313725
vn -3.269334 4.975486 -1.701817
v -0.027182 0.016309 -0.008644 0.654902 0.501961 0.313725
vn -1.090283 5.398608 -2.815518
v -0.014034 0.018789 -0.015410 0.654902 0.501961 0.313725
vn 1.262706 4.963124 -3.480355
v 0.000194 0.016234 -0.019387 0.654902 0.501961 0.313725
vn 3.763356 3.462004 -3.550277
v 0.011505 0.009614 -0.019617 0.654902 0.501961 0.313725
vn 5.753308 -0.015638 -2.257748
v 0.017154 -0.000074 -0.015656 0.654902 0.501961 0.313725
vn 5.176032 3.458173 0.049567
v 0.015714 0.009603 -0.008892 0.654902 0.501961 0.313725
vn 3.296325 4.957649 1.701810
v 0.007270 0.016215 -0.001356 0.654902 0.501961 0.313725
vn 1.119517 5.392629 2.815538
v -0.005864 0.018766 0.005410 0.654902 0.501961 0.313725
vn -1.235752 4.969964 3.480320
v -0.020106 0.016289 0.009387 0.654902 0.501961 0.313725
vn -3.744495 3.482369 3.550276
v -0.031453 0.009731 0.009617 0.654902 0.501961 0.313725
vn -3.060341 0.008312 5.417462
v -0.029375 0.000053 0.014979 0.654902 0.501961 0.313725
vn -0.237662 0.000649 6.180675
v -0.016612 0.000018 0.018403 0.654902 0.501961 0.313725
vn 5.928019 -0.016098 1.890203
v 0.017792 -0.000075 -0.003530 0.654902 0.501961 0.313725
vn -5.753271 0.015615 2.257776
v -0.037154 0.000074 0.005656 0.654902 0.501961 0.313725
# 530 vertices, 0 vertices normals

f 1//1 4//4 5//5
f 2//2 5//5 478//478
f 4//4 476//476 475//475
f 5//5 475//475 501//501
f 2//2 6//6 3//3
f 6//6 445//445 446//446
f 479//479 480//480 6//6
f 480//480 521//521 445//445
f 1//1 3//3 7//7
f 4//4 7//7 477//477
f 3//3 446//446 447//447
f 7//7 447//447 529//529
f 12//12 13//13 9//9
f 13//13 475//475 476//476
f 305//305 304//304 13//13
f 304//304 501//501 475//475
f 8//8 9//9 14//14
f 10//10 14//14 450//450
f 9//9 476//476 477//477
f 14//14 477//477 529//529
f 10//10 15//15 11//11
f 15//15 307//307 308//308
f 449//449 448//448 15//15
f 448//448 500//500 307//307
f 8//8 11//11 16//16
f 12//12 16//16 306//306
f 11//11 308//308 309//309
f 16//16 309//309 502//502
f 21//21 22//22 18//18
f 22//22 309//309 308//308
f 311//311 310//310 22//22
f 310//310 502//502 309//309
f 17//17 18//18 23//23
f 19//19 23//23 303//303
f 18//18 308//308 307//307
f 23//23 307//307 500//500
f 19//19 24//24 20//20
f 24//24 313//313 314//314
f 302//302 301//301 24//24
f 301//301 499//499 313//313
f 17//17 20//20 25//25
f 21//21 25//25 312//312
f 20//20 314//314 315//315
f 25//25 315//315 503//503
f 26//26 30//30 31//31
f 27//27 31//31 315//315
f 30//30 317//317 316//316
f 31//31 316//316 503//503
f 27//27 32//32 28//28
f 32//32 454//454 455//455
f 314//314 313//313 32//32
f 313//313 499//499 454//454
f 26//26 28//28 33//33
f 29//29 33//33 474//474
f 28//28 455//455 456//456
f 33//33 456//456 528//528
f 29//29 34//34 30//30
f 34//34 318//318 317//317
f 473//473 472//472 34//34
f 472//472 504//504 318//318
f 35//35 39//39 40//40
f 36//36 40//40 472//472
f 39//39 320//320 319//319
f 40//40 319//319 504//504
f 36//36 41//41 37//37
f 41//41 441//441 440//440
f 473//473 474//474 41//41
f 474//474 528//528 441//441
f 35//35 37//37 42//42
f 38//38 42//42 471//471
f 37//37 440//440 439//439
f 42//42 439//439 527//527
f 38//38 43//43 39//39
f 43//43 321//321 320//320
f 470//470 469//469 43//43
f 469//469 505//505 321//321
f 44//44 47//47 48//48
f 45//45 48//48 469//469
f 47//47 494//494 493//493
f 48//48 493//493 505//505
f 44//44 45//45 49//49
f 46//46 49//49 496//496
f 45//45 470//470 471//471
f 49//49 471//471 527//527
f 46//46 50//50 47//47
f 50//50 495//495 494//494
f 497//497 498//498 50//50
f 498//498 530//530 495//495
f 55//55 56//56 52//52
f 56//56 327//327 326//326
f 329//329 330//330 56//56
f 330//330 507//507 327//327
f 52//52 57//57 53//53
f 57//57 319//319 320//320
f 326//326 325//325 57//57
f 325//325 504//504 319//319
f 51//51 53//53 58//58
f 54//54 58//58 322//322
f 53//53 320//320 321//321
f 58//58 321//321 505//505
f 51//51 54//54 59//59
f 55//55 59//59 328//328
f 54//54 323//323 324//324
f 59//59 324//324 506//506
f 64//64 65//65 61//61
f 65//65 333//333 332//332
f 335//335 336//336 65//65
f 336//336 508//508 333//333
f 61//61 66//66 62//62
f 66//66 316//316 317//317
f 332//332 331//331 66//66
f 331//331 503//503 316//316
f 60//60 62//62 67//67
f 63//63 67//67 325//325
f 62//62 317//317 318//318
f 67//67 318//318 504//504
f 60//60 63//63 68//68
f 64//64 68//68 334//334
f 63//63 326//326 327//327
f 68//68 327//327 507//507
f 69//69 73//73 74//74
f 70//70 74//74 339//339
f 73//73 341//341 342//342
f 74//74 342//342 509//509
f 69//69 70//70 75//75
f 71//71 75//75 310//310
f 70//70 338//338 337//337
f 75//75 337//337 502//502
f 71//71 76//76 72//72
f 76//76 331//331 332//332
f 311//311 312//312 76//76
f 312//312 503//503 331//331
f 72//72 77//77 73//73
f 77//77 340//340 341//341
f 332//332 333//333 77//77
f 333//333 508//508 340//340
f 78//78 82//82 83//83
f 79//79 83//83 345//345
f 82//82 347//347 348//348
f 83//83 348//348 510//510
f 78//78 79//79 84//84
f 80//80 84//84 304//304
f 79//79 344//344 343//343
f 84//84 343//343 501//501
f 80//80 85//85 81//81
f 85//85 337//337 338//338
f 305//305 306//306 85//85
f 306//306 502//502 337//337
f 81//81 86//86 82//82
f 86//86 346//346 347//347
f 338//338 339//339 86//86
f 339//339 509//509 346//346
f 87//87 90//90 91//91
f 88//88 91//91 466//466
f 90//90 344//344 345//345
f 91//91 345//345 510//510
f 88//88 92//92 89//89
f 92//92 480//480 479//479
f 467//467 468//468 92//92
f 468//468 521//521 480//480
f 87//87 89//89 93//93
f 90//90 93//93 343//343
f 89//89 479//479 478//478
f 93//93 478//478 501//501
f 94//94 97//97 98//98
f 95//95 98//98 463//463
f 97//97 350//350 351//351
f 98//98 351//351 511//511
f 95//95 99//99 96//96
f 99//99 468//468 467//467
f 464//464 465//465 99//99
f 465//465 521//521 468//468
f 94//94 96//96 100//100
f 97//97 100//100 349//349
f 96//96 467//467 466//466
f 100//100 466//466 510//510
f 101//101 105//105 106//106
f 102//102 106//106 351//351
f 105//105 353//353 352//352
f 106//106 352//352 511//511
f 102//102 107//107 103//103
f 107//107 348//348 347//347
f 350//350 349//349 107//107
f 349//349 510//510 348//348
f 101//101 103//103 108//108
f 104//104 108//108 355//355
f 103//103 347//347 346//346
f 108//108 346//346 509//509
f 104//104 109//109 105//105
f 109//109 354//354 353//353
f 356//356 357//357 109//109
f 357//357 512//512 354//354
f 110//110 114//114 115//115
f 111//111 115//115 357//357
f 114//114 359//359 358//358
f 115//115 358//358 512//512
f 111//111 116//116 112//112
f 116//116 342//342 341//341
f 356//356 355//355 116//116
f 355//355 509//509 342//342
f 110//110 112//112 117//117
f 113//113 117//117 361//361
f 112//112 341//341 340//340
f 117//117 340//340 508//508
f 113//113 118//118 114//114
f 118//118 360//360 359//359
f 362//362 363//363 118//118
f 363//363 513//513 360//360
f 123//123 124//124 120//120
f 124//124 363//363 362//362
f 365//365 364//364 124//124
f 364//364 513//513 363//363
f 119//119 120//120 125//125
f 121//121 125//125 336//336
f 120//120 362//362 361//361
f 125//125 361//361 508//508
f 121//121 126//126 122//122
f 126//126 367//367 368//368
f 335//335 334//334 126//126
f 334//334 507//507 367//367
f 119//119 122//122 127//127
f 123//123 127//127 366//366
f 122//122 368//368 369//369
f 127//127 369//369 514//514
f 132//132 133//133 129//129
f 133//133 369//369 368//368
f 371//371 370//370 133//133
f 370//370 514//514 369//369
f 128//128 129//129 134//134
f 130//130 134//134 330//330
f 129//129 368//368 367//367
f 134//134 367//367 507//507
f 130//130 135//135 131//131
f 135//135 373//373 374//374
f 329//329 328//328 135//135
f 328//328 506//506 373//373
f 128//128 131//131 136//136
f 132//132 136//136 372//372
f 131//131 374//374 375//375
f 136//136 375//375 515//515
f 137//137 140//140 141//141
f 138//138 141//141 375//375
f 140//140 488//488 487//487
f 141//141 487//487 515//515
f 137//137 138//138 142//142
f 139//139 142//142 490//490
f 138//138 374//374 373//373
f 142//142 373//373 506//506
f 139//139 143//143 140//140
f 143//143 489//489 488//488
f 491//491 492//492 143//143
f 492//492 530//530 489//489
f 144//144 147//147 148//148
f 145//145 148//148 378//378
f 147//147 482//482 481//481
f 148//148 481//481 516//516
f 144//144 145//145 149//149
f 146//146 149//149 487//487
f 145//145 377//377 376//376
f 149//149 376//376 515//515
f 146//146 150//150 147//147
f 150//150 483//483 482//482
f 488//488 489//489 150//150
f 489//489 530//530 483//483
f 151//151 155//155 156//156
f 152//152 156//156 381//381
f 155//155 383//383 384//384
f 156//156 384//384 517//517
f 152//152 157//157 153//153
f 157//157 370//370 371//371
f 380//380 379//379 157//157
f 379//379 514//514 370//370
f 151//151 153//153 158//158
f 154//154 158//158 376//376
f 153//153 371//371 372//372
f 158//158 372//372 515//515
f 154//154 159//159 155//155
f 159//159 382//382 383//383
f 377//377 378//378 159//159
f 378//378 516//516 382//382
f 160//160 164//164 165//165
f 161//161 165//165 387//387
f 164//164 389//389 390//390
f 165//165 390//390 518//518
f 161//161 166//166 162//162
f 166//166 364//364 365//365
f 386//386 385//385 166//166
f 385//385 513//513 364//364
f 160//160 162//162 167//167
f 163//163 167//167 379//379
f 162//162 365//365 366//366
f 167//167 366//366 514//514
f 163//163 168//168 164//164
f 168//168 388//388 389//389
f 380//380 381//381 168//168
f 381//381 517//517 388//388
f 173//173 174//174 170//170
f 174//174 393//393 392//392
f 395//395 396//396 174//174
f 396//396 519//519 393//393
f 169//169 170//170 175//175
f 171//171 175//175 358//358
f 170//170 392//392 391//391
f 175//175 391//391 512//512
f 171//171 176//176 172//172
f 176//176 385//385 386//386
f 359//359 360//360 176//176
f 360//360 513//513 385//385
f 169//169 172//172 177//177
f 173//173 177//177 394//394
f 172//172 386//386 387//387
f 177//177 387//387 518//518
f 182//182 183//183 179//179
f 183//183 399//399 398//398
f 401//401 402//402 183//183
f 402//402 520//520 399//399
f 178//178 179//179 184//184
f 180//180 184//184 352//352
f 179//179 398//398 397//397
f 184//184 397//397 511//511
f 180//180 185//185 181//181
f 185//185 391//391 392//392
f 353//353 354//354 185//185
f 354//354 512//512 391//391
f 178//178 181//181 186//186
f 182//182 186//186 400//400
f 181//181 392//392 393//393
f 186//186 393//393 519//519
f 187//187 190//190 191//191
f 188//188 191//191 403//403
f 190//190 398//398 399//399
f 191//191 399//399 520//520
f 188//188 192//192 189//189
f 192//192 465//465 464//464
f 404//404 405//405 192//192
f 405//405 521//521 465//465
f 187//187 189//189 193//193
f 190//190 193//193 397//397
f 189//189 464//464 463//463
f 193//193 463//463 511//511
f 194//194 197//197 198//198
f 195//195 198//198 462//462
f 197//197 407//407 408//408
f 198//198 408//408 522//522
f 195//195 199//199 196//196
f 199//199 405//405 404//404
f 461//461 460//460 199//199
f 460//460 521//521 405//405
f 194//194 196//196 200//200
f 197//197 200//200 406//406
f 196//196 404//404 403//403
f 200//200 403//403 520//520
f 201//201 205//205 206//206
f 202//202 206//206 408//408
f 205//205 410//410 409//409
f 206//206 409//409 522//522
f 201//201 202//202 207//207
f 203//203 207//207 402//402
f 202//202 407//407 406//406
f 207//207 406//406 520//520
f 203//203 208//208 204//204
f 208//208 412//412 413//413
f 401//401 400//400 208//208
f 400//400 519//519 412//412
f 204//204 209//209 205//205
f 209//209 411//411 410//410
f 413//413 414//414 209//209
f 414//414 523//523 411//411
f 210//210 214//214 215//215
f 211//211 215//215 414//414
f 214//214 416//416 415//415
f 215//215 415//415 523//523
f 210//210 211//211 216//216
f 212//212 216//216 396//396
f 211//211 413//413 412//412
f 216//216 412//412 519//519
f 212//212 217//217 213//213
f 217//217 418//418 419//419
f 395//395 394//394 217//217
f 394//394 518//518 418//418
f 213//213 218//218 214//214
f 218//218 417//417 416//416
f 419//419 420//420 218//218
f 420//420 524//524 417//417
f 223//223 224//224 220//220
f 224//224 420//420 419//419
f 422//422 421//421 224//224
f 421//421 524//524 420//420
f 220//220 225//225 221//221
f 225//225 390//390 389//389
f 419//419 418//418 225//225
f 418//418 518//518 390//390
f 219//219 221//221 226//226
f 222//222 226//226 424//424
f 221//221 389//389 388//388
f 226//226 388//388 517//517
f 219//219 222//222 227//227
f 223//223 227//227 423//423
f 222//222 425//425 426//426
f 227//227 426//426 525//525
f 232//232 233//233 229//229
f 233//233 426//426 425//425
f 428//428 427//427 233//233
f 427//427 525//525 426//426
f 229//229 234//234 230//230
f 234//234 384//384 383//383
f 425//425 424//424 234//234
f 424//424 517//517 384//384
f 228//228 230//230 235//235
f 231//231 235//235 430//430
f 230//230 383//383 382//382
f 235//235 382//382 516//516
f 228//228 231//231 236//236
f 232//232 236//236 429//429
f 231//231 431//431 432//432
f 236//236 432//432 526//526
f 237//237 240//240 241//241
f 238//238 241//241 432//432
f 240//240 485//485 484//484
f 241//241 484//484 526//526
f 237//237 238//238 242//242
f 239//239 242//242 481//481
f 238//238 431//431 430//430
f 242//242 430//430 516//516
f 239//239 243//243 240//240
f 243//243 486//486 485//485
f 482//482 483//483 243//243
f 483//483 530//530 486//486
f 244//244 247//247 248//248
f 245//245 248//248 435//435
f 247//247 497//497 496//496
f 248//248 496//496 527//527
f 244//244 245//245 249//249
f 246//246 249//249 484//484
f 245//245 434//434 433//433
f 249//249 433//433 526//526
f 246//246 250//250 247//247
f 250//250 498//498 497//497
f 485//485 486//486 250//250
f 486//486 530//530 498//498
f 255//255 256//256 252//252
f 256//256 438//438 437//437
f 440//440 441//441 256//256
f 441//441 528//528 438//438
f 251//251 252//252 257//257
f 253//253 257//257 427//427
f 252//252 437//437 436//436
f 257//257 436//436 525//525
f 253//253 258//258 254//254
f 258//258 433//433 434//434
f 428//428 429//429 258//258
f 429//429 526//526 433//433
f 251//251 254//254 259//259
f 255//255 259//259 439//439
f 254//254 434//434 435//435
f 259//259 435//435 527//527
f 264//264 265//265 261//261
f 265//265 436//436 437//437
f 422//422 423//423 265//265
f 423//423 525//525 436//436
f 260//260 261//261 266//266
f 262//262 266//266 456//456
f 261//261 437//437 438//438
f 266//266 438//438 528//528
f 262//262 267//267 263//263
f 267//267 457//457 458//458
f 455//455 454//454 267//267
f 454//454 499//499 457//457
f 260//260 263//263 268//268
f 264//264 268//268 421//421
f 263//263 458//458 459//459
f 268//268 459//459 524//524
f 269//269 273//273 274//274
f 270//270 274//274 459//459
f 273//273 416//416 417//417
f 274//274 417//417 524//524
f 270//270 275//275 271//271
f 275//275 301//301 302//302
f 458//458 457//457 275//275
f 457//457 499//499 301//301
f 269//269 271//271 276//276
f 272//272 276//276 451//451
f 271//271 302//302 303//303
f 276//276 303//303 500//500
f 272//272 277//277 273//273
f 277//277 415//415 416//416
f 452//452 453//453 277//277
f 453//453 523//523 415//415
f 278//278 282//282 283//283
f 279//279 283//283 444//444
f 282//282 449//449 450//450
f 283//283 450//450 529//529
f 279//279 284//284 280//280
f 284//284 409//409 410//410
f 443//443 442//442 284//284
f 442//442 522//522 409//409
f 278//278 280//280 285//285
f 281//281 285//285 453//453
f 280//280 410//410 411//411
f 285//285 411//411 523//523
f 281//281 286//286 282//282
f 286//286 448//448 449//449
f 452//452 451//451 286//286
f 451//451 500//500 448//448
f 287//287 290//290 291//291
f 288//288 291//291 447//447
f 290//290 443//443 444//444
f 291//291 444//444 529//529
f 288//288 292//292 289//289
f 292//292 460//460 461//461
f 446//446 445//445 292//292
f 445//445 521//521 460//460
f 287//287 289//289 293//293
f 290//290 293//293 442//442
f 289//289 461//461 462//462
f 293//293 462//462 522//522
f 294//294 297//297 298//298
f 295//295 298//298 324//324
f 297//297 491//491 490//490
f 298//298 490//490 506//506
f 294//294 295//295 299//299
f 296//296 299//299 493//493
f 295//295 323//323 322//322
f 299//299 322//322 505//505
f 296//296 300//300 297//297
f 300//300 492//492 491//491
f 494//494 495//495 300//300
f 495//495 530//530 492//492
f 2//2 1//1 5//5
f 479//479 2//2 478//478
f 5//5 4//4 475//475
f 478//478 5//5 501//501
f 1//1 2//2 3//3
f 3//3 6//6 446//446
f 2//2 479//479 6//6
f 6//6 480//480 445//445
f 4//4 1//1 7//7
f 476//476 4//4 477//477
f 7//7 3//3 447//447
f 477//477 7//7 529//529
f 8//8 12//12 9//9
f 9//9 13//13 476//476
f 12//12 305//305 13//13
f 13//13 304//304 475//475
f 10//10 8//8 14//14
f 449//449 10//10 450//450
f 14//14 9//9 477//477
f 450//450 14//14 529//529
f 8//8 10//10 11//11
f 11//11 15//15 308//308
f 10//10 449//449 15//15
f 15//15 448//448 307//307
f 12//12 8//8 16//16
f 305//305 12//12 306//306
f 16//16 11//11 309//309
f 306//306 16//16 502//502
f 17//17 21//21 18//18
f 18//18 22//22 308//308
f 21//21 311//311 22//22
f 22//22 310//310 309//309
f 19//19 17//17 23//23
f 302//302 19//19 303//303
f 23//23 18//18 307//307
f 303//303 23//23 500//500
f 17//17 19//19 20//20
f 20//20 24//24 314//314
f 19//19 302//302 24//24
f 24//24 301//301 313//313
f 21//21 17//17 25//25
f 311//311 21//21 312//312
f 25//25 20//20 315//315
f 312//312 25//25 503//503
f 27//27 26//26 31//31
f 314//314 27//27 315//315
f 31//31 30//30 316//316
f 315//315 31//31 503//503
f 26//26 27//27 28//28
f 28//28 32//32 455//455
f 27//27 314//314 32//32
f 32//32 313//313 454//454
f 29//29 26//26 33//33
f 473//473 29//29 474//474
f 33//33 28//28 456//456
f 474//474 33//33 528//528
f 26//26 29//29 30//30
f 30//30 34//34 317//317
f 29//29 473//473 34//34
f 34//34 472//472 318//318
f 36//36 35//35 40//40
f 473//473 36//36 472//472
f 40//40 39//39 319//319
f 472//472 40//40 504//504
f 35//35 36//36 37//37
f 37//37 41//41 440//440
f 36//36 473//473 41//41
f 41//41 474//474 441//441
f 38//38 35//35 42//42
f 470//470 38//38 471//471
f 42//42 37//37 439//439
f 471//471 42//42 527//527
f 35//35 38//38 39//39
f 39//39 43//43 320//320
f 38//38 470//470 43//43
f 43//43 469//469 321//321
f 45//45 44//44 48//48
f 470//470 45//45 469//469
f 48//48 47//47 493//493
f 469//469 48//48 505//505
f 46//46 44//44 49//49
f 497//497 46//46 496//496
f 49//49 45//45 471//471
f 496//496 49//49 527//527
f 44//44 46//46 47//47
f 47//47 50//50 494//494
f 46//46 497//497 50//50
f 50//50 498//498 495//495
f 51//51 55//55 52//52
f 52//52 56//56 326//326
f 55//55 329//329 56//56
f 56//56 330//330 327//327
f 51//51 52//52 53//53
f 53//53 57//57 320//320
f 52//52 326//326 57//57
f 57//57 325//325 319//319
f 54//54 51//51 58//58
f 323//323 54//54 322//322
f 58//58 53//53 321//321
f 322//322 58//58 505//505
f 55//55 51//51 59//59
f 329//329 55//55 328//328
f 59//59 54//54 324//324
f 328//328 59//59 506//506
f 60//60 64//64 61//61
f 61//61 65//65 332//332
f 64//64 335//335 65//65
f 65//65 336//336 333//333
f 60//60 61//61 62//62
f 62//62 66//66 317//317
f 61//61 332//332 66//66
f 66//66 331//331 316//316
f 63//63 60//60 67//67
f 326//326 63//63 325//325
f 67//67 62//62 318//318
f 325//325 67//67 504//504
f 64//64 60//60 68//68
f 335//335 64//64 334//334
f 68//68 63//63 327//327
f 334//334 68//68 507//507
f 70//70 69//69 74//74
f 338//338 70//70 339//339
f 74//74 73//73 342//342
f 339//339 74//74 509//509
f 71//71 69//69 75//75
f 311//311 71//71 310//310
f 75//75 70//70 337//337
f 310//310 75//75 502//502
f 69//69 71//71 72//72
f 72//72 76//76 332//332
f 71//71 311//311 76//76
f 76//76 312//312 331//331
f 69//69 72//72 73//73
f 73//73 77//77 341//341
f 72//72 332//332 77//77
f 77//77 333//333 340//340
f 79//79 78//78 83//83
f 344//344 79//79 345//345
f 83//83 82//82 348//348
f 345//345 83//83 510//510
f 80//80 78//78 84//84
f 305//305 80//80 304//304
f 84//84 79//79 343//343
f 304//304 84//84 501//501
f 78//78 80//80 81//81
f 81//81 85//85 338//338
f 80//80 305//305 85//85
f 85//85 306//306 337//337
f 78//78 81//81 82//82
f 82//82 86//86 347//347
f 81//81 338//338 86//86
f 86//86 339//339 346//346
f 88//88 87//87 91//91
f 467//467 88//88 466//466
f 91//91 90//90 345//345
f 466//466 91//91 510//510
f 87//87 88//88 89//89
f 89//89 92//92 479//479
f 88//88 467//467 92//92
f 92//92 468//468 480//480
f 90//90 87//87 93//93
f 344//344 90//90 343//343
f 93//93 89//89 478//478
f 343//343 93//93 501//501
f 95//95 94//94 98//98
f 464//464 95//95 463//463
f 98//98 97//97 351//351
f 463//463 98//98 511//511
f 94//94 95//95 96//96
f 96//96 99//99 467//467
f 95//95 464//464 99//99
f 99//99 465//465 468//468
f 97//97 94//94 100//100
f 350//350 97//97 349//349
f 100//100 96//96 466//466
f 349//349 100//100 510//510
f 102//102 101//101 106//106
f 350//350 102//102 351//351
f 106//106 105//105 352//352
f 351//351 106//106 511//511
f 101//101 102//102 103//103
f 103//103 107//107 347//347
f 102//102 350//350 107//107
f 107//107 349//349 348//348
f 104//104 101//101 108//108
f 356//356 104//104 355//355
f 108//108 103//103 346//346
f 355//355 108//108 509//509
f 101//101 104//104 105//105
f 105//105 109//109 353//353
f 104//104 356//356 109//109
f 109//109 357//357 354//354
f 111//111 110//110 115//115
f 356//356 111//111 357//357
f 115//115 114//114 358//358
f 357//357 115//115 512//512
f 110//110 111//111 112//112
f 112//112 116//116 341//341
f 111//111 356//356 116//116
f 116//116 355//355 342//342
f 113//113 110//110 117//117
f 362//362 113//113 361//361
f 117//117 112//112 340//340
f 361//361 117//117 508//508
f 110//110 113//113 114//114
f 114//114 118//118 359//359
f 113//113 362//362 118//118
f 118//118 363//363 360//360
f 119//119 123//123 120//120
f 120//120 124//124 362//362
f 123//123 365//365 124//124
f 124//124 364//364 363//363
f 121//121 119//119 125//125
f 335//335 121//121 336//336
f 125//125 120//120 361//361
f 336//336 125//125 508//508
f 119//119 121//121 122//122
f 122//122 126//126 368//368
f 121//121 335//335 126//126
f 126//126 334//334 367//367
f 123//123 119//119 127//127
f 365//365 123//123 366//366
f 127//127 122//122 369//369
f 366//366 127//127 514//514
f 128//128 132//132 129//129
f 129//129 133//133 368//368
f 132//132 371//371 133//133
f 133//133 370//370 369//369
f 130//130 128//128 134//134
f 329//329 130//130 330//330
f 134//134 129//129 367//367
f 330//330 134//134 507//507
f 128//128 130//130 131//131
f 131//131 135//135 374//374
f 130//130 329//329 135//135
f 135//135 328//328 373//373
f 132//132 128//128 136//136
f 371//371 132//132 372//372
f 136//136 131//131 375//375
f 372//372 136//136 515//515
f 138//138 137//137 141//141
f 374//374 138//138 375//375
f 141//141 140//140 487//487
f 375//375 141//141 515//515
f 139//139 137//137 142//142
f 491//491 139//139 490//490
f 142//142 138//138 373//373
f 490//490 142//142 506//506
f 137//137 139//139 140//140
f 140//140 143//143 488//488
f 139//139 491//491 143//143
f 143//143 492//492 489//489
f 145//145 144//144 148//148
f 377//377 145//145 378//378
f 148//148 147//147 481//481
f 378//378 148//148 516//516
f 146//146 144//144 149//149
f 488//488 146//146 487//487
f 149//149 145//145 376//376
f 487//487 149//149 515//515
f 144//144 146//146 147//147
f 147//147 150//150 482//482
f 146//146 488//488 150//150
f 150//150 489//489 483//483
f 152//152 151//151 156//156
f 380//380 152//152 381//381
f 156//156 155//155 384//384
f 381//381 156//156 517//517
f 151//151 152//152 153//153
f 153//153 157//157 371//371
f 152//152 380//380 157//157
f 157//157 379//379 370//370
f 154//154 151//151 158//158
f 377//377 154//154 376//376
f 158//158 153//153 372//372
f 376//376 158//158 515//515
f 151//151 154//154 155//155
f 155//155 159//159 383//383
f 154//154 377//377 159//159
f 159//159 378//378 382//382
f 161//161 160//160 165//165
f 386//386 161//161 387//387
f 165//165 164//164 390//390
f 387//387 165//165 518//518
f 160//160 161//161 162//162
f 162//162 166//166 365//365
f 161//161 386//386 166//166
f 166//166 385//385 364//364
f 163//163 160//160 167//167
f 380//380 163//163 379//379
f 167//167 162//162 366//366
f 379//379 167//167 514//514
f 160//160 163//163 164//164
f 164//164 168//168 389//389
f 163//163 380//380 168//168
f 168//168 381//381 388//388
f 169//169 173//173 170//170
f 170//170 174//174 392//392
f 173//173 395//395 174//174
f 174//174 396//396 393//393
f 171//171 169//169 175//175
f 359//359 171//171 358//358
f 175//175 170//170 391//391
f 358//358 175//175 512//512
f 169//169 171//171 172//172
f 172//172 176//176 386//386
f 171//171 359//359 176//176
f 176//176 360//360 385//385
f 173//173 169//169 177//177
f 395//395 173//173 394//394
f 177//177 172//172 387//387
f 394//394 177//177 518//518
f 178//178 182//182 179//179
f 179//179 183//183 398//398
f 182//182 401//401 183//183
f 183//183 402//402 399//399
f 180//180 178//178 184//184
f 353//353 180//180 352//352
f 184//184 179//179 397//397
f 352//352 184//184 511//511
f 178//178 180//180 181//181
f 181//181 185//185 392//392
f 180//180 353//353 185//185
f 185//185 354//354 391//391
f 182//182 178//178 186//186
f 401//401 182//182 400//400
f 186//186 181//181 393//393
f 400//400 186//186 519//519
f 188//188 187//187 191//191
f 404//404 188//188 403//403
f 191//191 190//190 399//399
f 403//403 191//191 520//520
f 187//187 188//188 189//189
f 189//189 192//192 464//464
f 188//188 404//404 192//192
f 192//192 405//405 465//465
f 190//190 187//187 193//193
f 398//398 190//190 397//397
f 193//193 189//189 463//463
f 397//397 193//193 511//511
f 195//195 194//194 198//198
f 461//461 195//195 462//462
f 198//198 197//197 408//408
f 462//462 198//198 522//522
f 194//194 195//195 196//196
f 196//196 199//199 404//404
f 195//195 461//461 199//199
f 199//199 460//460 405//405
f 197//197 194//194 200//200
f 407//407 197//197 406//406
f 200//200 196//196 403//403
f 406//406 200//200 520//520
f 202//202 201//201 206//206
f 407//407 202//202 408//408
f 206//206 205//205 409//409
f 408//408 206//206 522//522
f 203//203 201//201 207//207
f 401//401 203//203 402//402
f 207//207 202//202 406//406
f 402//402 207//207 520//520
f 201//201 203//203 204//204
f 204//204 208//208 413//413
f 203//203 401//401 208//208
f 208//208 400//400 412//412
f 201//201 204//204 205//205
f 205//205 209//209 410//410
f 204//204 413//413 209//209
f 209//209 414//414 411//411
f 211//211 210//210 215//215
f 413//413 211//211 414//414
f 215//215 214//214 415//415
f 414//414 215//215 523//523
f 212//212 210//210 216//216
f 395//395 212//212 396//396
f 216//216 211//211 412//412
f 396//396 216//216 519//519
f 210//210 212//212 213//213
f 213//213 217//217 419//419
f 212//212 395//395 217//217
f 217//217 394//394 418//418
f 210//210 213//213 214//214
f 214//214 218//218 416//416
f 213//213 419//419 218//218
f 218//218 420//420 417//417
f 219//219 223//223 220//220
f 220//220 224//224 419//419
f 223//223 422//422 224//224
f 224//224 421//421 420//420
f 219//219 220//220 221//221
f 221//221 225//225 389//389
f 220//220 419//419 225//225
f 225//225 418//418 390//390
f 222//222 219//219 226//226
f 425//425 222//222 424//424
f 226//226 221//221 388//388
f 424//424 226//226 517//517
f 223//223 219//219 227//227
f 422//422 223//223 423//423
f 227//227 222//222 426//426
f 423//423 227//227 525//525
f 228//228 232//232 229//229
f 229//229 233//233 425//425
f 232//232 428//428 233//233
f 233//233 427//427 426//426
f 228//228 229//229 230//230
f 230//230 234//234 383//383
f 229//229 425//425 234//234
f 234//234 424//424 384//384
f 231//231 228//228 235//235
f 431//431 231//231 430//430
f 235//235 230//230 382//382
f 430//430 235//235 516//516
f 232//232 228//228 236//236
f 428//428 232//232 429//429
f 236//236 231//231 432//432
f 429//429 236//236 526//526
f 238//238 237//237 241//241
f 431//431 238//238 432//432
f 241//241 240//240 484//484
f 432//432 241//241 526//526
f 239//239 237//237 242//242
f 482//482 239//239 481//481
f 242//242 238//238 430//430
f 481//481 242//242 516//516
f 237//237 239//239 240//240
f 240//240 243//243 485//485
f 239//239 482//482 243//243
f 243//243 483//483 486//486
f 245//245 244//244 248//248
f 434//434 245//245 435//435
f 248//248 247//247 496//496
f 435//435 248//248 527//527
f 246//246 244//244 249//249
f 485//485 246//246 484//484
f 249//249 245//245 433//433
f 484//484 249//249 526//526
f 244//244 246//246 247//247
f 247//247 250//250 497//497
f 246//246 485//485 250//250
f 250//250 486//486 498//498
f 251//251 255//255 252//252
f 252//252 256//256 437//437
f 255//255 440//440 256//256
f 256//256 441//441 438//438
f 253//253 251//251 257//257
f 428//428 253//253 427//427
f 257//257 252//252 436//436
f 427//427 257//257 525//525
f 251//251 253//253 254//254
f 254//254 258//258 434//434
f 253//253 428//428 258//258
f 258//258 429//429 433//433
f 255//255 251//251 259//259
f 440//440 255//255 439//439
f 259//259 254//254 435//435
f 439//439 259//259 527//527
f 260//260 264//264 261//261
f 261//261 265//265 437//437
f 264//264 422//422 265//265
f 265//265 423//423 436//436
f 262//262 260//260 266//266
f 455//455 262//262 456//456
f 266//266 261//261 438//438
f 456//456 266//266 528//528
f 260//260 262//262 263//263
f 263//263 267//267 458//458
f 262//262 455//455 267//267
f 267//267 454//454 457//457
f 264//264 260//260 268//268
f 422//422 264//264 421//421
f 268//268 263//263 459//459
f 421//421 268//268 524//524
f 270//270 269//269 274//274
f 458//458 270//270 459//459
f 274//274 273//273 417//417
f 459//459 274//274 524//524
f 269//269 270//270 271//271
f 271//271 275//275 302//302
f 270//270 458//458 275//275
f 275//275 457//457 301//301
f 272//272 269//269 276//276
f 452//452 272//272 451//451
f 276//276 271//271 303//303
f 451//451 276//276 500//500
f 269//269 272//272 273//273
f 273//273 277//277 416//416
f 272//272 452//452 277//277
f 277//277 453//453 415//415
f 279//279 278//278 283//283
f 443//443 279//279 444//444
f 283//283 282//282 450//450
f 444//444 283//283 529//529
f 278//278 279//279 280//280
f 280//280 284//284 410//410
f 279//279 443//443 284//284
f 284//284 442//442 409//409
f 281//281 278//278 285//285
f 452//452 281//281 453//453
f 285//285 280//280 411//411
f 453//453 285//285 523//523
f 278//278 281//281 282//282
f 282//282 286//286 449//449
f 281//281 452//452 286//286
f 286//286 451//451 448//448
f 288//288 287//287 291//291
f 446//446 288//288 447//447
f 291//291 290//290 444//444
f 447//447 291//291 529//529
f 287//287 288//288 289//289
f 289//289 292//292 461//461
f 288//288 446//446 292//292
f 292//292 445//445 460//460
f 290//290 287//287 293//293
f 443//443 290//290 442//442
f 293//293 289//289 462//462
f 442//442 293//293 522//522
f 295//295 294//294 298//298
f 323//323 295//295 324//324
f 298//298 297//297 490//490
f 324//324 298//298 506//506
f 296//296 294//294 299//299
f 494//494 296//296 493//493
f 299//299 295//295 322//322
f 493//493 299//299 505//505
f 294//294 296//296 297//297
f 297//297 300//300 491//491
f 296//296 494//494 300//300
f 300//300 495//495 492//492
# 1056 faces, 0 coords texture

# End of File
