####
#
# OBJ File Generated by Meshlab
#
####
# Object neck_roll_link_conv.obj
#
# Vertices: 13
# Faces: 22
#
####
vn -2.433167 -2.666894 1.080464
v -16.000000 -57.500000 -100.000000 0.898039 0.898039 0.898039
vn -3.633236 0.000001 2.960974
v -4.622060 0.000002 -35.759701 0.898039 0.898039 0.898039
vn -2.433744 2.666894 1.081130
v -16.000000 57.500000 -100.000000 0.898039 0.898039 0.898039
vn 3.633237 -0.000000 2.960974
v 4.622060 0.000000 -35.759701 0.898039 0.898039 0.898039
vn 2.433744 2.666894 1.081130
v 16.000000 57.500000 -100.000000 0.898039 0.898039 0.898039
vn 2.433047 -2.666893 1.079707
v 16.000000 -57.500000 -100.000000 0.898039 0.898039 0.898039
vn 0.000000 -0.000000 2.730413
v 0.000001 0.000000 -31.988100 0.898039 0.898039 0.898039
vn -1.795642 1.908274 -1.533441
v -16.000000 57.500000 -104.000000 0.898039 0.898039 0.898039
vn 1.795666 1.908468 -1.533396
v 16.000000 57.500000 -104.000000 0.898039 0.898039 0.898039
vn 1.148771 -1.624209 -2.217979
v 6.223400 -57.480099 -130.345001 0.898039 0.898039 0.898039
vn -2.948942 -2.618238 -0.747648
v -16.000000 -57.499100 -111.382004 0.898039 0.898039 0.898039
vn -1.255810 -1.662469 -2.280028
v -6.378850 -57.311100 -130.054001 0.898039 0.898039 0.898039
vn 2.965318 -2.617732 -0.750680
v 16.000000 -57.478199 -111.379997 0.898039 0.898039 0.898039
# 13 vertices, 0 vertices normals

f 3//3 7//7 5//5
f 4//4 5//5 7//7
f 2//2 7//7 3//3
f 1//1 6//6 7//7
f 1//1 7//7 2//2
f 4//4 7//7 6//6
f 11//11 8//8 12//12
f 10//10 9//9 13//13
f 1//1 2//2 3//3
f 4//4 6//6 5//5
f 9//9 8//8 5//5
f 5//5 8//8 3//3
f 9//9 10//10 8//8
f 12//12 8//8 10//10
f 3//3 11//11 1//1
f 8//8 11//11 3//3
f 6//6 13//13 5//5
f 5//5 13//13 9//9
f 11//11 10//10 1//1
f 1//1 10//10 6//6
f 10//10 11//11 12//12
f 10//10 13//13 6//6
# 22 faces, 0 coords texture

# End of File
