####
#
# OBJ File Generated by Meshlab
#
####
# Object neck_yaw_link_conv.obj
#
# Vertices: 17
# Faces: 30
#
####
vn -1.789028 -5.493935 1.960715
v -12.500000 -16.500000 7.000000 0.898039 0.898039 0.898039
vn -1.766957 5.531987 1.915813
v -12.500000 16.500000 7.000000 0.898039 0.898039 0.898039
vn 0.958752 -1.494964 2.072672
v 14.653500 -15.747700 28.140600 0.898039 0.898039 0.898039
vn 0.957806 1.502278 2.092174
v 14.653500 15.747700 28.140499 0.898039 0.898039 0.898039
vn 5.873045 0.197979 1.092598
v 23.500500 1.832020 2.995030 0.898039 0.898039 0.898039
vn -0.540325 -2.739835 -2.002671
v -6.308190 -34.961800 -77.843903 0.898039 0.898039 0.898039
vn -2.267126 2.076199 -2.814970
v -25.779100 20.619400 -77.800003 0.898039 0.898039 0.898039
vn -0.388850 2.625659 -1.973393
v -6.039160 35.104801 -78.202103 0.898039 0.898039 0.898039
vn 1.297826 -2.611134 -2.176038
v 14.964900 -31.203899 -77.766403 0.898039 0.898039 0.898039
vn 2.817093 -1.204869 -1.983635
v 31.170500 -15.865600 -76.787697 0.898039 0.898039 0.898039
vn -2.262230 -2.079205 -2.821101
v -25.779100 -20.619400 -77.800003 0.898039 0.898039 0.898039
vn -3.412079 -2.103484 1.469159
v -47.738300 -3.147190 1.965540 0.898039 0.898039 0.898039
vn -2.868631 1.112604 1.620945
v -48.325298 2.582410 3.436420 0.898039 0.898039 0.898039
vn -3.003904 -0.734911 -3.244511
v -32.172600 -7.343030 -77.800003 0.898039 0.898039 0.898039
vn -3.006775 0.719414 -3.240811
v -32.230999 7.167170 -77.797897 0.898039 0.898039 0.898039
vn 2.426674 1.219347 -1.978015
v 30.957100 16.422899 -77.775101 0.898039 0.898039 0.898039
vn 2.550643 5.244984 -0.162481
v 14.318500 29.731800 -65.800003 0.898039 0.898039 0.898039
# 17 vertices, 0 vertices normals

f 12//12 6//6 1//1
f 3//3 12//12 1//1
f 6//6 9//9 3//3
f 6//6 3//3 1//1
f 13//13 2//2 8//8
f 7//7 13//13 8//8
f 6//6 12//12 11//11
f 12//12 14//14 11//11
f 15//15 14//14 12//12
f 13//13 7//7 15//15
f 4//4 8//8 2//2
f 13//13 4//4 2//2
f 9//9 10//10 3//3
f 4//4 13//13 3//3
f 3//3 13//13 12//12
f 16//16 17//17 4//4
f 4//4 17//17 8//8
f 16//16 4//4 5//5
f 10//10 16//16 5//5
f 5//5 4//4 3//3
f 3//3 10//10 5//5
f 15//15 12//12 13//13
f 11//11 14//14 16//16
f 14//14 15//15 16//16
f 16//16 10//10 9//9
f 16//16 6//6 11//11
f 16//16 15//15 7//7
f 8//8 16//16 7//7
f 16//16 9//9 6//6
f 17//17 16//16 8//8
# 30 faces, 0 coords texture

# End of File
