####
#
# OBJ File Generated by Meshlab
#
####
# Object head_conv.obj
#
# Vertices: 32
# Faces: 60
#
####
vn 2.335391 1.770702 -4.001232
v 76.228401 111.549004 -41.780499 0.898039 0.898039 0.898039
vn 4.010661 1.003585 3.819799
v 67.610703 85.049301 114.223999 0.898039 0.898039 0.898039
vn -4.151371 3.163377 1.983477
v -70.708702 133.938004 72.192101 0.898039 0.898039 0.898039
vn -1.043073 3.778877 4.129808
v -28.042000 146.167007 95.365501 0.898039 0.898039 0.898039
vn -3.274536 -0.715366 -2.652866
v -111.471001 36.277599 -34.302200 0.898039 0.898039 0.898039
vn 2.821798 3.054333 2.772904
v 62.926300 134.203003 92.814301 0.898039 0.898039 0.898039
vn -1.911808 2.141463 -3.888390
v -64.746803 130.393997 -40.752701 0.898039 0.898039 0.898039
vn 3.247810 -0.848975 -2.436122
v 114.306999 34.012100 -31.796900 0.898039 0.898039 0.898039
vn 2.706946 -1.840152 4.416518
v 54.614899 -27.116800 122.592003 0.898039 0.898039 0.898039
vn -1.038491 -2.226144 -5.339294
v -74.992599 5.098970 -35.203999 0.898039 0.898039 0.898039
vn 0.976583 -2.181971 -5.595044
v 77.070297 8.270370 -32.169201 0.898039 0.898039 0.898039
vn 1.634072 -3.669850 -4.054195
v 70.815002 -20.821699 -17.830400 0.898039 0.898039 0.898039
vn 2.549104 -3.924188 -1.195346
v 73.914398 -50.402100 22.822701 0.898039 0.898039 0.898039
vn 4.406943 3.955028 0.439158
v 71.174202 143.949997 28.098499 0.898039 0.898039 0.898039
vn -2.905888 -1.797727 4.410124
v -56.843800 -28.773199 121.064003 0.898039 0.898039 0.898039
vn 4.445033 -1.833196 2.454024
v 78.813202 -27.174999 99.005600 0.898039 0.898039 0.898039
vn -1.269959 4.868670 1.755684
v -27.991800 166.733002 68.459801 0.898039 0.898039 0.898039
vn -2.343095 3.934970 -1.690955
v -62.034000 151.966995 -18.486099 0.898039 0.898039 0.898039
vn -4.871680 0.916776 3.358603
v -71.329201 78.546501 106.783997 0.898039 0.898039 0.898039
vn 1.009944 5.216994 0.200033
v 24.138800 174.416000 34.911301 0.898039 0.898039 0.898039
vn 2.148962 -4.507817 0.991383
v 59.191700 -60.283501 79.917000 0.898039 0.898039 0.898039
vn -2.120261 -3.552055 -2.343119
v -74.402199 -38.250500 -7.249990 0.898039 0.898039 0.898039
vn -2.319895 -3.623139 0.603903
v -69.463997 -63.303699 75.238800 0.898039 0.898039 0.898039
vn -4.798900 -1.204676 2.800598
v -77.759598 -21.560699 101.948997 0.898039 0.898039 0.898039
vn -5.104106 0.798156 -0.240404
v -118.271004 61.995399 -3.852120 0.898039 0.898039 0.898039
vn 1.378455 1.557042 5.407063
v 47.484100 88.004097 124.110001 0.898039 0.898039 0.898039
vn -2.149343 1.528695 4.670607
v -52.792702 89.271400 123.580002 0.898039 0.898039 0.898039
vn -0.032470 -2.301500 3.782105
v -2.740270 -42.138802 139.664993 0.898039 0.898039 0.898039
vn 2.142899 3.590501 -2.385211
v 61.633900 149.481995 -22.072001 0.898039 0.898039 0.898039
vn -0.927359 -0.030870 -6.058115
v -77.588997 65.114998 -43.131500 0.898039 0.898039 0.898039
vn 0.917480 -0.287240 -6.042340
v 78.405998 65.185799 -43.165001 0.898039 0.898039 0.898039
vn 5.197048 0.925303 -0.146928
v 118.327003 62.416000 -3.988680 0.898039 0.898039 0.898039
# 32 vertices, 0 vertices normals

f 6//6 4//4 26//26
f 31//31 11//11 10//10
f 18//18 29//29 7//7
f 14//14 32//32 29//29
f 32//32 6//6 2//2
f 4//4 27//27 26//26
f 4//4 6//6 17//17
f 4//4 17//17 3//3
f 7//7 30//30 5//5
f 30//30 31//31 10//10
f 30//30 10//10 5//5
f 31//31 8//8 11//11
f 25//25 7//7 5//5
f 25//25 18//18 7//7
f 29//29 1//1 7//7
f 32//32 8//8 1//1
f 29//29 32//32 1//1
f 16//16 32//32 2//2
f 3//3 27//27 4//4
f 22//22 5//5 10//10
f 31//31 1//1 8//8
f 8//8 16//16 13//13
f 23//23 21//21 28//28
f 21//21 9//9 28//28
f 14//14 20//20 6//6
f 14//14 29//29 20//20
f 6//6 32//32 14//14
f 28//28 27//27 15//15
f 3//3 25//25 19//19
f 15//15 27//27 24//24
f 2//2 6//6 26//26
f 26//26 9//9 2//2
f 17//17 6//6 20//20
f 17//17 18//18 3//3
f 17//17 20//20 18//18
f 9//9 16//16 2//2
f 23//23 28//28 15//15
f 13//13 12//12 8//8
f 22//22 12//12 13//13
f 13//13 23//23 22//22
f 13//13 16//16 21//21
f 16//16 9//9 21//21
f 12//12 22//22 10//10
f 12//12 10//10 11//11
f 12//12 11//11 8//8
f 3//3 18//18 25//25
f 16//16 8//8 32//32
f 26//26 28//28 9//9
f 23//23 24//24 25//25
f 27//27 3//3 19//19
f 19//19 24//24 27//27
f 13//13 21//21 23//23
f 25//25 24//24 19//19
f 23//23 25//25 5//5
f 23//23 5//5 22//22
f 23//23 15//15 24//24
f 26//26 27//27 28//28
f 18//18 20//20 29//29
f 31//31 30//30 7//7
f 7//7 1//1 31//31
# 60 faces, 0 coords texture

# End of File
