####
#
# OBJ File Generated by Meshlab
#
####
# Object palm1_l_conv.obj
#
# Vertices: 12
# Faces: 20
#
####
vn -2.248023 -2.018286 -2.329307
v -18.500000 -38.500000 -0.000000 0.898039 0.898039 0.898039
vn 1.604878 -2.959990 -3.384766
v 18.500000 -38.500000 -0.000000 0.898039 0.898039 0.898039
vn -2.132036 -1.322131 1.633716
v -23.512400 -41.376801 33.492199 0.898039 0.898039 0.898039
vn 0.919763 2.154574 -1.500366
v 13.330800 10.841100 -9.088040 0.898039 0.898039 0.898039
vn 0.311229 3.443805 4.140425
v 16.190399 -6.497170 31.504200 0.898039 0.898039 0.898039
vn -1.858240 1.828180 -1.175910
v -17.559700 6.541840 -5.895610 0.898039 0.898039 0.898039
vn -1.689534 2.839128 3.081932
v -15.913300 -6.339580 31.412800 0.898039 0.898039 0.898039
vn -0.277012 0.490572 -5.339035
v 0.020597 1.486350 -12.514200 0.898039 0.898039 0.898039
vn 1.218177 -0.404142 0.372457
v 68.488297 -23.601299 33.464600 0.898039 0.898039 0.898039
vn -2.849242 0.591995 2.449384
v -23.813700 -19.875099 33.503201 0.898039 0.898039 0.898039
vn -0.059147 -2.706455 1.541542
v -0.601310 -53.311699 32.734200 0.898039 0.898039 0.898039
vn 1.584609 1.057137 0.782945
v 66.570099 -17.393299 33.509602 0.898039 0.898039 0.898039
# 12 vertices, 0 vertices normals

f 9//9 11//11 2//2
f 4//4 9//9 2//2
f 12//12 9//9 4//4
f 2//2 8//8 4//4
f 1//1 11//11 3//3
f 4//4 6//6 7//7
f 1//1 8//8 2//2
f 4//4 8//8 6//6
f 6//6 8//8 1//1
f 6//6 10//10 7//7
f 10//10 5//5 7//7
f 3//3 10//10 1//1
f 1//1 10//10 6//6
f 1//1 2//2 11//11
f 4//4 7//7 5//5
f 4//4 5//5 12//12
f 11//11 9//9 12//12
f 10//10 3//3 12//12
f 3//3 11//11 12//12
f 5//5 10//10 12//12
# 20 faces, 0 coords texture

# End of File
