####
#
# OBJ File Generated by Meshlab
#
####
# Object palm2_l_conv.obj
#
# Vertices: 12
# Faces: 20
#
####
vn -2.521799 -2.546855 -1.360999
v -42.068100 -2.347630 -2.607280 0.898039 0.898039 0.898039
vn -1.433670 1.057049 -1.454122
v -42.172298 2.250120 -4.972200 0.898039 0.898039 0.898039
vn 2.078221 1.883400 -1.391565
v 2.400000 2.250000 -5.000000 0.898039 0.898039 0.898039
vn -1.646152 1.437098 1.543994
v -42.491001 2.250240 77.823303 0.898039 0.898039 0.898039
vn 2.420696 0.917286 0.199060
v 2.791500 2.042370 29.990499 0.898039 0.898039 0.898039
vn 1.794204 1.775093 1.730569
v -4.254270 2.250030 77.928596 0.898039 0.898039 0.898039
vn -2.773698 -2.263908 1.486364
v -42.522701 -2.240490 76.454597 0.898039 0.898039 0.898039
vn 0.922965 -1.799956 2.356263
v -7.838560 -4.250810 80.001099 0.898039 0.898039 0.898039
vn 0.308393 -0.982315 -2.027529
v -7.846090 -4.249760 -10.778300 0.898039 0.898039 0.898039
vn 4.205945 -2.698151 0.966942
v -3.800000 -2.250000 75.000000 0.898039 0.898039 0.898039
vn 3.005103 -2.218339 -1.618182
v 2.053650 -1.734340 -5.064570 0.898039 0.898039 0.898039
vn -0.407311 -2.296515 2.827760
v -32.183998 -4.250160 79.660301 0.898039 0.898039 0.898039
# 12 vertices, 0 vertices normals

f 8//8 5//5 10//10
f 2//2 7//7 4//4
f 1//1 7//7 2//2
f 9//9 2//2 3//3
f 6//6 5//5 3//3
f 4//4 6//6 2//2
f 2//2 6//6 3//3
f 12//12 4//4 7//7
f 11//11 8//8 9//9
f 4//4 8//8 6//6
f 12//12 8//8 4//4
f 11//11 5//5 8//8
f 6//6 8//8 10//10
f 2//2 9//9 1//1
f 9//9 3//3 11//11
f 11//11 3//3 5//5
f 10//10 5//5 6//6
f 1//1 12//12 7//7
f 8//8 12//12 9//9
f 1//1 9//9 12//12
# 20 faces, 0 coords texture

# End of File
