####
#
# OBJ File Generated by Meshlab
#
####
# Object elbow_l.obj
#
# Vertices: 102
# Faces: 208
#
####
vn -4.713636 -1.572050 -1.565793
v -0.028482 -0.025482 0.023043 0.874510 0.945098 1.000000
vn -2.856697 0.902989 -2.526037
v -0.028535 -0.017035 -0.043964 0.874510 0.945098 1.000000
vn -1.572044 -1.572048 -1.568294
v -0.028535 -0.025535 -0.043957 0.874510 0.945098 1.000000
vn -2.225228 2.161924 -2.825557
v -0.011069 0.007743 -0.043997 0.874510 0.945098 1.000000
vn -2.680627 -3.926107 1.115982
v -0.027497 -0.025497 0.003933 0.874510 0.945098 1.000000
vn 2.049214 2.049217 -3.930258
v -0.006045 -0.006045 -0.043990 0.874510 0.945098 1.000000
vn -0.003130 2.899325 -3.929299
v -0.000035 -0.008535 -0.043993 0.874510 0.945098 1.000000
vn -2.055472 2.049215 -3.926990
v 0.005975 -0.006045 -0.044000 0.874510 0.945098 1.000000
vn 2.899326 -0.003126 -3.929298
v -0.008535 -0.000035 -0.043993 0.874510 0.945098 1.000000
vn 1.569547 -1.572046 -1.570795
v 0.013465 -0.025535 -0.043990 0.874510 0.945098 1.000000
vn 1.569551 -4.713637 -1.568293
v 0.013470 -0.025530 -0.037990 0.874510 0.945098 1.000000
vn 1.108590 -3.929124 -2.679272
v 0.011363 -0.025528 -0.034989 0.874510 0.945098 1.000000
vn -2.682396 -3.927876 -1.105458
v -0.027515 -0.025515 -0.018849 0.874510 0.945098 1.000000
vn -1.112850 -3.929126 -2.677504
v -0.011419 -0.025528 -0.034971 0.874510 0.945098 1.000000
vn -4.424721 2.476559 0.958345
v -0.028530 -0.017030 -0.037964 0.874510 0.945098 1.000000
vn -2.220729 2.166425 2.825650
v -0.011064 0.007748 -0.037997 0.874510 0.945098 1.000000
vn -4.699732 1.777428 -1.435805
v -0.028482 -0.016982 0.023036 0.874510 0.945098 1.000000
vn 3.141588 3.141594 -0.005003
v 0.013470 -0.017030 -0.037997 0.874510 0.945098 1.000000
vn 2.055467 2.055472 3.923721
v -0.006041 -0.006041 -0.037990 0.874510 0.945098 1.000000
vn 2.905579 0.003129 3.924677
v -0.008530 -0.000030 -0.037993 0.874510 0.945098 1.000000
vn -1.569543 -1.569546 1.573297
v -0.028477 -0.025977 0.029043 0.874510 0.945098 1.000000
vn -3.125393 0.210175 3.011249
v -0.028477 -0.016977 0.029036 0.874510 0.945098 1.000000
vn -3.009270 0.803046 2.888927
v -0.025749 0.003467 0.029018 0.874510 0.945098 1.000000
vn 2.263448 1.032053 0.456285
v 0.019697 -0.016982 0.022998 0.874510 0.945098 1.000000
vn 1.569543 1.569546 -1.573297
v 0.028470 -0.017030 -0.038009 0.874510 0.945098 1.000000
vn -0.003130 2.899325 -3.929299
v 0.000018 -0.008482 0.023007 0.874510 0.945098 1.000000
vn -3.031567 0.749293 -2.892940
v -0.025753 0.003463 0.023018 0.874510 0.945098 1.000000
vn 2.049214 2.049217 -3.930258
v -0.005992 -0.005992 0.023010 0.874510 0.945098 1.000000
vn 2.899326 -0.003126 -3.929298
v -0.008482 0.000018 0.023007 0.874510 0.945098 1.000000
vn -0.996686 2.928901 -2.756991
v -0.009496 0.024223 0.022988 0.874510 0.945098 1.000000
vn -2.847693 0.979680 -2.283614
v -0.023943 0.010116 0.023011 0.874510 0.945098 1.000000
vn -1.964712 2.312727 -2.378904
v -0.015519 0.020872 0.022996 0.874510 0.945098 1.000000
vn -2.346215 2.016622 -2.761436
v -0.020450 0.016057 0.023004 0.874510 0.945098 1.000000
vn 0.285564 -3.110912 3.016813
v 0.000032 -0.025977 0.029021 0.874510 0.945098 1.000000
vn -1.572044 -1.572048 -1.568294
v -0.028482 -0.025982 0.023043 0.874510 0.945098 1.000000
vn 0.074664 -3.142160 -3.090068
v 0.000023 -0.025982 0.023021 0.874510 0.945098 1.000000
vn 0.757907 -6.149936 0.459161
v 0.005098 -0.025482 0.023016 0.874510 0.945098 1.000000
vn -1.108581 -3.924855 2.685527
v -0.011375 -0.025484 0.020029 0.874510 0.945098 1.000000
vn 1.569547 -1.572046 -1.570795
v 0.028470 -0.025530 -0.038002 0.874510 0.945098 1.000000
vn 1.572044 1.572048 1.568294
v 0.028518 -0.016982 0.022991 0.874510 0.945098 1.000000
vn 1.572048 -1.569544 1.570796
v 0.028518 -0.025482 0.022998 0.874510 0.945098 1.000000
vn 2.680637 -3.927872 -1.109728
v 0.027485 -0.025515 -0.018892 0.874510 0.945098 1.000000
vn 1.583968 -2.661700 3.477596
v 0.013107 -0.022450 0.023007 0.874510 0.945098 1.000000
vn 2.682405 -3.926103 1.111713
v 0.027503 -0.025497 0.003889 0.874510 0.945098 1.000000
vn 1.112860 -3.924853 2.683758
v 0.011407 -0.025484 0.020011 0.874510 0.945098 1.000000
vn 1.505255 -2.683177 2.788704
v 0.012695 -0.022682 0.029008 0.874510 0.945098 1.000000
vn 2.626809 -1.609113 2.821624
v 0.022155 -0.013632 0.028993 0.874510 0.945098 1.000000
vn 2.841318 -1.241155 -2.750299
v 0.023471 -0.011219 0.022990 0.874510 0.945098 1.000000
vn -2.055472 2.049215 -3.926990
v 0.006029 -0.005992 0.023000 0.874510 0.945098 1.000000
vn -2.905579 -0.003129 -3.924677
v 0.008518 0.000018 0.022993 0.874510 0.945098 1.000000
vn 2.072225 2.297241 -2.734239
v 0.016549 0.020101 0.022971 0.874510 0.945098 1.000000
vn 2.425523 1.900617 -2.627808
v 0.021243 0.015054 0.022971 0.874510 0.945098 1.000000
vn -2.049219 2.055469 3.926989
v 0.005980 -0.006041 -0.038000 0.874510 0.945098 1.000000
vn 0.003123 2.905580 3.924676
v -0.000030 -0.008530 -0.037993 0.874510 0.945098 1.000000
vn -2.899326 0.003126 3.929298
v 0.008470 -0.000030 -0.038007 0.874510 0.945098 1.000000
vn 2.411526 1.765835 2.506445
v 0.010863 0.007944 -0.038015 0.874510 0.945098 1.000000
vn 3.066071 0.490382 2.822777
v 0.013470 -0.000030 -0.038011 0.874510 0.945098 1.000000
vn 3.061572 0.485882 -2.828433
v 0.013465 -0.000035 -0.044011 0.874510 0.945098 1.000000
vn 0.904380 2.848436 2.506630
v 0.004049 0.012839 -0.038013 0.874510 0.945098 1.000000
vn -2.049214 -2.049217 3.930258
v 0.005980 0.005980 -0.038010 0.874510 0.945098 1.000000
vn -2.905579 -0.003129 -3.924677
v 0.008465 -0.000035 -0.044007 0.874510 0.945098 1.000000
vn 0.003130 -2.899325 3.929299
v -0.000030 0.008470 -0.038007 0.874510 0.945098 1.000000
vn -2.055467 -2.055472 -3.923721
v 0.005975 0.005975 -0.044010 0.874510 0.945098 1.000000
vn -0.951211 2.831902 2.508278
v -0.004340 0.012763 -0.038007 0.874510 0.945098 1.000000
vn 2.055472 -2.049215 3.926990
v -0.006041 0.005980 -0.038000 0.874510 0.945098 1.000000
vn -0.003123 -2.905580 -3.924676
v -0.000035 0.008465 -0.044007 0.874510 0.945098 1.000000
vn 2.049219 -2.055469 -3.926989
v -0.006045 0.005975 -0.044000 0.874510 0.945098 1.000000
vn -0.955207 2.827905 -2.511267
v -0.004344 0.012758 -0.044007 0.874510 0.945098 1.000000
vn 0.900384 2.844438 -2.512601
v 0.004045 0.012834 -0.044013 0.874510 0.945098 1.000000
vn 2.407530 1.761837 -2.513091
v 0.010858 0.007939 -0.044015 0.874510 0.945098 1.000000
vn 1.112858 -2.354057 2.682508
v 0.011407 -0.046484 0.020028 0.874510 0.945098 1.000000
vn 1.108588 -2.358329 -2.680523
v 0.011363 -0.046528 -0.034972 0.874510 0.945098 1.000000
vn 2.680635 -2.357077 -1.110978
v 0.027485 -0.046515 -0.018876 0.874510 0.945098 1.000000
vn 2.682404 -2.355307 1.110462
v 0.027503 -0.046497 0.003906 0.874510 0.945098 1.000000
vn -1.108582 -2.354059 2.684276
v -0.011375 -0.046484 0.020046 0.874510 0.945098 1.000000
vn -1.112852 -2.358330 -2.678755
v -0.011419 -0.046528 -0.034954 0.874510 0.945098 1.000000
vn -2.680629 -2.355311 1.114731
v -0.027497 -0.046497 0.003950 0.874510 0.945098 1.000000
vn -2.682398 -2.357080 -1.106709
v -0.027515 -0.046515 -0.018832 0.874510 0.945098 1.000000
vn -2.049219 2.055469 3.926989
v 0.006034 -0.005987 0.029000 0.874510 0.945098 1.000000
vn 0.003123 2.905580 3.924676
v 0.000023 -0.008477 0.029007 0.874510 0.945098 1.000000
vn 2.055467 2.055472 3.923721
v -0.005987 -0.005987 0.029010 0.874510 0.945098 1.000000
vn -2.899326 0.003126 3.929298
v 0.008523 0.000023 0.028993 0.874510 0.945098 1.000000
vn 0.284986 3.057939 2.784705
v 0.002324 0.025931 0.028978 0.874510 0.945098 1.000000
vn -2.049214 -2.049217 3.930258
v 0.006033 0.006034 0.028990 0.874510 0.945098 1.000000
vn 1.732516 2.541132 2.797086
v 0.014652 0.021530 0.028971 0.874510 0.945098 1.000000
vn 0.003130 -2.899325 3.929299
v 0.000023 0.008523 0.028993 0.874510 0.945098 1.000000
vn -2.055467 -2.055472 -3.923721
v 0.006029 0.006029 0.022990 0.874510 0.945098 1.000000
vn -1.226427 2.809461 2.768487
v -0.010585 0.023768 0.028990 0.874510 0.945098 1.000000
vn 2.055472 -2.049215 3.926990
v -0.005987 0.006033 0.029000 0.874510 0.945098 1.000000
vn -0.003123 -2.905580 -3.924676
v 0.000018 0.008518 0.022993 0.874510 0.945098 1.000000
vn 2.905579 0.003129 3.924677
v -0.008477 0.000023 0.029007 0.874510 0.945098 1.000000
vn 2.049219 -2.055469 -3.926989
v -0.005992 0.006029 0.023000 0.874510 0.945098 1.000000
vn -2.424846 1.864220 2.746575
v -0.020808 0.015588 0.029004 0.874510 0.945098 1.000000
vn 0.344156 -3.117449 -2.959204
v 0.002575 -0.025856 0.023019 0.874510 0.945098 1.000000
vn 0.626059 3.029738 -2.747672
v 0.004090 0.025707 0.022976 0.874510 0.945098 1.000000
vn -0.510860 3.010511 -2.469481
v -0.002801 0.025874 0.022982 0.874510 0.945098 1.000000
vn 2.750286 1.383022 2.806737
v 0.023275 0.011679 0.028972 0.874510 0.945098 1.000000
vn 1.106147 2.862727 -2.553229
v 0.010694 0.023737 0.022973 0.874510 0.945098 1.000000
vn 3.077336 -0.127548 2.814531
v 0.026007 -0.001122 0.028980 0.874510 0.945098 1.000000
vn 2.948671 0.938001 -2.718805
v 0.024447 0.008948 0.022973 0.874510 0.945098 1.000000
vn 3.021030 -0.673526 -2.702646
v 0.025601 -0.004665 0.022983 0.874510 0.945098 1.000000
vn 3.067325 0.390060 -2.694548
v 0.025934 0.002218 0.022978 0.874510 0.945098 1.000000
# 102 vertices, 0 vertices normals

f 1//1 2//2 3//3
f 4//4 3//3 2//2
f 5//5 1//1 3//3
f 6//6 7//7 3//3
f 8//8 3//3 7//7
f 9//9 6//6 3//3
f 4//4 9//9 3//3
f 10//10 3//3 8//8
f 11//11 3//3 10//10
f 12//12 3//3 11//11
f 13//13 5//5 3//3
f 14//14 13//13 3//3
f 12//12 14//14 3//3
f 1//1 15//15 2//2
f 16//16 2//2 15//15
f 4//4 2//2 16//16
f 1//1 17//17 15//15
f 18//18 15//15 17//17
f 19//19 15//15 18//18
f 19//19 20//20 15//15
f 16//16 15//15 20//20
f 21//21 22//22 17//17
f 23//23 17//17 22//22
f 1//1 21//21 17//17
f 24//24 25//25 17//17
f 18//18 17//17 25//25
f 26//26 24//24 17//17
f 27//27 17//17 23//23
f 28//28 26//26 17//17
f 29//29 28//28 17//17
f 30//30 29//29 17//17
f 31//31 17//17 27//27
f 32//32 30//30 17//17
f 33//33 32//32 17//17
f 31//31 33//33 17//17
f 34//34 22//22 21//21
f 23//23 22//22 34//34
f 1//1 35//35 21//21
f 36//36 21//21 35//35
f 36//36 34//34 21//21
f 37//37 35//35 1//1
f 37//37 36//36 35//35
f 38//38 37//37 1//1
f 38//38 1//1 5//5
f 39//39 40//40 41//41
f 24//24 41//41 40//40
f 42//42 39//39 41//41
f 43//43 41//41 24//24
f 43//43 37//37 41//41
f 38//38 41//41 37//37
f 44//44 42//42 41//41
f 45//45 44//44 41//41
f 38//38 45//45 41//41
f 39//39 25//25 40//40
f 24//24 40//40 25//25
f 11//11 25//25 39//39
f 11//11 18//18 25//25
f 42//42 11//11 39//39
f 46//46 24//24 47//47
f 48//48 47//47 24//24
f 43//43 24//24 46//46
f 49//49 24//24 26//26
f 49//49 50//50 24//24
f 51//51 24//24 50//50
f 52//52 48//48 24//24
f 51//51 52//52 24//24
f 53//53 54//54 18//18
f 19//19 18//18 54//54
f 55//55 53//53 18//18
f 56//56 55//55 18//18
f 57//57 56//56 18//18
f 58//58 57//57 18//18
f 11//11 58//58 18//18
f 7//7 54//54 53//53
f 6//6 19//19 54//54
f 6//6 54//54 7//7
f 8//8 53//53 55//55
f 8//8 7//7 53//53
f 59//59 60//60 55//55
f 61//61 55//55 60//60
f 56//56 59//59 55//55
f 8//8 55//55 61//61
f 59//59 62//62 60//60
f 63//63 60//60 62//62
f 61//61 60//60 63//63
f 64//64 65//65 62//62
f 66//66 62//62 65//65
f 59//59 64//64 62//62
f 63//63 62//62 66//66
f 16//16 20//20 65//65
f 67//67 65//65 20//20
f 64//64 16//16 65//65
f 66//66 65//65 67//67
f 9//9 20//20 19//19
f 67//67 20//20 9//9
f 9//9 19//19 6//6
f 4//4 16//16 64//64
f 68//68 64//64 59//59
f 4//4 64//64 68//68
f 69//69 59//59 56//56
f 68//68 59//59 69//69
f 70//70 56//56 57//57
f 69//69 56//56 70//70
f 70//70 57//57 58//58
f 68//68 67//67 9//9
f 4//4 68//68 9//9
f 68//68 66//66 67//67
f 69//69 63//63 66//66
f 68//68 69//69 66//66
f 70//70 61//61 63//63
f 69//69 70//70 63//63
f 58//58 8//8 61//61
f 70//70 58//58 61//61
f 58//58 10//10 8//8
f 11//11 10//10 58//58
f 71//71 72//72 73//73
f 42//42 73//73 72//72
f 74//74 71//71 73//73
f 44//44 74//74 73//73
f 44//44 73//73 42//42
f 75//75 76//76 72//72
f 12//12 72//72 76//76
f 71//71 75//75 72//72
f 42//42 72//72 12//12
f 77//77 78//78 76//76
f 14//14 76//76 78//78
f 75//75 77//77 76//76
f 12//12 76//76 14//14
f 13//13 78//78 77//77
f 14//14 78//78 13//13
f 5//5 77//77 75//75
f 13//13 77//77 5//5
f 38//38 75//75 71//71
f 38//38 5//5 75//75
f 45//45 71//71 74//74
f 38//38 71//71 45//45
f 45//45 74//74 44//44
f 34//34 79//79 80//80
f 26//26 80//80 79//79
f 34//34 80//80 81//81
f 28//28 81//81 80//80
f 28//28 80//80 26//26
f 46//46 82//82 79//79
f 49//49 79//79 82//82
f 46//46 79//79 34//34
f 49//49 26//26 79//79
f 83//83 84//84 82//82
f 50//50 82//82 84//84
f 85//85 83//83 82//82
f 46//46 85//85 82//82
f 49//49 82//82 50//50
f 83//83 86//86 84//84
f 87//87 84//84 86//86
f 50//50 84//84 87//87
f 88//88 89//89 86//86
f 90//90 86//86 89//89
f 83//83 88//88 86//86
f 87//87 86//86 90//90
f 88//88 91//91 89//89
f 92//92 89//89 91//91
f 90//90 89//89 92//92
f 34//34 81//81 91//91
f 29//29 91//91 81//81
f 93//93 34//34 91//91
f 88//88 93//93 91//91
f 92//92 91//91 29//29
f 29//29 81//81 28//28
f 93//93 23//23 34//34
f 37//37 46//46 34//34
f 94//94 34//34 36//36
f 94//94 37//37 34//34
f 27//27 23//23 93//93
f 33//33 93//93 88//88
f 31//31 27//27 93//93
f 31//31 93//93 33//33
f 30//30 88//88 83//83
f 32//32 88//88 30//30
f 33//33 88//88 32//32
f 95//95 83//83 85//85
f 96//96 83//83 95//95
f 30//30 83//83 96//96
f 47//47 97//97 85//85
f 51//51 85//85 97//97
f 46//46 47//47 85//85
f 98//98 85//85 51//51
f 95//95 85//85 98//98
f 47//47 99//99 97//97
f 100//100 97//97 99//99
f 52//52 97//97 100//100
f 51//51 97//97 52//52
f 101//101 99//99 47//47
f 102//102 99//99 101//101
f 100//100 99//99 102//102
f 101//101 47//47 48//48
f 43//43 46//46 37//37
f 96//96 92//92 29//29
f 30//30 96//96 29//29
f 96//96 90//90 92//92
f 95//95 87//87 90//90
f 96//96 95//95 90//90
f 98//98 50//50 87//87
f 95//95 98//98 87//87
f 98//98 51//51 50//50
f 100//100 101//101 48//48
f 52//52 100//100 48//48
f 100//100 102//102 101//101
f 42//42 12//12 11//11
f 94//94 36//36 37//37
# 208 faces, 0 coords texture

# End of File
