####
#
# OBJ File Generated by Meshlab
#
####
# Object index_r1.obj
#
# Vertices: 168
# Faces: 336
#
####
vn -2.848878 2.745696 -1.181313
v -0.002064 0.004998 -0.000861 0.874510 0.945098 1.000000
vn 1.753200 3.773233 2.414204
v -0.000439 0.004999 -0.000603 0.874510 0.945098 1.000000
vn -0.003003 3.772286 2.984831
v -0.000004 0.004999 -0.000744 0.874510 0.945098 1.000000
vn 0.003000 -3.767528 2.990833
v -0.000002 0.002799 -0.000742 0.874510 0.945098 1.000000
vn 1.569546 1.570795 -1.572046
v 0.002246 0.005000 -0.002404 0.874510 0.945098 1.000000
vn -1.759206 3.770437 2.414204
v 0.000431 0.005000 -0.000603 0.874510 0.945098 1.000000
vn -1.753203 -3.769384 2.420207
v 0.000433 0.002800 -0.000601 0.874510 0.945098 1.000000
vn -3.113754 2.942519 -0.308793
v -0.002254 0.004998 0.000096 0.874510 0.945098 1.000000
vn 2.838595 3.772905 0.920288
v -0.000708 0.004999 -0.000233 0.874510 0.945098 1.000000
vn 1.759203 -3.766588 2.420207
v -0.000437 0.002799 -0.000601 0.874510 0.945098 1.000000
vn 2.838596 3.771435 -0.926291
v -0.000708 0.005000 0.000225 0.874510 0.945098 1.000000
vn 2.844598 -3.766910 0.926291
v -0.000706 0.002799 -0.000231 0.874510 0.945098 1.000000
vn -1.572047 1.570795 1.569545
v -0.002254 0.005028 0.037596 0.874510 0.945098 1.000000
vn 1.753203 3.769384 -2.420207
v -0.000439 0.005000 0.000595 0.874510 0.945098 1.000000
vn 2.844599 -3.768381 -0.920288
v -0.000706 0.002800 0.000226 0.874510 0.945098 1.000000
vn -0.003000 3.767528 -2.990833
v -0.000004 0.005001 0.000736 0.874510 0.945098 1.000000
vn 1.759206 -3.770437 -2.414204
v -0.000437 0.002800 0.000596 0.874510 0.945098 1.000000
vn -1.759203 3.766588 -2.420207
v 0.000431 0.005001 0.000595 0.874510 0.945098 1.000000
vn 0.003003 -3.772286 -2.984831
v -0.000002 0.002801 0.000738 0.874510 0.945098 1.000000
vn -2.844598 3.766910 -0.926291
v 0.000700 0.005001 0.000225 0.874510 0.945098 1.000000
vn -1.753200 -3.773233 -2.414204
v 0.000433 0.002801 0.000596 0.874510 0.945098 1.000000
vn -2.844599 3.768381 0.920288
v 0.000700 0.005000 -0.000233 0.874510 0.945098 1.000000
vn -2.838595 -3.772905 -0.920288
v 0.000702 0.002801 0.000226 0.874510 0.945098 1.000000
vn -2.838596 -3.771435 0.926291
v 0.000702 0.002800 -0.000231 0.874510 0.945098 1.000000
vn -4.713639 1.568294 1.569545
v -0.002252 0.002528 0.037598 0.874510 0.945098 1.000000
vn 1.569544 1.573297 1.569545
v 0.002246 0.005032 0.037596 0.874510 0.945098 1.000000
vn 4.711136 1.575798 1.569545
v 0.002248 0.002532 0.037598 0.874510 0.945098 1.000000
vn -3.109064 -2.947962 -0.304103
v -0.002252 0.002798 0.000098 0.874510 0.945098 1.000000
vn -4.711138 -1.573297 1.572046
v -0.002248 -0.002472 0.037602 0.874510 0.945098 1.000000
vn -1.569546 -1.570795 1.572046
v -0.002246 -0.004972 0.037604 0.874510 0.945098 1.000000
vn -4.711136 -1.575798 -1.569545
v -0.002252 0.002800 0.002248 0.874510 0.945098 1.000000
vn -2.180940 2.745405 -2.180941
v -0.001522 0.004997 -0.001672 0.874510 0.945098 1.000000
vn -2.844501 -2.752107 -1.176935
v -0.002062 0.002798 -0.000859 0.874510 0.945098 1.000000
vn -1.181311 2.745696 -2.848878
v -0.000711 0.004998 -0.002214 0.874510 0.945098 1.000000
vn -2.176563 -2.752343 -2.176564
v -0.001520 0.002797 -0.001670 0.874510 0.945098 1.000000
vn -0.308791 2.942519 -3.113754
v 0.000246 0.004998 -0.002404 0.874510 0.945098 1.000000
vn -1.176934 -2.752106 -2.844501
v -0.000709 0.002798 -0.002212 0.874510 0.945098 1.000000
vn 1.572047 -1.570795 -1.569545
v 0.002248 0.002800 -0.002402 0.874510 0.945098 1.000000
vn -0.304101 -2.947962 -3.109064
v 0.000248 0.002798 -0.002402 0.874510 0.945098 1.000000
vn 4.711138 1.573297 -1.572046
v 0.002252 -0.002796 0.002252 0.874510 0.945098 1.000000
vn 1.572047 -1.570795 -1.569545
v 0.002254 -0.005000 -0.002396 0.874510 0.945098 1.000000
vn 4.713639 -1.568294 -1.569545
v 0.002248 0.002804 0.002248 0.874510 0.945098 1.000000
vn -3.109064 -2.947962 -0.304103
v -0.002246 -0.005002 0.000104 0.874510 0.945098 1.000000
vn 1.759207 -3.770435 -2.414204
v -0.000437 -0.005000 0.000611 0.874510 0.945098 1.000000
vn 0.003003 -3.772288 -2.984830
v 0.000004 -0.004999 0.000754 0.874510 0.945098 1.000000
vn -0.003000 3.767530 -2.990833
v 0.000002 -0.002799 0.000752 0.874510 0.945098 1.000000
vn 1.572045 -1.568294 1.572046
v 0.002254 -0.004968 0.037604 0.874510 0.945098 1.000000
vn -1.753201 -3.773232 -2.414204
v 0.000445 -0.004999 0.000611 0.874510 0.945098 1.000000
vn -1.759203 3.766587 -2.420207
v 0.000443 -0.002799 0.000609 0.874510 0.945098 1.000000
vn 2.844599 -3.768381 -0.920289
v -0.000709 -0.005000 0.000236 0.874510 0.945098 1.000000
vn 1.753204 3.769383 -2.420207
v -0.000439 -0.002800 0.000609 0.874510 0.945098 1.000000
vn 2.844598 -3.766911 0.926292
v -0.000709 -0.005001 -0.000228 0.874510 0.945098 1.000000
vn 2.838596 3.771436 -0.926292
v -0.000711 -0.002800 0.000234 0.874510 0.945098 1.000000
vn -2.844501 -2.752107 -1.176935
v -0.002056 -0.005002 -0.000853 0.874510 0.945098 1.000000
vn 1.759203 -3.766587 2.420207
v -0.000437 -0.005001 -0.000603 0.874510 0.945098 1.000000
vn 2.838595 3.772906 0.920289
v -0.000711 -0.002801 -0.000230 0.874510 0.945098 1.000000
vn 0.003000 -3.767530 2.990833
v 0.000004 -0.005001 -0.000746 0.874510 0.945098 1.000000
vn 1.753201 3.773232 2.414204
v -0.000439 -0.002801 -0.000605 0.874510 0.945098 1.000000
vn -2.176563 -2.752343 -2.176564
v -0.001514 -0.005003 -0.001664 0.874510 0.945098 1.000000
vn -1.753204 -3.769383 2.420207
v 0.000445 -0.005000 -0.000603 0.874510 0.945098 1.000000
vn -0.003003 3.772288 2.984830
v 0.000002 -0.002801 -0.000748 0.874510 0.945098 1.000000
vn -1.176934 -2.752106 -2.844501
v -0.000703 -0.005002 -0.002206 0.874510 0.945098 1.000000
vn -2.838596 -3.771436 0.926292
v 0.000717 -0.005000 -0.000228 0.874510 0.945098 1.000000
vn -1.759207 3.770435 2.414204
v 0.000443 -0.002800 -0.000605 0.874510 0.945098 1.000000
vn -2.838595 -3.772906 -0.920289
v 0.000717 -0.004999 0.000236 0.874510 0.945098 1.000000
vn -2.844599 3.768381 0.920289
v 0.000716 -0.002800 -0.000230 0.874510 0.945098 1.000000
vn -0.304101 -2.947962 -3.109064
v 0.000254 -0.005002 -0.002396 0.874510 0.945098 1.000000
vn -2.844598 3.766911 -0.926292
v 0.000716 -0.002799 0.000234 0.874510 0.945098 1.000000
vn -3.113754 2.942519 -0.308793
v -0.002248 -0.002802 0.000102 0.874510 0.945098 1.000000
vn -2.848878 2.745696 -1.181313
v -0.002057 -0.002802 -0.000854 0.874510 0.945098 1.000000
vn -4.713637 1.565793 -1.572046
v -0.002248 -0.002800 0.002252 0.874510 0.945098 1.000000
vn 4.713637 -1.565793 1.572046
v 0.002252 -0.002468 0.037602 0.874510 0.945098 1.000000
vn -0.308791 2.942519 -3.113754
v 0.000252 -0.002802 -0.002398 0.874510 0.945098 1.000000
vn 1.569546 1.570795 -1.572046
v 0.002252 -0.002800 -0.002398 0.874510 0.945098 1.000000
vn -1.181311 2.745696 -2.848878
v -0.000704 -0.002802 -0.002207 0.874510 0.945098 1.000000
vn -2.180940 2.745405 -2.180941
v -0.001516 -0.002803 -0.001666 0.874510 0.945098 1.000000
vn -1.569546 -1.570795 1.572046
v -0.002248 -0.002468 0.042252 0.874510 0.945098 1.000000
vn 1.572045 -1.568294 1.572046
v 0.002252 -0.002465 0.042252 0.874510 0.945098 1.000000
vn 1.569544 1.573297 1.569545
v 0.002248 0.002535 0.042248 0.874510 0.945098 1.000000
vn -1.572047 1.570795 1.569545
v -0.002252 0.002532 0.042248 0.874510 0.945098 1.000000
vn -1.520224 3.661825 -2.630920
v 0.000523 0.002533 0.040907 0.874510 0.945098 1.000000
vn -2.630882 3.661906 -1.520225
v 0.000907 0.002533 0.040523 0.874510 0.945098 1.000000
vn 1.520228 -3.666010 -2.625084
v -0.000523 -0.002468 0.040911 0.874510 0.945098 1.000000
vn -2.625048 -3.666091 1.520225
v 0.000911 -0.002468 0.039477 0.874510 0.945098 1.000000
vn 0.002920 -3.667686 -3.031593
v 0.000002 -0.002467 0.041052 0.874510 0.945098 1.000000
vn -1.514388 -3.668426 -2.625084
v 0.000527 -0.002467 0.040911 0.874510 0.945098 1.000000
vn -3.031622 -3.667617 0.002918
v 0.001052 -0.002467 0.040002 0.874510 0.945098 1.000000
vn -2.625046 -3.668507 -1.514389
v 0.000911 -0.002467 0.040527 0.874510 0.945098 1.000000
vn 2.630884 -3.664322 -1.514389
v -0.000907 -0.002468 0.040527 0.874510 0.945098 1.000000
vn 2.625046 3.668507 1.514389
v -0.000911 0.002531 0.039473 0.874510 0.945098 1.000000
vn -0.002916 3.662854 -3.037430
v -0.000002 0.002533 0.041048 0.874510 0.945098 1.000000
vn 1.514392 3.664241 -2.630920
v -0.000527 0.002532 0.040907 0.874510 0.945098 1.000000
vn 3.031622 3.667617 -0.002918
v -0.001052 0.002531 0.039998 0.874510 0.945098 1.000000
vn 2.625048 3.666091 -1.520225
v -0.000911 0.002532 0.040523 0.874510 0.945098 1.000000
vn 1.514388 3.668426 2.625084
v -0.000527 0.002531 0.039089 0.874510 0.945098 1.000000
vn -1.514392 -3.664241 2.630920
v 0.000527 -0.002468 0.039093 0.874510 0.945098 1.000000
vn 3.037458 -3.662785 0.002918
v -0.001048 -0.002469 0.040002 0.874510 0.945098 1.000000
vn 2.630882 -3.661906 1.520225
v -0.000907 -0.002469 0.039477 0.874510 0.945098 1.000000
vn 1.520224 -3.661825 2.630920
v -0.000523 -0.002469 0.039093 0.874510 0.945098 1.000000
vn 0.002916 -3.662854 3.037430
v 0.000002 -0.002469 0.038952 0.874510 0.945098 1.000000
vn -3.037458 3.662785 -0.002918
v 0.001048 0.002533 0.039998 0.874510 0.945098 1.000000
vn -2.630884 3.664322 1.514389
v 0.000907 0.002532 0.039473 0.874510 0.945098 1.000000
vn -1.520228 3.666010 2.625084
v 0.000523 0.002532 0.039089 0.874510 0.945098 1.000000
vn -0.002920 3.667686 3.031593
v -0.000002 0.002531 0.038948 0.874510 0.945098 1.000000
vn 2.749811 -1.174700 2.847606
v -0.002248 -0.001902 0.016621 0.000000 0.000000 1.000000
vn 2.749827 -1.179216 -2.845740
v -0.002248 -0.001909 0.007382 0.000000 0.000000 1.000000
vn 2.748898 -0.000265 -3.081228
v -0.002250 0.000004 0.007000 0.000000 0.000000 1.000000
vn -2.748894 -0.004642 -3.081228
v -0.003750 0.000003 0.007000 0.000000 0.000000 1.000000
vn 2.748894 0.004642 3.081228
v -0.002250 0.000012 0.017000 0.000000 0.000000 1.000000
vn 2.747950 1.179060 -2.847618
v -0.002252 0.001918 0.007379 0.000000 0.000000 1.000000
vn -2.749824 1.174683 -2.847618
v -0.003752 0.001916 0.007379 0.000000 0.000000 1.000000
vn 2.750651 -2.174849 2.180485
v -0.002247 -0.003525 0.015538 0.000000 0.000000 1.000000
vn 2.750632 -2.178309 -2.177016
v -0.002247 -0.003531 0.008467 0.000000 0.000000 1.000000
vn -2.747946 -1.183593 -2.845740
v -0.003748 -0.001911 0.007382 0.000000 0.000000 1.000000
vn 2.751151 -2.843548 1.181411
v -0.002246 -0.004610 0.013917 0.000000 0.000000 1.000000
vn 2.751162 -2.845433 -1.176867
v -0.002246 -0.004613 0.010090 0.000000 0.000000 1.000000
vn -2.747160 -2.182686 -2.177016
v -0.003747 -0.003532 0.008467 0.000000 0.000000 1.000000
vn 2.751345 -3.079037 0.002453
v -0.002246 -0.004992 0.012004 0.000000 0.000000 1.000000
vn -2.746627 -2.849810 -1.176867
v -0.003746 -0.004614 0.010090 0.000000 0.000000 1.000000
vn -2.746438 -3.083414 0.002453
v -0.003746 -0.004993 0.012004 0.000000 0.000000 1.000000
vn -2.746620 -2.847925 1.181411
v -0.003746 -0.004611 0.013917 0.000000 0.000000 1.000000
vn -2.747184 -2.179226 2.180485
v -0.003747 -0.003526 0.015538 0.000000 0.000000 1.000000
vn -2.747937 -1.179077 2.847606
v -0.003748 -0.001903 0.016621 0.000000 0.000000 1.000000
vn 2.747933 1.183610 2.845729
v -0.002252 0.001925 0.016618 0.000000 0.000000 1.000000
vn -2.748898 0.000265 3.081228
v -0.003750 0.000011 0.017000 0.000000 0.000000 1.000000
vn 2.747163 2.179217 -2.180485
v -0.002253 0.003540 0.008462 0.000000 0.000000 1.000000
vn 2.747182 2.182695 2.177016
v -0.002253 0.003546 0.015533 0.000000 0.000000 1.000000
vn -2.749814 1.179233 2.845729
v -0.003752 0.001924 0.016618 0.000000 0.000000 1.000000
vn 2.746629 2.847932 -1.181400
v -0.002254 0.004626 0.010083 0.000000 0.000000 1.000000
vn 2.746619 2.849802 1.176879
v -0.002254 0.004629 0.013910 0.000000 0.000000 1.000000
vn -2.750654 2.178318 2.177016
v -0.003753 0.003545 0.015533 0.000000 0.000000 1.000000
vn 2.746438 3.083414 -0.002453
v -0.002254 0.005008 0.011996 0.000000 0.000000 1.000000
vn -2.751153 2.845425 1.176879
v -0.003754 0.004627 0.013910 0.000000 0.000000 1.000000
vn -2.751345 3.079037 -0.002453
v -0.003754 0.005007 0.011996 0.000000 0.000000 1.000000
vn -2.751160 2.843555 -1.181400
v -0.003754 0.004624 0.010083 0.000000 0.000000 1.000000
vn -2.750629 2.174840 -2.180485
v -0.003753 0.003539 0.008462 0.000000 0.000000 1.000000
vn 2.746618 2.849802 1.176879
v -0.002254 0.004641 0.029910 0.000000 0.000000 1.000000
vn 2.751151 -2.843547 1.181412
v -0.002246 -0.004597 0.029917 0.000000 0.000000 1.000000
vn 2.751345 -3.079037 0.002453
v -0.002246 -0.004979 0.028004 0.000000 0.000000 1.000000
vn -2.746439 -3.083414 0.002453
v -0.003746 -0.004981 0.028004 0.000000 0.000000 1.000000
vn 2.746439 3.083414 -0.002453
v -0.002254 0.005020 0.027996 0.000000 0.000000 1.000000
vn 2.751153 -2.845425 -1.176879
v -0.002246 -0.004600 0.026090 0.000000 0.000000 1.000000
vn -2.746618 -2.849802 -1.176879
v -0.003746 -0.004602 0.026090 0.000000 0.000000 1.000000
vn 2.747182 2.182695 2.177017
v -0.002253 0.003559 0.031533 0.000000 0.000000 1.000000
vn 2.750651 -2.174849 2.180486
v -0.002247 -0.003512 0.031538 0.000000 0.000000 1.000000
vn -2.746620 -2.847924 1.181412
v -0.003746 -0.004599 0.029917 0.000000 0.000000 1.000000
vn 2.747933 1.183610 2.845729
v -0.002252 0.001938 0.032618 0.000000 0.000000 1.000000
vn 2.749811 -1.174700 2.847606
v -0.002248 -0.001889 0.032621 0.000000 0.000000 1.000000
vn -2.747185 -2.179226 2.180486
v -0.003747 -0.003513 0.031538 0.000000 0.000000 1.000000
vn 2.748894 0.004642 3.081228
v -0.002250 0.000024 0.033000 0.000000 0.000000 1.000000
vn -2.747937 -1.179077 2.847606
v -0.003748 -0.001890 0.032621 0.000000 0.000000 1.000000
vn -2.748898 0.000265 3.081228
v -0.003750 0.000023 0.033000 0.000000 0.000000 1.000000
vn -2.749814 1.179233 2.845729
v -0.003752 0.001936 0.032618 0.000000 0.000000 1.000000
vn -2.750654 2.178318 2.177017
v -0.003753 0.003558 0.031533 0.000000 0.000000 1.000000
vn -2.751153 2.845425 1.176879
v -0.003754 0.004640 0.029910 0.000000 0.000000 1.000000
vn 2.746620 2.847924 -1.181412
v -0.002254 0.004638 0.026083 0.000000 0.000000 1.000000
vn -2.751345 3.079037 -0.002453
v -0.003754 0.005019 0.027996 0.000000 0.000000 1.000000
vn 2.750654 -2.178318 -2.177017
v -0.002247 -0.003518 0.024467 0.000000 0.000000 1.000000
vn 2.747185 2.179226 -2.180486
v -0.002253 0.003553 0.024462 0.000000 0.000000 1.000000
vn -2.751151 2.843547 -1.181412
v -0.003754 0.004637 0.026083 0.000000 0.000000 1.000000
vn 2.749814 -1.179233 -2.845729
v -0.002248 -0.001897 0.023382 0.000000 0.000000 1.000000
vn 2.747937 1.179077 -2.847606
v -0.002252 0.001930 0.023379 0.000000 0.000000 1.000000
vn -2.750651 2.174849 -2.180486
v -0.003753 0.003552 0.024462 0.000000 0.000000 1.000000
vn 2.748898 -0.000265 -3.081228
v -0.002250 0.000017 0.023000 0.000000 0.000000 1.000000
vn -2.749811 1.174700 -2.847606
v -0.003752 0.001929 0.023379 0.000000 0.000000 1.000000
vn -2.748894 -0.004642 -3.081228
v -0.003750 0.000015 0.023000 0.000000 0.000000 1.000000
vn -2.747933 -1.183610 -2.845729
v -0.003748 -0.001898 0.023382 0.000000 0.000000 1.000000
vn -2.747182 -2.182695 -2.177017
v -0.003747 -0.003519 0.024467 0.000000 0.000000 1.000000
# 168 vertices, 0 vertices normals

f 1//1 2//2 3//3
f 4//4 3//3 2//2
f 5//5 3//3 6//6
f 7//7 6//6 3//3
f 5//5 1//1 3//3
f 7//7 3//3 4//4
f 8//8 9//9 2//2
f 10//10 2//2 9//9
f 1//1 8//8 2//2
f 10//10 4//4 2//2
f 8//8 11//11 9//9
f 12//12 9//9 11//11
f 10//10 9//9 12//12
f 13//13 14//14 11//11
f 15//15 11//11 14//14
f 8//8 13//13 11//11
f 12//12 11//11 15//15
f 13//13 16//16 14//14
f 17//17 14//14 16//16
f 15//15 14//14 17//17
f 13//13 18//18 16//16
f 19//19 16//16 18//18
f 17//17 16//16 19//19
f 13//13 20//20 18//18
f 21//21 18//18 20//20
f 19//19 18//18 21//21
f 5//5 22//22 20//20
f 23//23 20//20 22//22
f 5//5 20//20 13//13
f 21//21 20//20 23//23
f 5//5 6//6 22//22
f 24//24 22//22 6//6
f 23//23 22//22 24//24
f 24//24 6//6 7//7
f 25//25 13//13 8//8
f 26//26 5//5 13//13
f 27//27 26//26 13//13
f 27//27 13//13 25//25
f 28//28 8//8 1//1
f 29//29 8//8 30//30
f 31//31 30//30 8//8
f 31//31 8//8 28//28
f 29//29 25//25 8//8
f 5//5 32//32 1//1
f 33//33 1//1 32//32
f 33//33 28//28 1//1
f 5//5 34//34 32//32
f 35//35 32//32 34//34
f 33//33 32//32 35//35
f 5//5 36//36 34//34
f 37//37 34//34 36//36
f 35//35 34//34 37//37
f 38//38 36//36 5//5
f 38//38 39//39 36//36
f 37//37 36//36 39//39
f 38//38 5//5 26//26
f 40//40 26//26 41//41
f 27//27 41//41 26//26
f 42//42 38//38 26//26
f 40//40 42//42 26//26
f 43//43 44//44 45//45
f 46//46 45//45 44//44
f 47//47 45//45 48//48
f 49//49 48//48 45//45
f 47//47 43//43 45//45
f 49//49 45//45 46//46
f 43//43 50//50 44//44
f 51//51 44//44 50//50
f 51//51 46//46 44//44
f 43//43 52//52 50//50
f 53//53 50//50 52//52
f 51//51 50//50 53//53
f 54//54 55//55 52//52
f 56//56 52//52 55//55
f 54//54 52//52 43//43
f 53//53 52//52 56//56
f 54//54 57//57 55//55
f 58//58 55//55 57//57
f 56//56 55//55 58//58
f 59//59 60//60 57//57
f 61//61 57//57 60//60
f 54//54 59//59 57//57
f 58//58 57//57 61//61
f 62//62 63//63 60//60
f 64//64 60//60 63//63
f 59//59 62//62 60//60
f 61//61 60//60 64//64
f 47//47 65//65 63//63
f 66//66 63//63 65//65
f 41//41 47//47 63//63
f 67//67 41//41 63//63
f 62//62 67//67 63//63
f 64//64 63//63 66//66
f 47//47 48//48 65//65
f 68//68 65//65 48//48
f 66//66 65//65 68//68
f 68//68 48//48 49//49
f 47//47 30//30 43//43
f 69//69 43//43 30//30
f 70//70 54//54 43//43
f 70//70 43//43 69//69
f 29//29 30//30 47//47
f 71//71 69//69 30//30
f 31//31 71//71 30//30
f 72//72 47//47 41//41
f 72//72 29//29 47//47
f 73//73 41//41 67//67
f 74//74 41//41 73//73
f 40//40 41//41 74//74
f 27//27 72//72 41//41
f 73//73 67//67 62//62
f 75//75 62//62 59//59
f 75//75 73//73 62//62
f 76//76 59//59 54//54
f 75//75 59//59 76//76
f 76//76 54//54 70//70
f 77//77 78//78 79//79
f 72//72 79//79 78//78
f 80//80 77//77 79//79
f 81//81 80//80 79//79
f 27//27 79//79 72//72
f 82//82 79//79 27//27
f 82//82 81//81 79//79
f 83//83 78//78 77//77
f 84//84 72//72 78//78
f 83//83 85//85 78//78
f 86//86 78//78 85//85
f 87//87 84//84 78//78
f 88//88 87//87 78//78
f 86//86 88//88 78//78
f 25//25 77//77 80//80
f 29//29 77//77 25//25
f 89//89 77//77 29//29
f 89//89 83//83 77//77
f 90//90 25//25 80//80
f 81//81 91//91 80//80
f 92//92 80//80 91//91
f 93//93 90//90 80//80
f 94//94 93//93 80//80
f 92//92 94//94 80//80
f 42//42 31//31 28//28
f 19//19 42//42 28//28
f 17//17 19//19 28//28
f 15//15 17//17 28//28
f 12//12 15//15 28//28
f 33//33 12//12 28//28
f 95//95 27//27 25//25
f 90//90 95//95 25//25
f 96//96 29//29 72//72
f 97//97 89//89 29//29
f 98//98 97//97 29//29
f 99//99 98//98 29//29
f 100//100 99//99 29//29
f 96//96 100//100 29//29
f 53//53 69//69 71//71
f 56//56 58//58 69//69
f 70//70 69//69 58//58
f 53//53 56//56 69//69
f 40//40 71//71 31//31
f 49//49 71//71 40//40
f 49//49 46//46 71//71
f 51//51 71//71 46//46
f 51//51 53//53 71//71
f 40//40 31//31 42//42
f 42//42 39//39 38//38
f 24//24 39//39 42//42
f 37//37 39//39 24//24
f 75//75 74//74 73//73
f 68//68 40//40 74//74
f 66//66 68//68 74//74
f 64//64 66//66 74//74
f 61//61 64//64 74//74
f 70//70 61//61 74//74
f 76//76 70//70 74//74
f 75//75 76//76 74//74
f 23//23 24//24 42//42
f 21//21 23//23 42//42
f 19//19 21//21 42//42
f 68//68 49//49 40//40
f 84//84 96//96 72//72
f 101//101 82//82 27//27
f 102//102 101//101 27//27
f 103//103 102//102 27//27
f 104//104 103//103 27//27
f 95//95 104//104 27//27
f 35//35 7//7 4//4
f 33//33 4//4 10//10
f 33//33 35//35 4//4
f 37//37 24//24 7//7
f 35//35 37//37 7//7
f 33//33 10//10 12//12
f 70//70 58//58 61//61
f 85//85 91//91 81//81
f 83//83 92//92 91//91
f 83//83 91//91 85//85
f 86//86 81//81 82//82
f 86//86 85//85 81//81
f 88//88 82//82 101//101
f 86//86 82//82 88//88
f 87//87 101//101 102//102
f 88//88 101//101 87//87
f 84//84 102//102 103//103
f 87//87 102//102 84//84
f 96//96 103//103 104//104
f 84//84 103//103 96//96
f 100//100 104//104 95//95
f 96//96 104//104 100//100
f 99//99 95//95 90//90
f 100//100 95//95 99//99
f 98//98 90//90 93//93
f 99//99 90//90 98//98
f 97//97 93//93 94//94
f 98//98 93//93 97//97
f 89//89 94//94 92//92
f 97//97 94//94 89//89
f 89//89 92//92 83//83
f 105//105 106//106 107//107
f 108//108 107//107 106//106
f 109//109 105//105 107//107
f 110//110 109//109 107//107
f 111//111 110//110 107//107
f 111//111 107//107 108//108
f 112//112 113//113 106//106
f 114//114 106//106 113//113
f 105//105 112//112 106//106
f 114//114 108//108 106//106
f 115//115 116//116 113//113
f 117//117 113//113 116//116
f 112//112 115//115 113//113
f 114//114 113//113 117//117
f 115//115 118//118 116//116
f 119//119 116//116 118//118
f 117//117 116//116 119//119
f 120//120 118//118 115//115
f 119//119 118//118 120//120
f 121//121 115//115 112//112
f 120//120 115//115 121//121
f 122//122 112//112 105//105
f 121//121 112//112 122//122
f 123//123 105//105 109//109
f 122//122 105//105 123//123
f 110//110 124//124 109//109
f 125//125 109//109 124//124
f 123//123 109//109 125//125
f 126//126 127//127 124//124
f 128//128 124//124 127//127
f 110//110 126//126 124//124
f 125//125 124//124 128//128
f 129//129 130//130 127//127
f 131//131 127//127 130//130
f 126//126 129//129 127//127
f 128//128 127//127 131//131
f 129//129 132//132 130//130
f 133//133 130//130 132//132
f 131//131 130//130 133//133
f 134//134 132//132 129//129
f 133//133 132//132 134//134
f 135//135 129//129 126//126
f 134//134 129//129 135//135
f 136//136 126//126 110//110
f 135//135 126//126 136//136
f 136//136 110//110 111//111
f 128//128 111//111 108//108
f 125//125 128//128 108//108
f 114//114 125//125 108//108
f 131//131 136//136 111//111
f 128//128 131//131 111//111
f 133//133 135//135 136//136
f 131//131 133//133 136//136
f 133//133 134//134 135//135
f 114//114 123//123 125//125
f 117//117 122//122 123//123
f 114//114 117//117 123//123
f 119//119 121//121 122//122
f 117//117 119//119 122//122
f 119//119 120//120 121//121
f 137//137 138//138 139//139
f 140//140 139//139 138//138
f 141//141 137//137 139//139
f 142//142 141//141 139//139
f 143//143 142//142 139//139
f 143//143 139//139 140//140
f 144//144 145//145 138//138
f 146//146 138//138 145//145
f 137//137 144//144 138//138
f 146//146 140//140 138//138
f 147//147 148//148 145//145
f 149//149 145//145 148//148
f 144//144 147//147 145//145
f 146//146 145//145 149//149
f 147//147 150//150 148//148
f 151//151 148//148 150//150
f 149//149 148//148 151//151
f 152//152 150//150 147//147
f 151//151 150//150 152//152
f 153//153 147//147 144//144
f 152//152 147//147 153//153
f 154//154 144//144 137//137
f 153//153 144//144 154//154
f 155//155 137//137 141//141
f 154//154 137//137 155//155
f 142//142 156//156 141//141
f 157//157 141//141 156//156
f 155//155 141//141 157//157
f 158//158 159//159 156//156
f 160//160 156//156 159//159
f 142//142 158//158 156//156
f 157//157 156//156 160//160
f 161//161 162//162 159//159
f 163//163 159//159 162//162
f 158//158 161//161 159//159
f 160//160 159//159 163//163
f 161//161 164//164 162//162
f 165//165 162//162 164//164
f 163//163 162//162 165//165
f 166//166 164//164 161//161
f 165//165 164//164 166//166
f 167//167 161//161 158//158
f 166//166 161//161 167//167
f 168//168 158//158 142//142
f 167//167 158//158 168//168
f 168//168 142//142 143//143
f 160//160 143//143 140//140
f 157//157 160//160 140//140
f 146//146 157//157 140//140
f 163//163 168//168 143//143
f 160//160 163//163 143//143
f 165//165 167//167 168//168
f 163//163 165//165 168//168
f 165//165 166//166 167//167
f 146//146 155//155 157//157
f 149//149 154//154 155//155
f 146//146 149//149 155//155
f 151//151 153//153 154//154
f 149//149 151//151 154//154
f 151//151 152//152 153//153
# 336 faces, 0 coords texture

# End of File
