#VRML V2.0 utf8


Group {
  children 
    DEF _+0 Group {
      children 
        DEF _+1 Transform {
          translation 0 0 0
          rotation -0 -1.0000001 -0  0.86999989
          scale 1 1 1
          scaleOrientation 0 0 1  0
          center 0 0 0
          children 
            DEF _+2 Group {
              children 
                DEF _+3 Transform {
                  scale 0.001 0.001 0.001
                  children 
                    DEF _+4 Group {
                      children 
                        DEF _+5 Shape {
                          appearance 
                          Appearance {
                            material 
                            Material {
                              diffuseColor 1 1 0.949

                            }

                          }
                          geometry 
                          IndexedFaceSet {
                            coord 
                            Coordinate {
                              point [ -25.678699 8.3424902 -1.2767599e-012,
                                  -25.2031 8.1879997 -1.25312e-012,
                                  -26.5 2.27374e-013 -1.3176e-012,
                                  -25.4266 7.1005001 2.30709,
                                  -27 2.27374e-013 -1.34246e-012,
                                  -25.2031 -8.1879997 -1.25312e-012,
                                  -25.4266 -7.1062799 2.2892399,
                                  -25.4266 6.0386701 4.3902502,
                                  -25.4266 4.3845601 6.04281,
                                  -25.4266 2.3004 7.1026802,
                                  -25.4266 -0.0093819397 7.46591,
                                  -25.4266 -2.3182399 7.0968699,
                                  -25.4266 -4.3997302 6.0317702,
                                  -25.4266 -6.0496898 4.3750601,
                                  -21.438499 15.5766 -1.06594e-012,
                                  -22.2932 13.6258 4.4272799,
                                  -21.843 15.8705 -1.08605e-012,
                                  -15.5756 21.4394 -7.7443298e-013,
                                  -17.3538 19.047199 6.1887999,
                                  -15.8695 21.843901 -7.8904499e-013,
                                  -8.18995 25.2026 -4.0721099e-013,
                                  -11.0085 22.925501 7.4489298,
                                  -8.3444796 25.678101 -4.14894e-013,
                                  9.7699601e-015 26.4998 -2.20805e-028,
                                  -3.7713399 24.946501 8.1056004,
                                  8.3444796 25.678101 4.14894e-013,
                                  8.18995 25.2026 4.0721099e-013,
                                  3.7713399 24.946501 8.1056004,
                                  9.7699601e-015 26.9998 -2.20805e-028,
                                  15.8695 21.843901 7.8904499e-013,
                                  15.5756 21.4394 7.7443298e-013,
                                  11.0085 22.925501 7.4489298,
                                  21.843 15.8705 1.08605e-012,
                                  21.438499 15.5766 1.06594e-012,
                                  17.3538 19.047199 6.1887999,
                                  25.678699 8.3424902 1.2767599e-012,
                                  25.2031 8.1879997 1.25312e-012,
                                  22.2932 13.6258 4.4272799,
                                  27 2.27374e-013 1.34246e-012,
                                  26.5 2.27374e-013 1.3176e-012,
                                  25.4266 7.1005001 2.30709,
                                  25.678699 -8.3424902 1.2767599e-012,
                                  25.2031 -8.1879997 1.25312e-012,
                                  25.4266 -7.1062799 2.2892399,
                                  25.4266 6.0386701 4.3902502,
                                  25.4266 4.3845601 6.04281,
                                  25.4266 2.3004 7.1026802,
                                  25.4266 -0.0093819397 7.46591,
                                  25.4266 -2.3182399 7.0968699,
                                  25.4266 -4.3997302 6.0317702,
                                  25.4266 -6.0496898 4.3750601,
                                  21.438499 -15.5766 1.06594e-012,
                                  22.2932 -13.6369 4.3930202,
                                  21.843 -15.8705 1.08605e-012,
                                  15.5756 -21.4394 7.7443298e-013,
                                  17.3538 -19.062599 6.1409101,
                                  15.8695 -21.843901 7.8904499e-013,
                                  8.18995 -25.2026 4.0721099e-013,
                                  11.0085 -22.944099 7.3912902,
                                  8.3444796 -25.678101 4.14894e-013,
                                  9.7699601e-015 -26.4998 -2.20805e-028,
                                  3.7713399 -24.966801 8.0428801,
                                  -8.3444796 -25.678101 -4.14894e-013,
                                  -8.18995 -25.2026 -4.0721099e-013,
                                  -3.7713399 -24.966801 8.0428801,
                                  9.7699601e-015 -26.9998 -2.20805e-028,
                                  -15.8695 -21.843901 -7.8904499e-013,
                                  -15.5756 -21.4394 -7.7443298e-013,
                                  -11.0085 -22.944099 7.3912902,
                                  -21.843 -15.8705 -1.08605e-012,
                                  -21.438499 -15.5766 -1.06594e-012,
                                  -17.3538 -19.062599 6.1409101,
                                  -25.678699 -8.3424902 -1.2767599e-012,
                                  -22.2932 -13.6369 4.3930202,
                                  25.9063 7.2344799 2.35062,
                                  25.9063 -7.2403598 2.3324299,
                                  25.9063 6.1526098 4.4730902,
                                  25.9063 4.4672899 6.1568198,
                                  25.9063 2.3438001 7.23669,
                                  25.9063 -0.0095589599 7.60677,
                                  25.9063 -2.36198 7.2307801,
                                  25.9063 -4.4827399 6.1455698,
                                  25.9063 -6.1638298 4.4576101,
                                  22.7138 13.8829 4.5108099,
                                  17.6812 19.4065 6.3055701,
                                  11.2162 23.358 7.5894799,
                                  3.8425 25.4172 8.2585297,
                                  -3.8425 25.4172 8.2585297,
                                  -11.2162 23.358 7.5894799,
                                  -17.6812 19.4065 6.3055701,
                                  -22.7138 13.8829 4.5108099,
                                  -25.9063 7.2344799 2.35062,
                                  -25.9063 -7.2403598 2.3324299,
                                  -25.9063 6.1526098 4.4730902,
                                  -25.9063 4.4672899 6.1568198,
                                  -25.9063 2.3438001 7.23669,
                                  -25.9063 -0.0095589599 7.60677,
                                  -25.9063 -2.36198 7.2307801,
                                  -25.9063 -4.4827399 6.1455698,
                                  -25.9063 -6.1638298 4.4576101,
                                  -22.7138 -13.8942 4.4759102,
                                  -17.6812 -19.4223 6.2567701,
                                  -11.2162 -23.377001 7.5307498,
                                  -3.8425 -25.437799 8.1946297,
                                  3.8425 -25.437799 8.1946297,
                                  11.2162 -23.377001 7.5307498,
                                  17.6812 -19.4223 6.2567701,
                                  22.7138 -13.8942 4.4759102,
                                  -22.2932 11.5881 8.4248304,
                                  -17.3538 16.198799 11.7769,
                                  -11.0085 19.497101 14.1748,
                                  -3.7713399 21.2159 15.4244,
                                  3.7713399 21.2159 15.4244,
                                  11.0085 19.497101 14.1748,
                                  17.3538 16.198799 11.7769,
                                  22.2932 11.5881 8.4248304,
                                  -22.2932 8.4139004 11.5961,
                                  -17.3538 11.7616 16.2099,
                                  -11.0085 14.1565 19.5105,
                                  -3.7713399 15.4044 21.2304,
                                  3.7713399 15.4044 21.2304,
                                  11.0085 14.1565 19.5105,
                                  17.3538 11.7616 16.2099,
                                  22.2932 8.4139004 11.5961,
                                  -22.2932 4.4144402 13.6299,
                                  -17.3538 6.1708398 19.052999,
                                  -11.0085 7.42732 22.932501,
                                  -3.7713399 8.0820799 24.9541,
                                  3.7713399 8.0820799 24.9541,
                                  11.0085 7.42732 22.932501,
                                  17.3538 6.1708398 19.052999,
                                  22.2932 4.4144402 13.6299,
                                  -22.2932 -0.018003801 14.327,
                                  -17.3538 -0.0251671 20.0273,
                                  -11.0085 -0.0302915 24.1052,
                                  -3.7713399 -0.032961901 26.2302,
                                  3.7713399 -0.032961901 26.2302,
                                  11.0085 -0.0302915 24.1052,
                                  17.3538 -0.0251671 20.0273,
                                  22.2932 -0.018003801 14.327,
                                  -22.2932 -4.4486799 13.6188,
                                  -17.3538 -6.2187099 19.037399,
                                  -11.0085 -7.48493 22.9137,
                                  -3.7713399 -8.1447697 24.933701,
                                  3.7713399 -8.1447697 24.933701,
                                  11.0085 -7.48493 22.9137,
                                  17.3538 -6.2187099 19.037399,
                                  22.2932 -4.4486799 13.6188,
                                  -22.2932 -8.4430199 11.5749,
                                  -17.3538 -11.8023 16.1803,
                                  -11.0085 -14.2054 19.4748,
                                  -3.7713399 -15.4577 21.191601,
                                  3.7713399 -15.4577 21.191601,
                                  11.0085 -14.2054 19.4748,
                                  17.3538 -11.8023 16.1803,
                                  22.2932 -8.4430199 11.5749,
                                  -22.2932 -11.6093 8.3956804,
                                  -17.3538 -16.2283 11.7361,
                                  -11.0085 -19.5327 14.1258,
                                  -3.7713399 -21.254601 15.3711,
                                  3.7713399 -21.254601 15.3711,
                                  11.0085 -19.5327 14.1258,
                                  17.3538 -16.2283 11.7361,
                                  22.2932 -11.6093 8.3956804,
                                  22.7138 11.8068 8.5837898,
                                  17.6812 16.5044 11.9991,
                                  11.2162 19.865 14.4423,
                                  3.8425 21.616199 15.7155,
                                  -3.8425 21.616199 15.7155,
                                  -11.2162 19.865 14.4423,
                                  -17.6812 16.5044 11.9991,
                                  -22.7138 11.8068 8.5837898,
                                  22.7138 8.5726604 11.8149,
                                  17.6812 11.9835 16.515699,
                                  11.2162 14.4236 19.878599,
                                  3.8425 15.6951 21.631001,
                                  -3.8425 15.6951 21.631001,
                                  -11.2162 14.4236 19.878599,
                                  -17.6812 11.9835 16.515699,
                                  -22.7138 8.5726604 11.8149,
                                  22.7138 4.4977298 13.8871,
                                  17.6812 6.2872701 19.4125,
                                  11.2162 7.5674601 23.3652,
                                  3.8425 8.23458 25.4249,
                                  -3.8425 8.23458 25.4249,
                                  -11.2162 7.5674601 23.3652,
                                  -17.6812 6.2872701 19.4125,
                                  -22.7138 4.4977298 13.8871,
                                  22.7138 -0.018343501 14.5973,
                                  17.6812 -0.025642 20.405199,
                                  11.2162 -0.030863101 24.559999,
                                  3.8425 -0.033583801 26.725201,
                                  -3.8425 -0.033583801 26.725201,
                                  -11.2162 -0.030863101 24.559999,
                                  -17.6812 -0.025642 20.405199,
                                  -22.7138 -0.018343501 14.5973,
                                  22.7138 -4.53262 13.8758,
                                  17.6812 -6.33604 19.396601,
                                  11.2162 -7.6261601 23.3461,
                                  3.8425 -8.2984505 25.4042,
                                  -3.8425 -8.2984505 25.4042,
                                  -11.2162 -7.6261601 23.3461,
                                  -17.6812 -6.33604 19.396601,
                                  -22.7138 -4.53262 13.8758,
                                  22.7138 -8.6023197 11.7933,
                                  17.6812 -12.025 16.4855,
                                  11.2162 -14.4735 19.8423,
                                  3.8425 -15.7494 21.591499,
                                  -3.8425 -15.7494 21.591499,
                                  -11.2162 -14.4735 19.8423,
                                  -17.6812 -12.025 16.4855,
                                  -22.7138 -8.6023197 11.7933,
                                  22.7138 -11.8283 8.5540895,
                                  17.6812 -16.5345 11.9576,
                                  11.2162 -19.901199 14.3923,
                                  3.8425 -21.6556 15.6611,
                                  -3.8425 -21.6556 15.6611,
                                  -11.2162 -19.901199 14.3923,
                                  -17.6812 -16.5345 11.9576,
                                  -22.7138 -11.8283 8.5540895 ]

                            }
                            normal 
                            Normal {
                              vector [ 0 -2.78053e-027 -1,
                                  0.95949298 -0.26794401 -0.087060101,
                                  1 1.8369101e-016 4.97208e-014,
                                  0.95105702 -0.309017 4.72495e-014,
                                  0.95949298 0.26816201 -0.086386502,
                                  0.95105702 0.309017 4.7287302e-014,
                                  0.95949298 -0.227874 -0.16566999,
                                  0.95949298 -0.165455 -0.22803,
                                  0.95949298 -0.086807601 -0.26802599,
                                  0.95949298 0.000354035 -0.28173199,
                                  0.95949298 0.087480903 -0.26780701,
                                  0.95949298 0.16602799 -0.227614,
                                  0.95949298 0.22829001 -0.165097,
                                  0.841254 -0.51418 -0.16706701,
                                  0.809017 -0.58778501 4.0153001e-014,
                                  0.65486097 -0.71876103 -0.233539,
                                  0.58778501 -0.809017 2.9126099e-014,
                                  0.41541499 -0.86511099 -0.28109199,
                                  0.309017 -0.95105702 1.5248101e-014,
                                  0.142315 -0.94137597 -0.30587199,
                                  2.4492101e-016 -1 -1.2246101e-016,
                                  -0.142315 -0.94137597 -0.30587199,
                                  -0.309017 -0.95105702 -1.5480999e-014,
                                  -0.41541499 -0.86511099 -0.28109199,
                                  -0.58778501 -0.809017 -2.9324199e-014,
                                  -0.65486097 -0.71876103 -0.233539,
                                  -0.809017 -0.58778501 -4.0297e-014,
                                  -0.841254 -0.51418 -0.16706701,
                                  -0.95105702 -0.309017 -4.7325201e-014,
                                  -0.95949298 -0.26794401 -0.087060101,
                                  -1 -3.0615201e-016 -4.97208e-014,
                                  -0.95949298 0.26816201 -0.086386502,
                                  -0.95105702 0.309017 -4.7287302e-014,
                                  -0.95949298 -0.227874 -0.16566999,
                                  -0.95949298 -0.165455 -0.22803,
                                  -0.95949298 -0.086807601 -0.26802599,
                                  -0.95949298 0.000354035 -0.28173199,
                                  -0.95949298 0.087480903 -0.26780701,
                                  -0.95949298 0.16602799 -0.227614,
                                  -0.95949298 0.22829001 -0.165097,
                                  -0.841254 0.51459801 -0.165774,
                                  -0.809017 0.58778501 -4.0224998e-014,
                                  -0.65486097 0.71934497 -0.231732,
                                  -0.58778501 0.809017 -2.9225201e-014,
                                  -0.41541499 0.86581498 -0.27891701,
                                  -0.309017 0.95105702 -1.53646e-014,
                                  -0.142315 0.94214201 -0.303505,
                                  2.4492101e-016 1 1.21777e-029,
                                  0.142315 0.94214201 -0.303505,
                                  0.309017 0.95105702 1.53646e-014,
                                  0.41541499 0.86581498 -0.27891701,
                                  0.58778501 0.809017 2.9225201e-014,
                                  0.65486097 0.71934497 -0.231732,
                                  0.809017 0.58778501 4.0224998e-014,
                                  0.841254 0.51459801 -0.165774,
                                  0.95949298 0.26794401 0.087060101,
                                  1 3.0615201e-016 4.97208e-014,
                                  0.95105702 0.309017 4.7325201e-014,
                                  0.95949298 -0.26816201 0.086386502,
                                  0.95105702 -0.309017 4.7287302e-014,
                                  0.95949298 0.227874 0.16566999,
                                  0.95949298 0.165455 0.22803,
                                  0.95949298 0.086807601 0.26802599,
                                  0.95949298 -0.000354035 0.28173199,
                                  0.95949298 -0.087480903 0.26780701,
                                  0.95949298 -0.16602799 0.227614,
                                  0.95949298 -0.22829001 0.165097,
                                  0.841254 0.51418 0.16706701,
                                  0.809017 0.58778501 4.0297e-014,
                                  0.65486097 0.71876103 0.233539,
                                  0.58778501 0.809017 2.9324199e-014,
                                  0.41541499 0.86511099 0.28109199,
                                  0.309017 0.95105702 1.5480999e-014,
                                  0.142315 0.94137597 0.30587199,
                                  -2.4492101e-016 1 1.2246101e-016,
                                  -0.142315 0.94137597 0.30587199,
                                  -0.309017 0.95105702 -1.5248101e-014,
                                  -0.41541499 0.86511099 0.28109199,
                                  -0.58778501 0.809017 -2.9126099e-014,
                                  -0.65486097 0.71876103 0.233539,
                                  -0.809017 0.58778501 -4.0153001e-014,
                                  -0.841254 0.51418 0.16706701,
                                  -0.95105702 0.309017 -4.72495e-014,
                                  -0.95949298 0.26794401 0.087060101,
                                  -1 -1.8369101e-016 -4.97208e-014,
                                  -0.95949298 -0.26816201 0.086386502,
                                  -0.95105702 -0.309017 -4.7287302e-014,
                                  -0.95949298 0.227874 0.16566999,
                                  -0.95949298 0.165455 0.22803,
                                  -0.95949298 0.086807601 0.26802599,
                                  -0.95949298 -0.000354035 0.28173199,
                                  -0.95949298 -0.087480903 0.26780701,
                                  -0.95949298 -0.16602799 0.227614,
                                  -0.95949298 -0.22829001 0.165097,
                                  -0.841254 -0.51459801 0.165774,
                                  -0.809017 -0.58778501 -4.0224998e-014,
                                  -0.65486097 -0.71934497 0.231732,
                                  -0.58778501 -0.809017 -2.9225201e-014,
                                  -0.41541499 -0.86581498 0.27891701,
                                  -0.309017 -0.95105702 -1.53646e-014,
                                  -0.142315 -0.94214201 0.303505,
                                  -2.4492101e-016 -1 -1.21777e-029,
                                  0.142315 -0.94214201 0.303505,
                                  0.309017 -0.95105702 1.53646e-014,
                                  0.41541499 -0.86581498 0.27891701,
                                  0.58778501 -0.809017 2.9225201e-014,
                                  0.65486097 -0.71934497 0.231732,
                                  0.809017 -0.58778501 4.0224998e-014,
                                  0.841254 -0.51459801 0.165774,
                                  0.841254 -0.43728799 -0.317918,
                                  0.65486097 -0.61127502 -0.44441101,
                                  0.41541499 -0.73574001 -0.534899,
                                  0.142315 -0.80059999 -0.58205402,
                                  -0.142315 -0.80059999 -0.58205402,
                                  -0.41541499 -0.73574001 -0.534899,
                                  -0.65486097 -0.61127502 -0.44441101,
                                  -0.841254 -0.43728799 -0.317918,
                                  0.841254 -0.31750599 -0.43758699,
                                  0.65486097 -0.44383401 -0.61169302,
                                  0.41541499 -0.53420597 -0.73624402,
                                  0.142315 -0.58129901 -0.801148,
                                  -0.142315 -0.58129901 -0.801148,
                                  -0.41541499 -0.53420597 -0.73624402,
                                  -0.65486097 -0.44383401 -0.61169302,
                                  -0.841254 -0.31750599 -0.43758699,
                                  0.841254 -0.166583 -0.514337,
                                  0.65486097 -0.232862 -0.71898001,
                                  0.41541499 -0.280276 -0.865376,
                                  0.142315 -0.304984 -0.94166398,
                                  -0.142315 -0.304984 -0.94166398,
                                  -0.41541499 -0.280276 -0.865376,
                                  -0.65486097 -0.232862 -0.71898001,
                                  -0.841254 -0.166583 -0.514337,
                                  0.841254 0.00067938899 -0.54064,
                                  0.65486097 0.00094970298 -0.75574899,
                                  0.41541499 0.0011430799 -0.90963101,
                                  0.142315 0.00124385 -0.98982102,
                                  -0.142315 0.00124385 -0.98982102,
                                  -0.41541499 0.0011430799 -0.90963101,
                                  -0.65486097 0.00094970298 -0.75574899,
                                  -0.841254 0.00067938899 -0.54064,
                                  0.841254 0.16787501 -0.51391703,
                                  0.65486097 0.234668 -0.71839303,
                                  0.41541499 0.28244999 -0.86466902,
                                  0.142315 0.30735001 -0.94089401,
                                  -0.142315 0.30735001 -0.94089401,
                                  -0.41541499 0.28244999 -0.86466902,
                                  -0.65486097 0.234668 -0.71839303,
                                  -0.841254 0.16787501 -0.51391703,
                                  0.841254 0.31860501 -0.43678799,
                                  0.65486097 0.44536999 -0.61057597,
                                  0.41541499 0.53605402 -0.73489898,
                                  0.142315 0.58331102 -0.79968399,
                                  -0.142315 0.58331102 -0.79968399,
                                  -0.41541499 0.53605402 -0.73489898,
                                  -0.65486097 0.44536999 -0.61057597,
                                  -0.841254 0.31860501 -0.43678799,
                                  0.841254 0.43808499 -0.316818,
                                  0.65486097 0.61238998 -0.442873,
                                  0.41541499 0.737082 -0.53304899,
                                  0.142315 0.80206001 -0.58003998,
                                  -0.142315 0.80206001 -0.58003998,
                                  -0.41541499 0.737082 -0.53304899,
                                  -0.65486097 0.61238998 -0.442873,
                                  -0.841254 0.43808499 -0.316818,
                                  0.841254 0.43728799 0.317918,
                                  0.65486097 0.61127502 0.44441101,
                                  0.41541499 0.73574001 0.534899,
                                  0.142315 0.80059999 0.58205402,
                                  -0.142315 0.80059999 0.58205402,
                                  -0.41541499 0.73574001 0.534899,
                                  -0.65486097 0.61127502 0.44441101,
                                  -0.841254 0.43728799 0.317918,
                                  0.841254 0.31750599 0.43758699,
                                  0.65486097 0.44383401 0.61169302,
                                  0.41541499 0.53420597 0.73624402,
                                  0.142315 0.58129901 0.801148,
                                  -0.142315 0.58129901 0.801148,
                                  -0.41541499 0.53420597 0.73624402,
                                  -0.65486097 0.44383401 0.61169302,
                                  -0.841254 0.31750599 0.43758699,
                                  0.841254 0.166583 0.514337,
                                  0.65486097 0.232862 0.71898001,
                                  0.41541499 0.280276 0.865376,
                                  0.142315 0.304984 0.94166398,
                                  -0.142315 0.304984 0.94166398,
                                  -0.41541499 0.280276 0.865376,
                                  -0.65486097 0.232862 0.71898001,
                                  -0.841254 0.166583 0.514337,
                                  0.841254 -0.00067938899 0.54064,
                                  0.65486097 -0.00094970298 0.75574899,
                                  0.41541499 -0.0011430799 0.90963101,
                                  0.142315 -0.00124385 0.98982102,
                                  -0.142315 -0.00124385 0.98982102,
                                  -0.41541499 -0.0011430799 0.90963101,
                                  -0.65486097 -0.00094970298 0.75574899,
                                  -0.841254 -0.00067938899 0.54064,
                                  0.841254 -0.16787501 0.51391703,
                                  0.65486097 -0.234668 0.71839303,
                                  0.41541499 -0.28244999 0.86466902,
                                  0.142315 -0.30735001 0.94089401,
                                  -0.142315 -0.30735001 0.94089401,
                                  -0.41541499 -0.28244999 0.86466902,
                                  -0.65486097 -0.234668 0.71839303,
                                  -0.841254 -0.16787501 0.51391703,
                                  0.841254 -0.31860501 0.43678799,
                                  0.65486097 -0.44536999 0.61057597,
                                  0.41541499 -0.53605402 0.73489898,
                                  0.142315 -0.58331102 0.79968399,
                                  -0.142315 -0.58331102 0.79968399,
                                  -0.41541499 -0.53605402 0.73489898,
                                  -0.65486097 -0.44536999 0.61057597,
                                  -0.841254 -0.31860501 0.43678799,
                                  0.841254 -0.43808499 0.316818,
                                  0.65486097 -0.61238998 0.442873,
                                  0.41541499 -0.737082 0.53304899,
                                  0.142315 -0.80206001 0.58003998,
                                  -0.142315 -0.80206001 0.58003998,
                                  -0.41541499 -0.737082 0.53304899,
                                  -0.65486097 -0.61238998 0.442873,
                                  -0.841254 -0.43808499 0.316818 ]

                            }
                            coordIndex [ 0, 1, 2, -1, 3, 2, 1, -1,
                                4, 2, 5, -1, 6, 5, 2, -1,
                                4, 0, 2, -1, 7, 2, 3, -1,
                                8, 2, 7, -1, 9, 2, 8, -1,
                                10, 2, 9, -1, 11, 2, 10, -1,
                                12, 2, 11, -1, 13, 2, 12, -1,
                                6, 2, 13, -1, 0, 14, 1, -1,
                                15, 1, 14, -1, 15, 3, 1, -1,
                                16, 17, 14, -1, 18, 14, 17, -1,
                                0, 16, 14, -1, 18, 15, 14, -1,
                                19, 20, 17, -1, 21, 17, 20, -1,
                                16, 19, 17, -1, 21, 18, 17, -1,
                                22, 23, 20, -1, 24, 20, 23, -1,
                                19, 22, 20, -1, 24, 21, 20, -1,
                                25, 26, 23, -1, 27, 23, 26, -1,
                                28, 25, 23, -1, 22, 28, 23, -1,
                                27, 24, 23, -1, 29, 30, 26, -1,
                                31, 26, 30, -1, 25, 29, 26, -1,
                                31, 27, 26, -1, 32, 33, 30, -1,
                                34, 30, 33, -1, 29, 32, 30, -1,
                                34, 31, 30, -1, 35, 36, 33, -1,
                                37, 33, 36, -1, 32, 35, 33, -1,
                                37, 34, 33, -1, 38, 39, 36, -1,
                                40, 36, 39, -1, 35, 38, 36, -1,
                                40, 37, 36, -1, 41, 42, 39, -1,
                                43, 39, 42, -1, 41, 39, 38, -1,
                                44, 40, 39, -1, 45, 44, 39, -1,
                                46, 45, 39, -1, 47, 46, 39, -1,
                                48, 47, 39, -1, 49, 48, 39, -1,
                                50, 49, 39, -1, 43, 50, 39, -1,
                                41, 51, 42, -1, 52, 42, 51, -1,
                                43, 42, 52, -1, 53, 54, 51, -1,
                                55, 51, 54, -1, 41, 53, 51, -1,
                                52, 51, 55, -1, 56, 57, 54, -1,
                                58, 54, 57, -1, 53, 56, 54, -1,
                                55, 54, 58, -1, 59, 60, 57, -1,
                                61, 57, 60, -1, 56, 59, 57, -1,
                                58, 57, 61, -1, 62, 63, 60, -1,
                                64, 60, 63, -1, 65, 62, 60, -1,
                                59, 65, 60, -1, 61, 60, 64, -1,
                                66, 67, 63, -1, 68, 63, 67, -1,
                                62, 66, 63, -1, 64, 63, 68, -1,
                                69, 70, 67, -1, 71, 67, 70, -1,
                                66, 69, 67, -1, 68, 67, 71, -1,
                                72, 5, 70, -1, 73, 70, 5, -1,
                                69, 72, 70, -1, 71, 70, 73, -1,
                                72, 4, 5, -1, 73, 5, 6, -1,
                                74, 38, 35, -1, 75, 41, 38, -1,
                                76, 38, 74, -1, 77, 38, 76, -1,
                                78, 38, 77, -1, 79, 38, 78, -1,
                                80, 38, 79, -1, 81, 38, 80, -1,
                                82, 38, 81, -1, 75, 38, 82, -1,
                                83, 35, 32, -1, 83, 74, 35, -1,
                                84, 32, 29, -1, 84, 83, 32, -1,
                                85, 29, 25, -1, 85, 84, 29, -1,
                                86, 25, 28, -1, 86, 85, 25, -1,
                                87, 28, 22, -1, 87, 86, 28, -1,
                                88, 22, 19, -1, 88, 87, 22, -1,
                                89, 19, 16, -1, 89, 88, 19, -1,
                                90, 16, 0, -1, 90, 89, 16, -1,
                                91, 0, 4, -1, 91, 90, 0, -1,
                                92, 4, 72, -1, 93, 91, 4, -1,
                                94, 93, 4, -1, 95, 94, 4, -1,
                                96, 95, 4, -1, 97, 96, 4, -1,
                                98, 97, 4, -1, 99, 98, 4, -1,
                                92, 99, 4, -1, 100, 72, 69, -1,
                                92, 72, 100, -1, 101, 69, 66, -1,
                                100, 69, 101, -1, 102, 66, 62, -1,
                                101, 66, 102, -1, 103, 62, 65, -1,
                                102, 62, 103, -1, 104, 65, 59, -1,
                                103, 65, 104, -1, 105, 59, 56, -1,
                                104, 59, 105, -1, 106, 56, 53, -1,
                                105, 56, 106, -1, 107, 53, 41, -1,
                                106, 53, 107, -1, 107, 41, 75, -1,
                                7, 3, 15, -1, 108, 15, 18, -1,
                                108, 7, 15, -1, 109, 18, 21, -1,
                                109, 108, 18, -1, 110, 21, 24, -1,
                                110, 109, 21, -1, 111, 24, 27, -1,
                                111, 110, 24, -1, 112, 27, 31, -1,
                                112, 111, 27, -1, 113, 31, 34, -1,
                                113, 112, 31, -1, 114, 34, 37, -1,
                                114, 113, 34, -1, 115, 37, 40, -1,
                                115, 114, 37, -1, 44, 115, 40, -1,
                                8, 7, 108, -1, 116, 108, 109, -1,
                                116, 8, 108, -1, 117, 109, 110, -1,
                                117, 116, 109, -1, 118, 110, 111, -1,
                                118, 117, 110, -1, 119, 111, 112, -1,
                                119, 118, 111, -1, 120, 112, 113, -1,
                                120, 119, 112, -1, 121, 113, 114, -1,
                                121, 120, 113, -1, 122, 114, 115, -1,
                                122, 121, 114, -1, 123, 115, 44, -1,
                                123, 122, 115, -1, 45, 123, 44, -1,
                                9, 8, 116, -1, 124, 116, 117, -1,
                                124, 9, 116, -1, 125, 117, 118, -1,
                                125, 124, 117, -1, 126, 118, 119, -1,
                                126, 125, 118, -1, 127, 119, 120, -1,
                                127, 126, 119, -1, 128, 120, 121, -1,
                                128, 127, 120, -1, 129, 121, 122, -1,
                                129, 128, 121, -1, 130, 122, 123, -1,
                                130, 129, 122, -1, 131, 123, 45, -1,
                                131, 130, 123, -1, 46, 131, 45, -1,
                                10, 9, 124, -1, 132, 124, 125, -1,
                                132, 10, 124, -1, 133, 125, 126, -1,
                                133, 132, 125, -1, 134, 126, 127, -1,
                                134, 133, 126, -1, 135, 127, 128, -1,
                                135, 134, 127, -1, 136, 128, 129, -1,
                                136, 135, 128, -1, 137, 129, 130, -1,
                                137, 136, 129, -1, 138, 130, 131, -1,
                                138, 137, 130, -1, 139, 131, 46, -1,
                                139, 138, 131, -1, 47, 139, 46, -1,
                                11, 10, 132, -1, 140, 132, 133, -1,
                                140, 11, 132, -1, 141, 133, 134, -1,
                                141, 140, 133, -1, 142, 134, 135, -1,
                                142, 141, 134, -1, 143, 135, 136, -1,
                                143, 142, 135, -1, 144, 136, 137, -1,
                                144, 143, 136, -1, 145, 137, 138, -1,
                                145, 144, 137, -1, 146, 138, 139, -1,
                                146, 145, 138, -1, 147, 139, 47, -1,
                                147, 146, 139, -1, 48, 147, 47, -1,
                                12, 11, 140, -1, 148, 140, 141, -1,
                                148, 12, 140, -1, 149, 141, 142, -1,
                                149, 148, 141, -1, 150, 142, 143, -1,
                                150, 149, 142, -1, 151, 143, 144, -1,
                                151, 150, 143, -1, 152, 144, 145, -1,
                                152, 151, 144, -1, 153, 145, 146, -1,
                                153, 152, 145, -1, 154, 146, 147, -1,
                                154, 153, 146, -1, 155, 147, 48, -1,
                                155, 154, 147, -1, 49, 155, 48, -1,
                                13, 12, 148, -1, 156, 148, 149, -1,
                                156, 13, 148, -1, 157, 149, 150, -1,
                                157, 156, 149, -1, 158, 150, 151, -1,
                                158, 157, 150, -1, 159, 151, 152, -1,
                                159, 158, 151, -1, 160, 152, 153, -1,
                                160, 159, 152, -1, 161, 153, 154, -1,
                                161, 160, 153, -1, 162, 154, 155, -1,
                                162, 161, 154, -1, 163, 155, 49, -1,
                                163, 162, 155, -1, 50, 163, 49, -1,
                                6, 13, 156, -1, 73, 156, 157, -1,
                                73, 6, 156, -1, 71, 157, 158, -1,
                                71, 73, 157, -1, 68, 158, 159, -1,
                                68, 71, 158, -1, 64, 159, 160, -1,
                                64, 68, 159, -1, 61, 160, 161, -1,
                                61, 64, 160, -1, 58, 161, 162, -1,
                                58, 61, 161, -1, 55, 162, 163, -1,
                                55, 58, 162, -1, 52, 163, 50, -1,
                                52, 55, 163, -1, 43, 52, 50, -1,
                                76, 74, 83, -1, 164, 83, 84, -1,
                                164, 76, 83, -1, 165, 84, 85, -1,
                                165, 164, 84, -1, 166, 85, 86, -1,
                                166, 165, 85, -1, 167, 86, 87, -1,
                                167, 166, 86, -1, 168, 87, 88, -1,
                                168, 167, 87, -1, 169, 88, 89, -1,
                                169, 168, 88, -1, 170, 89, 90, -1,
                                170, 169, 89, -1, 171, 90, 91, -1,
                                171, 170, 90, -1, 93, 171, 91, -1,
                                77, 76, 164, -1, 172, 164, 165, -1,
                                172, 77, 164, -1, 173, 165, 166, -1,
                                173, 172, 165, -1, 174, 166, 167, -1,
                                174, 173, 166, -1, 175, 167, 168, -1,
                                175, 174, 167, -1, 176, 168, 169, -1,
                                176, 175, 168, -1, 177, 169, 170, -1,
                                177, 176, 169, -1, 178, 170, 171, -1,
                                178, 177, 170, -1, 179, 171, 93, -1,
                                179, 178, 171, -1, 94, 179, 93, -1,
                                78, 77, 172, -1, 180, 172, 173, -1,
                                180, 78, 172, -1, 181, 173, 174, -1,
                                181, 180, 173, -1, 182, 174, 175, -1,
                                182, 181, 174, -1, 183, 175, 176, -1,
                                183, 182, 175, -1, 184, 176, 177, -1,
                                184, 183, 176, -1, 185, 177, 178, -1,
                                185, 184, 177, -1, 186, 178, 179, -1,
                                186, 185, 178, -1, 187, 179, 94, -1,
                                187, 186, 179, -1, 95, 187, 94, -1,
                                79, 78, 180, -1, 188, 180, 181, -1,
                                188, 79, 180, -1, 189, 181, 182, -1,
                                189, 188, 181, -1, 190, 182, 183, -1,
                                190, 189, 182, -1, 191, 183, 184, -1,
                                191, 190, 183, -1, 192, 184, 185, -1,
                                192, 191, 184, -1, 193, 185, 186, -1,
                                193, 192, 185, -1, 194, 186, 187, -1,
                                194, 193, 186, -1, 195, 187, 95, -1,
                                195, 194, 187, -1, 96, 195, 95, -1,
                                80, 79, 188, -1, 196, 188, 189, -1,
                                196, 80, 188, -1, 197, 189, 190, -1,
                                197, 196, 189, -1, 198, 190, 191, -1,
                                198, 197, 190, -1, 199, 191, 192, -1,
                                199, 198, 191, -1, 200, 192, 193, -1,
                                200, 199, 192, -1, 201, 193, 194, -1,
                                201, 200, 193, -1, 202, 194, 195, -1,
                                202, 201, 194, -1, 203, 195, 96, -1,
                                203, 202, 195, -1, 97, 203, 96, -1,
                                81, 80, 196, -1, 204, 196, 197, -1,
                                204, 81, 196, -1, 205, 197, 198, -1,
                                205, 204, 197, -1, 206, 198, 199, -1,
                                206, 205, 198, -1, 207, 199, 200, -1,
                                207, 206, 199, -1, 208, 200, 201, -1,
                                208, 207, 200, -1, 209, 201, 202, -1,
                                209, 208, 201, -1, 210, 202, 203, -1,
                                210, 209, 202, -1, 211, 203, 97, -1,
                                211, 210, 203, -1, 98, 211, 97, -1,
                                82, 81, 204, -1, 212, 204, 205, -1,
                                212, 82, 204, -1, 213, 205, 206, -1,
                                213, 212, 205, -1, 214, 206, 207, -1,
                                214, 213, 206, -1, 215, 207, 208, -1,
                                215, 214, 207, -1, 216, 208, 209, -1,
                                216, 215, 208, -1, 217, 209, 210, -1,
                                217, 216, 209, -1, 218, 210, 211, -1,
                                218, 217, 210, -1, 219, 211, 98, -1,
                                219, 218, 211, -1, 99, 219, 98, -1,
                                75, 82, 212, -1, 107, 212, 213, -1,
                                107, 75, 212, -1, 106, 213, 214, -1,
                                106, 107, 213, -1, 105, 214, 215, -1,
                                105, 106, 214, -1, 104, 215, 216, -1,
                                104, 105, 215, -1, 103, 216, 217, -1,
                                103, 104, 216, -1, 102, 217, 218, -1,
                                102, 103, 217, -1, 101, 218, 219, -1,
                                101, 102, 218, -1, 100, 219, 99, -1,
                                100, 101, 219, -1, 92, 100, 99, -1 ]
                            normalIndex [ 0, 0, 0, -1, 1, 2, 3, -1,
                                0, 0, 0, -1, 4, 5, 2, -1,
                                0, 0, 0, -1, 6, 2, 1, -1,
                                7, 2, 6, -1, 8, 2, 7, -1,
                                9, 2, 8, -1, 10, 2, 9, -1,
                                11, 2, 10, -1, 12, 2, 11, -1,
                                4, 2, 12, -1, 0, 0, 0, -1,
                                13, 3, 14, -1, 13, 1, 3, -1,
                                0, 0, 0, -1, 15, 14, 16, -1,
                                0, 0, 0, -1, 15, 13, 14, -1,
                                0, 0, 0, -1, 17, 16, 18, -1,
                                0, 0, 0, -1, 17, 15, 16, -1,
                                0, 0, 0, -1, 19, 18, 20, -1,
                                0, 0, 0, -1, 19, 17, 18, -1,
                                0, 0, 0, -1, 21, 20, 22, -1,
                                0, 0, 0, -1, 0, 0, 0, -1,
                                21, 19, 20, -1, 0, 0, 0, -1,
                                23, 22, 24, -1, 0, 0, 0, -1,
                                23, 21, 22, -1, 0, 0, 0, -1,
                                25, 24, 26, -1, 0, 0, 0, -1,
                                25, 23, 24, -1, 0, 0, 0, -1,
                                27, 26, 28, -1, 0, 0, 0, -1,
                                27, 25, 26, -1, 0, 0, 0, -1,
                                29, 28, 30, -1, 0, 0, 0, -1,
                                29, 27, 28, -1, 0, 0, 0, -1,
                                31, 30, 32, -1, 0, 0, 0, -1,
                                33, 29, 30, -1, 34, 33, 30, -1,
                                35, 34, 30, -1, 36, 35, 30, -1,
                                37, 36, 30, -1, 38, 37, 30, -1,
                                39, 38, 30, -1, 31, 39, 30, -1,
                                0, 0, 0, -1, 40, 32, 41, -1,
                                31, 32, 40, -1, 0, 0, 0, -1,
                                42, 41, 43, -1, 0, 0, 0, -1,
                                40, 41, 42, -1, 0, 0, 0, -1,
                                44, 43, 45, -1, 0, 0, 0, -1,
                                42, 43, 44, -1, 0, 0, 0, -1,
                                46, 45, 47, -1, 0, 0, 0, -1,
                                44, 45, 46, -1, 0, 0, 0, -1,
                                48, 47, 49, -1, 0, 0, 0, -1,
                                0, 0, 0, -1, 46, 47, 48, -1,
                                0, 0, 0, -1, 50, 49, 51, -1,
                                0, 0, 0, -1, 48, 49, 50, -1,
                                0, 0, 0, -1, 52, 51, 53, -1,
                                0, 0, 0, -1, 50, 51, 52, -1,
                                0, 0, 0, -1, 54, 53, 5, -1,
                                0, 0, 0, -1, 52, 53, 54, -1,
                                0, 0, 0, -1, 54, 5, 4, -1,
                                55, 56, 57, -1, 58, 59, 56, -1,
                                60, 56, 55, -1, 61, 56, 60, -1,
                                62, 56, 61, -1, 63, 56, 62, -1,
                                64, 56, 63, -1, 65, 56, 64, -1,
                                66, 56, 65, -1, 58, 56, 66, -1,
                                67, 57, 68, -1, 67, 55, 57, -1,
                                69, 68, 70, -1, 69, 67, 68, -1,
                                71, 70, 72, -1, 71, 69, 70, -1,
                                73, 72, 74, -1, 73, 71, 72, -1,
                                75, 74, 76, -1, 75, 73, 74, -1,
                                77, 76, 78, -1, 77, 75, 76, -1,
                                79, 78, 80, -1, 79, 77, 78, -1,
                                81, 80, 82, -1, 81, 79, 80, -1,
                                83, 82, 84, -1, 83, 81, 82, -1,
                                85, 84, 86, -1, 87, 83, 84, -1,
                                88, 87, 84, -1, 89, 88, 84, -1,
                                90, 89, 84, -1, 91, 90, 84, -1,
                                92, 91, 84, -1, 93, 92, 84, -1,
                                85, 93, 84, -1, 94, 86, 95, -1,
                                85, 86, 94, -1, 96, 95, 97, -1,
                                94, 95, 96, -1, 98, 97, 99, -1,
                                96, 97, 98, -1, 100, 99, 101, -1,
                                98, 99, 100, -1, 102, 101, 103, -1,
                                100, 101, 102, -1, 104, 103, 105, -1,
                                102, 103, 104, -1, 106, 105, 107, -1,
                                104, 105, 106, -1, 108, 107, 59, -1,
                                106, 107, 108, -1, 108, 59, 58, -1,
                                6, 1, 13, -1, 109, 13, 15, -1,
                                109, 6, 13, -1, 110, 15, 17, -1,
                                110, 109, 15, -1, 111, 17, 19, -1,
                                111, 110, 17, -1, 112, 19, 21, -1,
                                112, 111, 19, -1, 113, 21, 23, -1,
                                113, 112, 21, -1, 114, 23, 25, -1,
                                114, 113, 23, -1, 115, 25, 27, -1,
                                115, 114, 25, -1, 116, 27, 29, -1,
                                116, 115, 27, -1, 33, 116, 29, -1,
                                7, 6, 109, -1, 117, 109, 110, -1,
                                117, 7, 109, -1, 118, 110, 111, -1,
                                118, 117, 110, -1, 119, 111, 112, -1,
                                119, 118, 111, -1, 120, 112, 113, -1,
                                120, 119, 112, -1, 121, 113, 114, -1,
                                121, 120, 113, -1, 122, 114, 115, -1,
                                122, 121, 114, -1, 123, 115, 116, -1,
                                123, 122, 115, -1, 124, 116, 33, -1,
                                124, 123, 116, -1, 34, 124, 33, -1,
                                8, 7, 117, -1, 125, 117, 118, -1,
                                125, 8, 117, -1, 126, 118, 119, -1,
                                126, 125, 118, -1, 127, 119, 120, -1,
                                127, 126, 119, -1, 128, 120, 121, -1,
                                128, 127, 120, -1, 129, 121, 122, -1,
                                129, 128, 121, -1, 130, 122, 123, -1,
                                130, 129, 122, -1, 131, 123, 124, -1,
                                131, 130, 123, -1, 132, 124, 34, -1,
                                132, 131, 124, -1, 35, 132, 34, -1,
                                9, 8, 125, -1, 133, 125, 126, -1,
                                133, 9, 125, -1, 134, 126, 127, -1,
                                134, 133, 126, -1, 135, 127, 128, -1,
                                135, 134, 127, -1, 136, 128, 129, -1,
                                136, 135, 128, -1, 137, 129, 130, -1,
                                137, 136, 129, -1, 138, 130, 131, -1,
                                138, 137, 130, -1, 139, 131, 132, -1,
                                139, 138, 131, -1, 140, 132, 35, -1,
                                140, 139, 132, -1, 36, 140, 35, -1,
                                10, 9, 133, -1, 141, 133, 134, -1,
                                141, 10, 133, -1, 142, 134, 135, -1,
                                142, 141, 134, -1, 143, 135, 136, -1,
                                143, 142, 135, -1, 144, 136, 137, -1,
                                144, 143, 136, -1, 145, 137, 138, -1,
                                145, 144, 137, -1, 146, 138, 139, -1,
                                146, 145, 138, -1, 147, 139, 140, -1,
                                147, 146, 139, -1, 148, 140, 36, -1,
                                148, 147, 140, -1, 37, 148, 36, -1,
                                11, 10, 141, -1, 149, 141, 142, -1,
                                149, 11, 141, -1, 150, 142, 143, -1,
                                150, 149, 142, -1, 151, 143, 144, -1,
                                151, 150, 143, -1, 152, 144, 145, -1,
                                152, 151, 144, -1, 153, 145, 146, -1,
                                153, 152, 145, -1, 154, 146, 147, -1,
                                154, 153, 146, -1, 155, 147, 148, -1,
                                155, 154, 147, -1, 156, 148, 37, -1,
                                156, 155, 148, -1, 38, 156, 37, -1,
                                12, 11, 149, -1, 157, 149, 150, -1,
                                157, 12, 149, -1, 158, 150, 151, -1,
                                158, 157, 150, -1, 159, 151, 152, -1,
                                159, 158, 151, -1, 160, 152, 153, -1,
                                160, 159, 152, -1, 161, 153, 154, -1,
                                161, 160, 153, -1, 162, 154, 155, -1,
                                162, 161, 154, -1, 163, 155, 156, -1,
                                163, 162, 155, -1, 164, 156, 38, -1,
                                164, 163, 156, -1, 39, 164, 38, -1,
                                4, 12, 157, -1, 54, 157, 158, -1,
                                54, 4, 157, -1, 52, 158, 159, -1,
                                52, 54, 158, -1, 50, 159, 160, -1,
                                50, 52, 159, -1, 48, 160, 161, -1,
                                48, 50, 160, -1, 46, 161, 162, -1,
                                46, 48, 161, -1, 44, 162, 163, -1,
                                44, 46, 162, -1, 42, 163, 164, -1,
                                42, 44, 163, -1, 40, 164, 39, -1,
                                40, 42, 164, -1, 31, 40, 39, -1,
                                60, 55, 67, -1, 165, 67, 69, -1,
                                165, 60, 67, -1, 166, 69, 71, -1,
                                166, 165, 69, -1, 167, 71, 73, -1,
                                167, 166, 71, -1, 168, 73, 75, -1,
                                168, 167, 73, -1, 169, 75, 77, -1,
                                169, 168, 75, -1, 170, 77, 79, -1,
                                170, 169, 77, -1, 171, 79, 81, -1,
                                171, 170, 79, -1, 172, 81, 83, -1,
                                172, 171, 81, -1, 87, 172, 83, -1,
                                61, 60, 165, -1, 173, 165, 166, -1,
                                173, 61, 165, -1, 174, 166, 167, -1,
                                174, 173, 166, -1, 175, 167, 168, -1,
                                175, 174, 167, -1, 176, 168, 169, -1,
                                176, 175, 168, -1, 177, 169, 170, -1,
                                177, 176, 169, -1, 178, 170, 171, -1,
                                178, 177, 170, -1, 179, 171, 172, -1,
                                179, 178, 171, -1, 180, 172, 87, -1,
                                180, 179, 172, -1, 88, 180, 87, -1,
                                62, 61, 173, -1, 181, 173, 174, -1,
                                181, 62, 173, -1, 182, 174, 175, -1,
                                182, 181, 174, -1, 183, 175, 176, -1,
                                183, 182, 175, -1, 184, 176, 177, -1,
                                184, 183, 176, -1, 185, 177, 178, -1,
                                185, 184, 177, -1, 186, 178, 179, -1,
                                186, 185, 178, -1, 187, 179, 180, -1,
                                187, 186, 179, -1, 188, 180, 88, -1,
                                188, 187, 180, -1, 89, 188, 88, -1,
                                63, 62, 181, -1, 189, 181, 182, -1,
                                189, 63, 181, -1, 190, 182, 183, -1,
                                190, 189, 182, -1, 191, 183, 184, -1,
                                191, 190, 183, -1, 192, 184, 185, -1,
                                192, 191, 184, -1, 193, 185, 186, -1,
                                193, 192, 185, -1, 194, 186, 187, -1,
                                194, 193, 186, -1, 195, 187, 188, -1,
                                195, 194, 187, -1, 196, 188, 89, -1,
                                196, 195, 188, -1, 90, 196, 89, -1,
                                64, 63, 189, -1, 197, 189, 190, -1,
                                197, 64, 189, -1, 198, 190, 191, -1,
                                198, 197, 190, -1, 199, 191, 192, -1,
                                199, 198, 191, -1, 200, 192, 193, -1,
                                200, 199, 192, -1, 201, 193, 194, -1,
                                201, 200, 193, -1, 202, 194, 195, -1,
                                202, 201, 194, -1, 203, 195, 196, -1,
                                203, 202, 195, -1, 204, 196, 90, -1,
                                204, 203, 196, -1, 91, 204, 90, -1,
                                65, 64, 197, -1, 205, 197, 198, -1,
                                205, 65, 197, -1, 206, 198, 199, -1,
                                206, 205, 198, -1, 207, 199, 200, -1,
                                207, 206, 199, -1, 208, 200, 201, -1,
                                208, 207, 200, -1, 209, 201, 202, -1,
                                209, 208, 201, -1, 210, 202, 203, -1,
                                210, 209, 202, -1, 211, 203, 204, -1,
                                211, 210, 203, -1, 212, 204, 91, -1,
                                212, 211, 204, -1, 92, 212, 91, -1,
                                66, 65, 205, -1, 213, 205, 206, -1,
                                213, 66, 205, -1, 214, 206, 207, -1,
                                214, 213, 206, -1, 215, 207, 208, -1,
                                215, 214, 207, -1, 216, 208, 209, -1,
                                216, 215, 208, -1, 217, 209, 210, -1,
                                217, 216, 209, -1, 218, 210, 211, -1,
                                218, 217, 210, -1, 219, 211, 212, -1,
                                219, 218, 211, -1, 220, 212, 92, -1,
                                220, 219, 212, -1, 93, 220, 92, -1,
                                58, 66, 213, -1, 108, 213, 214, -1,
                                108, 58, 213, -1, 106, 214, 215, -1,
                                106, 108, 214, -1, 104, 215, 216, -1,
                                104, 106, 215, -1, 102, 216, 217, -1,
                                102, 104, 216, -1, 100, 217, 218, -1,
                                100, 102, 217, -1, 98, 218, 219, -1,
                                98, 100, 218, -1, 96, 219, 220, -1,
                                96, 98, 219, -1, 94, 220, 93, -1,
                                94, 96, 220, -1, 85, 94, 93, -1 ]
                            ccw TRUE
                            solid TRUE
                            convex TRUE
                            creaseAngle 0

                          }

                        }

                    }

                }

            }

        }

    }

}
