####
#
# OBJ File Generated by Meshlab
#
####
# Object lid_l_bottom.obj
#
# Vertices: 220
# Faces: 436
#
####
vn 0.175774 1.015779 -3.968628
v -0.016558 0.008342 -0.019627 1.000000 1.000000 0.945098
vn 4.626561 -1.015811 -0.082855
v -0.016252 0.008188 -0.019263 1.000000 1.000000 0.945098
vn 4.822274 -0.000046 -0.044385
v -0.017088 0.000000 -0.020255 1.000000 1.000000 0.945098
vn 4.228542 -1.662371 4.195393
v -0.018159 0.007101 -0.017947 1.000000 1.000000 0.945098
vn -0.019869 0.000046 -4.007162
v -0.017410 0.000000 -0.020637 1.000000 1.000000 0.945098
vn 4.625861 1.015909 -0.082063
v -0.016252 -0.008188 -0.019263 1.000000 1.000000 0.945098
vn 4.225895 1.662605 4.198104
v -0.018145 -0.007106 -0.017958 1.000000 1.000000 0.945098
vn 4.631632 -1.474856 3.827133
v -0.019751 0.006039 -0.016603 1.000000 1.000000 0.945098
vn 4.940122 -1.070865 3.566876
v -0.021014 0.004385 -0.015538 1.000000 1.000000 0.945098
vn 5.137979 -0.561835 3.399951
v -0.021825 0.002300 -0.014854 1.000000 1.000000 0.945098
vn 5.205783 0.002290 3.342750
v -0.022102 -0.000009 -0.014620 1.000000 1.000000 0.945098
vn 5.136892 0.566197 3.400872
v -0.021820 -0.002318 -0.014858 1.000000 1.000000 0.945098
vn 4.938064 1.074565 3.568611
v -0.021006 -0.004400 -0.015545 1.000000 1.000000 0.945098
vn 4.628795 1.477543 3.829528
v -0.019740 -0.006050 -0.016613 1.000000 1.000000 0.945098
vn 4.416118 -1.842503 -0.507839
v -0.013824 0.015577 -0.016386 1.000000 1.000000 0.945098
vn 4.122943 -3.183867 3.271490
v -0.017759 0.013626 -0.014185 1.000000 1.000000 0.945098
vn 0.386294 1.842513 -3.543706
v -0.014085 0.015871 -0.016695 1.000000 1.000000 0.945098
vn 4.042970 -2.488587 -1.093505
v -0.010044 0.021439 -0.011905 1.000000 1.000000 0.945098
vn 3.678382 -4.410522 2.103402
v -0.015920 0.019047 -0.009273 1.000000 1.000000 0.945098
vn 0.759427 2.488579 -2.958040
v -0.010233 0.021844 -0.012130 1.000000 1.000000 0.945098
vn 3.543406 -2.896726 -1.778594
v -0.005281 0.025203 -0.006260 1.000000 1.000000 0.945098
vn 2.947219 -5.266705 0.792333
v -0.012792 0.022926 -0.003611 1.000000 1.000000 0.945098
vn 1.259008 2.896723 -2.272978
v -0.005381 0.025678 -0.006378 1.000000 1.000000 0.945098
vn 2.962437 -3.036001 -2.499263
v 0.000000 0.026500 0.000000 1.000000 1.000000 0.945098
vn 1.994335 -5.705877 -0.563787
v -0.008627 0.024947 0.002344 1.000000 1.000000 0.945098
vn 2.452531 2.896723 -0.858266
v 0.005381 0.025678 0.006378 1.000000 1.000000 0.945098
vn 2.349894 -2.896726 -3.193293
v 0.005281 0.025203 0.006260 1.000000 1.000000 0.945098
vn 0.891576 -5.705879 -1.870911
v -0.003763 0.024947 0.008109 1.000000 1.000000 0.945098
vn 1.839982 3.036000 -1.552302
v 0.000000 0.027000 0.000000 1.000000 1.000000 0.945098
vn 3.043682 2.488579 -0.250456
v 0.010233 0.021844 0.012130 1.000000 1.000000 0.945098
vn 1.758714 -2.488587 -3.801090
v 0.010044 0.021439 0.011905 1.000000 1.000000 0.945098
vn -0.284719 -5.266703 -3.038560
v 0.001405 0.022926 0.013217 1.000000 1.000000 0.945098
vn 3.558150 1.842513 0.215973
v 0.014085 0.015871 0.016695 1.000000 1.000000 0.945098
vn 1.244249 -1.842503 -4.267534
v 0.013824 0.015577 0.016386 1.000000 1.000000 0.945098
vn -1.453928 -4.410525 -3.980057
v 0.006460 0.019047 0.017255 1.000000 1.000000 0.945098
vn 3.941552 1.015779 0.495042
v 0.016558 0.008342 0.019627 1.000000 1.000000 0.945098
vn 0.860772 -1.015811 -4.546537
v 0.016252 0.008188 0.019263 1.000000 1.000000 0.945098
vn -2.530485 -3.183864 -4.614974
v 0.010991 0.013626 0.019894 1.000000 1.000000 0.945098
vn 3.946591 0.000046 0.694380
v 0.017410 0.000000 0.020637 1.000000 1.000000 0.945098
vn 0.855808 -0.000046 -4.745934
v 0.017088 0.000000 0.020255 1.000000 1.000000 0.945098
vn -3.423400 -1.662373 -4.874649
v 0.014632 0.007101 0.020922 1.000000 1.000000 0.945098
vn 3.942447 -1.015877 0.494489
v 0.016558 -0.008342 0.019627 1.000000 1.000000 0.945098
vn 0.859874 1.015909 -4.545981
v 0.016252 -0.008188 0.019263 1.000000 1.000000 0.945098
vn -3.426525 1.662605 -4.872495
v 0.014646 -0.007106 0.020910 1.000000 1.000000 0.945098
vn -2.992527 -1.474860 -5.209964
v 0.013040 0.006039 0.022265 1.000000 1.000000 0.945098
vn -2.684031 -1.070861 -5.470227
v 0.011777 0.004385 0.023331 1.000000 1.000000 0.945098
vn -2.486178 -0.561842 -5.637145
v 0.010967 0.002300 0.024014 1.000000 1.000000 0.945098
vn -2.418376 0.002295 -5.694349
v 0.010689 -0.000009 0.024249 1.000000 1.000000 0.945098
vn -2.487265 0.566196 -5.636231
v 0.010971 -0.002318 0.024011 1.000000 1.000000 0.945098
vn -2.686093 1.074564 -5.468489
v 0.011785 -0.004400 0.023324 1.000000 1.000000 0.945098
vn -2.995364 1.477541 -5.207575
v 0.013052 -0.006050 0.022255 1.000000 1.000000 0.945098
vn 1.242322 1.842707 -4.266416
v 0.013824 -0.015577 0.016386 1.000000 1.000000 0.945098
vn -2.535869 3.185500 -4.611312
v 0.011018 -0.013637 0.019872 1.000000 1.000000 0.945098
vn 3.560092 -1.842710 0.214853
v 0.014085 -0.015871 0.016695 1.000000 1.000000 0.945098
vn 1.756054 2.489084 -3.799486
v 0.010044 -0.021439 0.011905 1.000000 1.000000 0.945098
vn -1.460953 4.413453 -3.975144
v 0.006497 -0.019063 0.017224 1.000000 1.000000 0.945098
vn 3.046364 -2.489084 -0.252080
v 0.010233 -0.021844 0.012130 1.000000 1.000000 0.945098
vn 2.346900 2.897543 -3.191210
v 0.005281 -0.025203 0.006260 1.000000 1.000000 0.945098
vn -0.292750 5.270623 -3.032589
v 0.001449 -0.022944 0.013180 1.000000 1.000000 0.945098
vn 2.455513 -2.897544 -0.860356
v 0.005381 -0.025678 0.006378 1.000000 1.000000 0.945098
vn 2.959515 3.036954 -2.496797
v 0.000000 -0.026500 0.000000 1.000000 1.000000 0.945098
vn 0.883238 5.710333 -1.864177
v -0.003716 -0.024967 0.008069 1.000000 1.000000 0.945098
vn 1.261571 -2.897544 -2.275565
v -0.005381 -0.025678 -0.006378 1.000000 1.000000 0.945098
vn 3.540849 2.897543 -1.775993
v -0.005281 -0.025203 -0.006260 1.000000 1.000000 0.945098
vn 1.986295 5.710330 -0.556701
v -0.008579 -0.024967 0.002304 1.000000 1.000000 0.945098
vn 1.842882 -3.036947 -1.554749
v 0.000000 -0.027000 0.000000 1.000000 1.000000 0.945098
vn 0.761479 -2.489084 -2.960410
v -0.010233 -0.021844 -0.012130 1.000000 1.000000 0.945098
vn 4.040941 2.489084 -1.091153
v -0.010044 -0.021439 -0.011905 1.000000 1.000000 0.945098
vn 2.939981 5.270624 0.799242
v -0.012748 -0.022944 -0.003648 1.000000 1.000000 0.945098
vn 0.387725 -1.842710 -3.545431
v -0.014085 -0.015871 -0.016695 1.000000 1.000000 0.945098
vn 4.414692 1.842707 -0.506128
v -0.013824 -0.015577 -0.016386 1.000000 1.000000 0.945098
vn 3.672354 4.413453 2.109497
v -0.015884 -0.019063 -0.009304 1.000000 1.000000 0.945098
vn 0.176470 -1.015877 -3.969416
v -0.016558 -0.008342 -0.019627 1.000000 1.000000 0.945098
vn 4.118426 3.185499 3.276189
v -0.017733 -0.013637 -0.014207 1.000000 1.000000 0.945098
vn 3.423314 1.662349 4.874747
v 0.014908 0.007234 0.021317 1.000000 1.000000 0.945098
vn 3.426428 -1.662583 4.872599
v 0.014922 -0.007240 0.021305 1.000000 1.000000 0.945098
vn 2.992523 1.474859 5.209972
v 0.013286 0.006153 0.022685 1.000000 1.000000 0.945098
vn 2.684032 1.070865 5.470232
v 0.011999 0.004467 0.023771 1.000000 1.000000 0.945098
vn 2.486174 0.561836 5.637153
v 0.011174 0.002344 0.024467 1.000000 1.000000 0.945098
vn 2.418369 -0.002289 5.694357
v 0.010891 -0.000010 0.024706 1.000000 1.000000 0.945098
vn 2.487261 -0.566198 5.636237
v 0.011178 -0.002362 0.024464 1.000000 1.000000 0.945098
vn 2.686094 -1.074572 5.468494
v 0.012008 -0.004483 0.023764 1.000000 1.000000 0.945098
vn 2.995357 -1.477553 5.207579
v 0.013298 -0.006164 0.022675 1.000000 1.000000 0.945098
vn 2.530456 3.183887 4.614976
v 0.011199 0.013883 0.020270 1.000000 1.000000 0.945098
vn 1.453921 4.410532 3.980078
v 0.006582 0.019407 0.017580 1.000000 1.000000 0.945098
vn 0.284749 5.266709 3.038575
v 0.001432 0.023358 0.013467 1.000000 1.000000 0.945098
vn -0.891552 5.705879 1.870914
v -0.003834 0.025417 0.008262 1.000000 1.000000 0.945098
vn -1.994336 5.705876 0.563762
v -0.008790 0.025417 0.002388 1.000000 1.000000 0.945098
vn -2.947231 5.266708 -0.792364
v -0.013033 0.023358 -0.003679 1.000000 1.000000 0.945098
vn -3.678402 4.410534 -2.103393
v -0.016221 0.019407 -0.009448 1.000000 1.000000 0.945098
vn -4.122947 3.183886 -3.271472
v -0.018094 0.013883 -0.014452 1.000000 1.000000 0.945098
vn -4.228656 1.662350 -4.195320
v -0.018502 0.007234 -0.018285 1.000000 1.000000 0.945098
vn -4.226011 -1.662581 -4.198032
v -0.018488 -0.007240 -0.018297 1.000000 1.000000 0.945098
vn -4.631636 1.474860 -3.827134
v -0.020124 0.006153 -0.016917 1.000000 1.000000 0.945098
vn -4.940132 1.070863 -3.566871
v -0.021411 0.004467 -0.015831 1.000000 1.000000 0.945098
vn -5.137985 0.561840 -3.399950
v -0.022236 0.002344 -0.015135 1.000000 1.000000 0.945098
vn -5.205790 -0.002289 -3.342749
v -0.022519 -0.000010 -0.014896 1.000000 1.000000 0.945098
vn -5.136898 -0.566199 -3.400869
v -0.022232 -0.002362 -0.015138 1.000000 1.000000 0.945098
vn -4.938069 -1.074574 -3.568613
v -0.021402 -0.004483 -0.015838 1.000000 1.000000 0.945098
vn -4.628804 -1.477549 -3.829521
v -0.020112 -0.006164 -0.016927 1.000000 1.000000 0.945098
vn -4.118457 -3.185494 -3.276159
v -0.018068 -0.013894 -0.014475 1.000000 1.000000 0.945098
vn -3.672355 -4.413451 -2.109492
v -0.016184 -0.019422 -0.009480 1.000000 1.000000 0.945098
vn -2.939973 -5.270626 -0.799216
v -0.012988 -0.023377 -0.003717 1.000000 1.000000 0.945098
vn -1.986299 -5.710339 0.556720
v -0.008741 -0.025438 0.002347 1.000000 1.000000 0.945098
vn -0.883257 -5.710341 1.864180
v -0.003786 -0.025438 0.008221 1.000000 1.000000 0.945098
vn 0.292723 -5.270624 3.032576
v 0.001477 -0.023377 0.013429 1.000000 1.000000 0.945098
vn 1.460949 -4.413456 3.975140
v 0.006619 -0.019422 0.017549 1.000000 1.000000 0.945098
vn 2.535845 -3.185490 4.611338
v 0.011225 -0.013894 0.020247 1.000000 1.000000 0.945098
vn 4.830455 -2.737573 2.639127
v -0.020815 0.011588 -0.011607 1.000000 1.000000 0.945098
vn 4.643225 -3.763335 1.260658
v -0.020192 0.016199 -0.005670 1.000000 1.000000 0.945098
vn 4.098046 -4.482641 -0.196512
v -0.017933 0.019497 0.000726 1.000000 1.000000 0.945098
vn 3.244748 -4.852317 -1.624779
v -0.014221 0.021216 0.007064 1.000000 1.000000 0.945098
vn 2.147984 -4.852307 -2.924813
v -0.009357 0.021216 0.012829 1.000000 1.000000 0.945098
vn 0.883819 -4.482642 -4.006425
v -0.003736 0.019497 0.017554 1.000000 1.000000 0.945098
vn -0.460760 -3.763338 -4.789206
v 0.002189 0.016199 0.020858 1.000000 1.000000 0.945098
vn -1.787997 -2.737568 -5.205898
v 0.007936 0.011588 0.022472 1.000000 1.000000 0.945098
vn 5.403062 -1.987686 2.156021
v -0.023238 0.008414 -0.009562 1.000000 1.000000 0.945098
vn 5.430395 -2.732482 0.596582
v -0.023580 0.011762 -0.002811 1.000000 1.000000 0.945098
vn 5.035636 -3.254748 -0.987543
v -0.022011 0.014157 0.004167 1.000000 1.000000 0.945098
vn 4.259685 -3.523178 -2.481063
v -0.018659 0.015404 0.010807 1.000000 1.000000 0.945098
vn 3.162939 -3.523189 -3.781046
v -0.013795 0.015404 0.016572 1.000000 1.000000 0.945098
vn 1.821433 -3.254759 -4.797414
v -0.007814 0.014157 0.020995 1.000000 1.000000 0.945098
vn 0.326398 -2.732476 -5.453313
v -0.001200 0.011762 0.023717 1.000000 1.000000 0.945098
vn -1.215377 -1.987695 -5.688966
v 0.005512 0.008414 0.024517 1.000000 1.000000 0.945098
vn 5.770314 -1.042871 1.846216
v -0.024793 0.004414 -0.008250 1.000000 1.000000 0.945098
vn 5.935248 -1.433601 0.170660
v -0.025753 0.006171 -0.000978 1.000000 1.000000 0.945098
vn 5.637003 -1.707603 -1.494879
v -0.024627 0.007427 0.006373 1.000000 1.000000 0.945098
vn 4.910625 -1.848456 -3.030207
v -0.021505 0.008082 0.013209 1.000000 1.000000 0.945098
vn 3.813876 -1.848454 -4.330216
v -0.016641 0.008082 0.018974 1.000000 1.000000 0.945098
vn 2.422780 -1.707601 -5.304774
v -0.010429 0.007427 0.023202 1.000000 1.000000 0.945098
vn 0.831255 -1.433594 -5.879227
v -0.003373 0.006171 0.025550 1.000000 1.000000 0.945098
vn -0.848135 -1.042855 -5.998810
v 0.003958 0.004414 0.025828 1.000000 1.000000 0.945098
vn 5.896164 0.004252 1.740006
v -0.025326 -0.000018 -0.007801 1.000000 1.000000 0.945098
vn 6.108278 0.005860 0.024680
v -0.026498 -0.000025 -0.000350 1.000000 1.000000 0.945098
vn 5.843098 0.006982 -1.668736
v -0.025523 -0.000030 0.007130 1.000000 1.000000 0.945098
vn 5.133723 0.007545 -3.218412
v -0.022480 -0.000033 0.014031 1.000000 1.000000 0.945098
vn 4.036960 0.007543 -4.518436
v -0.017617 -0.000033 0.019796 1.000000 1.000000 0.945098
vn 2.628860 0.006984 -5.478648
v -0.011326 -0.000030 0.023958 1.000000 1.000000 0.945098
vn 1.004287 0.005855 -6.025201
v -0.004117 -0.000025 0.026178 1.000000 1.000000 0.945098
vn -0.722252 0.004234 -6.104974
v 0.003425 -0.000018 0.026278 1.000000 1.000000 0.945098
vn 5.768300 1.050954 1.847891
v -0.024784 -0.004449 -0.008258 1.000000 1.000000 0.945098
vn 5.932487 1.444724 0.172979
v -0.025741 -0.006219 -0.000988 1.000000 1.000000 0.945098
vn 5.633717 1.720874 -1.492091
v -0.024612 -0.007485 0.006361 1.000000 1.000000 0.945098
vn 4.907064 1.862798 -3.027185
v -0.021489 -0.008145 0.013195 1.000000 1.000000 0.945098
vn 3.810289 1.862804 -4.327216
v -0.016626 -0.008145 0.018960 1.000000 1.000000 0.945098
vn 2.419476 1.720880 -5.301999
v -0.010415 -0.007485 0.023189 1.000000 1.000000 0.945098
vn 0.828518 1.444731 -5.876891
v -0.003361 -0.006219 0.025540 1.000000 1.000000 0.945098
vn -0.850145 1.050957 -5.997104
v 0.003966 -0.004449 0.025821 1.000000 1.000000 0.945098
vn 5.399242 1.994566 2.159254
v -0.023222 -0.008443 -0.009576 1.000000 1.000000 0.945098
vn 5.425118 2.741954 0.600992
v -0.023557 -0.011802 -0.002831 1.000000 1.000000 0.945098
vn 5.029408 3.266005 -0.982269
v -0.021984 -0.014205 0.004144 1.000000 1.000000 0.945098
vn 4.252927 3.535359 -2.475327
v -0.018629 -0.015458 0.010782 1.000000 1.000000 0.945098
vn 3.156158 3.535355 -3.775356
v -0.013765 -0.015458 0.016547 1.000000 1.000000 0.945098
vn 1.815195 3.265993 -4.792176
v -0.007787 -0.014205 0.020972 1.000000 1.000000 0.945098
vn 0.321162 2.741937 -5.448859
v -0.001177 -0.011802 0.023697 1.000000 1.000000 0.945098
vn -1.219200 1.994575 -5.685744
v 0.005528 -0.008443 0.024503 1.000000 1.000000 0.945098
vn 4.825182 2.742575 2.643547
v -0.020792 -0.011609 -0.011626 1.000000 1.000000 0.945098
vn 4.635988 3.770220 1.266779
v -0.020160 -0.016228 -0.005696 1.000000 1.000000 0.945098
vn 4.089430 4.490775 -0.189233
v -0.017895 -0.019533 0.000695 1.000000 1.000000 0.945098
vn 3.235431 4.861145 -1.616910
v -0.014180 -0.021255 0.007029 1.000000 1.000000 0.945098
vn 2.138663 4.861144 -2.916942
v -0.009317 -0.021255 0.012794 1.000000 1.000000 0.945098
vn 0.875178 4.490784 -3.999160
v -0.003698 -0.019533 0.017523 1.000000 1.000000 0.945098
vn -0.468023 3.770221 -4.783103
v 0.002220 -0.016228 0.020832 1.000000 1.000000 0.945098
vn -1.793237 2.742576 -5.201442
v 0.007958 -0.011609 0.022453 1.000000 1.000000 0.945098
vn 1.787994 2.737579 5.205880
v 0.008086 0.011807 0.022896 1.000000 1.000000 0.945098
vn 0.460764 3.763340 4.789210
v 0.002230 0.016504 0.021252 1.000000 1.000000 0.945098
vn -0.883777 4.482620 4.006431
v -0.003806 0.019865 0.017886 1.000000 1.000000 0.945098
vn -2.147977 4.852316 2.924802
v -0.009534 0.021616 0.013071 1.000000 1.000000 0.945098
vn -3.244749 4.852314 1.624767
v -0.014490 0.021616 0.007197 1.000000 1.000000 0.945098
vn -4.098033 4.482626 0.196492
v -0.018271 0.019865 0.000740 1.000000 1.000000 0.945098
vn -4.643227 3.763338 -1.260680
v -0.020573 0.016504 -0.005777 1.000000 1.000000 0.945098
vn -4.830446 2.737576 -2.639111
v -0.021207 0.011807 -0.011826 1.000000 1.000000 0.945098
vn 1.215362 1.987687 5.688969
v 0.005616 0.008573 0.024979 1.000000 1.000000 0.945098
vn -0.326390 2.732493 5.453318
v -0.001222 0.011984 0.024164 1.000000 1.000000 0.945098
vn -1.821405 3.254742 4.797451
v -0.007961 0.014424 0.021391 1.000000 1.000000 0.945098
vn -3.162938 3.523159 3.781061
v -0.014055 0.015695 0.016885 1.000000 1.000000 0.945098
vn -4.259697 3.523156 2.481043
v -0.019011 0.015695 0.011011 1.000000 1.000000 0.945098
vn -5.035659 3.254735 0.987526
v -0.022426 0.014424 0.004245 1.000000 1.000000 0.945098
vn -5.430405 2.732492 -0.596589
v -0.024025 0.011984 -0.002864 1.000000 1.000000 0.945098
vn -5.403057 1.987695 -2.156023
v -0.023677 0.008573 -0.009742 1.000000 1.000000 0.945098
vn 0.848140 1.042862 5.998801
v 0.004032 0.004498 0.026316 1.000000 1.000000 0.945098
vn -0.831246 1.433619 5.879223
v -0.003436 0.006287 0.026032 1.000000 1.000000 0.945098
vn -2.422788 1.707596 5.304764
v -0.010626 0.007567 0.023639 1.000000 1.000000 0.945098
vn -3.813878 1.848467 4.330230
v -0.016955 0.008235 0.019332 1.000000 1.000000 0.945098
vn -4.910630 1.848485 3.030221
v -0.021911 0.008235 0.013458 1.000000 1.000000 0.945098
vn -5.636999 1.707617 1.494860
v -0.025091 0.007567 0.006494 1.000000 1.000000 0.945098
vn -5.935242 1.433615 -0.170658
v -0.026239 0.006287 -0.000997 1.000000 1.000000 0.945098
vn -5.770312 1.042847 -1.846210
v -0.025261 0.004498 -0.008406 1.000000 1.000000 0.945098
vn 0.722277 -0.004242 6.104979
v 0.003489 -0.000018 0.026774 1.000000 1.000000 0.945098
vn -1.004291 -0.005862 6.025198
v -0.004195 -0.000026 0.026672 1.000000 1.000000 0.945098
vn -2.628846 -0.006954 5.478670
v -0.011539 -0.000031 0.024410 1.000000 1.000000 0.945098
vn -4.036920 -0.007505 4.518442
v -0.017949 -0.000034 0.020170 1.000000 1.000000 0.945098
vn -5.133720 -0.007527 3.218384
v -0.022905 -0.000034 0.014296 1.000000 1.000000 0.945098
vn -5.843125 -0.006974 1.668707
v -0.026004 -0.000031 0.007264 1.000000 1.000000 0.945098
vn -6.108273 -0.005851 -0.024686
v -0.026998 -0.000026 -0.000356 1.000000 1.000000 0.945098
vn -5.896167 -0.004238 -1.740015
v -0.025804 -0.000018 -0.007948 1.000000 1.000000 0.945098
vn 0.850139 -1.050950 5.997095
v 0.004041 -0.004533 0.026308 1.000000 1.000000 0.945098
vn -0.828497 -1.444746 5.876893
v -0.003424 -0.006336 0.026022 1.000000 1.000000 0.945098
vn -2.419451 -1.720851 5.302010
v -0.010612 -0.007626 0.023627 1.000000 1.000000 0.945098
vn -3.810295 -1.862806 4.327219
v -0.016939 -0.008298 0.019318 1.000000 1.000000 0.945098
vn -4.907070 -1.862800 3.027180
v -0.021895 -0.008298 0.013444 1.000000 1.000000 0.945098
vn -5.633717 -1.720848 1.492075
v -0.025077 -0.007626 0.006481 1.000000 1.000000 0.945098
vn -5.932485 -1.444745 -0.173000
v -0.026227 -0.006336 -0.001007 1.000000 1.000000 0.945098
vn -5.768292 -1.050950 -1.847888
v -0.025252 -0.004533 -0.008413 1.000000 1.000000 0.945098
vn 1.219202 -1.994589 5.685735
v 0.005633 -0.008602 0.024965 1.000000 1.000000 0.945098
vn -0.321133 -2.741940 5.448886
v -0.001199 -0.012025 0.024145 1.000000 1.000000 0.945098
vn -1.815140 -3.266007 4.792160
v -0.007934 -0.014474 0.021368 1.000000 1.000000 0.945098
vn -3.156138 -3.535378 3.775333
v -0.014025 -0.015749 0.016860 1.000000 1.000000 0.945098
vn -4.252906 -3.535374 2.475314
v -0.018981 -0.015749 0.010986 1.000000 1.000000 0.945098
vn -5.029389 -3.266008 0.982225
v -0.022399 -0.014474 0.004222 1.000000 1.000000 0.945098
vn -5.425143 -2.741953 -0.601027
v -0.024002 -0.012025 -0.002884 1.000000 1.000000 0.945098
vn -5.399230 -1.994582 -2.159256
v -0.023660 -0.008602 -0.009756 1.000000 1.000000 0.945098
vn 1.793252 -2.742558 5.201455
v 0.008108 -0.011828 0.022877 1.000000 1.000000 0.945098
vn 0.467997 -3.770202 4.783105
v 0.002262 -0.016535 0.021225 1.000000 1.000000 0.945098
vn -0.875173 -4.490815 3.999151
v -0.003768 -0.019901 0.017853 1.000000 1.000000 0.945098
vn -2.138634 -4.861176 2.916924
v -0.009492 -0.021656 0.013036 1.000000 1.000000 0.945098
vn -3.235404 -4.861180 1.616889
v -0.014448 -0.021656 0.007162 1.000000 1.000000 0.945098
vn -4.089420 -4.490811 0.189223
v -0.018233 -0.019901 0.000708 1.000000 1.000000 0.945098
vn -4.635990 -3.770200 -1.266766
v -0.020541 -0.016535 -0.005804 1.000000 1.000000 0.945098
vn -4.825188 -2.742566 -2.643557
v -0.021185 -0.011828 -0.011845 1.000000 1.000000 0.945098
# 220 vertices, 0 vertices normals

f 1//1 2//2 3//3
f 4//4 3//3 2//2
f 5//5 3//3 6//6
f 7//7 6//6 3//3
f 5//5 1//1 3//3
f 8//8 3//3 4//4
f 9//9 3//3 8//8
f 10//10 3//3 9//9
f 11//11 3//3 10//10
f 12//12 3//3 11//11
f 13//13 3//3 12//12
f 14//14 3//3 13//13
f 7//7 3//3 14//14
f 1//1 15//15 2//2
f 16//16 2//2 15//15
f 16//16 4//4 2//2
f 17//17 18//18 15//15
f 19//19 15//15 18//18
f 1//1 17//17 15//15
f 19//19 16//16 15//15
f 20//20 21//21 18//18
f 22//22 18//18 21//21
f 17//17 20//20 18//18
f 22//22 19//19 18//18
f 23//23 24//24 21//21
f 25//25 21//21 24//24
f 20//20 23//23 21//21
f 25//25 22//22 21//21
f 26//26 27//27 24//24
f 28//28 24//24 27//27
f 29//29 26//26 24//24
f 23//23 29//29 24//24
f 28//28 25//25 24//24
f 30//30 31//31 27//27
f 32//32 27//27 31//31
f 26//26 30//30 27//27
f 32//32 28//28 27//27
f 33//33 34//34 31//31
f 35//35 31//31 34//34
f 30//30 33//33 31//31
f 35//35 32//32 31//31
f 36//36 37//37 34//34
f 38//38 34//34 37//37
f 33//33 36//36 34//34
f 38//38 35//35 34//34
f 39//39 40//40 37//37
f 41//41 37//37 40//40
f 36//36 39//39 37//37
f 41//41 38//38 37//37
f 42//42 43//43 40//40
f 44//44 40//40 43//43
f 42//42 40//40 39//39
f 45//45 41//41 40//40
f 46//46 45//45 40//40
f 47//47 46//46 40//40
f 48//48 47//47 40//40
f 49//49 48//48 40//40
f 50//50 49//49 40//40
f 51//51 50//50 40//40
f 44//44 51//51 40//40
f 42//42 52//52 43//43
f 53//53 43//43 52//52
f 44//44 43//43 53//53
f 54//54 55//55 52//52
f 56//56 52//52 55//55
f 42//42 54//54 52//52
f 53//53 52//52 56//56
f 57//57 58//58 55//55
f 59//59 55//55 58//58
f 54//54 57//57 55//55
f 56//56 55//55 59//59
f 60//60 61//61 58//58
f 62//62 58//58 61//61
f 57//57 60//60 58//58
f 59//59 58//58 62//62
f 63//63 64//64 61//61
f 65//65 61//61 64//64
f 66//66 63//63 61//61
f 60//60 66//66 61//61
f 62//62 61//61 65//65
f 67//67 68//68 64//64
f 69//69 64//64 68//68
f 63//63 67//67 64//64
f 65//65 64//64 69//69
f 70//70 71//71 68//68
f 72//72 68//68 71//71
f 67//67 70//70 68//68
f 69//69 68//68 72//72
f 73//73 6//6 71//71
f 74//74 71//71 6//6
f 70//70 73//73 71//71
f 72//72 71//71 74//74
f 73//73 5//5 6//6
f 74//74 6//6 7//7
f 75//75 39//39 36//36
f 76//76 42//42 39//39
f 77//77 39//39 75//75
f 78//78 39//39 77//77
f 79//79 39//39 78//78
f 80//80 39//39 79//79
f 81//81 39//39 80//80
f 82//82 39//39 81//81
f 83//83 39//39 82//82
f 76//76 39//39 83//83
f 84//84 36//36 33//33
f 84//84 75//75 36//36
f 85//85 33//33 30//30
f 85//85 84//84 33//33
f 86//86 30//30 26//26
f 86//86 85//85 30//30
f 87//87 26//26 29//29
f 87//87 86//86 26//26
f 88//88 29//29 23//23
f 88//88 87//87 29//29
f 89//89 23//23 20//20
f 89//89 88//88 23//23
f 90//90 20//20 17//17
f 90//90 89//89 20//20
f 91//91 17//17 1//1
f 91//91 90//90 17//17
f 92//92 1//1 5//5
f 92//92 91//91 1//1
f 93//93 5//5 73//73
f 94//94 92//92 5//5
f 95//95 94//94 5//5
f 96//96 95//95 5//5
f 97//97 96//96 5//5
f 98//98 97//97 5//5
f 99//99 98//98 5//5
f 100//100 99//99 5//5
f 93//93 100//100 5//5
f 101//101 73//73 70//70
f 93//93 73//73 101//101
f 102//102 70//70 67//67
f 101//101 70//70 102//102
f 103//103 67//67 63//63
f 102//102 67//67 103//103
f 104//104 63//63 66//66
f 103//103 63//63 104//104
f 105//105 66//66 60//60
f 104//104 66//66 105//105
f 106//106 60//60 57//57
f 105//105 60//60 106//106
f 107//107 57//57 54//54
f 106//106 57//57 107//107
f 108//108 54//54 42//42
f 107//107 54//54 108//108
f 108//108 42//42 76//76
f 8//8 4//4 16//16
f 109//109 16//16 19//19
f 109//109 8//8 16//16
f 110//110 19//19 22//22
f 110//110 109//109 19//19
f 111//111 22//22 25//25
f 111//111 110//110 22//22
f 112//112 25//25 28//28
f 112//112 111//111 25//25
f 113//113 28//28 32//32
f 113//113 112//112 28//28
f 114//114 32//32 35//35
f 114//114 113//113 32//32
f 115//115 35//35 38//38
f 115//115 114//114 35//35
f 116//116 38//38 41//41
f 116//116 115//115 38//38
f 45//45 116//116 41//41
f 9//9 8//8 109//109
f 117//117 109//109 110//110
f 117//117 9//9 109//109
f 118//118 110//110 111//111
f 118//118 117//117 110//110
f 119//119 111//111 112//112
f 119//119 118//118 111//111
f 120//120 112//112 113//113
f 120//120 119//119 112//112
f 121//121 113//113 114//114
f 121//121 120//120 113//113
f 122//122 114//114 115//115
f 122//122 121//121 114//114
f 123//123 115//115 116//116
f 123//123 122//122 115//115
f 124//124 116//116 45//45
f 124//124 123//123 116//116
f 46//46 124//124 45//45
f 10//10 9//9 117//117
f 125//125 117//117 118//118
f 125//125 10//10 117//117
f 126//126 118//118 119//119
f 126//126 125//125 118//118
f 127//127 119//119 120//120
f 127//127 126//126 119//119
f 128//128 120//120 121//121
f 128//128 127//127 120//120
f 129//129 121//121 122//122
f 129//129 128//128 121//121
f 130//130 122//122 123//123
f 130//130 129//129 122//122
f 131//131 123//123 124//124
f 131//131 130//130 123//123
f 132//132 124//124 46//46
f 132//132 131//131 124//124
f 47//47 132//132 46//46
f 11//11 10//10 125//125
f 133//133 125//125 126//126
f 133//133 11//11 125//125
f 134//134 126//126 127//127
f 134//134 133//133 126//126
f 135//135 127//127 128//128
f 135//135 134//134 127//127
f 136//136 128//128 129//129
f 136//136 135//135 128//128
f 137//137 129//129 130//130
f 137//137 136//136 129//129
f 138//138 130//130 131//131
f 138//138 137//137 130//130
f 139//139 131//131 132//132
f 139//139 138//138 131//131
f 140//140 132//132 47//47
f 140//140 139//139 132//132
f 48//48 140//140 47//47
f 12//12 11//11 133//133
f 141//141 133//133 134//134
f 141//141 12//12 133//133
f 142//142 134//134 135//135
f 142//142 141//141 134//134
f 143//143 135//135 136//136
f 143//143 142//142 135//135
f 144//144 136//136 137//137
f 144//144 143//143 136//136
f 145//145 137//137 138//138
f 145//145 144//144 137//137
f 146//146 138//138 139//139
f 146//146 145//145 138//138
f 147//147 139//139 140//140
f 147//147 146//146 139//139
f 148//148 140//140 48//48
f 148//148 147//147 140//140
f 49//49 148//148 48//48
f 13//13 12//12 141//141
f 149//149 141//141 142//142
f 149//149 13//13 141//141
f 150//150 142//142 143//143
f 150//150 149//149 142//142
f 151//151 143//143 144//144
f 151//151 150//150 143//143
f 152//152 144//144 145//145
f 152//152 151//151 144//144
f 153//153 145//145 146//146
f 153//153 152//152 145//145
f 154//154 146//146 147//147
f 154//154 153//153 146//146
f 155//155 147//147 148//148
f 155//155 154//154 147//147
f 156//156 148//148 49//49
f 156//156 155//155 148//148
f 50//50 156//156 49//49
f 14//14 13//13 149//149
f 157//157 149//149 150//150
f 157//157 14//14 149//149
f 158//158 150//150 151//151
f 158//158 157//157 150//150
f 159//159 151//151 152//152
f 159//159 158//158 151//151
f 160//160 152//152 153//153
f 160//160 159//159 152//152
f 161//161 153//153 154//154
f 161//161 160//160 153//153
f 162//162 154//154 155//155
f 162//162 161//161 154//154
f 163//163 155//155 156//156
f 163//163 162//162 155//155
f 164//164 156//156 50//50
f 164//164 163//163 156//156
f 51//51 164//164 50//50
f 7//7 14//14 157//157
f 74//74 157//157 158//158
f 74//74 7//7 157//157
f 72//72 158//158 159//159
f 72//72 74//74 158//158
f 69//69 159//159 160//160
f 69//69 72//72 159//159
f 65//65 160//160 161//161
f 65//65 69//69 160//160
f 62//62 161//161 162//162
f 62//62 65//65 161//161
f 59//59 162//162 163//163
f 59//59 62//62 162//162
f 56//56 163//163 164//164
f 56//56 59//59 163//163
f 53//53 164//164 51//51
f 53//53 56//56 164//164
f 44//44 53//53 51//51
f 77//77 75//75 84//84
f 165//165 84//84 85//85
f 165//165 77//77 84//84
f 166//166 85//85 86//86
f 166//166 165//165 85//85
f 167//167 86//86 87//87
f 167//167 166//166 86//86
f 168//168 87//87 88//88
f 168//168 167//167 87//87
f 169//169 88//88 89//89
f 169//169 168//168 88//88
f 170//170 89//89 90//90
f 170//170 169//169 89//89
f 171//171 90//90 91//91
f 171//171 170//170 90//90
f 172//172 91//91 92//92
f 172//172 171//171 91//91
f 94//94 172//172 92//92
f 78//78 77//77 165//165
f 173//173 165//165 166//166
f 173//173 78//78 165//165
f 174//174 166//166 167//167
f 174//174 173//173 166//166
f 175//175 167//167 168//168
f 175//175 174//174 167//167
f 176//176 168//168 169//169
f 176//176 175//175 168//168
f 177//177 169//169 170//170
f 177//177 176//176 169//169
f 178//178 170//170 171//171
f 178//178 177//177 170//170
f 179//179 171//171 172//172
f 179//179 178//178 171//171
f 180//180 172//172 94//94
f 180//180 179//179 172//172
f 95//95 180//180 94//94
f 79//79 78//78 173//173
f 181//181 173//173 174//174
f 181//181 79//79 173//173
f 182//182 174//174 175//175
f 182//182 181//181 174//174
f 183//183 175//175 176//176
f 183//183 182//182 175//175
f 184//184 176//176 177//177
f 184//184 183//183 176//176
f 185//185 177//177 178//178
f 185//185 184//184 177//177
f 186//186 178//178 179//179
f 186//186 185//185 178//178
f 187//187 179//179 180//180
f 187//187 186//186 179//179
f 188//188 180//180 95//95
f 188//188 187//187 180//180
f 96//96 188//188 95//95
f 80//80 79//79 181//181
f 189//189 181//181 182//182
f 189//189 80//80 181//181
f 190//190 182//182 183//183
f 190//190 189//189 182//182
f 191//191 183//183 184//184
f 191//191 190//190 183//183
f 192//192 184//184 185//185
f 192//192 191//191 184//184
f 193//193 185//185 186//186
f 193//193 192//192 185//185
f 194//194 186//186 187//187
f 194//194 193//193 186//186
f 195//195 187//187 188//188
f 195//195 194//194 187//187
f 196//196 188//188 96//96
f 196//196 195//195 188//188
f 97//97 196//196 96//96
f 81//81 80//80 189//189
f 197//197 189//189 190//190
f 197//197 81//81 189//189
f 198//198 190//190 191//191
f 198//198 197//197 190//190
f 199//199 191//191 192//192
f 199//199 198//198 191//191
f 200//200 192//192 193//193
f 200//200 199//199 192//192
f 201//201 193//193 194//194
f 201//201 200//200 193//193
f 202//202 194//194 195//195
f 202//202 201//201 194//194
f 203//203 195//195 196//196
f 203//203 202//202 195//195
f 204//204 196//196 97//97
f 204//204 203//203 196//196
f 98//98 204//204 97//97
f 82//82 81//81 197//197
f 205//205 197//197 198//198
f 205//205 82//82 197//197
f 206//206 198//198 199//199
f 206//206 205//205 198//198
f 207//207 199//199 200//200
f 207//207 206//206 199//199
f 208//208 200//200 201//201
f 208//208 207//207 200//200
f 209//209 201//201 202//202
f 209//209 208//208 201//201
f 210//210 202//202 203//203
f 210//210 209//209 202//202
f 211//211 203//203 204//204
f 211//211 210//210 203//203
f 212//212 204//204 98//98
f 212//212 211//211 204//204
f 99//99 212//212 98//98
f 83//83 82//82 205//205
f 213//213 205//205 206//206
f 213//213 83//83 205//205
f 214//214 206//206 207//207
f 214//214 213//213 206//206
f 215//215 207//207 208//208
f 215//215 214//214 207//207
f 216//216 208//208 209//209
f 216//216 215//215 208//208
f 217//217 209//209 210//210
f 217//217 216//216 209//209
f 218//218 210//210 211//211
f 218//218 217//217 210//210
f 219//219 211//211 212//212
f 219//219 218//218 211//211
f 220//220 212//212 99//99
f 220//220 219//219 212//212
f 100//100 220//220 99//99
f 76//76 83//83 213//213
f 108//108 213//213 214//214
f 108//108 76//76 213//213
f 107//107 214//214 215//215
f 107//107 108//108 214//214
f 106//106 215//215 216//216
f 106//106 107//107 215//215
f 105//105 216//216 217//217
f 105//105 106//106 216//216
f 104//104 217//217 218//218
f 104//104 105//105 217//217
f 103//103 218//218 219//219
f 103//103 104//104 218//218
f 102//102 219//219 220//220
f 102//102 103//103 219//219
f 101//101 220//220 100//100
f 101//101 102//102 220//220
f 93//93 101//101 100//100
# 436 faces, 0 coords texture

# End of File
