#VRML V2.0 utf8


Group {
  children 
    DEF _+0 Group {
      children 
        DEF _+1 Transform {
          translation 0 0 0
          rotation -0 -0 -0.99999994  1.5700002
          scale 1 1 1
          scaleOrientation 0 0 1  0
          center 0 0 0
          children 
            DEF _+2 Transform {
              translation 0 0 0
              rotation 0 0.99999994 0  1.5700002
              scale 1 1 1
              scaleOrientation 0 0 1  0
              center 0 0 0
              children 
                DEF _+3 Group {
                  children 
                    DEF _+4 Group {
                      children 
                        DEF _+5 Transform {
                          scale 0.001 0.001 0.001
                          children [ 
                            DEF _+6 Group {
                              children 
                                DEF _+7 Shape {
                                  appearance 
                                  Appearance {
                                    material 
                                    Material {
                                      diffuseColor 0.87840003 0.949 1

                                    }

                                  }
                                  geometry 
                                  IndexedFaceSet {
                                    coord 
                                    Coordinate {
                                      point [ 0.85669899 -2.0597 -5,
                                          0.598674 -0.43495801 -5,
                                          0.74000001 0 -5,
                                          0.74000001 0 -2.8,
                                          2.4000001 2.25 -5,
                                          0.598674 0.43495801 -5,
                                          0.598674 0.43495801 -2.8,
                                          -0.1 -2.25 -5,
                                          0.22866599 -0.70378399 -5,
                                          0.598674 -0.43495801 -2.8,
                                          -0.22866599 -0.70378399 -5,
                                          0.22866599 -0.70378399 -2.8,
                                          -37.599998 -2.25 -5,
                                          -0.598674 -0.43495801 -5,
                                          -0.22866599 -0.70378399 -2.8,
                                          -0.74000001 0 -5,
                                          -0.598674 -0.43495801 -2.8,
                                          -0.598674 0.43495801 -5,
                                          -0.74000001 0 -2.8,
                                          -0.22866599 0.70378399 -5,
                                          -0.598674 0.43495801 -2.8,
                                          0.22866599 0.70378399 -5,
                                          -0.22866599 0.70378399 -2.8,
                                          0.22866599 0.70378399 -2.8,
                                          -37.599998 -2.25 -2.5,
                                          -37.599998 2.25 -5,
                                          -37.599998 2.25 -2.5,
                                          -0.1 -2.25 -2.8,
                                          -37.599998 -2.25 2.5,
                                          -37.599998 -2.25 5,
                                          -2.25 -2.25 -2.8,
                                          1.66777 -1.5177701 -5,
                                          0.85669899 -2.0597 -2.8,
                                          2.2097001 -0.70669901 -5,
                                          1.66777 -1.5177701 -2.8,
                                          2.4000001 0.25 -5,
                                          2.2097001 -0.70669901 -2.8,
                                          2.4000001 2.25 -2.8,
                                          2.4000001 0.25 -2.8,
                                          -2.25 2.25 2.8,
                                          2.4000001 2.25 5,
                                          -2.25 2.25 -2.8,
                                          -0.1 -2.25 5,
                                          -0.60676402 -0.440835 5,
                                          -0.75 0 5,
                                          -0.75 0 2.8,
                                          -37.599998 2.25 5,
                                          -0.60676402 0.440835 5,
                                          -0.60676402 0.440835 2.8,
                                          -0.231756 -0.71329403 5,
                                          -0.60676402 -0.440835 2.8,
                                          0.231756 -0.71329403 5,
                                          -0.231756 -0.71329403 2.8,
                                          0.85669899 -2.0597 5,
                                          0.60676402 -0.440835 5,
                                          0.231756 -0.71329403 2.8,
                                          0.75 0 5,
                                          0.60676402 -0.440835 2.8,
                                          1.66777 -1.5177701 5,
                                          0.60676402 0.440835 5,
                                          0.75 0 2.8,
                                          2.2097001 -0.70669901 5,
                                          0.231756 0.71329403 5,
                                          0.60676402 0.440835 2.8,
                                          -0.231756 0.71329403 5,
                                          0.231756 0.71329403 2.8,
                                          2.4000001 0.25 5,
                                          -0.231756 0.71329403 2.8,
                                          -0.1 -2.25 2.8,
                                          0.85669899 -2.0597 2.8,
                                          -2.25 -2.25 2.8,
                                          -37.599998 2.25 2.5,
                                          2.4000001 0.25 2.8,
                                          2.4000001 2.25 2.8,
                                          2.2097001 -0.70669901 2.8,
                                          1.66777 -1.5177701 2.8,
                                          -42.25 -2.25 2.5,
                                          -42.25 2.25 2.5,
                                          -42.25 2.25 -2.5,
                                          -42.25 -2.25 -2.5,
                                          -40.909302 0.52500498 -2.5,
                                          -40.525002 0.90932298 -2.5,
                                          -40.909302 -0.52500498 2.5,
                                          -39.474998 0.90932298 2.5,
                                          -41.049999 0 2.5,
                                          -40.909302 0.52500498 2.5,
                                          -40 1.05 2.5,
                                          -40.525002 0.90932298 2.5,
                                          -40.525002 -0.90932298 2.5,
                                          -39.474998 -0.90932298 -2.5,
                                          -41.049999 0 -2.5,
                                          -40.909302 -0.52500498 -2.5,
                                          -40 -1.05 -2.5,
                                          -40.525002 -0.90932298 -2.5,
                                          -39.090698 -0.52500498 -2.5,
                                          -39.090698 0.52500498 2.5,
                                          -40 -1.05 2.5,
                                          -39.474998 -0.90932298 2.5,
                                          -39.090698 -0.52500498 2.5,
                                          -38.950001 0 2.5,
                                          -40 1.05 -2.5,
                                          -39.474998 0.90932298 -2.5,
                                          -39.090698 0.52500498 -2.5,
                                          -38.950001 0 -2.5 ]

                                    }
                                    normal 
                                    Normal {
                                      vector [ -2.25514e-017 -5.5511198e-017 -1,
                                          -1 2.86563e-016 5.63785e-017,
                                          -0.809017 0.58778501 -1.96461e-017,
                                          -0.809017 -0.58778501 1.10868e-016,
                                          -1 4.16334e-017 5.63785e-017,
                                          -0.309017 0.95105702 -8.8166601e-017,
                                          0.309017 0.95105702 -1.2301e-016,
                                          0.809017 0.58778501 -1.10868e-016,
                                          1 -1.64098e-016 -5.63785e-017,
                                          0.809017 -0.58778501 1.96461e-017,
                                          0.309017 -0.95105702 8.8166601e-017,
                                          -0.309017 -0.95105702 1.2301e-016,
                                          -2.9490299e-017 -1 1.11022e-016,
                                          -2.13187e-016 -1 1.11022e-016,
                                          0.38268301 -0.92387998 8.0996103e-017,
                                          0.70710701 -0.70710701 3.8638999e-017,
                                          0.92387998 -0.38268301 -9.6005601e-018,
                                          1 -2.86563e-016 -5.63785e-017,
                                          1 -4.16334e-017 -5.63785e-017,
                                          2.9490299e-017 1 -1.11022e-016,
                                          2.25514e-017 5.5511198e-017 1,
                                          1 2.0329599e-016 -5.63785e-017,
                                          -1 -8.0831302e-017 5.63785e-017,
                                          0.86602497 -0.5 6.6859301e-018,
                                          0.86602497 0.5 -1.04336e-016,
                                          0.5 -0.86602497 6.7958903e-017,
                                          -4.85324e-015 -1 1.11022e-016,
                                          -0.5 -0.86602497 1.24337e-016,
                                          -0.86602497 -0.5 1.04336e-016,
                                          -0.86602497 0.5 -6.6859301e-018,
                                          -0.5 0.86602497 -6.7958903e-017,
                                          1.62215e-015 1 -1.11022e-016,
                                          0.5 0.86602497 -1.24337e-016 ]

                                    }
                                    coordIndex [ 0, 1, 2, -1, 3, 2, 1, -1,
                                        4, 2, 5, -1, 6, 5, 2, -1,
                                        4, 0, 2, -1, 6, 2, 3, -1,
                                        7, 8, 1, -1, 9, 1, 8, -1,
                                        0, 7, 1, -1, 9, 3, 1, -1,
                                        7, 10, 8, -1, 11, 8, 10, -1,
                                        9, 8, 11, -1, 12, 13, 10, -1,
                                        14, 10, 13, -1, 7, 12, 10, -1,
                                        11, 10, 14, -1, 12, 15, 13, -1,
                                        16, 13, 15, -1, 14, 13, 16, -1,
                                        12, 17, 15, -1, 18, 15, 17, -1,
                                        16, 15, 18, -1, 12, 19, 17, -1,
                                        20, 17, 19, -1, 18, 17, 20, -1,
                                        4, 21, 19, -1, 22, 19, 21, -1,
                                        4, 19, 12, -1, 20, 19, 22, -1,
                                        4, 5, 21, -1, 23, 21, 5, -1,
                                        22, 21, 23, -1, 23, 5, 6, -1,
                                        24, 12, 7, -1, 25, 4, 12, -1,
                                        26, 25, 12, -1, 26, 12, 24, -1,
                                        27, 7, 0, -1, 28, 7, 29, -1,
                                        30, 29, 7, -1, 30, 7, 27, -1,
                                        28, 24, 7, -1, 4, 31, 0, -1,
                                        32, 0, 31, -1, 32, 27, 0, -1,
                                        4, 33, 31, -1, 34, 31, 33, -1,
                                        32, 31, 34, -1, 4, 35, 33, -1,
                                        36, 33, 35, -1, 34, 33, 36, -1,
                                        37, 35, 4, -1, 37, 38, 35, -1,
                                        36, 35, 38, -1, 37, 4, 25, -1,
                                        39, 25, 40, -1, 26, 40, 25, -1,
                                        41, 37, 25, -1, 39, 41, 25, -1,
                                        42, 43, 44, -1, 45, 44, 43, -1,
                                        46, 44, 47, -1, 48, 47, 44, -1,
                                        46, 42, 44, -1, 48, 44, 45, -1,
                                        42, 49, 43, -1, 50, 43, 49, -1,
                                        50, 45, 43, -1, 42, 51, 49, -1,
                                        52, 49, 51, -1, 50, 49, 52, -1,
                                        53, 54, 51, -1, 55, 51, 54, -1,
                                        53, 51, 42, -1, 52, 51, 55, -1,
                                        53, 56, 54, -1, 57, 54, 56, -1,
                                        55, 54, 57, -1, 58, 59, 56, -1,
                                        60, 56, 59, -1, 53, 58, 56, -1,
                                        57, 56, 60, -1, 61, 62, 59, -1,
                                        63, 59, 62, -1, 58, 61, 59, -1,
                                        60, 59, 63, -1, 46, 64, 62, -1,
                                        65, 62, 64, -1, 40, 46, 62, -1,
                                        66, 40, 62, -1, 61, 66, 62, -1,
                                        63, 62, 65, -1, 46, 47, 64, -1,
                                        67, 64, 47, -1, 65, 64, 67, -1,
                                        67, 47, 48, -1, 46, 29, 42, -1,
                                        68, 42, 29, -1, 69, 53, 42, -1,
                                        69, 42, 68, -1, 28, 29, 46, -1,
                                        70, 68, 29, -1, 30, 70, 29, -1,
                                        71, 46, 40, -1, 71, 28, 46, -1,
                                        72, 40, 66, -1, 73, 40, 72, -1,
                                        39, 40, 73, -1, 26, 71, 40, -1,
                                        72, 66, 61, -1, 74, 61, 58, -1,
                                        74, 72, 61, -1, 75, 58, 53, -1,
                                        74, 58, 75, -1, 75, 53, 69, -1,
                                        76, 77, 78, -1, 71, 78, 77, -1,
                                        79, 76, 78, -1, 80, 79, 78, -1,
                                        26, 78, 71, -1, 81, 78, 26, -1,
                                        81, 80, 78, -1, 82, 77, 76, -1,
                                        83, 71, 77, -1, 82, 84, 77, -1,
                                        85, 77, 84, -1, 86, 83, 77, -1,
                                        87, 86, 77, -1, 85, 87, 77, -1,
                                        24, 76, 79, -1, 28, 76, 24, -1,
                                        88, 76, 28, -1, 88, 82, 76, -1,
                                        89, 24, 79, -1, 80, 90, 79, -1,
                                        91, 79, 90, -1, 92, 89, 79, -1,
                                        93, 92, 79, -1, 91, 93, 79, -1,
                                        41, 30, 27, -1, 18, 41, 27, -1,
                                        16, 18, 27, -1, 14, 16, 27, -1,
                                        11, 14, 27, -1, 32, 11, 27, -1,
                                        94, 26, 24, -1, 89, 94, 24, -1,
                                        95, 28, 71, -1, 96, 88, 28, -1,
                                        97, 96, 28, -1, 98, 97, 28, -1,
                                        99, 98, 28, -1, 95, 99, 28, -1,
                                        52, 68, 70, -1, 55, 57, 68, -1,
                                        69, 68, 57, -1, 52, 55, 68, -1,
                                        39, 70, 30, -1, 48, 70, 39, -1,
                                        48, 45, 70, -1, 50, 70, 45, -1,
                                        50, 52, 70, -1, 39, 30, 41, -1,
                                        41, 38, 37, -1, 23, 38, 41, -1,
                                        36, 38, 23, -1, 74, 73, 72, -1,
                                        67, 39, 73, -1, 65, 67, 73, -1,
                                        63, 65, 73, -1, 60, 63, 73, -1,
                                        69, 60, 73, -1, 75, 69, 73, -1,
                                        74, 75, 73, -1, 22, 23, 41, -1,
                                        20, 22, 41, -1, 18, 20, 41, -1,
                                        67, 48, 39, -1, 83, 95, 71, -1,
                                        100, 81, 26, -1, 101, 100, 26, -1,
                                        102, 101, 26, -1, 103, 102, 26, -1,
                                        94, 103, 26, -1, 34, 6, 3, -1,
                                        32, 3, 9, -1, 32, 34, 3, -1,
                                        36, 23, 6, -1, 34, 36, 6, -1,
                                        32, 9, 11, -1, 69, 57, 60, -1,
                                        84, 90, 80, -1, 82, 91, 90, -1,
                                        82, 90, 84, -1, 85, 80, 81, -1,
                                        85, 84, 80, -1, 87, 81, 100, -1,
                                        85, 81, 87, -1, 86, 100, 101, -1,
                                        87, 100, 86, -1, 83, 101, 102, -1,
                                        86, 101, 83, -1, 95, 102, 103, -1,
                                        83, 102, 95, -1, 99, 103, 94, -1,
                                        95, 103, 99, -1, 98, 94, 89, -1,
                                        99, 94, 98, -1, 97, 89, 92, -1,
                                        98, 89, 97, -1, 96, 92, 93, -1,
                                        97, 92, 96, -1, 88, 93, 91, -1,
                                        96, 93, 88, -1, 88, 91, 82, -1 ]
                                    normalIndex [ 0, 0, 0, -1, 1, 1, 2, -1,
                                        0, 0, 0, -1, 3, 3, 4, -1,
                                        0, 0, 0, -1, 3, 4, 4, -1,
                                        0, 0, 0, -1, 2, 2, 5, -1,
                                        0, 0, 0, -1, 2, 1, 2, -1,
                                        0, 0, 0, -1, 5, 5, 6, -1,
                                        2, 5, 5, -1, 0, 0, 0, -1,
                                        6, 6, 7, -1, 0, 0, 0, -1,
                                        5, 6, 6, -1, 0, 0, 0, -1,
                                        7, 7, 8, -1, 6, 7, 7, -1,
                                        0, 0, 0, -1, 8, 8, 9, -1,
                                        7, 8, 8, -1, 0, 0, 0, -1,
                                        9, 9, 10, -1, 8, 9, 9, -1,
                                        0, 0, 0, -1, 10, 10, 11, -1,
                                        0, 0, 0, -1, 9, 10, 10, -1,
                                        0, 0, 0, -1, 11, 11, 3, -1,
                                        10, 11, 11, -1, 11, 3, 3, -1,
                                        12, 12, 12, -1, 0, 0, 0, -1,
                                        4, 4, 4, -1, 4, 4, 4, -1,
                                        13, 13, 14, -1, 12, 12, 12, -1,
                                        12, 12, 12, -1, 12, 12, 12, -1,
                                        12, 12, 12, -1, 0, 0, 0, -1,
                                        14, 14, 15, -1, 14, 13, 14, -1,
                                        0, 0, 0, -1, 15, 15, 16, -1,
                                        14, 15, 15, -1, 0, 0, 0, -1,
                                        16, 16, 17, -1, 15, 16, 16, -1,
                                        18, 18, 18, -1, 18, 18, 18, -1,
                                        16, 17, 17, -1, 19, 19, 19, -1,
                                        19, 19, 19, -1, 19, 19, 19, -1,
                                        19, 19, 19, -1, 19, 19, 19, -1,
                                        20, 20, 20, -1, 21, 21, 7, -1,
                                        20, 20, 20, -1, 9, 9, 18, -1,
                                        20, 20, 20, -1, 9, 18, 18, -1,
                                        20, 20, 20, -1, 7, 7, 6, -1,
                                        7, 21, 7, -1, 20, 20, 20, -1,
                                        6, 6, 5, -1, 7, 6, 6, -1,
                                        20, 20, 20, -1, 5, 5, 2, -1,
                                        20, 20, 20, -1, 6, 5, 5, -1,
                                        20, 20, 20, -1, 2, 2, 22, -1,
                                        5, 2, 2, -1, 20, 20, 20, -1,
                                        22, 22, 3, -1, 20, 20, 20, -1,
                                        2, 22, 22, -1, 20, 20, 20, -1,
                                        3, 3, 11, -1, 20, 20, 20, -1,
                                        22, 3, 3, -1, 20, 20, 20, -1,
                                        11, 11, 10, -1, 20, 20, 20, -1,
                                        20, 20, 20, -1, 20, 20, 20, -1,
                                        3, 11, 11, -1, 20, 20, 20, -1,
                                        10, 10, 9, -1, 11, 10, 10, -1,
                                        10, 9, 9, -1, 20, 20, 20, -1,
                                        12, 12, 12, -1, 14, 14, 13, -1,
                                        14, 13, 13, -1, 4, 4, 4, -1,
                                        12, 12, 12, -1, 12, 12, 12, -1,
                                        19, 19, 19, -1, 4, 4, 4, -1,
                                        18, 18, 18, -1, 18, 18, 18, -1,
                                        19, 19, 19, -1, 19, 19, 19, -1,
                                        17, 17, 16, -1, 16, 16, 15, -1,
                                        16, 17, 16, -1, 15, 15, 14, -1,
                                        16, 15, 15, -1, 15, 14, 14, -1,
                                        4, 4, 4, -1, 19, 19, 19, -1,
                                        4, 4, 4, -1, 0, 0, 0, -1,
                                        19, 19, 19, -1, 0, 0, 0, -1,
                                        0, 0, 0, -1, 20, 20, 20, -1,
                                        20, 20, 20, -1, 20, 20, 20, -1,
                                        20, 20, 20, -1, 20, 20, 20, -1,
                                        20, 20, 20, -1, 20, 20, 20, -1,
                                        12, 12, 12, -1, 12, 12, 12, -1,
                                        20, 20, 20, -1, 20, 20, 20, -1,
                                        0, 0, 0, -1, 0, 0, 0, -1,
                                        0, 0, 0, -1, 0, 0, 0, -1,
                                        0, 0, 0, -1, 0, 0, 0, -1,
                                        20, 20, 20, -1, 20, 20, 20, -1,
                                        20, 20, 20, -1, 20, 20, 20, -1,
                                        20, 20, 20, -1, 20, 20, 20, -1,
                                        0, 0, 0, -1, 0, 0, 0, -1,
                                        20, 20, 20, -1, 20, 20, 20, -1,
                                        20, 20, 20, -1, 20, 20, 20, -1,
                                        20, 20, 20, -1, 20, 20, 20, -1,
                                        0, 0, 0, -1, 0, 0, 0, -1,
                                        0, 0, 0, -1, 0, 0, 0, -1,
                                        18, 18, 18, -1, 0, 0, 0, -1,
                                        0, 0, 0, -1, 0, 0, 0, -1,
                                        0, 0, 0, -1, 18, 18, 18, -1,
                                        20, 20, 20, -1, 20, 20, 20, -1,
                                        20, 20, 20, -1, 0, 0, 0, -1,
                                        0, 0, 0, -1, 0, 0, 0, -1,
                                        0, 0, 0, -1, 0, 0, 0, -1,
                                        0, 0, 0, -1, 0, 0, 0, -1,
                                        0, 0, 0, -1, 20, 20, 20, -1,
                                        20, 20, 20, -1, 20, 20, 20, -1,
                                        0, 0, 0, -1, 20, 20, 20, -1,
                                        0, 0, 0, -1, 0, 0, 0, -1,
                                        0, 0, 0, -1, 0, 0, 0, -1,
                                        0, 0, 0, -1, 20, 20, 20, -1,
                                        20, 20, 20, -1, 20, 20, 20, -1,
                                        20, 20, 20, -1, 20, 20, 20, -1,
                                        20, 20, 20, -1, 0, 0, 0, -1,
                                        18, 18, 23, -1, 24, 24, 21, -1,
                                        24, 21, 21, -1, 23, 23, 25, -1,
                                        23, 18, 23, -1, 25, 25, 26, -1,
                                        23, 25, 25, -1, 26, 26, 27, -1,
                                        25, 26, 26, -1, 27, 27, 28, -1,
                                        26, 27, 27, -1, 28, 28, 22, -1,
                                        27, 28, 28, -1, 22, 22, 29, -1,
                                        28, 22, 22, -1, 29, 29, 30, -1,
                                        22, 29, 29, -1, 30, 30, 31, -1,
                                        29, 30, 30, -1, 31, 31, 32, -1,
                                        30, 31, 31, -1, 32, 32, 24, -1,
                                        31, 32, 32, -1, 32, 24, 24, -1 ]
                                    ccw TRUE
                                    solid TRUE
                                    convex TRUE
                                    creaseAngle 0

                                  }

                                }

                            },
                              
                            DEF _+8 Group {
                              children 
                                DEF _+9 Shape {
                                  appearance 
                                  Appearance {
                                    material 
                                    Material {
                                      diffuseColor 0 0 1

                                    }

                                  }
                                  geometry 
                                  IndexedFaceSet {
                                    coord 
                                    Coordinate {
                                      point [ -16.6194 -2.25 1.91342,
                                          -7.3806 -2.25 1.91342,
                                          -7 -2.25 -2.9311599e-014,
                                          -7 -3.75 -2.9394801e-014,
                                          -17 -2.25 -2.75319e-014,
                                          -7.3806 -2.25 -1.91342,
                                          -7.3806 -3.75 -1.91342,
                                          -15.5355 -2.25 3.5355301,
                                          -8.4644699 -2.25 3.5355301,
                                          -7.3806 -3.75 1.91342,
                                          -13.9134 -2.25 4.6194,
                                          -10.0866 -2.25 4.6194,
                                          -8.4644699 -3.75 3.5355301,
                                          -12 -2.25 5,
                                          -10.0866 -3.75 4.6194,
                                          -12 -3.75 5,
                                          -13.9134 -3.75 4.6194,
                                          -15.5355 -3.75 3.5355301,
                                          -16.6194 -3.75 1.91342,
                                          -16.6194 -2.25 -1.91342,
                                          -17 -3.75 -2.76151e-014,
                                          -8.4644699 -2.25 -3.5355301,
                                          -15.5355 -2.25 -3.5355301,
                                          -16.6194 -3.75 -1.91342,
                                          -10.0866 -2.25 -4.6194,
                                          -13.9134 -2.25 -4.6194,
                                          -15.5355 -3.75 -3.5355301,
                                          -12 -2.25 -5,
                                          -13.9134 -3.75 -4.6194,
                                          -12 -3.75 -5,
                                          -10.0866 -3.75 -4.6194,
                                          -8.4644699 -3.75 -3.5355301 ]

                                    }
                                    normal 
                                    Normal {
                                      vector [ 5.5511198e-017 1 5.5511198e-017,
                                          1 -1.11022e-016 -5.5511198e-017,
                                          0.92387998 -6.0084798e-017 0.38268301,
                                          0.92387998 -1.4505801e-016 -0.38268301,
                                          1 -1.11022e-016 -3.00441e-016,
                                          0.70710701 0 0.70710701,
                                          0.38268301 6.0084798e-017 0.92387998,
                                          -4.979e-017 1.11022e-016 1,
                                          -0.38268301 1.4505801e-016 0.92387998,
                                          -0.70710701 1.57009e-016 0.70710701,
                                          -0.92387998 1.4505801e-016 0.38268301,
                                          -1 1.11022e-016 1.77976e-016,
                                          -0.92387998 6.0084798e-017 -0.38268301,
                                          -0.70710701 0 -0.70710701,
                                          -0.38268301 -6.0084798e-017 -0.92387998,
                                          -7.2674699e-017 -1.11022e-016 -1,
                                          0.38268301 -1.4505801e-016 -0.92387998,
                                          0.70710701 -1.57009e-016 -0.70710701,
                                          -5.5511198e-017 -1 -5.5511198e-017 ]

                                    }
                                    coordIndex [ 0, 1, 2, -1, 3, 2, 1, -1,
                                        4, 0, 2, -1, 5, 4, 2, -1,
                                        6, 5, 2, -1, 6, 2, 3, -1,
                                        7, 8, 1, -1, 9, 1, 8, -1,
                                        0, 7, 1, -1, 9, 3, 1, -1,
                                        10, 11, 8, -1, 12, 8, 11, -1,
                                        7, 10, 8, -1, 9, 8, 12, -1,
                                        10, 13, 11, -1, 14, 11, 13, -1,
                                        12, 11, 14, -1, 15, 13, 10, -1,
                                        14, 13, 15, -1, 16, 10, 7, -1,
                                        15, 10, 16, -1, 17, 7, 0, -1,
                                        16, 7, 17, -1, 18, 0, 4, -1,
                                        17, 0, 18, -1, 5, 19, 4, -1,
                                        20, 4, 19, -1, 18, 4, 20, -1,
                                        21, 22, 19, -1, 23, 19, 22, -1,
                                        5, 21, 19, -1, 20, 19, 23, -1,
                                        24, 25, 22, -1, 26, 22, 25, -1,
                                        21, 24, 22, -1, 23, 22, 26, -1,
                                        24, 27, 25, -1, 28, 25, 27, -1,
                                        26, 25, 28, -1, 29, 27, 24, -1,
                                        28, 27, 29, -1, 30, 24, 21, -1,
                                        29, 24, 30, -1, 31, 21, 5, -1,
                                        30, 21, 31, -1, 31, 5, 6, -1,
                                        23, 6, 3, -1, 20, 23, 3, -1,
                                        9, 20, 3, -1, 26, 31, 6, -1,
                                        23, 26, 6, -1, 28, 30, 31, -1,
                                        26, 28, 31, -1, 28, 29, 30, -1,
                                        9, 18, 20, -1, 12, 17, 18, -1,
                                        9, 12, 18, -1, 14, 16, 17, -1,
                                        12, 14, 17, -1, 14, 15, 16, -1 ]
                                    normalIndex [ 0, 0, 0, -1, 1, 1, 2, -1,
                                        0, 0, 0, -1, 0, 0, 0, -1,
                                        3, 3, 4, -1, 3, 4, 4, -1,
                                        0, 0, 0, -1, 2, 2, 5, -1,
                                        0, 0, 0, -1, 2, 1, 2, -1,
                                        0, 0, 0, -1, 5, 5, 6, -1,
                                        0, 0, 0, -1, 2, 5, 5, -1,
                                        0, 0, 0, -1, 6, 6, 7, -1,
                                        5, 6, 6, -1, 7, 7, 8, -1,
                                        6, 7, 7, -1, 8, 8, 9, -1,
                                        7, 8, 8, -1, 9, 9, 10, -1,
                                        8, 9, 9, -1, 10, 10, 11, -1,
                                        9, 10, 10, -1, 0, 0, 0, -1,
                                        11, 11, 12, -1, 10, 11, 11, -1,
                                        0, 0, 0, -1, 12, 12, 13, -1,
                                        0, 0, 0, -1, 11, 12, 12, -1,
                                        0, 0, 0, -1, 13, 13, 14, -1,
                                        0, 0, 0, -1, 12, 13, 13, -1,
                                        0, 0, 0, -1, 14, 14, 15, -1,
                                        13, 14, 14, -1, 15, 15, 16, -1,
                                        14, 15, 15, -1, 16, 16, 17, -1,
                                        15, 16, 16, -1, 17, 17, 3, -1,
                                        16, 17, 17, -1, 17, 3, 3, -1,
                                        18, 18, 18, -1, 18, 18, 18, -1,
                                        18, 18, 18, -1, 18, 18, 18, -1,
                                        18, 18, 18, -1, 18, 18, 18, -1,
                                        18, 18, 18, -1, 18, 18, 18, -1,
                                        18, 18, 18, -1, 18, 18, 18, -1,
                                        18, 18, 18, -1, 18, 18, 18, -1,
                                        18, 18, 18, -1, 18, 18, 18, -1 ]
                                    ccw TRUE
                                    solid TRUE
                                    convex TRUE
                                    creaseAngle 0

                                  }

                                }

                            },
                              
                            DEF _+10 Group {
                              children 
                                DEF _+11 Shape {
                                  appearance 
                                  Appearance {
                                    material 
                                    Material {
                                      diffuseColor 0 0 1

                                    }

                                  }
                                  geometry 
                                  IndexedFaceSet {
                                    coord 
                                    Coordinate {
                                      point [ -29.913401 -2.25 -4.6194,
                                          -29.913401 -2.25 4.6194,
                                          -28 -2.25 5,
                                          -28 -3.75 5,
                                          -28 -2.25 -5,
                                          -26.086599 -2.25 4.6194,
                                          -26.086599 -3.75 4.6194,
                                          -31.5355 -2.25 -3.5355301,
                                          -31.5355 -2.25 3.5355301,
                                          -29.913401 -3.75 4.6194,
                                          -32.6194 -2.25 -1.91342,
                                          -32.6194 -2.25 1.91342,
                                          -31.5355 -3.75 3.5355301,
                                          -33 -2.25 0,
                                          -32.6194 -3.75 1.91342,
                                          -33 -3.75 0,
                                          -32.6194 -3.75 -1.91342,
                                          -31.5355 -3.75 -3.5355301,
                                          -29.913401 -3.75 -4.6194,
                                          -26.086599 -2.25 -4.6194,
                                          -28 -3.75 -5,
                                          -24.4645 -2.25 3.5355301,
                                          -24.4645 -2.25 -3.5355301,
                                          -26.086599 -3.75 -4.6194,
                                          -23.3806 -2.25 1.91342,
                                          -23.3806 -2.25 -1.91342,
                                          -24.4645 -3.75 -3.5355301,
                                          -23 -2.25 0,
                                          -23.3806 -3.75 -1.91342,
                                          -23 -3.75 0,
                                          -23.3806 -3.75 1.91342,
                                          -24.4645 -3.75 3.5355301 ]

                                    }
                                    normal 
                                    Normal {
                                      vector [ -1.11022e-016 1 0,
                                          5.5511198e-017 5.5511198e-017 1,
                                          -0.38268301 1.57502e-016 0.92387998,
                                          0.38268301 -5.4930401e-017 0.92387998,
                                          3.00441e-016 5.5511198e-017 1,
                                          -0.70710701 2.3551399e-016 0.70710701,
                                          -0.92387998 2.7767101e-016 0.38268301,
                                          -1 2.7755599e-016 -4.979e-017,
                                          -0.92387998 2.35185e-016 -0.38268301,
                                          -0.70710701 1.57009e-016 -0.70710701,
                                          -0.38268301 5.4930401e-017 -0.92387998,
                                          -1.77976e-016 -5.5511198e-017 -1,
                                          0.38268301 -1.57502e-016 -0.92387998,
                                          0.70710701 -2.3551399e-016 -0.70710701,
                                          0.92387998 -2.7767101e-016 -0.38268301,
                                          1 -2.7755599e-016 -7.2674699e-017,
                                          0.92387998 -2.35185e-016 0.38268301,
                                          0.70710701 -1.57009e-016 0.70710701,
                                          1.11022e-016 -1 0 ]

                                    }
                                    coordIndex [ 0, 1, 2, -1, 3, 2, 1, -1,
                                        4, 0, 2, -1, 5, 4, 2, -1,
                                        6, 5, 2, -1, 6, 2, 3, -1,
                                        7, 8, 1, -1, 9, 1, 8, -1,
                                        0, 7, 1, -1, 9, 3, 1, -1,
                                        10, 11, 8, -1, 12, 8, 11, -1,
                                        7, 10, 8, -1, 9, 8, 12, -1,
                                        10, 13, 11, -1, 14, 11, 13, -1,
                                        12, 11, 14, -1, 15, 13, 10, -1,
                                        14, 13, 15, -1, 16, 10, 7, -1,
                                        15, 10, 16, -1, 17, 7, 0, -1,
                                        16, 7, 17, -1, 18, 0, 4, -1,
                                        17, 0, 18, -1, 5, 19, 4, -1,
                                        20, 4, 19, -1, 18, 4, 20, -1,
                                        21, 22, 19, -1, 23, 19, 22, -1,
                                        5, 21, 19, -1, 20, 19, 23, -1,
                                        24, 25, 22, -1, 26, 22, 25, -1,
                                        21, 24, 22, -1, 23, 22, 26, -1,
                                        24, 27, 25, -1, 28, 25, 27, -1,
                                        26, 25, 28, -1, 29, 27, 24, -1,
                                        28, 27, 29, -1, 30, 24, 21, -1,
                                        29, 24, 30, -1, 31, 21, 5, -1,
                                        30, 21, 31, -1, 31, 5, 6, -1,
                                        23, 6, 3, -1, 20, 23, 3, -1,
                                        9, 20, 3, -1, 26, 31, 6, -1,
                                        23, 26, 6, -1, 28, 30, 31, -1,
                                        26, 28, 31, -1, 28, 29, 30, -1,
                                        9, 18, 20, -1, 12, 17, 18, -1,
                                        9, 12, 18, -1, 14, 16, 17, -1,
                                        12, 14, 17, -1, 14, 15, 16, -1 ]
                                    normalIndex [ 0, 0, 0, -1, 1, 1, 2, -1,
                                        0, 0, 0, -1, 0, 0, 0, -1,
                                        3, 3, 4, -1, 3, 4, 4, -1,
                                        0, 0, 0, -1, 2, 2, 5, -1,
                                        0, 0, 0, -1, 2, 1, 2, -1,
                                        0, 0, 0, -1, 5, 5, 6, -1,
                                        0, 0, 0, -1, 2, 5, 5, -1,
                                        0, 0, 0, -1, 6, 6, 7, -1,
                                        5, 6, 6, -1, 7, 7, 8, -1,
                                        6, 7, 7, -1, 8, 8, 9, -1,
                                        7, 8, 8, -1, 9, 9, 10, -1,
                                        8, 9, 9, -1, 10, 10, 11, -1,
                                        9, 10, 10, -1, 0, 0, 0, -1,
                                        11, 11, 12, -1, 10, 11, 11, -1,
                                        0, 0, 0, -1, 12, 12, 13, -1,
                                        0, 0, 0, -1, 11, 12, 12, -1,
                                        0, 0, 0, -1, 13, 13, 14, -1,
                                        0, 0, 0, -1, 12, 13, 13, -1,
                                        0, 0, 0, -1, 14, 14, 15, -1,
                                        13, 14, 14, -1, 15, 15, 16, -1,
                                        14, 15, 15, -1, 16, 16, 17, -1,
                                        15, 16, 16, -1, 17, 17, 3, -1,
                                        16, 17, 17, -1, 17, 3, 3, -1,
                                        18, 18, 18, -1, 18, 18, 18, -1,
                                        18, 18, 18, -1, 18, 18, 18, -1,
                                        18, 18, 18, -1, 18, 18, 18, -1,
                                        18, 18, 18, -1, 18, 18, 18, -1,
                                        18, 18, 18, -1, 18, 18, 18, -1,
                                        18, 18, 18, -1, 18, 18, 18, -1,
                                        18, 18, 18, -1, 18, 18, 18, -1 ]
                                    ccw TRUE
                                    solid TRUE
                                    convex TRUE
                                    creaseAngle 0

                                  }

                                }

                            } ]

                        }

                    }

                }

            }

        }

    }

}
