####
#
# OBJ File Generated by Meshlab
#
####
# Object neck_pitch_link.obj
#
# Vertices: 232
# Faces: 464
#
####
vn -1.570795 1.569546 -1.572046
v -0.010039 0.018492 0.030492 0.400000 0.400000 0.400000
vn 1.570795 1.572047 -1.569545
v 0.009961 0.018508 0.030508 0.400000 0.400000 0.400000
vn 2.684276 -1.108584 -2.354059
v 0.009982 -0.007992 0.030508 0.400000 0.400000 0.400000
vn 1.568294 1.572045 1.572046
v 0.009957 0.018508 0.036008 0.400000 0.400000 0.400000
vn -2.678755 -1.112854 -2.358329
v -0.010018 -0.008008 0.030492 0.400000 0.400000 0.400000
vn 2.685526 -1.108583 -3.924855
v 0.004986 -0.012996 0.030504 0.400000 0.400000 0.400000
vn 2.680524 -1.108587 2.358329
v 0.009978 -0.007992 0.036008 0.400000 0.400000 0.400000
vn -2.682507 -1.112857 2.354059
v -0.010022 -0.008008 0.035992 0.400000 0.400000 0.400000
vn -1.573297 1.569544 1.569545
v -0.010043 0.018492 0.035992 0.400000 0.400000 0.400000
vn -2.677505 -1.112853 -3.929124
v -0.005014 -0.013004 0.030496 0.400000 0.400000 0.400000
vn -2.683758 -1.112858 3.924855
v -0.005018 -0.013004 0.035996 0.400000 0.400000 0.400000
vn 4.712386 1.574549 -1.567044
v 0.004990 -0.018496 0.030504 0.400000 0.400000 0.400000
vn -4.712386 1.567045 -1.574548
v -0.005010 -0.018504 0.030496 0.400000 0.400000 0.400000
vn -1.570795 -1.572047 1.569545
v -0.005009 -0.024504 0.035996 0.400000 0.400000 0.400000
vn 2.677505 3.929124 1.112855
v 0.005006 -0.018496 0.011004 0.400000 0.400000 0.400000
vn -2.685526 3.924854 1.108585
v -0.004994 -0.018504 0.010996 0.400000 0.400000 0.400000
vn 2.679273 -1.108588 3.929124
v 0.004982 -0.012996 0.036004 0.400000 0.400000 0.400000
vn 1.570795 -1.569546 1.572046
v 0.004991 -0.024496 0.036004 0.400000 0.400000 0.400000
vn 2.683758 -3.924855 1.112855
v 0.005011 -0.024496 0.011004 0.400000 0.400000 0.400000
vn -0.000702 -2.902364 3.927459
v -0.000023 -0.006500 0.036000 0.400000 0.400000 0.400000
vn 2.899274 0.002189 3.929400
v 0.006471 0.000005 0.036005 0.400000 0.400000 0.400000
vn 2.050996 -2.050397 3.929017
v 0.004571 -0.004593 0.036004 0.400000 0.400000 0.400000
vn -2.679273 -3.929125 1.108585
v -0.004989 -0.024504 0.010996 0.400000 0.400000 0.400000
vn -2.057249 2.050392 3.925749
v -0.004629 0.004593 0.035996 0.400000 0.400000 0.400000
vn -2.054047 -2.053737 3.925557
v -0.004621 -0.004600 0.035996 0.400000 0.400000 0.400000
vn -2.905527 -0.002194 3.924779
v -0.006529 -0.000005 0.035995 0.400000 0.400000 0.400000
vn 2.047793 2.053732 3.928825
v 0.004564 0.004600 0.036004 0.400000 0.400000 0.400000
vn -0.005552 2.902359 3.927459
v -0.000034 0.006500 0.036000 0.400000 0.400000 0.400000
vn -2.904254 -0.002193 2.353777
v -0.006530 -0.000005 0.037495 0.400000 0.400000 0.400000
vn -2.055443 2.051158 2.354769
v -0.004629 0.004593 0.037496 0.400000 0.400000 0.400000
vn -2.052240 -2.054500 2.354961
v -0.004622 -0.004600 0.037496 0.400000 0.400000 0.400000
vn 0.000549 -2.902658 2.356852
v -0.000025 -0.006500 0.037500 0.400000 0.400000 0.400000
vn 2.051691 -2.051161 2.358037
v 0.004569 -0.004593 0.037504 0.400000 0.400000 0.400000
vn 2.900502 0.002190 2.358399
v 0.006470 0.000005 0.037505 0.400000 0.400000 0.400000
vn 2.048487 2.054497 2.358229
v 0.004562 0.004600 0.037504 0.400000 0.400000 0.400000
vn -0.004302 2.902655 2.356852
v -0.000035 0.006500 0.037500 0.400000 0.400000 0.400000
vn -2.053897 -2.054042 3.925209
v -0.003562 -0.003538 0.037497 0.400000 0.400000 0.400000
vn -2.905490 -0.002313 3.924825
v -0.005030 -0.000004 0.037496 0.400000 0.400000 0.400000
vn -2.904239 -0.002312 2.353737
v -0.005037 -0.000004 0.045996 0.400000 0.400000 0.400000
vn -2.057165 2.050769 3.925209
v -0.003568 0.003532 0.037497 0.400000 0.400000 0.400000
vn -2.055915 2.050770 2.354706
v -0.003575 0.003532 0.045997 0.400000 0.400000 0.400000
vn -0.000816 -2.902367 3.927136
v -0.000026 -0.005000 0.037500 0.400000 0.400000 0.400000
vn -2.052647 -2.054041 2.354706
v -0.003569 -0.003538 0.045997 0.400000 0.400000 0.400000
vn 2.050913 -2.050774 3.928478
v 0.003508 -0.003533 0.037503 0.400000 0.400000 0.400000
vn 0.000435 -2.902366 2.356048
v -0.000033 -0.005000 0.046000 0.400000 0.400000 0.400000
vn 2.899237 0.002308 3.929446
v 0.004970 0.000004 0.037504 0.400000 0.400000 0.400000
vn 2.052163 -2.050773 2.357974
v 0.003502 -0.003533 0.046003 0.400000 0.400000 0.400000
vn 2.047645 2.054037 3.928478
v 0.003503 0.003538 0.037503 0.400000 0.400000 0.400000
vn 2.900488 0.002309 2.358358
v 0.004963 0.000004 0.046004 0.400000 0.400000 0.400000
vn -0.005437 2.902362 3.927136
v -0.000034 0.005000 0.037500 0.400000 0.400000 0.400000
vn 2.048895 2.054038 2.357974
v 0.003496 0.003538 0.046003 0.400000 0.400000 0.400000
vn -0.004187 2.902363 2.356048
v -0.000041 0.005000 0.046000 0.400000 0.400000 0.400000
vn -2.053970 -2.053856 3.925344
v -0.002863 -0.002830 0.045998 0.400000 0.400000 0.400000
vn -2.905646 -0.002313 3.924564
v -0.004037 -0.000003 0.045997 0.400000 0.400000 0.400000
vn -2.904396 -0.002312 2.353997
v -0.004062 -0.000003 0.077997 0.400000 0.400000 0.400000
vn -2.057238 2.050583 3.925344
v -0.002868 0.002825 0.045998 0.400000 0.400000 0.400000
vn -2.055987 2.050584 2.354572
v -0.002893 0.002825 0.077998 0.400000 0.400000 0.400000
vn -0.000816 -2.902372 3.927128
v -0.000033 -0.004000 0.046000 0.400000 0.400000 0.400000
vn -2.052720 -2.053855 2.354572
v -0.002889 -0.002830 0.077998 0.400000 0.400000 0.400000
vn 2.050985 -2.050588 3.928612
v 0.002795 -0.002825 0.046002 0.400000 0.400000 0.400000
vn 0.000435 -2.902371 2.356056
v -0.000059 -0.004000 0.078000 0.400000 0.400000 0.400000
vn 2.899394 0.002308 3.929186
v 0.003963 0.000003 0.046003 0.400000 0.400000 0.400000
vn 2.052236 -2.050587 2.357840
v 0.002769 -0.002825 0.078002 0.400000 0.400000 0.400000
vn 2.047717 2.053851 3.928612
v 0.002790 0.002830 0.046002 0.400000 0.400000 0.400000
vn 2.900644 0.002309 2.358619
v 0.003938 0.000003 0.078003 0.400000 0.400000 0.400000
vn -0.005437 2.902367 3.927128
v -0.000040 0.004000 0.046000 0.400000 0.400000 0.400000
vn 2.048968 2.053852 2.357840
v 0.002765 0.002830 0.078002 0.400000 0.400000 0.400000
vn -0.004187 2.902368 2.356056
v -0.000065 0.004000 0.078000 0.400000 0.400000 0.400000
vn 2.050797 3.928527 -2.050846
v -0.005292 -0.018504 0.005299 0.400000 0.400000 0.400000
vn -2.684276 2.354058 1.108585
v -0.010989 -0.018509 0.004991 0.400000 0.400000 0.400000
vn 2.678755 2.358328 1.112855
v 0.011011 -0.018491 0.005009 0.400000 0.400000 0.400000
vn -0.000818 3.927479 -2.902283
v 0.000009 -0.018500 0.007500 0.400000 0.400000 0.400000
vn 2.899282 3.929337 0.002210
v -0.007485 -0.018506 -0.000006 0.400000 0.400000 0.400000
vn -2.682507 2.354060 -1.112855
v -0.010981 -0.018509 -0.005009 0.400000 0.400000 0.400000
vn -2.680524 -2.358329 1.108585
v -0.010984 -0.024509 0.004991 0.400000 0.400000 0.400000
vn 2.679273 3.929125 -1.108585
v 0.005023 -0.018496 -0.010996 0.400000 0.400000 0.400000
vn -2.683758 3.924855 -1.112855
v -0.004977 -0.018504 -0.011004 0.400000 0.400000 0.400000
vn -2.678755 -2.358328 -1.112855
v -0.010977 -0.024509 -0.005009 0.400000 0.400000 0.400000
vn -0.005435 3.927475 2.902283
v 0.000021 -0.018500 -0.007500 0.400000 0.400000 0.400000
vn 2.047485 3.928421 2.054215
v -0.005284 -0.018504 -0.005307 0.400000 0.400000 0.400000
vn 4.709885 1.574547 1.574548
v 0.005039 -0.018496 -0.030496 0.400000 0.400000 0.400000
vn -4.714887 1.567043 1.567044
v -0.004961 -0.018504 -0.030504 0.400000 0.400000 0.400000
vn -2.677505 -3.929124 -1.112855
v -0.004972 -0.024504 -0.011004 0.400000 0.400000 0.400000
vn 2.679273 -1.108588 3.929124
v 0.005035 -0.012996 -0.030496 0.400000 0.400000 0.400000
vn -1.568294 -1.572045 -1.572046
v -0.004952 -0.024504 -0.036004 0.400000 0.400000 0.400000
vn -2.677505 -1.112853 -3.929124
v -0.004961 -0.013004 -0.036004 0.400000 0.400000 0.400000
vn -2.683758 -1.112858 3.924855
v -0.004965 -0.013004 -0.030504 0.400000 0.400000 0.400000
vn 1.573297 -1.569544 -1.569545
v 0.005048 -0.024496 -0.035996 0.400000 0.400000 0.400000
vn -2.057050 3.925256 2.050846
v 0.005322 -0.018496 -0.005299 0.400000 0.400000 0.400000
vn 2.680524 2.358329 -1.108585
v 0.011019 -0.018491 -0.004991 0.400000 0.400000 0.400000
vn 2.685526 -3.924854 -1.108585
v 0.005028 -0.024496 -0.010996 0.400000 0.400000 0.400000
vn -2.905535 3.924715 -0.002210
v 0.007515 -0.018494 0.000006 0.400000 0.400000 0.400000
vn 2.684276 -2.354058 -1.108585
v 0.011023 -0.024491 -0.004991 0.400000 0.400000 0.400000
vn 2.682507 -2.354060 1.112855
v 0.011016 -0.024491 0.005009 0.400000 0.400000 0.400000
vn -2.053737 3.925156 -2.054215
v 0.005313 -0.018496 0.005307 0.400000 0.400000 0.400000
vn -2.904354 2.353892 -0.002210
v 0.007519 -0.023494 0.000006 0.400000 0.400000 0.400000
vn -2.052832 2.354615 -2.053778
v 0.005319 -0.023496 0.005306 0.400000 0.400000 0.400000
vn -2.056143 2.354510 2.050408
v 0.005327 -0.023496 -0.005298 0.400000 0.400000 0.400000
vn -0.004185 2.356402 2.902454
v 0.000025 -0.023500 -0.007499 0.400000 0.400000 0.400000
vn 2.049080 2.357881 2.053778
v -0.005281 -0.023504 -0.005306 0.400000 0.400000 0.400000
vn 2.900602 2.358514 0.002210
v -0.007481 -0.023506 -0.000006 0.400000 0.400000 0.400000
vn 2.052392 2.357781 -2.050408
v -0.005290 -0.023504 0.005298 0.400000 0.400000 0.400000
vn 0.000432 2.356406 -2.902454
v 0.000013 -0.023500 0.007499 0.400000 0.400000 0.400000
vn 0.000814 -3.928525 2.902028
v 0.000024 -0.024500 -0.006000 0.400000 0.400000 0.400000
vn 2.056538 -3.924971 -2.051479
v -0.004226 -0.024503 0.004239 0.400000 0.400000 0.400000
vn 2.905558 -3.924695 0.002471
v -0.005980 -0.024505 -0.000005 0.400000 0.400000 0.400000
vn 2.053339 -3.925096 2.054585
v -0.004220 -0.024503 -0.004246 0.400000 0.400000 0.400000
vn 0.005442 -3.928521 -2.902028
v 0.000015 -0.024500 0.006000 0.400000 0.400000 0.400000
vn -2.050286 -3.928240 2.051479
v 0.004265 -0.024497 -0.004239 0.400000 0.400000 0.400000
vn -2.047087 -3.928361 -2.054585
v 0.004259 -0.024497 0.004246 0.400000 0.400000 0.400000
vn -2.899305 -3.929317 -0.002471
v 0.006020 -0.024495 0.000005 0.400000 0.400000 0.400000
vn 2.685526 -1.108583 -3.924855
v 0.005039 -0.012996 -0.035996 0.400000 0.400000 0.400000
vn -2.905579 3.924692 -0.002471
v 0.006019 -0.023495 0.000005 0.400000 0.400000 0.400000
vn -2.057792 3.925463 2.050039
v 0.004265 -0.023497 -0.004238 0.400000 0.400000 0.400000
vn -2.054595 3.925589 -2.053146
v 0.004259 -0.023497 0.004245 0.400000 0.400000 0.400000
vn -0.000811 3.925737 -2.902708
v 0.000014 -0.023500 0.006000 0.400000 0.400000 0.400000
vn 2.051539 3.928735 -2.050039
v -0.004228 -0.023503 0.004238 0.400000 0.400000 0.400000
vn 2.899326 3.929313 0.002471
v -0.005981 -0.023505 -0.000005 0.400000 0.400000 0.400000
vn 2.048342 3.928855 2.053146
v -0.004221 -0.023503 -0.004245 0.400000 0.400000 0.400000
vn -0.005440 3.925734 2.902708
v 0.000023 -0.023500 -0.006000 0.400000 0.400000 0.400000
vn -2.682507 -1.112857 2.354059
v -0.009969 -0.008008 -0.030508 0.400000 0.400000 0.400000
vn -1.570795 1.569546 -1.572046
v -0.009986 0.018492 -0.036008 0.400000 0.400000 0.400000
vn -2.678755 -1.112854 -2.358329
v -0.009965 -0.008008 -0.036008 0.400000 0.400000 0.400000
vn -2.899274 -0.002427 -3.929400
v -0.006471 -0.000005 -0.036005 0.400000 0.400000 0.400000
vn 2.684276 -1.108584 -2.354059
v 0.010035 -0.007992 -0.035992 0.400000 0.400000 0.400000
vn 0.005323 -2.902359 -3.927459
v 0.000034 -0.006500 -0.036000 0.400000 0.400000 0.400000
vn -2.047728 -2.053660 -3.929017
v -0.004564 -0.004600 -0.036004 0.400000 0.400000 0.400000
vn -1.573297 1.569544 1.569545
v -0.009990 0.018492 -0.030508 0.400000 0.400000 0.400000
vn 1.568294 1.572045 1.572046
v 0.010010 0.018508 -0.030492 0.400000 0.400000 0.400000
vn 1.570795 1.572047 -1.569545
v 0.010014 0.018508 -0.035992 0.400000 0.400000 0.400000
vn 2.053982 2.053665 -3.925749
v 0.004621 0.004600 -0.035996 0.400000 0.400000 0.400000
vn -2.051061 2.050469 -3.928825
v -0.004571 0.004593 -0.036004 0.400000 0.400000 0.400000
vn 0.000930 2.902364 -3.927459
v 0.000023 0.006500 -0.036000 0.400000 0.400000 0.400000
vn 2.680524 -1.108587 2.358329
v 0.010031 -0.007992 -0.030492 0.400000 0.400000 0.400000
vn 2.905527 0.002432 -3.924779
v 0.006529 0.000005 -0.035995 0.400000 0.400000 0.400000
vn 2.057314 -2.050464 -3.925557
v 0.004629 -0.004593 -0.035996 0.400000 0.400000 0.400000
vn -2.900502 -0.002428 -2.358399
v -0.006470 -0.000005 -0.037505 0.400000 0.400000 0.400000
vn -2.048423 -2.054425 -2.358037
v -0.004562 -0.004600 -0.037504 0.400000 0.400000 0.400000
vn -2.051756 2.051232 -2.358229
v -0.004569 0.004593 -0.037504 0.400000 0.400000 0.400000
vn -0.000320 2.902658 -2.356852
v 0.000025 0.006500 -0.037500 0.400000 0.400000 0.400000
vn 2.052175 2.054428 -2.354769
v 0.004622 0.004600 -0.037496 0.400000 0.400000 0.400000
vn 2.904254 0.002431 -2.353777
v 0.006530 0.000005 -0.037495 0.400000 0.400000 0.400000
vn 2.055509 -2.051229 -2.354961
v 0.004629 -0.004593 -0.037496 0.400000 0.400000 0.400000
vn 0.004073 -2.902655 -2.356852
v 0.000035 -0.006500 -0.037500 0.400000 0.400000 0.400000
vn 2.055987 -2.050584 -2.354572
v 0.002885 -0.002825 -0.067998 0.400000 0.400000 0.400000
vn -2.048968 -2.053852 -2.357840
v -0.002773 -0.002830 -0.068002 0.400000 0.400000 0.400000
vn -2.900644 -0.002309 -2.358619
v -0.003946 -0.000003 -0.068003 0.400000 0.400000 0.400000
vn -2.899394 -0.002308 -3.929186
v -0.003963 -0.000003 -0.046003 0.400000 0.400000 0.400000
vn 2.904396 0.002312 -2.353997
v 0.004054 0.000003 -0.067997 0.400000 0.400000 0.400000
vn -2.052236 2.050587 -2.357840
v -0.002777 0.002825 -0.068002 0.400000 0.400000 0.400000
vn -2.050985 2.050588 -3.928612
v -0.002795 0.002825 -0.046002 0.400000 0.400000 0.400000
vn 0.004187 -2.902368 -2.356056
v 0.000057 -0.004000 -0.068000 0.400000 0.400000 0.400000
vn -2.047717 -2.053851 -3.928612
v -0.002790 -0.002830 -0.046002 0.400000 0.400000 0.400000
vn 0.005437 -2.902367 -3.927128
v 0.000040 -0.004000 -0.046000 0.400000 0.400000 0.400000
vn 2.057238 -2.050583 -3.925344
v 0.002868 -0.002825 -0.045998 0.400000 0.400000 0.400000
vn 2.052720 2.053855 -2.354572
v 0.002881 0.002830 -0.067998 0.400000 0.400000 0.400000
vn 2.905646 0.002313 -3.924564
v 0.004037 0.000003 -0.045997 0.400000 0.400000 0.400000
vn -0.000435 2.902371 -2.356056
v 0.000051 0.004000 -0.068000 0.400000 0.400000 0.400000
vn 2.053970 2.053856 -3.925344
v 0.002863 0.002830 -0.045998 0.400000 0.400000 0.400000
vn 0.000816 2.902372 -3.927128
v 0.000033 0.004000 -0.046000 0.400000 0.400000 0.400000
vn -2.052163 2.050773 -2.357974
v -0.003502 0.003533 -0.046003 0.400000 0.400000 0.400000
vn -2.900488 -0.002309 -2.358358
v -0.004963 -0.000004 -0.046004 0.400000 0.400000 0.400000
vn 2.052647 2.054041 -2.354706
v 0.003569 0.003538 -0.045997 0.400000 0.400000 0.400000
vn -0.000435 2.902366 -2.356048
v 0.000033 0.005000 -0.046000 0.400000 0.400000 0.400000
vn 2.904239 0.002312 -2.353737
v 0.005037 0.000004 -0.045996 0.400000 0.400000 0.400000
vn 2.055915 -2.050770 -2.354706
v 0.003575 -0.003532 -0.045997 0.400000 0.400000 0.400000
vn -2.048895 -2.054038 -2.357974
v -0.003496 -0.003538 -0.046003 0.400000 0.400000 0.400000
vn 0.004187 -2.902363 -2.356048
v 0.000041 -0.005000 -0.046000 0.400000 0.400000 0.400000
vn -2.899237 -0.002308 -3.929446
v -0.004970 -0.000004 -0.037504 0.400000 0.400000 0.400000
vn -2.050913 2.050774 -3.928478
v -0.003508 0.003533 -0.037503 0.400000 0.400000 0.400000
vn -2.047645 -2.054037 -3.928478
v -0.003503 -0.003538 -0.037503 0.400000 0.400000 0.400000
vn 0.005437 -2.902362 -3.927136
v 0.000034 -0.005000 -0.037500 0.400000 0.400000 0.400000
vn 2.057165 -2.050769 -3.925209
v 0.003568 -0.003532 -0.037497 0.400000 0.400000 0.400000
vn 2.905490 0.002313 -3.924825
v 0.005030 0.000004 -0.037496 0.400000 0.400000 0.400000
vn 2.053897 2.054042 -3.925209
v 0.003562 0.003538 -0.037497 0.400000 0.400000 0.400000
vn 0.000816 2.902367 -3.927136
v 0.000026 0.005000 -0.037500 0.400000 0.400000 0.400000
vn 1.575798 -4.711136 -1.569545
v 0.010004 0.018508 -0.022992 0.647059 0.647059 0.647059
vn -2.677505 -3.929124 -1.112855
v -0.010006 0.018492 -0.011508 0.647059 0.647059 0.647059
vn -1.568294 -1.572045 -1.572046
v -0.009986 0.018492 -0.036008 0.647059 0.647059 0.647059
vn -1.570795 1.569546 -1.572046
v -0.009991 0.024992 -0.036008 0.647059 0.647059 0.647059
vn 1.573297 -1.569544 -1.569545
v 0.010014 0.018508 -0.035992 0.647059 0.647059 0.647059
vn 1.570795 1.572047 -1.569545
v 0.010009 0.025008 -0.035992 0.647059 0.647059 0.647059
vn 0.000786 -3.926879 2.902460
v -0.000007 0.018500 -0.009500 0.647059 0.647059 0.647059
vn -2.678755 -2.358328 -1.112855
v -0.014009 0.018489 -0.007511 0.647059 0.647059 0.647059
vn -2.682507 2.354060 -1.112855
v -0.014014 0.024989 -0.007511 0.647059 0.647059 0.647059
vn -2.683758 3.924855 -1.112855
v -0.010011 0.024992 -0.011508 0.647059 0.647059 0.647059
vn 2.057250 -3.925303 -2.050575
v -0.006738 0.018495 0.006711 0.647059 0.647059 0.647059
vn -2.680524 -2.358329 1.108585
v -0.014021 0.018489 0.007489 0.647059 0.647059 0.647059
vn 2.054000 -3.925248 2.053860
v -0.006727 0.018495 -0.006722 0.647059 0.647059 0.647059
vn 2.905604 -3.924644 0.002282
v -0.009515 0.018492 -0.000008 0.647059 0.647059 0.647059
vn 0.005467 -3.926876 -2.902460
v -0.000022 0.018500 0.009500 0.647059 0.647059 0.647059
vn -2.679273 -3.929125 1.108585
v -0.010024 0.018492 0.011492 0.647059 0.647059 0.647059
vn -2.685526 3.924854 1.108585
v -0.010029 0.024992 0.011492 0.647059 0.647059 0.647059
vn -2.684276 2.354058 1.108585
v -0.014026 0.024989 0.007489 0.647059 0.647059 0.647059
vn 1.573297 -4.711138 1.572046
v 0.009967 0.018508 0.023008 0.647059 0.647059 0.647059
vn -1.843400 -1.746796 1.545465
v -0.010047 0.018492 0.039966 0.647059 0.647059 0.647059
vn 1.570795 -1.569546 1.572046
v 0.024967 0.018520 0.023020 0.647059 0.647059 0.647059
vn 1.297913 -1.395232 1.547966
v 0.009951 0.018508 0.043508 0.647059 0.647059 0.647059
vn -1.846179 1.743858 1.545465
v -0.010052 0.024992 0.039966 0.647059 0.647059 0.647059
vn 1.295689 1.397297 1.547966
v 0.009945 0.025008 0.043508 0.647059 0.647059 0.647059
vn 1.565793 4.713637 1.572046
v 0.009962 0.025008 0.023008 0.647059 0.647059 0.647059
vn 1.573297 -1.569544 -1.569545
v 0.025004 0.018520 -0.022980 0.647059 0.647059 0.647059
vn 1.568294 1.572045 1.572046
v 0.024962 0.025020 0.023020 0.647059 0.647059 0.647059
vn -2.050997 -3.928574 2.050575
v 0.006709 0.018505 -0.006711 0.647059 0.647059 0.647059
vn -2.899351 -3.929265 -0.002282
v 0.009485 0.018508 0.000008 0.647059 0.647059 0.647059
vn -2.047747 -3.928513 -2.053860
v 0.006698 0.018505 0.006722 0.647059 0.647059 0.647059
vn 1.570795 1.572047 -1.569545
v 0.024998 0.025020 -0.022980 0.647059 0.647059 0.647059
vn 1.568294 4.713639 -1.569545
v 0.009998 0.025008 -0.022992 0.647059 0.647059 0.647059
vn 2.904338 -2.353910 0.002282
v -0.009519 0.023492 -0.000008 0.647059 0.647059 0.647059
vn 2.055758 -2.354454 -2.050762
v -0.006742 0.023495 0.006712 0.647059 0.647059 0.647059
vn 2.052508 -2.354514 2.054046
v -0.006731 0.023495 -0.006723 0.647059 0.647059 0.647059
vn -0.000465 -2.356014 2.902402
v -0.000011 0.023500 -0.009500 0.647059 0.647059 0.647059
vn -2.052006 -2.357724 2.050762
v 0.006704 0.023505 -0.006712 0.647059 0.647059 0.647059
vn -2.900587 -2.358531 -0.002282
v 0.009481 0.023508 0.000008 0.647059 0.647059 0.647059
vn -2.048756 -2.357779 -2.054046
v 0.006693 0.023505 0.006723 0.647059 0.647059 0.647059
vn 0.004216 -2.356010 -2.902402
v -0.000026 0.023500 0.009500 0.647059 0.647059 0.647059
vn -2.054165 3.925168 -2.053702
v 0.005633 0.025004 0.005661 0.647059 0.647059 0.647059
vn -0.005396 3.926598 2.902532
v -0.000014 0.025000 -0.008000 0.647059 0.647059 0.647059
vn -2.905599 3.924648 -0.002351
v 0.007980 0.025006 0.000006 0.647059 0.647059 0.647059
vn -2.057457 3.925101 2.050456
v 0.005642 0.025005 -0.005652 0.647059 0.647059 0.647059
vn -0.000856 3.926602 -2.902532
v -0.000026 0.025000 0.008000 0.647059 0.647059 0.647059
vn 2.047912 3.928434 2.053702
v -0.005673 0.024995 -0.005661 0.647059 0.647059 0.647059
vn 2.051204 3.928372 -2.050456
v -0.005682 0.024995 0.005652 0.647059 0.647059 0.647059
vn 2.899346 3.929269 0.002351
v -0.008020 0.024994 -0.000006 0.647059 0.647059 0.647059
vn 2.905593 -3.924649 0.002351
v -0.008019 0.023494 -0.000006 0.647059 0.647059 0.647059
vn 2.053551 -3.925606 2.054165
v -0.005671 0.023495 -0.005661 0.647059 0.647059 0.647059
vn 2.056844 -3.925539 -2.050920
v -0.005680 0.023495 0.005652 0.647059 0.647059 0.647059
vn 0.005397 -3.927448 -2.902330
v -0.000025 0.023500 0.008000 0.647059 0.647059 0.647059
vn -2.047298 -3.928871 -2.054165
v 0.005634 0.023504 0.005661 0.647059 0.647059 0.647059
vn -2.899340 -3.929270 -0.002351
v 0.007981 0.023506 0.000006 0.647059 0.647059 0.647059
vn -2.050591 -3.928809 2.050920
v 0.005643 0.023505 -0.005652 0.647059 0.647059 0.647059
vn 0.000857 -3.927451 2.902330
v -0.000012 0.023500 -0.008000 0.647059 0.647059 0.647059
# 232 vertices, 0 vertices normals

f 1//1 2//2 3//3
f 4//4 3//3 2//2
f 5//5 1//1 3//3
f 6//6 5//5 3//3
f 7//7 6//6 3//3
f 4//4 7//7 3//3
f 4//4 2//2 1//1
f 8//8 1//1 5//5
f 9//9 1//1 8//8
f 4//4 1//1 9//9
f 6//6 10//10 5//5
f 11//11 5//5 10//10
f 8//8 5//5 11//11
f 12//12 13//13 10//10
f 14//14 10//10 13//13
f 6//6 12//12 10//10
f 11//11 10//10 14//14
f 15//15 13//13 12//12
f 16//16 14//14 13//13
f 15//15 16//16 13//13
f 17//17 12//12 6//6
f 18//18 12//12 17//17
f 19//19 12//12 18//18
f 19//19 15//15 12//12
f 17//17 6//6 7//7
f 11//11 17//17 7//7
f 8//8 11//11 7//7
f 20//20 8//8 7//7
f 21//21 7//7 4//4
f 22//22 20//20 7//7
f 21//21 22//22 7//7
f 14//14 18//18 17//17
f 11//11 14//14 17//17
f 23//23 18//18 14//14
f 19//19 18//18 23//23
f 23//23 14//14 16//16
f 24//24 9//9 8//8
f 25//25 26//26 8//8
f 24//24 8//8 26//26
f 20//20 25//25 8//8
f 24//24 4//4 9//9
f 27//27 21//21 4//4
f 28//28 27//27 4//4
f 24//24 28//28 4//4
f 29//29 26//26 25//25
f 30//30 24//24 26//26
f 30//30 26//26 29//29
f 31//31 25//25 20//20
f 31//31 29//29 25//25
f 32//32 20//20 22//22
f 31//31 20//20 32//32
f 33//33 22//22 21//21
f 32//32 22//22 33//33
f 34//34 21//21 27//27
f 33//33 21//21 34//34
f 35//35 27//27 28//28
f 34//34 27//27 35//35
f 36//36 28//28 24//24
f 35//35 28//28 36//36
f 36//36 24//24 30//30
f 31//31 37//37 38//38
f 39//39 38//38 37//37
f 29//29 38//38 40//40
f 41//41 40//40 38//38
f 31//31 38//38 29//29
f 41//41 38//38 39//39
f 31//31 42//42 37//37
f 43//43 37//37 42//42
f 43//43 39//39 37//37
f 33//33 44//44 42//42
f 45//45 42//42 44//44
f 32//32 33//33 42//42
f 31//31 32//32 42//42
f 43//43 42//42 45//45
f 34//34 46//46 44//44
f 47//47 44//44 46//46
f 33//33 34//34 44//44
f 45//45 44//44 47//47
f 35//35 48//48 46//46
f 49//49 46//46 48//48
f 34//34 35//35 46//46
f 47//47 46//46 49//49
f 35//35 50//50 48//48
f 51//51 48//48 50//50
f 49//49 48//48 51//51
f 30//30 40//40 50//50
f 52//52 50//50 40//40
f 36//36 30//30 50//50
f 35//35 36//36 50//50
f 51//51 50//50 52//52
f 30//30 29//29 40//40
f 52//52 40//40 41//41
f 43//43 53//53 54//54
f 55//55 54//54 53//53
f 39//39 54//54 56//56
f 57//57 56//56 54//54
f 43//43 54//54 39//39
f 57//57 54//54 55//55
f 43//43 58//58 53//53
f 59//59 53//53 58//58
f 59//59 55//55 53//53
f 47//47 60//60 58//58
f 61//61 58//58 60//60
f 45//45 47//47 58//58
f 43//43 45//45 58//58
f 59//59 58//58 61//61
f 49//49 62//62 60//60
f 63//63 60//60 62//62
f 47//47 49//49 60//60
f 61//61 60//60 63//63
f 51//51 64//64 62//62
f 65//65 62//62 64//64
f 49//49 51//51 62//62
f 63//63 62//62 65//65
f 51//51 66//66 64//64
f 67//67 64//64 66//66
f 65//65 64//64 67//67
f 41//41 56//56 66//66
f 68//68 66//66 56//56
f 52//52 41//41 66//66
f 51//51 52//52 66//66
f 67//67 66//66 68//68
f 41//41 39//39 56//56
f 68//68 56//56 57//57
f 67//67 57//57 55//55
f 65//65 67//67 55//55
f 59//59 65//65 55//55
f 67//67 68//68 57//57
f 59//59 63//63 65//65
f 59//59 61//61 63//63
f 69//69 70//70 16//16
f 23//23 16//16 70//70
f 15//15 71//71 16//16
f 72//72 16//16 71//71
f 72//72 69//69 16//16
f 73//73 74//74 70//70
f 75//75 70//70 74//74
f 69//69 73//73 70//70
f 23//23 70//70 75//75
f 76//76 77//77 74//74
f 78//78 74//74 77//77
f 79//79 76//76 74//74
f 80//80 79//79 74//74
f 73//73 80//80 74//74
f 75//75 74//74 78//78
f 81//81 82//82 77//77
f 83//83 77//77 82//82
f 76//76 81//81 77//77
f 78//78 77//77 83//83
f 84//84 82//82 81//81
f 85//85 83//83 82//82
f 86//86 85//85 82//82
f 87//87 82//82 84//84
f 87//87 86//86 82//82
f 88//88 81//81 76//76
f 84//84 81//81 88//88
f 89//89 90//90 76//76
f 91//91 76//76 90//90
f 79//79 89//89 76//76
f 88//88 76//76 91//91
f 92//92 71//71 90//90
f 93//93 90//90 71//71
f 89//89 92//92 90//90
f 91//91 90//90 93//93
f 94//94 71//71 15//15
f 95//95 71//71 92//92
f 95//95 72//72 71//71
f 93//93 71//71 94//94
f 94//94 15//15 19//19
f 96//96 92//92 89//89
f 97//97 95//95 92//92
f 96//96 97//97 92//92
f 98//98 89//89 79//79
f 98//98 96//96 89//89
f 99//99 79//79 80//80
f 98//98 79//79 99//99
f 100//100 80//80 73//73
f 99//99 80//80 100//100
f 101//101 73//73 69//69
f 100//100 73//73 101//101
f 102//102 69//69 72//72
f 102//102 101//101 69//69
f 103//103 72//72 95//95
f 103//103 102//102 72//72
f 97//97 103//103 95//95
f 104//104 78//78 83//83
f 91//91 93//93 83//83
f 104//104 83//83 93//93
f 85//85 91//91 83//83
f 105//105 75//75 78//78
f 106//106 105//105 78//78
f 107//107 106//106 78//78
f 104//104 107//107 78//78
f 19//19 23//23 75//75
f 108//108 19//19 75//75
f 105//105 108//108 75//75
f 108//108 94//94 19//19
f 109//109 93//93 94//94
f 110//110 111//111 94//94
f 109//109 94//94 111//111
f 108//108 110//110 94//94
f 109//109 104//104 93//93
f 85//85 88//88 91//91
f 86//86 88//88 85//85
f 84//84 88//88 112//112
f 86//86 112//112 88//88
f 113//113 111//111 110//110
f 114//114 109//109 111//111
f 114//114 111//111 113//113
f 115//115 110//110 108//108
f 115//115 113//113 110//110
f 116//116 108//108 105//105
f 115//115 108//108 116//116
f 117//117 105//105 106//106
f 116//116 105//105 117//117
f 118//118 106//106 107//107
f 117//117 106//106 118//118
f 119//119 107//107 104//104
f 118//118 107//107 119//119
f 120//120 104//104 109//109
f 119//119 104//104 120//120
f 120//120 109//109 114//114
f 118//118 101//101 102//102
f 118//118 119//119 101//101
f 100//100 101//101 119//119
f 116//116 102//102 103//103
f 117//117 118//118 102//102
f 116//116 117//117 102//102
f 116//116 103//103 97//97
f 115//115 97//97 96//96
f 115//115 116//116 97//97
f 115//115 96//96 113//113
f 98//98 113//113 96//96
f 98//98 114//114 113//113
f 98//98 120//120 114//114
f 100//100 119//119 120//120
f 99//99 100//100 120//120
f 98//98 99//99 120//120
f 121//121 122//122 123//123
f 124//124 123//123 122//122
f 87//87 121//121 123//123
f 112//112 123//123 125//125
f 126//126 125//125 123//123
f 86//86 123//123 112//112
f 87//87 123//123 86//86
f 127//127 123//123 124//124
f 127//127 126//126 123//123
f 121//121 128//128 122//122
f 129//129 122//122 128//128
f 130//130 122//122 129//129
f 131//131 122//122 130//130
f 132//132 124//124 122//122
f 133//133 132//132 122//122
f 131//131 133//133 122//122
f 129//129 128//128 121//121
f 129//129 121//121 134//134
f 87//87 134//134 121//121
f 129//129 134//134 125//125
f 112//112 125//125 134//134
f 130//130 129//129 125//125
f 131//131 130//130 125//125
f 135//135 131//131 125//125
f 136//136 135//135 125//125
f 126//126 136//136 125//125
f 84//84 112//112 134//134
f 87//87 84//84 134//134
f 137//137 124//124 132//132
f 138//138 127//127 124//124
f 138//138 124//124 137//137
f 139//139 132//132 133//133
f 139//139 137//137 132//132
f 140//140 133//133 131//131
f 139//139 133//133 140//140
f 141//141 131//131 135//135
f 140//140 131//131 141//141
f 142//142 135//135 136//136
f 141//141 135//135 142//142
f 143//143 136//136 126//126
f 142//142 136//136 143//143
f 144//144 126//126 127//127
f 143//143 126//126 144//144
f 144//144 127//127 138//138
f 145//145 146//146 147//147
f 148//148 147//147 146//146
f 149//149 145//145 147//147
f 150//150 149//149 147//147
f 151//151 150//150 147//147
f 151//151 147//147 148//148
f 145//145 152//152 146//146
f 153//153 146//146 152//152
f 153//153 148//148 146//146
f 154//154 152//152 145//145
f 153//153 152//152 154//154
f 155//155 145//145 149//149
f 154//154 145//145 155//155
f 150//150 156//156 149//149
f 157//157 149//149 156//156
f 155//155 149//149 157//157
f 150//150 158//158 156//156
f 159//159 156//156 158//158
f 157//157 156//156 159//159
f 160//160 158//158 150//150
f 159//159 158//158 160//160
f 160//160 150//150 151//151
f 161//161 151//151 148//148
f 162//162 148//148 153//153
f 161//161 148//148 162//162
f 161//161 160//160 151//151
f 163//163 159//159 160//160
f 164//164 163//163 160//160
f 161//161 164//164 160//160
f 165//165 157//157 159//159
f 163//163 165//165 159//159
f 166//166 155//155 157//157
f 165//165 166//166 157//157
f 166//166 154//154 155//155
f 167//167 153//153 154//154
f 168//168 167//167 154//154
f 166//166 168//168 154//154
f 167//167 162//162 153//153
f 169//169 162//162 167//167
f 170//170 161//161 162//162
f 170//170 162//162 169//169
f 171//171 167//167 168//168
f 171//171 169//169 167//167
f 172//172 168//168 166//166
f 171//171 168//168 172//172
f 173//173 166//166 165//165
f 172//172 166//166 173//173
f 174//174 165//165 163//163
f 173//173 165//165 174//174
f 175//175 163//163 164//164
f 174//174 163//163 175//175
f 176//176 164//164 161//161
f 175//175 164//164 176//176
f 176//176 161//161 170//170
f 139//139 170//170 169//169
f 137//137 169//169 171//171
f 139//139 169//169 137//137
f 139//139 176//176 170//170
f 141//141 175//175 176//176
f 140//140 141//141 176//176
f 139//139 140//140 176//176
f 142//142 174//174 175//175
f 141//141 142//142 175//175
f 143//143 173//173 174//174
f 142//142 143//143 174//174
f 143//143 172//172 173//173
f 138//138 171//171 172//172
f 144//144 138//138 172//172
f 143//143 144//144 172//172
f 138//138 137//137 171//171
f 177//177 178//178 179//179
f 180//180 179//179 178//178
f 181//181 177//177 179//179
f 182//182 181//181 179//179
f 182//182 179//179 180//180
f 183//183 184//184 178//178
f 185//185 178//178 184//184
f 183//183 178//178 177//177
f 186//186 180//180 178//178
f 186//186 178//178 185//185
f 187//187 188//188 184//184
f 185//185 184//184 188//188
f 189//189 190//190 184//184
f 187//187 184//184 190//190
f 183//183 189//189 184//184
f 191//191 192//192 188//188
f 193//193 188//188 192//192
f 187//187 191//191 188//188
f 194//194 188//188 193//193
f 185//185 188//188 194//194
f 195//195 196//196 192//192
f 193//193 192//192 196//196
f 197//197 195//195 192//192
f 191//191 197//197 192//192
f 195//195 198//198 196//196
f 199//199 196//196 198//198
f 193//193 196//196 199//199
f 200//200 198//198 195//195
f 199//199 198//198 200//200
f 201//201 195//195 197//197
f 200//200 195//195 201//201
f 177//177 202//202 197//197
f 203//203 197//197 202//202
f 204//204 177//177 197//197
f 205//205 204//204 197//197
f 206//206 205//205 197//197
f 191//191 206//206 197//197
f 201//201 197//197 203//203
f 207//207 202//202 177//177
f 203//203 202//202 207//207
f 208//208 177//177 181//181
f 204//204 183//183 177//177
f 207//207 177//177 208//208
f 208//208 181//181 182//182
f 209//209 190//190 189//189
f 210//210 187//187 190//190
f 210//210 190//190 209//209
f 211//211 189//189 183//183
f 211//211 209//209 189//189
f 212//212 183//183 204//204
f 211//211 183//183 212//212
f 213//213 204//204 205//205
f 212//212 204//204 213//213
f 214//214 205//205 206//206
f 213//213 205//205 214//214
f 215//215 206//206 191//191
f 214//214 206//206 215//215
f 216//216 191//191 187//187
f 215//215 191//191 216//216
f 216//216 187//187 210//210
f 186//186 182//182 180//180
f 186//186 208//208 182//182
f 186//186 207//207 208//208
f 201//201 203//203 207//207
f 217//217 201//201 207//207
f 218//218 207//207 186//186
f 219//219 217//217 207//207
f 220//220 219//219 207//207
f 218//218 220//220 207//207
f 199//199 200//200 201//201
f 193//193 199//199 201//201
f 221//221 193//193 201//201
f 217//217 221//221 201//201
f 221//221 194//194 193//193
f 222//222 185//185 194//194
f 223//223 224//224 194//194
f 222//222 194//194 224//224
f 221//221 223//223 194//194
f 218//218 186//186 185//185
f 222//222 218//218 185//185
f 225//225 224//224 223//223
f 226//226 222//222 224//224
f 226//226 224//224 225//225
f 227//227 223//223 221//221
f 227//227 225//225 223//223
f 228//228 221//221 217//217
f 227//227 221//221 228//228
f 229//229 217//217 219//219
f 228//228 217//217 229//229
f 230//230 219//219 220//220
f 229//229 219//219 230//230
f 231//231 220//220 218//218
f 230//230 220//220 231//231
f 232//232 218//218 222//222
f 231//231 218//218 232//232
f 232//232 222//222 226//226
f 227//227 210//210 209//209
f 225//225 209//209 211//211
f 227//227 209//209 225//225
f 228//228 216//216 210//210
f 227//227 228//228 210//210
f 228//228 215//215 216//216
f 230//230 214//214 215//215
f 229//229 230//230 215//215
f 228//228 229//229 215//215
f 231//231 213//213 214//214
f 230//230 231//231 214//214
f 232//232 212//212 213//213
f 231//231 232//232 213//213
f 232//232 211//211 212//212
f 226//226 225//225 211//211
f 232//232 226//226 211//211
# 464 faces, 0 coords texture

# End of File
