#VRML V2.0 utf8


Group {
  children 
    DEF _+0 Group {
      children 
        DEF _+1 Transform {
          translation 0 0 0
          rotation 0 1 0  3.1400001
          scale 1 1 1
          scaleOrientation 0 0 1  0
          center 0 0 0
          children 
            DEF _+2 Transform {
              translation 0 0 0
              rotation 0 0 0.99999994  1.5700002
              scale 1 1 1
              scaleOrientation 0 0 1  0
              center 0 0 0
              children 
                DEF _+3 Group {
                  children 
                    DEF _+4 Transform {
                      scale 0.001 0.001 0.001
                      children [ 
                        DEF _+5 Group {
                          children 
                            DEF _+6 Shape {
                              appearance 
                              Appearance {
                                material 
                                Material {
                                  diffuseColor 0.23 0.382 0.56

                                }

                              }
                              geometry 
                              IndexedFaceSet {
                                coord 
                                Coordinate {
                                  point [ -2.5976501 1.50036 -39,
                                      -2.5976501 -1.50036 -39,
                                      -9.9999997e-021 -3 -39,
                                      -9.9999997e-021 -6 -39,
                                      -9.9999997e-021 3 -39,
                                      2.5976501 -1.50036 -39,
                                      5.1957302 -3.0004001 -39,
                                      -5.1957302 3.0004001 -39,
                                      -5.1957302 -3.0004001 -39,
                                      2.5976501 1.50036 -39,
                                      -9.9999997e-021 6 -39,
                                      5.1957302 3.0004001 -39,
                                      4.7631402 -2.75 -42.450001,
                                      5.1957302 -3.0004001 -42.450001,
                                      -9.9999997e-021 -6 -42.450001,
                                      7.3475402e-016 -6 -40.5,
                                      -9.9999997e-021 -5.5 -42.450001,
                                      -5.1957302 -3.0004001 -42.450001,
                                      -5.1961498 -3 -40.5,
                                      5.1957302 3.0004001 -42.450001,
                                      5.1961498 -3 -40.5,
                                      -9.9999997e-021 5.5 -42.450001,
                                      -9.9999997e-021 6 -42.450001,
                                      5.1961498 3 -40.5,
                                      4.7631402 2.75 -42.450001,
                                      -4.7631402 2.75 -42.450001,
                                      -5.1957302 3.0004001 -42.450001,
                                      -9.9999997e-021 6 -40.5,
                                      -5.1961498 3 -40.5,
                                      -4.7631402 -2.75 -42.450001,
                                      -9.9999997e-021 -5.5 -42.950001,
                                      4.7631402 -2.75 -42.950001,
                                      -4.7631402 -2.75 -42.950001,
                                      -4.7631402 2.75 -42.950001,
                                      -9.9999997e-021 5.5 -42.950001,
                                      4.7631402 2.75 -42.950001,
                                      3.46422 -1.99942 -42.950001,
                                      -9.9999997e-021 -4 -42.950001,
                                      -9.9999997e-021 4 -42.950001,
                                      3.46422 1.99942 -42.950001,
                                      -3.46422 1.99942 -42.950001,
                                      -3.46422 -1.99942 -42.950001,
                                      4.8983301e-016 -4 -48.950001,
                                      3.4640999 -2 -48.950001,
                                      -3.4640999 -2 -48.950001,
                                      -3.4640999 2 -48.950001,
                                      -9.9999997e-021 4 -48.950001,
                                      3.4640999 2 -48.950001,
                                      2.5976501 -1.50036 -69.949997,
                                      3.46422 -1.99942 -69.949997,
                                      -9.9999997e-021 -4 -69.949997,
                                      4.8983301e-016 -4 -57.950001,
                                      -9.9999997e-021 -3 -69.949997,
                                      -3.46422 -1.99942 -69.949997,
                                      -3.4640999 -2 -57.950001,
                                      3.46422 1.99942 -69.949997,
                                      3.4640999 -2 -57.950001,
                                      -9.9999997e-021 3 -69.949997,
                                      -9.9999997e-021 4 -69.949997,
                                      3.4640999 2 -57.950001,
                                      2.5976501 1.50036 -69.949997,
                                      -2.5976501 1.50036 -69.949997,
                                      -3.46422 1.99942 -69.949997,
                                      -9.9999997e-021 4 -57.950001,
                                      -3.4640999 2 -57.950001,
                                      -2.5976501 -1.50036 -69.949997,
                                      -9.9999997e-021 -3 -100,
                                      2.5976501 -1.50036 -100,
                                      -2.5976501 -1.50036 -100,
                                      -2.5976501 1.50036 -100,
                                      -9.9999997e-021 3 -100,
                                      2.5976501 1.50036 -100,
                                      -9.9999997e-021 3.5 -49.450001,
                                      -3.03109 1.75 -49.450001,
                                      3.03109 1.75 -49.450001,
                                      3.03109 -1.75 -49.450001,
                                      4.2860201e-016 -3.5 -49.450001,
                                      -9.9999997e-021 3.5 -57.450001,
                                      -3.03109 1.75 -57.450001,
                                      3.03109 1.75 -57.450001,
                                      3.03109 -1.75 -57.450001,
                                      4.2860201e-016 -3.5 -57.450001,
                                      -3.03109 -1.75 -49.450001,
                                      -3.03109 -1.75 -57.450001 ]

                                }
                                normal 
                                Normal {
                                  vector [ 0 6.1230298e-017 1,
                                      0 -6.1230298e-017 -1,
                                      1.2246101e-016 -1 6.1230298e-017,
                                      0.86602497 -0.5 3.0615199e-017,
                                      -0.86602497 -0.5 3.0615199e-017,
                                      0.86602497 0.5 -3.0615199e-017,
                                      0 1 -6.1230298e-017,
                                      -2.4492101e-016 1 -6.1230298e-017,
                                      -0.86602497 0.5 -3.0615199e-017,
                                      0 0.70710701 -0.70710701,
                                      0.61237198 0.353553 -0.70710701,
                                      -0.61237198 0.353553 -0.70710701,
                                      -1.73185e-016 0.70710701 -0.70710701,
                                      0.61237198 -0.353553 -0.70710701,
                                      8.6592701e-017 -0.70710701 -0.70710701,
                                      -0.61237198 -0.353553 -0.70710701,
                                      0 0.70710701 0.70710701,
                                      0.61237198 0.353553 0.70710701,
                                      -0.61237198 0.353553 0.70710701,
                                      -1.73185e-016 0.70710701 0.70710701,
                                      0.61237198 -0.353553 0.70710701,
                                      8.6592701e-017 -0.70710701 0.70710701,
                                      -0.61237198 -0.353553 0.70710701 ]

                                }
                                coordIndex [ 0, 1, 2, -1, 3, 2, 1, -1,
                                    4, 0, 2, -1, 5, 4, 2, -1,
                                    6, 5, 2, -1, 6, 2, 3, -1,
                                    7, 1, 0, -1, 8, 3, 1, -1,
                                    7, 8, 1, -1, 7, 0, 4, -1,
                                    5, 9, 4, -1, 10, 4, 9, -1,
                                    10, 7, 4, -1, 6, 9, 5, -1,
                                    11, 10, 9, -1, 6, 11, 9, -1,
                                    12, 13, 14, -1, 15, 14, 13, -1,
                                    16, 14, 17, -1, 18, 17, 14, -1,
                                    12, 14, 16, -1, 18, 14, 15, -1,
                                    12, 19, 13, -1, 20, 13, 19, -1,
                                    20, 15, 13, -1, 21, 22, 19, -1,
                                    23, 19, 22, -1, 24, 21, 19, -1,
                                    12, 24, 19, -1, 23, 20, 19, -1,
                                    25, 26, 22, -1, 27, 22, 26, -1,
                                    21, 25, 22, -1, 27, 23, 22, -1,
                                    25, 17, 26, -1, 28, 26, 17, -1,
                                    28, 27, 26, -1, 29, 16, 17, -1,
                                    25, 29, 17, -1, 18, 28, 17, -1,
                                    30, 16, 29, -1, 31, 12, 16, -1,
                                    31, 16, 30, -1, 32, 29, 25, -1,
                                    32, 30, 29, -1, 33, 25, 21, -1,
                                    32, 25, 33, -1, 34, 21, 24, -1,
                                    33, 21, 34, -1, 35, 24, 12, -1,
                                    34, 24, 35, -1, 35, 12, 31, -1,
                                    36, 31, 30, -1, 37, 30, 32, -1,
                                    36, 30, 37, -1, 36, 35, 31, -1,
                                    38, 34, 35, -1, 39, 38, 35, -1,
                                    36, 39, 35, -1, 40, 33, 34, -1,
                                    38, 40, 34, -1, 40, 32, 33, -1,
                                    41, 37, 32, -1, 40, 41, 32, -1,
                                    42, 37, 41, -1, 43, 36, 37, -1,
                                    42, 43, 37, -1, 44, 41, 40, -1,
                                    44, 42, 41, -1, 45, 40, 38, -1,
                                    45, 44, 40, -1, 46, 38, 39, -1,
                                    45, 38, 46, -1, 47, 39, 36, -1,
                                    47, 46, 39, -1, 43, 47, 36, -1,
                                    48, 49, 50, -1, 51, 50, 49, -1,
                                    52, 50, 53, -1, 54, 53, 50, -1,
                                    48, 50, 52, -1, 54, 50, 51, -1,
                                    48, 55, 49, -1, 56, 49, 55, -1,
                                    51, 49, 56, -1, 57, 58, 55, -1,
                                    59, 55, 58, -1, 60, 57, 55, -1,
                                    48, 60, 55, -1, 56, 55, 59, -1,
                                    61, 62, 58, -1, 63, 58, 62, -1,
                                    57, 61, 58, -1, 59, 58, 63, -1,
                                    61, 53, 62, -1, 64, 62, 53, -1,
                                    64, 63, 62, -1, 65, 52, 53, -1,
                                    61, 65, 53, -1, 64, 53, 54, -1,
                                    66, 52, 65, -1, 67, 48, 52, -1,
                                    67, 52, 66, -1, 68, 65, 61, -1,
                                    68, 66, 65, -1, 69, 61, 57, -1,
                                    68, 61, 69, -1, 70, 57, 60, -1,
                                    69, 57, 70, -1, 71, 60, 48, -1,
                                    70, 60, 71, -1, 71, 48, 67, -1,
                                    71, 67, 66, -1, 70, 71, 66, -1,
                                    68, 70, 66, -1, 68, 69, 70, -1,
                                    3, 15, 20, -1, 8, 18, 15, -1,
                                    8, 15, 3, -1, 6, 20, 23, -1,
                                    6, 3, 20, -1, 11, 23, 27, -1,
                                    6, 23, 11, -1, 10, 27, 28, -1,
                                    11, 27, 10, -1, 72, 46, 47, -1,
                                    73, 46, 72, -1, 73, 45, 46, -1,
                                    74, 47, 43, -1, 74, 72, 47, -1,
                                    75, 43, 42, -1, 75, 74, 43, -1,
                                    76, 75, 42, -1, 44, 76, 42, -1,
                                    77, 72, 74, -1, 78, 72, 77, -1,
                                    78, 73, 72, -1, 79, 74, 75, -1,
                                    79, 77, 74, -1, 80, 75, 76, -1,
                                    80, 79, 75, -1, 81, 80, 76, -1,
                                    82, 81, 76, -1, 82, 76, 44, -1,
                                    63, 77, 79, -1, 64, 77, 63, -1,
                                    64, 78, 77, -1, 59, 79, 80, -1,
                                    59, 63, 79, -1, 56, 80, 81, -1,
                                    56, 59, 80, -1, 51, 56, 81, -1,
                                    83, 51, 81, -1, 83, 81, 82, -1,
                                    54, 51, 83, -1, 7, 28, 18, -1,
                                    10, 28, 7, -1, 7, 18, 8, -1,
                                    82, 44, 45, -1, 73, 82, 45, -1,
                                    83, 82, 73, -1, 78, 83, 73, -1,
                                    54, 83, 78, -1, 64, 54, 78, -1 ]
                                normalIndex [ 0, 0, 0, -1, 0, 0, 0, -1,
                                    0, 0, 0, -1, 0, 0, 0, -1,
                                    0, 0, 0, -1, 0, 0, 0, -1,
                                    0, 0, 0, -1, 0, 0, 0, -1,
                                    0, 0, 0, -1, 0, 0, 0, -1,
                                    0, 0, 0, -1, 0, 0, 0, -1,
                                    0, 0, 0, -1, 0, 0, 0, -1,
                                    0, 0, 0, -1, 0, 0, 0, -1,
                                    1, 1, 1, -1, 2, 2, 3, -1,
                                    1, 1, 1, -1, 4, 4, 2, -1,
                                    1, 1, 1, -1, 4, 2, 2, -1,
                                    1, 1, 1, -1, 3, 3, 5, -1,
                                    3, 2, 3, -1, 1, 1, 1, -1,
                                    5, 5, 6, -1, 1, 1, 1, -1,
                                    1, 1, 1, -1, 5, 3, 5, -1,
                                    1, 1, 1, -1, 7, 7, 8, -1,
                                    1, 1, 1, -1, 6, 5, 6, -1,
                                    1, 1, 1, -1, 8, 8, 4, -1,
                                    8, 7, 8, -1, 1, 1, 1, -1,
                                    1, 1, 1, -1, 4, 8, 4, -1,
                                    2, 2, 4, -1, 3, 3, 2, -1,
                                    3, 2, 2, -1, 4, 4, 8, -1,
                                    4, 2, 4, -1, 8, 8, 7, -1,
                                    4, 8, 8, -1, 6, 6, 5, -1,
                                    8, 7, 7, -1, 5, 5, 3, -1,
                                    6, 5, 5, -1, 5, 3, 3, -1,
                                    1, 1, 1, -1, 1, 1, 1, -1,
                                    1, 1, 1, -1, 1, 1, 1, -1,
                                    1, 1, 1, -1, 1, 1, 1, -1,
                                    1, 1, 1, -1, 1, 1, 1, -1,
                                    1, 1, 1, -1, 1, 1, 1, -1,
                                    1, 1, 1, -1, 1, 1, 1, -1,
                                    2, 2, 4, -1, 3, 3, 2, -1,
                                    2, 3, 2, -1, 4, 4, 8, -1,
                                    4, 2, 4, -1, 8, 8, 7, -1,
                                    8, 4, 8, -1, 6, 6, 5, -1,
                                    8, 7, 7, -1, 5, 5, 3, -1,
                                    5, 6, 5, -1, 3, 5, 3, -1,
                                    1, 1, 1, -1, 2, 2, 3, -1,
                                    1, 1, 1, -1, 4, 4, 2, -1,
                                    1, 1, 1, -1, 4, 2, 2, -1,
                                    1, 1, 1, -1, 3, 3, 5, -1,
                                    2, 3, 3, -1, 1, 1, 1, -1,
                                    5, 5, 6, -1, 1, 1, 1, -1,
                                    1, 1, 1, -1, 3, 5, 5, -1,
                                    1, 1, 1, -1, 7, 7, 8, -1,
                                    1, 1, 1, -1, 5, 6, 6, -1,
                                    1, 1, 1, -1, 8, 8, 4, -1,
                                    8, 7, 8, -1, 1, 1, 1, -1,
                                    1, 1, 1, -1, 8, 4, 4, -1,
                                    2, 2, 4, -1, 3, 3, 2, -1,
                                    3, 2, 2, -1, 4, 4, 8, -1,
                                    4, 2, 4, -1, 8, 8, 7, -1,
                                    4, 8, 8, -1, 6, 6, 5, -1,
                                    8, 7, 7, -1, 5, 5, 3, -1,
                                    6, 5, 5, -1, 5, 3, 3, -1,
                                    1, 1, 1, -1, 1, 1, 1, -1,
                                    1, 1, 1, -1, 1, 1, 1, -1,
                                    2, 2, 3, -1, 4, 4, 2, -1,
                                    4, 2, 2, -1, 3, 3, 5, -1,
                                    3, 2, 3, -1, 5, 5, 6, -1,
                                    3, 5, 5, -1, 7, 7, 8, -1,
                                    5, 6, 6, -1, 9, 9, 10, -1,
                                    11, 12, 12, -1, 11, 11, 12, -1,
                                    10, 10, 13, -1, 10, 9, 10, -1,
                                    13, 13, 14, -1, 13, 10, 13, -1,
                                    14, 13, 14, -1, 15, 14, 14, -1,
                                    6, 6, 5, -1, 8, 7, 7, -1,
                                    8, 8, 7, -1, 5, 5, 3, -1,
                                    5, 6, 5, -1, 3, 3, 2, -1,
                                    3, 5, 3, -1, 2, 3, 2, -1,
                                    4, 2, 2, -1, 15, 14, 15, -1,
                                    16, 16, 17, -1, 18, 19, 19, -1,
                                    18, 18, 19, -1, 17, 17, 20, -1,
                                    17, 16, 17, -1, 20, 20, 21, -1,
                                    20, 17, 20, -1, 21, 20, 21, -1,
                                    22, 21, 21, -1, 4, 2, 4, -1,
                                    22, 21, 22, -1, 8, 8, 4, -1,
                                    7, 8, 8, -1, 8, 4, 4, -1,
                                    15, 15, 11, -1, 11, 15, 11, -1,
                                    4, 4, 8, -1, 8, 4, 8, -1,
                                    22, 22, 18, -1, 18, 22, 18, -1 ]
                                ccw TRUE
                                solid TRUE
                                convex TRUE
                                creaseAngle 0

                              }

                            }

                        },
                          
                        DEF _+7 Group {
                          children 
                            DEF _+8 Shape {
                              appearance 
                              Appearance {
                                material 
                                Material {
                                  diffuseColor 0.60000002 0.60000002 0.60000002

                                }

                              }
                              geometry 
                              IndexedFaceSet {
                                coord 
                                Coordinate {
                                  point [ -16 -57.5 -104,
                                      -16 57.5 -100,
                                      -16 57.5 -104,
                                      16 57.5 -100,
                                      16 -57.5 -104,
                                      16 57.5 -104,
                                      -16 -57.5 -100,
                                      16 -57.5 -100 ]

                                }
                                normal 
                                Normal {
                                  vector [ -1 0 0,
                                      0 1 -6.1230298e-017,
                                      0 -6.1230298e-017 -1,
                                      0 6.1230298e-017 1,
                                      0 -1 6.1230298e-017,
                                      1 0 0 ]

                                }
                                coordIndex [ 0, 1, 2, -1, 3, 2, 1, -1,
                                    4, 0, 2, -1, 3, 5, 2, -1,
                                    4, 2, 5, -1, 0, 6, 1, -1,
                                    3, 1, 6, -1, 4, 6, 0, -1,
                                    7, 3, 6, -1, 4, 7, 6, -1,
                                    7, 5, 3, -1, 4, 5, 7, -1 ]
                                normalIndex [ 0, 0, 0, -1, 1, 1, 1, -1,
                                    2, 2, 2, -1, 1, 1, 1, -1,
                                    2, 2, 2, -1, 0, 0, 0, -1,
                                    3, 3, 3, -1, 4, 4, 4, -1,
                                    3, 3, 3, -1, 4, 4, 4, -1,
                                    5, 5, 5, -1, 5, 5, 5, -1 ]
                                ccw TRUE
                                solid TRUE
                                convex TRUE
                                creaseAngle 0

                              }

                            }

                        },
                          
                        DEF _+9 Group {
                          children 
                            DEF _+10 Shape {
                              appearance 
                              Appearance {
                                material 
                                Material {
                                  diffuseColor 0.81818199 0.76172101 0.256138

                                }

                              }
                              geometry 
                              IndexedFaceSet {
                                coord 
                                Coordinate {
                                  point [ -5 -57.5 -129,
                                      -9 -57.5 -111,
                                      -9 -57.5 -125,
                                      -9 -51.5 -125,
                                      -16 -57.5 -104,
                                      -16 -57.5 -111,
                                      -9 -51.5 -111,
                                      5.02465e-030 -57.5 -113.5,
                                      -5.6289101 -57.5 -123.25,
                                      -5.6289101 -57.5 -116.75,
                                      -16 -51.5 -111,
                                      16 -57.5 -111,
                                      16 -57.5 -104,
                                      -16 -51.5 -104,
                                      9 -57.5 -111,
                                      5.6289101 -57.5 -116.75,
                                      16 -51.5 -104,
                                      16 -51.5 -111,
                                      9 -57.5 -125,
                                      9 -51.5 -111,
                                      5.6289101 -57.5 -123.25,
                                      5 -57.5 -129,
                                      5 -51.5 -129,
                                      9 -51.5 -125,
                                      5.6655999e-030 -57.5 -126.5,
                                      -5 -51.5 -129,
                                      5.7152799e-030 -52.5 -126.5,
                                      -5.6291699 -52.5 -123.25,
                                      5.6291699 -52.5 -123.25,
                                      5.6291699 -52.5 -116.75,
                                      5.07433e-030 -52.5 -113.5,
                                      -5.6291699 -52.5 -116.75,
                                      -4.7631402 -51.5 -117.25,
                                      4.7631402 -51.5 -122.75,
                                      -4.7631402 -51.5 -122.75,
                                      5.67591e-030 -51.5 -125.5,
                                      5.13357e-030 -51.5 -114.5,
                                      4.7631402 -51.5 -117.25,
                                      5.66597e-030 -52.5 -125.5,
                                      4.7632499 -52.5 -122.75,
                                      -4.7632499 -52.5 -122.75,
                                      -4.7632499 -52.5 -117.25,
                                      5.12363e-030 -52.5 -114.5,
                                      4.7632499 -52.5 -117.25 ]

                                }
                                normal 
                                Normal {
                                  vector [ 0 -1 6.1230298e-017,
                                      -1 0 0,
                                      -0.70710701 -4.32964e-017 -0.70710701,
                                      0 -6.1230298e-017 -1,
                                      0 6.1230298e-017 1,
                                      1 0 0,
                                      0.70710701 -4.32964e-017 -0.70710701,
                                      -0.86602497 3.0615199e-017 0.5,
                                      0.86602497 3.0615199e-017 0.5,
                                      -0.86602497 -3.0615199e-017 -0.5,
                                      -1.2246101e-016 -6.1230298e-017 -1,
                                      1.2246101e-016 -6.1230298e-017 -1,
                                      0.86602497 -3.0615199e-017 -0.5,
                                      0 1 -6.1230298e-017 ]

                                }
                                coordIndex [ 0, 1, 2, -1, 3, 2, 1, -1,
                                    3, 0, 2, -1, 4, 5, 1, -1,
                                    6, 1, 5, -1, 7, 4, 1, -1,
                                    8, 1, 0, -1, 9, 7, 1, -1,
                                    8, 9, 1, -1, 6, 3, 1, -1,
                                    10, 5, 4, -1, 6, 5, 10, -1,
                                    11, 12, 4, -1, 13, 4, 12, -1,
                                    14, 11, 4, -1, 15, 14, 4, -1,
                                    7, 15, 4, -1, 10, 4, 13, -1,
                                    16, 12, 11, -1, 13, 12, 16, -1,
                                    17, 11, 14, -1, 16, 11, 17, -1,
                                    15, 18, 14, -1, 19, 14, 18, -1,
                                    17, 14, 19, -1, 20, 21, 18, -1,
                                    22, 18, 21, -1, 15, 20, 18, -1,
                                    23, 18, 22, -1, 19, 18, 23, -1,
                                    24, 0, 21, -1, 22, 21, 0, -1,
                                    20, 24, 21, -1, 8, 0, 24, -1,
                                    25, 0, 3, -1, 22, 0, 25, -1,
                                    26, 24, 20, -1, 27, 8, 24, -1,
                                    27, 24, 26, -1, 28, 20, 15, -1,
                                    28, 26, 20, -1, 29, 15, 7, -1,
                                    28, 15, 29, -1, 30, 7, 9, -1,
                                    29, 7, 30, -1, 31, 9, 8, -1,
                                    30, 9, 31, -1, 31, 8, 27, -1,
                                    32, 25, 3, -1, 32, 3, 6, -1,
                                    33, 22, 25, -1, 34, 35, 25, -1,
                                    33, 25, 35, -1, 32, 34, 25, -1,
                                    19, 23, 22, -1, 33, 19, 22, -1,
                                    16, 17, 19, -1, 36, 16, 19, -1,
                                    37, 36, 19, -1, 33, 37, 19, -1,
                                    10, 13, 16, -1, 6, 10, 16, -1,
                                    32, 6, 16, -1, 36, 32, 16, -1,
                                    38, 35, 34, -1, 39, 33, 35, -1,
                                    39, 35, 38, -1, 40, 34, 32, -1,
                                    40, 38, 34, -1, 41, 32, 36, -1,
                                    40, 32, 41, -1, 42, 36, 37, -1,
                                    41, 36, 42, -1, 43, 37, 33, -1,
                                    42, 37, 43, -1, 43, 33, 39, -1,
                                    40, 27, 26, -1, 38, 26, 28, -1,
                                    40, 26, 38, -1, 40, 31, 27, -1,
                                    42, 30, 31, -1, 41, 42, 31, -1,
                                    40, 41, 31, -1, 43, 29, 30, -1,
                                    42, 43, 30, -1, 43, 28, 29, -1,
                                    39, 38, 28, -1, 43, 39, 28, -1 ]
                                normalIndex [ 0, 0, 0, -1, 1, 1, 1, -1,
                                    2, 2, 2, -1, 0, 0, 0, -1,
                                    3, 3, 3, -1, 0, 0, 0, -1,
                                    0, 0, 0, -1, 0, 0, 0, -1,
                                    0, 0, 0, -1, 1, 1, 1, -1,
                                    1, 1, 1, -1, 3, 3, 3, -1,
                                    0, 0, 0, -1, 4, 4, 4, -1,
                                    0, 0, 0, -1, 0, 0, 0, -1,
                                    0, 0, 0, -1, 1, 1, 1, -1,
                                    5, 5, 5, -1, 4, 4, 4, -1,
                                    3, 3, 3, -1, 5, 5, 5, -1,
                                    0, 0, 0, -1, 5, 5, 5, -1,
                                    3, 3, 3, -1, 0, 0, 0, -1,
                                    6, 6, 6, -1, 0, 0, 0, -1,
                                    6, 6, 6, -1, 5, 5, 5, -1,
                                    0, 0, 0, -1, 3, 3, 3, -1,
                                    0, 0, 0, -1, 0, 0, 0, -1,
                                    2, 2, 2, -1, 3, 3, 3, -1,
                                    4, 4, 7, -1, 8, 8, 4, -1,
                                    8, 4, 4, -1, 7, 7, 9, -1,
                                    7, 4, 7, -1, 9, 9, 10, -1,
                                    7, 9, 9, -1, 11, 11, 12, -1,
                                    9, 10, 10, -1, 12, 12, 8, -1,
                                    11, 12, 12, -1, 12, 8, 8, -1,
                                    13, 13, 13, -1, 13, 13, 13, -1,
                                    13, 13, 13, -1, 13, 13, 13, -1,
                                    13, 13, 13, -1, 13, 13, 13, -1,
                                    13, 13, 13, -1, 13, 13, 13, -1,
                                    13, 13, 13, -1, 13, 13, 13, -1,
                                    13, 13, 13, -1, 13, 13, 13, -1,
                                    13, 13, 13, -1, 13, 13, 13, -1,
                                    13, 13, 13, -1, 13, 13, 13, -1,
                                    4, 4, 8, -1, 7, 7, 4, -1,
                                    7, 4, 4, -1, 8, 8, 12, -1,
                                    8, 4, 8, -1, 12, 12, 11, -1,
                                    8, 12, 12, -1, 10, 10, 9, -1,
                                    12, 11, 11, -1, 9, 9, 7, -1,
                                    10, 9, 9, -1, 9, 7, 7, -1,
                                    0, 0, 0, -1, 0, 0, 0, -1,
                                    0, 0, 0, -1, 0, 0, 0, -1,
                                    0, 0, 0, -1, 0, 0, 0, -1,
                                    0, 0, 0, -1, 0, 0, 0, -1,
                                    0, 0, 0, -1, 0, 0, 0, -1,
                                    0, 0, 0, -1, 0, 0, 0, -1 ]
                                ccw TRUE
                                solid TRUE
                                convex TRUE
                                creaseAngle 0

                              }

                            }

                        } ]

                    }

                }

            }

        }

    }

}
