#VRML V2.0 utf8


Group {
  children 
    DEF _+0 Group {
      children 
        DEF _+1 Transform {
          translation 0 0 0
          rotation -0 -0 -0.99999994  1.5700002
          scale 1 1 1
          scaleOrientation 0 0 1  0
          center 0 0 0
          children 
            DEF _+2 Transform {
              translation 0 0 0
              rotation -0 -0.99999994 -0  1.5700002
              scale 1 1 1
              scaleOrientation 0 0 1  0
              center 0 0 0
              children 
                DEF _+3 Group {
                  children 
                    DEF _+4 Transform {
                      scale 0.001 0.001 0.001
                      children [ 
                        DEF _+5 Group {
                          children 
                            DEF _+6 Shape {
                              appearance 
                              Appearance {
                                material 
                                Material {
                                  diffuseColor 0.63999999 0.46399999 0.301

                                }

                              }
                              geometry 
                              IndexedFaceSet {
                                coord 
                                Coordinate {
                                  point [ 16.5 16.5 -23.5,
                                      -16.5 16.5 -30,
                                      -16.5 16.5 -23.5,
                                      -16.5 -16.5 -30,
                                      -4.6352501 14.2658 -23.5,
                                      -16.5 -16.5 -23.5,
                                      -15 -1.43891e-015 -23.5,
                                      -12.1353 8.8167801 -23.5,
                                      16.5 16.5 -30,
                                      4.4029298 13.5525 -30,
                                      -14.25 -1.83691e-015 -30,
                                      -11.5278 8.3767099 -30,
                                      -4.4029298 13.5525 -30,
                                      16.5 -16.5 -23.5,
                                      16.5 -16.5 -30,
                                      14.25 -1.83691e-015 -30,
                                      11.5278 8.3767099 -30,
                                      15 -1.43891e-015 -23.5,
                                      12.1353 8.8167801 -23.5,
                                      4.6352501 14.2658 -23.5,
                                      4.6352501 -14.2658 -23.5,
                                      -12.1353 -8.8167801 -23.5,
                                      -4.6352501 -14.2658 -23.5,
                                      12.1353 -8.8167801 -23.5,
                                      -4.4029298 -13.5525 -30,
                                      11.5278 -8.3767099 -30,
                                      4.4029298 -13.5525 -30,
                                      -11.5278 -8.3767099 -30,
                                      15 -1.71445e-015 -28,
                                      12.1345 -8.8175898 -28,
                                      12.1345 8.8175898 -28,
                                      4.6346598 14.2658 -28,
                                      -4.6346598 14.2658 -28,
                                      -12.1345 8.8175898 -28,
                                      -15 -1.71445e-015 -28,
                                      -12.1345 -8.8175898 -28,
                                      -4.6346598 -14.2658 -28,
                                      4.6346598 -14.2658 -28,
                                      11.5485 -4.7829599 -65.800003,
                                      6.71737 -6.71737 -65.800003,
                                      9.5 -4.0289499e-015 -65.800003,
                                      9.5 -3.5513599e-015 -58,
                                      12.5 -4.0289499e-015 -65.800003,
                                      6.71737 6.71737 -65.800003,
                                      6.71808 6.7167501 -58,
                                      8.8381205 -8.8393698 -65.800003,
                                      -9.9999997e-021 -9.5 -65.800003,
                                      6.71808 -6.7167501 -58,
                                      -8.8381205 -8.8393698 -65.800003,
                                      -6.71737 -6.71737 -65.800003,
                                      6.1061298e-016 -9.4997396 -58,
                                      4.7842398 -11.5482 -65.800003,
                                      -12.5 -4.0289499e-015 -65.800003,
                                      -9.5 -4.0289499e-015 -65.800003,
                                      -6.71808 -6.7167501 -58,
                                      -11.5485 -4.7829599 -65.800003,
                                      -11.5485 4.7829599 -65.800003,
                                      -6.71737 6.71737 -65.800003,
                                      -9.5 -3.5513599e-015 -58,
                                      -8.8381205 8.8393698 -65.800003,
                                      -9.9999997e-021 9.5 -65.800003,
                                      -6.71808 6.7167501 -58,
                                      8.8381205 8.8393698 -65.800003,
                                      6.1061298e-016 9.4997396 -58,
                                      -4.7842398 11.5482 -65.800003,
                                      11.5485 4.7829599 -65.800003,
                                      12.5 -2.60229e-015 -42.5,
                                      11.5485 -4.7835398 -42.5,
                                      11.5485 4.7835398 -42.5,
                                      4.7842398 11.5482 -65.800003,
                                      8.83883 8.83883 -42.5,
                                      -9.9999997e-021 12.4998 -65.800003,
                                      4.7835398 11.5485 -42.5,
                                      7.6536902e-016 12.5 -42.5,
                                      -4.7835398 11.5485 -42.5,
                                      -8.83883 8.83883 -42.5,
                                      -11.5485 4.7835398 -42.5,
                                      -12.5 -1.07153e-015 -42.5,
                                      -11.5485 -4.7835398 -42.5,
                                      -4.7842398 -11.5482 -65.800003,
                                      -8.83883 -8.83883 -42.5,
                                      -9.9999997e-021 -12.4998 -65.800003,
                                      -4.7835398 -11.5485 -42.5,
                                      7.6536902e-016 -12.5 -42.5,
                                      4.7835398 -11.5485 -42.5,
                                      8.83883 -8.83883 -42.5,
                                      -8 -3.5513599e-015 -58,
                                      -5.6568499 -5.6568499 -58,
                                      4.8983301e-016 8 -58,
                                      -5.6568499 5.6568499 -58,
                                      5.6568499 5.6568499 -58,
                                      8 -3.5513599e-015 -58,
                                      4.8983301e-016 -8 -58,
                                      5.6568499 -5.6568499 -58,
                                      8 -3.00029e-015 -49,
                                      5.6568499 5.6568499 -49,
                                      5.6568499 -5.6568499 -49,
                                      4.8983301e-016 -8 -49,
                                      -5.6568499 -5.6568499 -49,
                                      -8 -3.00029e-015 -49,
                                      -5.6568499 5.6568499 -49,
                                      4.8983301e-016 8 -49,
                                      -9.5 -3.00029e-015 -49,
                                      -6.71808 -6.7167501 -49,
                                      -6.71808 6.7167501 -49,
                                      6.71808 6.7167501 -49,
                                      6.1061298e-016 9.4997396 -49,
                                      9.5 -3.00029e-015 -49,
                                      6.71808 -6.7167501 -49,
                                      6.1061298e-016 -9.4997396 -49,
                                      9.5 -2.5006501e-015 -40.84,
                                      6.7175102 6.7175102 -40.84,
                                      6.7175102 -6.7175102 -40.84,
                                      5.8167801e-016 -9.5 -40.84,
                                      -6.7175102 -6.7175102 -40.84,
                                      -9.5 -1.33727e-015 -40.84,
                                      -6.7175102 6.7175102 -40.84,
                                      5.8167801e-016 9.5 -40.84,
                                      -11 -1.06173e-015 -39.34,
                                      -7.7781701 -7.7781701 -39.34,
                                      -7.7781701 7.7781701 -39.34,
                                      6.7352301e-016 11 -39.34,
                                      7.7781701 7.7781701 -39.34,
                                      11 -2.4087999e-015 -39.34,
                                      -11 -1.71445e-015 -28,
                                      -7.7780099 -7.7780099 -28,
                                      -7.7780099 7.7780099 -28,
                                      6.7352301e-016 11 -28,
                                      7.7780099 7.7780099 -28,
                                      11 -1.71445e-015 -28,
                                      7.7781701 -7.7781701 -39.34,
                                      7.7780099 -7.7780099 -28,
                                      6.7352301e-016 -11 -28,
                                      6.7352301e-016 -11 -39.34,
                                      14.25 -2.4951401e-015 -40.75,
                                      11.5285 8.3759403 -40.75,
                                      11.5285 -8.3759403 -40.75,
                                      4.4034901 -13.5526 -40.75,
                                      -4.4034901 -13.5526 -40.75,
                                      -11.5285 -8.3759403 -40.75,
                                      -14.25 -7.5007102e-016 -40.75,
                                      -11.5285 8.3759403 -40.75,
                                      -4.4034901 13.5526 -40.75,
                                      4.4034901 13.5526 -40.75 ]

                                }
                                normal 
                                Normal {
                                  vector [ 0 1 -6.1230298e-017,
                                      -1 0 0,
                                      0 6.1230298e-017 1,
                                      0 -6.1230298e-017 -1,
                                      1 0 0,
                                      0 -1 6.1230298e-017,
                                      -0.809017 -0.58778501 3.5990301e-017,
                                      -0.809017 0.58778501 -3.5990301e-017,
                                      -0.309017 -0.95105702 5.8233502e-017,
                                      0.309017 -0.95105702 5.8233502e-017,
                                      0.809017 -0.58778501 3.5990301e-017,
                                      1 -1.2246101e-016 0,
                                      1 1.2246101e-016 0,
                                      0.809017 0.58778501 -3.5990301e-017,
                                      0.309017 0.95105702 -5.8233502e-017,
                                      -0.309017 0.95105702 -5.8233502e-017,
                                      -0.70710701 0.70710701 -4.32964e-017,
                                      -0.70710701 -0.70710701 4.32964e-017,
                                      -6.1230298e-017 1 -6.1230298e-017,
                                      0.70710701 0.70710701 -4.32964e-017,
                                      0.70710701 -0.70710701 4.32964e-017,
                                      -6.1230298e-017 -1 6.1230298e-017,
                                      0.92387998 0.38268301 -2.34318e-017,
                                      0.92387998 -0.38268301 2.34318e-017,
                                      0.38268301 0.92387998 -5.65694e-017,
                                      6.1230298e-017 1 -6.1230298e-017,
                                      -0.38268301 0.92387998 -5.65694e-017,
                                      -0.92387998 0.38268301 -2.34318e-017,
                                      -1 1.2246101e-016 0,
                                      -1 -1.2246101e-016 0,
                                      -0.92387998 -0.38268301 2.34318e-017,
                                      -0.38268301 -0.92387998 5.65694e-017,
                                      6.1230298e-017 -1 6.1230298e-017,
                                      0.38268301 -0.92387998 5.65694e-017,
                                      0.70710701 -4.32964e-017 0.70710701,
                                      0.5 -0.5 0.70710701,
                                      0.5 0.5 0.70710701,
                                      0.70710701 1.29889e-016 0.70710701,
                                      -4.32964e-017 -0.70710701 0.70710701,
                                      -0.5 -0.5 0.70710701,
                                      -0.70710701 4.32964e-017 0.70710701,
                                      -0.5 0.5 0.70710701,
                                      -0.70710701 4.32964e-017 -0.70710701,
                                      -0.572061 0.415627 -0.70710701,
                                      -0.65328199 -0.27059799 -0.70710701,
                                      -0.70710701 -1.29889e-016 -0.70710701,
                                      -0.572061 -0.415627 -0.70710701,
                                      -0.5 0.5 -0.70710701,
                                      -0.21850801 0.672499 -0.70710701,
                                      -0.65328199 0.27059799 -0.70710701,
                                      4.32964e-017 0.70710701 -0.70710701,
                                      0.21850801 0.672499 -0.70710701,
                                      -0.27059799 0.65328199 -0.70710701,
                                      0.27059799 0.65328199 -0.70710701,
                                      0.572061 0.415627 -0.70710701,
                                      0.65328199 0.27059799 -0.70710701,
                                      0.70710701 -4.32964e-017 -0.70710701,
                                      0.5 0.5 -0.70710701,
                                      0.572061 -0.415627 -0.70710701,
                                      0.65328199 -0.27059799 -0.70710701,
                                      -4.32964e-017 0.70710701 0.70710701,
                                      0.5 -0.5 -0.70710701,
                                      0.21850801 -0.672499 -0.70710701,
                                      4.32964e-017 -0.70710701 -0.70710701,
                                      -0.21850801 -0.672499 -0.70710701,
                                      0.27059799 -0.65328199 -0.70710701,
                                      -0.27059799 -0.65328199 -0.70710701,
                                      -0.5 -0.5 -0.70710701 ]

                                }
                                coordIndex [ 0, 1, 2, -1, 3, 2, 1, -1,
                                    4, 0, 2, -1, 3, 5, 2, -1,
                                    6, 2, 5, -1, 7, 4, 2, -1,
                                    6, 7, 2, -1, 0, 8, 1, -1,
                                    9, 1, 8, -1, 10, 3, 1, -1,
                                    11, 10, 1, -1, 12, 11, 1, -1,
                                    9, 12, 1, -1, 13, 8, 0, -1,
                                    14, 8, 13, -1, 15, 8, 14, -1,
                                    16, 8, 15, -1, 16, 9, 8, -1,
                                    17, 13, 0, -1, 18, 17, 0, -1,
                                    19, 18, 0, -1, 4, 19, 0, -1,
                                    14, 13, 5, -1, 20, 5, 13, -1,
                                    3, 14, 5, -1, 21, 6, 5, -1,
                                    22, 21, 5, -1, 20, 22, 5, -1,
                                    23, 13, 17, -1, 23, 20, 13, -1,
                                    24, 14, 3, -1, 25, 15, 14, -1,
                                    26, 25, 14, -1, 24, 26, 14, -1,
                                    27, 24, 3, -1, 10, 27, 3, -1,
                                    28, 17, 18, -1, 29, 23, 17, -1,
                                    29, 17, 28, -1, 30, 18, 19, -1,
                                    30, 28, 18, -1, 31, 19, 4, -1,
                                    30, 19, 31, -1, 32, 4, 7, -1,
                                    31, 4, 32, -1, 33, 7, 6, -1,
                                    32, 7, 33, -1, 34, 6, 21, -1,
                                    33, 6, 34, -1, 35, 21, 22, -1,
                                    34, 21, 35, -1, 36, 22, 20, -1,
                                    35, 22, 36, -1, 37, 20, 23, -1,
                                    36, 20, 37, -1, 37, 23, 29, -1,
                                    38, 39, 40, -1, 41, 40, 39, -1,
                                    42, 40, 43, -1, 44, 43, 40, -1,
                                    38, 40, 42, -1, 41, 44, 40, -1,
                                    45, 46, 39, -1, 47, 39, 46, -1,
                                    38, 45, 39, -1, 47, 41, 39, -1,
                                    48, 49, 46, -1, 50, 46, 49, -1,
                                    51, 48, 46, -1, 45, 51, 46, -1,
                                    47, 46, 50, -1, 52, 53, 49, -1,
                                    54, 49, 53, -1, 55, 52, 49, -1,
                                    48, 55, 49, -1, 50, 49, 54, -1,
                                    56, 57, 53, -1, 58, 53, 57, -1,
                                    52, 56, 53, -1, 54, 53, 58, -1,
                                    59, 60, 57, -1, 61, 57, 60, -1,
                                    56, 59, 57, -1, 61, 58, 57, -1,
                                    62, 43, 60, -1, 63, 60, 43, -1,
                                    64, 62, 60, -1, 59, 64, 60, -1,
                                    63, 61, 60, -1, 65, 42, 43, -1,
                                    62, 65, 43, -1, 44, 63, 43, -1,
                                    66, 42, 65, -1, 67, 38, 42, -1,
                                    67, 42, 66, -1, 68, 65, 62, -1,
                                    66, 65, 68, -1, 64, 69, 62, -1,
                                    70, 62, 69, -1, 68, 62, 70, -1,
                                    64, 71, 69, -1, 72, 69, 71, -1,
                                    70, 69, 72, -1, 73, 71, 64, -1,
                                    72, 71, 73, -1, 74, 64, 59, -1,
                                    73, 64, 74, -1, 75, 59, 56, -1,
                                    74, 59, 75, -1, 76, 56, 52, -1,
                                    75, 56, 76, -1, 77, 52, 55, -1,
                                    76, 52, 77, -1, 78, 55, 48, -1,
                                    78, 77, 55, -1, 51, 79, 48, -1,
                                    80, 48, 79, -1, 78, 48, 80, -1,
                                    51, 81, 79, -1, 82, 79, 81, -1,
                                    80, 79, 82, -1, 83, 81, 51, -1,
                                    82, 81, 83, -1, 84, 51, 45, -1,
                                    83, 51, 84, -1, 85, 45, 38, -1,
                                    84, 45, 85, -1, 85, 38, 67, -1,
                                    86, 58, 61, -1, 87, 54, 58, -1,
                                    86, 87, 58, -1, 88, 61, 63, -1,
                                    89, 86, 61, -1, 88, 89, 61, -1,
                                    88, 63, 44, -1, 90, 44, 41, -1,
                                    90, 88, 44, -1, 91, 41, 47, -1,
                                    90, 41, 91, -1, 92, 50, 54, -1,
                                    87, 92, 54, -1, 92, 47, 50, -1,
                                    93, 91, 47, -1, 92, 93, 47, -1,
                                    94, 91, 93, -1, 95, 90, 91, -1,
                                    94, 95, 91, -1, 96, 93, 92, -1,
                                    96, 94, 93, -1, 97, 92, 87, -1,
                                    96, 92, 97, -1, 98, 87, 86, -1,
                                    97, 87, 98, -1, 99, 86, 89, -1,
                                    98, 86, 99, -1, 100, 89, 88, -1,
                                    100, 99, 89, -1, 101, 88, 90, -1,
                                    101, 100, 88, -1, 95, 101, 90, -1,
                                    102, 99, 100, -1, 103, 98, 99, -1,
                                    102, 103, 99, -1, 104, 100, 101, -1,
                                    104, 102, 100, -1, 105, 101, 95, -1,
                                    106, 104, 101, -1, 105, 106, 101, -1,
                                    105, 95, 94, -1, 107, 94, 96, -1,
                                    105, 94, 107, -1, 103, 97, 98, -1,
                                    108, 96, 97, -1, 109, 108, 97, -1,
                                    103, 109, 97, -1, 108, 107, 96, -1,
                                    110, 107, 108, -1, 111, 105, 107, -1,
                                    110, 111, 107, -1, 112, 108, 109, -1,
                                    112, 110, 108, -1, 113, 109, 103, -1,
                                    112, 109, 113, -1, 114, 103, 102, -1,
                                    113, 103, 114, -1, 115, 102, 104, -1,
                                    114, 102, 115, -1, 116, 104, 106, -1,
                                    116, 115, 104, -1, 117, 106, 105, -1,
                                    117, 116, 106, -1, 111, 117, 105, -1,
                                    118, 115, 116, -1, 119, 115, 118, -1,
                                    114, 115, 119, -1, 120, 116, 117, -1,
                                    120, 118, 116, -1, 121, 117, 111, -1,
                                    121, 120, 117, -1, 122, 111, 110, -1,
                                    122, 121, 111, -1, 123, 122, 110, -1,
                                    112, 123, 110, -1, 124, 118, 120, -1,
                                    125, 118, 124, -1, 119, 118, 125, -1,
                                    126, 120, 121, -1, 126, 124, 120, -1,
                                    127, 121, 122, -1, 127, 126, 121, -1,
                                    128, 122, 123, -1, 128, 127, 122, -1,
                                    129, 128, 123, -1, 130, 129, 123, -1,
                                    112, 130, 123, -1, 34, 124, 126, -1,
                                    35, 125, 124, -1, 34, 35, 124, -1,
                                    33, 126, 127, -1, 33, 34, 126, -1,
                                    30, 127, 128, -1, 31, 33, 127, -1,
                                    30, 31, 127, -1, 30, 128, 129, -1,
                                    28, 129, 131, -1, 130, 131, 129, -1,
                                    30, 129, 28, -1, 35, 132, 125, -1,
                                    119, 125, 132, -1, 29, 131, 132, -1,
                                    133, 132, 131, -1, 36, 29, 132, -1,
                                    35, 36, 132, -1, 119, 132, 133, -1,
                                    29, 28, 131, -1, 133, 131, 130, -1,
                                    36, 37, 29, -1, 31, 32, 33, -1,
                                    134, 15, 25, -1, 135, 16, 15, -1,
                                    134, 135, 15, -1, 136, 25, 26, -1,
                                    136, 134, 25, -1, 137, 26, 24, -1,
                                    137, 136, 26, -1, 138, 24, 27, -1,
                                    138, 137, 24, -1, 139, 27, 10, -1,
                                    139, 138, 27, -1, 140, 10, 11, -1,
                                    139, 10, 140, -1, 141, 11, 12, -1,
                                    141, 140, 11, -1, 142, 12, 9, -1,
                                    142, 141, 12, -1, 143, 9, 16, -1,
                                    143, 142, 9, -1, 135, 143, 16, -1,
                                    77, 140, 141, -1, 78, 140, 77, -1,
                                    78, 139, 140, -1, 75, 141, 142, -1,
                                    76, 77, 141, -1, 75, 76, 141, -1,
                                    73, 142, 143, -1, 74, 75, 142, -1,
                                    73, 74, 142, -1, 72, 143, 135, -1,
                                    72, 73, 143, -1, 68, 135, 134, -1,
                                    70, 72, 135, -1, 68, 70, 135, -1,
                                    66, 68, 134, -1, 136, 66, 134, -1,
                                    67, 66, 136, -1, 113, 133, 130, -1,
                                    112, 113, 130, -1, 114, 119, 133, -1,
                                    113, 114, 133, -1, 85, 136, 137, -1,
                                    85, 67, 136, -1, 83, 137, 138, -1,
                                    84, 85, 137, -1, 83, 84, 137, -1,
                                    82, 138, 139, -1, 82, 83, 138, -1,
                                    80, 82, 139, -1, 78, 80, 139, -1 ]
                                normalIndex [ 0, 0, 0, -1, 1, 1, 1, -1,
                                    2, 2, 2, -1, 1, 1, 1, -1,
                                    2, 2, 2, -1, 2, 2, 2, -1,
                                    2, 2, 2, -1, 0, 0, 0, -1,
                                    3, 3, 3, -1, 3, 3, 3, -1,
                                    3, 3, 3, -1, 3, 3, 3, -1,
                                    3, 3, 3, -1, 4, 4, 4, -1,
                                    4, 4, 4, -1, 3, 3, 3, -1,
                                    3, 3, 3, -1, 3, 3, 3, -1,
                                    2, 2, 2, -1, 2, 2, 2, -1,
                                    2, 2, 2, -1, 2, 2, 2, -1,
                                    5, 5, 5, -1, 2, 2, 2, -1,
                                    5, 5, 5, -1, 2, 2, 2, -1,
                                    2, 2, 2, -1, 2, 2, 2, -1,
                                    2, 2, 2, -1, 2, 2, 2, -1,
                                    3, 3, 3, -1, 3, 3, 3, -1,
                                    3, 3, 3, -1, 3, 3, 3, -1,
                                    3, 3, 3, -1, 3, 3, 3, -1,
                                    1, 1, 6, -1, 7, 7, 1, -1,
                                    7, 1, 1, -1, 6, 6, 8, -1,
                                    6, 1, 6, -1, 8, 8, 9, -1,
                                    6, 8, 8, -1, 9, 9, 10, -1,
                                    8, 9, 9, -1, 10, 10, 11, -1,
                                    9, 10, 10, -1, 12, 12, 13, -1,
                                    10, 11, 11, -1, 13, 13, 14, -1,
                                    12, 13, 13, -1, 14, 14, 15, -1,
                                    13, 14, 14, -1, 15, 15, 7, -1,
                                    14, 15, 15, -1, 15, 7, 7, -1,
                                    3, 3, 3, -1, 1, 1, 16, -1,
                                    3, 3, 3, -1, 17, 17, 1, -1,
                                    3, 3, 3, -1, 1, 17, 1, -1,
                                    3, 3, 3, -1, 16, 16, 18, -1,
                                    3, 3, 3, -1, 16, 1, 16, -1,
                                    3, 3, 3, -1, 18, 18, 19, -1,
                                    3, 3, 3, -1, 3, 3, 3, -1,
                                    16, 18, 18, -1, 3, 3, 3, -1,
                                    19, 19, 12, -1, 3, 3, 3, -1,
                                    3, 3, 3, -1, 18, 19, 19, -1,
                                    3, 3, 3, -1, 11, 11, 20, -1,
                                    3, 3, 3, -1, 19, 12, 12, -1,
                                    3, 3, 3, -1, 20, 20, 21, -1,
                                    3, 3, 3, -1, 20, 11, 20, -1,
                                    3, 3, 3, -1, 21, 21, 17, -1,
                                    3, 3, 3, -1, 3, 3, 3, -1,
                                    21, 20, 21, -1, 3, 3, 3, -1,
                                    3, 3, 3, -1, 17, 21, 17, -1,
                                    4, 4, 22, -1, 23, 23, 4, -1,
                                    23, 4, 4, -1, 22, 22, 19, -1,
                                    4, 22, 22, -1, 3, 3, 3, -1,
                                    19, 19, 24, -1, 22, 19, 19, -1,
                                    3, 3, 3, -1, 24, 24, 25, -1,
                                    19, 24, 24, -1, 25, 25, 26, -1,
                                    24, 25, 25, -1, 26, 26, 16, -1,
                                    25, 26, 26, -1, 16, 16, 27, -1,
                                    26, 16, 16, -1, 27, 27, 28, -1,
                                    16, 27, 27, -1, 29, 29, 30, -1,
                                    27, 28, 28, -1, 30, 30, 17, -1,
                                    30, 29, 30, -1, 3, 3, 3, -1,
                                    17, 17, 31, -1, 30, 17, 17, -1,
                                    3, 3, 3, -1, 31, 31, 32, -1,
                                    17, 31, 31, -1, 32, 32, 33, -1,
                                    31, 32, 32, -1, 33, 33, 20, -1,
                                    32, 33, 33, -1, 20, 20, 23, -1,
                                    33, 20, 20, -1, 20, 23, 23, -1,
                                    3, 3, 3, -1, 3, 3, 3, -1,
                                    3, 3, 3, -1, 3, 3, 3, -1,
                                    3, 3, 3, -1, 3, 3, 3, -1,
                                    3, 3, 3, -1, 3, 3, 3, -1,
                                    3, 3, 3, -1, 3, 3, 3, -1,
                                    3, 3, 3, -1, 3, 3, 3, -1,
                                    3, 3, 3, -1, 3, 3, 3, -1,
                                    3, 3, 3, -1, 3, 3, 3, -1,
                                    1, 1, 16, -1, 17, 17, 1, -1,
                                    1, 17, 1, -1, 16, 16, 18, -1,
                                    16, 1, 16, -1, 18, 18, 19, -1,
                                    16, 18, 18, -1, 19, 19, 12, -1,
                                    18, 19, 19, -1, 11, 11, 20, -1,
                                    19, 12, 12, -1, 20, 20, 21, -1,
                                    20, 11, 20, -1, 21, 21, 17, -1,
                                    21, 20, 21, -1, 17, 21, 17, -1,
                                    2, 2, 2, -1, 2, 2, 2, -1,
                                    2, 2, 2, -1, 2, 2, 2, -1,
                                    2, 2, 2, -1, 2, 2, 2, -1,
                                    2, 2, 2, -1, 2, 2, 2, -1,
                                    2, 2, 2, -1, 2, 2, 2, -1,
                                    2, 2, 2, -1, 2, 2, 2, -1,
                                    2, 2, 2, -1, 2, 2, 2, -1,
                                    2, 2, 2, -1, 2, 2, 2, -1,
                                    1, 1, 16, -1, 17, 17, 1, -1,
                                    1, 17, 1, -1, 16, 16, 18, -1,
                                    16, 1, 16, -1, 18, 18, 19, -1,
                                    16, 18, 18, -1, 19, 19, 12, -1,
                                    18, 19, 19, -1, 11, 11, 20, -1,
                                    19, 12, 12, -1, 20, 20, 21, -1,
                                    20, 11, 20, -1, 21, 21, 17, -1,
                                    21, 20, 21, -1, 17, 21, 17, -1,
                                    34, 34, 35, -1, 36, 37, 37, -1,
                                    36, 37, 36, -1, 35, 35, 38, -1,
                                    35, 34, 35, -1, 38, 38, 39, -1,
                                    38, 35, 38, -1, 39, 39, 40, -1,
                                    39, 38, 39, -1, 40, 39, 40, -1,
                                    41, 40, 40, -1, 11, 11, 20, -1,
                                    19, 12, 12, -1, 19, 12, 19, -1,
                                    20, 20, 21, -1, 20, 11, 20, -1,
                                    21, 21, 17, -1, 21, 20, 21, -1,
                                    17, 17, 1, -1, 17, 21, 17, -1,
                                    1, 17, 1, -1, 16, 1, 1, -1,
                                    41, 41, 40, -1, 2, 2, 2, -1,
                                    2, 2, 2, -1, 2, 2, 2, -1,
                                    2, 2, 2, -1, 2, 2, 2, -1,
                                    2, 2, 2, -1, 2, 2, 2, -1,
                                    2, 2, 2, -1, 2, 2, 2, -1,
                                    2, 2, 2, -1, 16, 16, 1, -1,
                                    2, 2, 2, -1, 2, 2, 2, -1,
                                    19, 19, 18, -1, 2, 2, 2, -1,
                                    18, 18, 16, -1, 2, 2, 2, -1,
                                    2, 2, 2, -1, 19, 18, 18, -1,
                                    2, 2, 2, -1, 18, 16, 16, -1,
                                    2, 2, 2, -1, 2, 2, 2, -1,
                                    4, 4, 10, -1, 13, 13, 4, -1,
                                    4, 13, 4, -1, 10, 10, 9, -1,
                                    10, 4, 10, -1, 9, 9, 8, -1,
                                    9, 10, 9, -1, 8, 8, 6, -1,
                                    8, 9, 8, -1, 6, 6, 29, -1,
                                    6, 8, 6, -1, 28, 28, 7, -1,
                                    6, 29, 29, -1, 7, 7, 15, -1,
                                    7, 28, 7, -1, 15, 15, 14, -1,
                                    15, 7, 15, -1, 14, 14, 13, -1,
                                    14, 15, 14, -1, 13, 14, 13, -1,
                                    42, 42, 43, -1, 44, 45, 45, -1,
                                    44, 46, 45, -1, 47, 43, 48, -1,
                                    49, 42, 43, -1, 47, 49, 43, -1,
                                    50, 48, 51, -1, 52, 47, 48, -1,
                                    50, 52, 48, -1, 53, 51, 54, -1,
                                    53, 50, 51, -1, 55, 54, 56, -1,
                                    57, 53, 54, -1, 55, 57, 54, -1,
                                    56, 55, 56, -1, 58, 56, 56, -1,
                                    59, 56, 58, -1, 60, 60, 41, -1,
                                    41, 60, 41, -1, 36, 36, 60, -1,
                                    60, 36, 60, -1, 61, 58, 62, -1,
                                    61, 59, 58, -1, 63, 62, 64, -1,
                                    65, 61, 62, -1, 63, 65, 62, -1,
                                    66, 64, 46, -1, 66, 63, 64, -1,
                                    67, 66, 46, -1, 44, 67, 46, -1 ]
                                ccw TRUE
                                solid TRUE
                                convex TRUE
                                creaseAngle 0

                              }

                            }

                        },
                          
                        DEF _+7 Group {
                          children 
                            DEF _+8 Shape {
                              appearance 
                              Appearance {
                                material 
                                Material {
                                  diffuseColor 0.81999999 0.60000002 0.23999999

                                }

                              }
                              geometry 
                              IndexedFaceSet {
                                coord 
                                Coordinate {
                                  point [ 16.5 -12.5 -23.5,
                                      12.5402 -9.1099501 -23.5,
                                      15.5 4.5922701e-016 -23.5,
                                      15.5 8.3273201e-016 -17.4,
                                      16.5 12.5 -23.5,
                                      12.5402 9.1099501 -23.5,
                                      12.5398 9.1106701 -17.4,
                                      4.7901101 -14.7411 -23.5,
                                      12.5398 -9.1106701 -17.4,
                                      12.5 -16.5 -23.5,
                                      -4.7901101 -14.7411 -23.5,
                                      4.7897601 -14.7414 -17.4,
                                      -16.5 -12.5 -23.5,
                                      -12.5402 -9.1099501 -23.5,
                                      -4.7897601 -14.7414 -17.4,
                                      -12.5 -16.5 -23.5,
                                      -15.5 -3.33705e-015 -23.5,
                                      -12.5398 -9.1106701 -17.4,
                                      -16.5 12.5 -23.5,
                                      -12.5402 9.1099501 -23.5,
                                      -15.5 -2.96355e-015 -17.4,
                                      -4.7901101 14.7411 -23.5,
                                      -12.5398 9.1106701 -17.4,
                                      -12.5 16.5 -23.5,
                                      4.7901101 14.7411 -23.5,
                                      -4.7897601 14.7414 -17.4,
                                      4.7897601 14.7414 -17.4,
                                      12.5 16.5 -23.5,
                                      16.5 -12.5 28,
                                      12.5 -16.5 25.103399,
                                      16.5 4.3297701 -2.50034,
                                      16.5 2.50034 -4.3297701,
                                      16.5 -3.0615201e-016 -5,
                                      16.5 -2.50034 -4.3297701,
                                      16.5 -5 3.0615201e-016,
                                      16.5 -4.3297701 2.50034,
                                      16.5 -4.3297701 -2.50034,
                                      12.5 16.5 25.103399,
                                      14.5 14.5 28,
                                      16.5 5 -3.0615201e-016,
                                      16.5 12.5 28,
                                      -12.5 16.5 7,
                                      -9.9999997e-021 16.5 7,
                                      -16.5 12.5 7,
                                      -16.5 -4.9491801 -4.95016,
                                      -16.5 6.9998102 -4.28601e-016,
                                      -16.5 4.9491801 -4.95016,
                                      -16.5 -4.2861201e-016 -7,
                                      -12.5 -16.5 7,
                                      -16.5 -12.5 7,
                                      -9.9999997e-021 -16.5 7,
                                      -9.9999997e-021 5 7,
                                      -9.9999997e-021 -5 7,
                                      14.5 -14.5 28,
                                      2.50034 4.3297701 -17.4,
                                      5 -4.5310402e-016 -17.4,
                                      4.3297701 2.50034 -17.4,
                                      -5 -1.67771e-015 -17.4,
                                      -4.3297701 2.50034 -17.4,
                                      -2.50034 4.3297701 -17.4,
                                      -9.1846504e-016 5 -17.4,
                                      -2.50034 -4.3297701 -17.4,
                                      -4.3297701 -2.50034 -17.4,
                                      4.3297701 -2.50034 -17.4,
                                      2.50034 -4.3297701 -17.4,
                                      3.0614201e-016 -5 -17.4,
                                      5 -1.68916e-014 14.2414,
                                      3.80476 3.24405 12.5103,
                                      3.80477 -3.24402 12.5104,
                                      2.2367101 -4.4720402 10.2394,
                                      -3.53548 -3.5355899 7,
                                      -5 4.2861201e-016 7,
                                      -3.53548 3.5355899 7,
                                      2.23681 4.4719901 10.2395,
                                      -16.5 4.2861201e-016 7,
                                      17.5 -3.0615201e-016 -5,
                                      17.5 -2.4998901 -4.3299298,
                                      17.5 2.4998901 -4.3299298,
                                      17.5 4.3301301 -2.5,
                                      16.5 4.3297701 2.50034,
                                      17.5 4.9997802 -6.9471599e-016,
                                      16.5 2.50034 4.3297701,
                                      17.5 4.3301301 2.5,
                                      16.5 3.0615201e-016 5,
                                      17.5 2.4998901 4.3299298,
                                      16.5 -2.50034 4.3297701,
                                      17.5 3.0615201e-016 5,
                                      17.5 -2.4998901 4.3299298,
                                      17.5 -4.3301301 2.5,
                                      17.5 -4.9997802 -8.2440201e-017,
                                      17.5 -4.3301301 -2.5,
                                      23.5 -2.5976501 1.50036,
                                      23.5 -2.5976501 -1.50036,
                                      23.5 -1.8369101e-016 -3,
                                      17.5 -1.8369101e-016 -3,
                                      23.5 1.8369101e-016 3,
                                      23.5 2.5976501 -1.50036,
                                      17.5 2.5976501 -1.50036,
                                      17.5 -2.5976501 -1.50036,
                                      17.5 -2.5976501 1.50036,
                                      23.5 2.5976501 1.50036,
                                      17.5 1.8369101e-016 3,
                                      17.5 2.5976501 1.50036,
                                      -16.5 -4.9491801 4.95016,
                                      -16.5 -6.9998102 4.28601e-016,
                                      -16.5 4.9491801 4.95016,
                                      -18.5 4.2861201e-016 7,
                                      -18.5 -4.9497499 4.9497499,
                                      -18.5 4.9497499 4.9497499,
                                      -18.5 7 -8.5722402e-016,
                                      -18.5 4.9497499 -4.9497499,
                                      -18.5 -4.2861201e-016 -7,
                                      -18.5 -4.9497499 -4.9497499,
                                      -18.5 -7 0,
                                      -18.5 3.0615201e-016 5,
                                      -18.5 -2.4998901 4.3299298,
                                      -18.5 -4.3301301 2.5,
                                      -18.5 4.9997802 -6.9471599e-016,
                                      -18.5 2.4998901 4.3299298,
                                      -18.5 4.3301301 2.5,
                                      -18.5 4.3301301 -2.5,
                                      -18.5 2.4998901 -4.3299298,
                                      -18.5 -3.0615201e-016 -5,
                                      -18.5 -2.4998901 -4.3299298,
                                      -24 -3.0615201e-016 -5,
                                      -24 2.4998901 -4.3299298,
                                      -18.5 -4.3301301 -2.5,
                                      -24 -2.4998901 -4.3299298,
                                      -18.5 -4.9997802 -8.2440201e-017,
                                      -24 -4.3301301 -2.5,
                                      -24 -4.9997802 -8.2440201e-017,
                                      -24 -4.3301301 2.5,
                                      -24 -2.4998901 4.3299298,
                                      -24 3.0615201e-016 5,
                                      -24 2.4998901 4.3299298,
                                      -24 4.3301301 2.5,
                                      -24 4.9997802 -6.9471599e-016,
                                      -24 4.3301301 -2.5,
                                      -24 2.4492101e-016 4,
                                      -24 -3.46422 1.99942,
                                      -24 3.46422 1.99942,
                                      -24 3.46422 -1.99942,
                                      -24 -2.4492101e-016 -4,
                                      -24 -3.46422 -1.99942,
                                      -47 -2.4492101e-016 -4,
                                      -47 3.46422 -1.99942,
                                      -47 -3.46422 -1.99942,
                                      -47 -3.46422 1.99942,
                                      -47 2.4492101e-016 4,
                                      -47 3.46422 1.99942 ]

                                }
                                normal 
                                Normal {
                                  vector [ 0 -6.1230298e-017 -1,
                                      -1 0 0,
                                      -0.809017 0.58778501 -3.5990301e-017,
                                      -0.809017 -0.58778501 3.5990301e-017,
                                      -1 -2.4492101e-016 0,
                                      -0.309017 0.95105702 -5.8233502e-017,
                                      0.309017 0.95105702 -5.8233502e-017,
                                      0.809017 0.58778501 -3.5990301e-017,
                                      1 1.2246101e-016 0,
                                      0.809017 -0.58778501 3.5990301e-017,
                                      0.309017 -0.95105702 5.8233502e-017,
                                      -0.309017 -0.95105702 5.8233502e-017,
                                      0.70710701 -0.70710701 4.32964e-017,
                                      0 -1 6.1230298e-017,
                                      1 0 0,
                                      0.70710701 0.70710701 -4.32964e-017,
                                      0 1 -6.1230298e-017,
                                      -0.70710701 0.70710701 -4.32964e-017,
                                      -0.70710701 -0.70710701 4.32964e-017,
                                      0 6.1230298e-017 1,
                                      -0.82289702 3.4790499e-017 0.56819099,
                                      -1 -1.65135e-016 0,
                                      -0.86602497 0.5 -3.0615199e-017,
                                      -0.76095098 -0.64880902 3.9726801e-017,
                                      -0.86602497 -0.5 3.0615199e-017,
                                      -0.76095498 0.64880502 -3.97265e-017,
                                      -0.5 0.86602497 -5.3026999e-017,
                                      -0.44736001 0.89435399 -5.47616e-017,
                                      -6.1230298e-017 1 -6.1230298e-017,
                                      0.5 0.86602497 -5.3026999e-017,
                                      0.70709598 0.70711702 -4.3296999e-017,
                                      0.86602497 0.5 -3.0615199e-017,
                                      0.86602497 -0.5 3.0615199e-017,
                                      0.70709598 -0.70711702 4.3296999e-017,
                                      0.5 -0.86602497 5.3026999e-017,
                                      1.8369101e-016 -1 6.1230298e-017,
                                      -0.5 -0.86602497 5.3026999e-017,
                                      -0.44738001 -0.89434397 5.4761001e-017,
                                      0 6.1230298e-017 -1,
                                      0 0.5 -0.86602497,
                                      0 -0.5 -0.86602497,
                                      0 0.86602497 -0.5,
                                      0 1 0,
                                      0 0.86602497 0.5,
                                      0 0.5 0.86602497,
                                      0 -1.8369101e-016 1,
                                      0 -0.5 0.86602497,
                                      0 -0.86602497 0.5,
                                      0 -1 -1.2246101e-016,
                                      0 -0.86602497 -0.5,
                                      0 0.70710701 0.70710701,
                                      0 -0.70710701 0.70710701,
                                      0 1 -4.44089e-016,
                                      0 0.70710701 -0.70710701,
                                      0 -0.70710701 -0.70710701 ]

                                }
                                coordIndex [ 0, 1, 2, -1, 3, 2, 1, -1,
                                    4, 2, 5, -1, 6, 5, 2, -1,
                                    4, 0, 2, -1, 6, 2, 3, -1,
                                    0, 7, 1, -1, 8, 1, 7, -1,
                                    8, 3, 1, -1, 9, 10, 7, -1,
                                    11, 7, 10, -1, 0, 9, 7, -1,
                                    8, 7, 11, -1, 12, 13, 10, -1,
                                    14, 10, 13, -1, 15, 10, 9, -1,
                                    15, 12, 10, -1, 11, 10, 14, -1,
                                    12, 16, 13, -1, 17, 13, 16, -1,
                                    14, 13, 17, -1, 18, 19, 16, -1,
                                    20, 16, 19, -1, 12, 18, 16, -1,
                                    17, 16, 20, -1, 18, 21, 19, -1,
                                    22, 19, 21, -1, 20, 19, 22, -1,
                                    23, 24, 21, -1, 25, 21, 24, -1,
                                    18, 23, 21, -1, 22, 21, 25, -1,
                                    4, 5, 24, -1, 26, 24, 5, -1,
                                    27, 4, 24, -1, 23, 27, 24, -1,
                                    25, 24, 26, -1, 26, 5, 6, -1,
                                    28, 9, 0, -1, 29, 15, 9, -1,
                                    28, 29, 9, -1, 30, 0, 4, -1,
                                    31, 32, 0, -1, 33, 0, 32, -1,
                                    30, 31, 0, -1, 34, 35, 0, -1,
                                    28, 0, 35, -1, 36, 34, 0, -1,
                                    33, 36, 0, -1, 37, 4, 27, -1,
                                    38, 4, 37, -1, 39, 30, 4, -1,
                                    40, 39, 4, -1, 38, 40, 4, -1,
                                    41, 27, 23, -1, 42, 27, 41, -1,
                                    42, 37, 27, -1, 43, 23, 18, -1,
                                    43, 41, 23, -1, 44, 18, 12, -1,
                                    45, 43, 18, -1, 46, 45, 18, -1,
                                    47, 46, 18, -1, 44, 47, 18, -1,
                                    48, 12, 15, -1, 49, 12, 48, -1,
                                    44, 12, 49, -1, 50, 48, 15, -1,
                                    29, 50, 15, -1, 43, 42, 41, -1,
                                    51, 37, 42, -1, 51, 38, 37, -1,
                                    43, 51, 42, -1, 52, 48, 50, -1,
                                    49, 48, 52, -1, 53, 50, 29, -1,
                                    53, 52, 50, -1, 53, 29, 28, -1,
                                    54, 6, 3, -1, 55, 3, 8, -1,
                                    56, 3, 55, -1, 56, 54, 3, -1,
                                    25, 26, 6, -1, 22, 25, 6, -1,
                                    54, 22, 6, -1, 57, 20, 22, -1,
                                    58, 57, 22, -1, 59, 58, 22, -1,
                                    60, 59, 22, -1, 54, 60, 22, -1,
                                    61, 17, 20, -1, 62, 61, 20, -1,
                                    57, 62, 20, -1, 11, 14, 17, -1,
                                    8, 11, 17, -1, 61, 8, 17, -1,
                                    63, 55, 8, -1, 64, 63, 8, -1,
                                    65, 64, 8, -1, 61, 65, 8, -1,
                                    66, 55, 63, -1, 67, 56, 55, -1,
                                    67, 55, 66, -1, 68, 63, 64, -1,
                                    68, 66, 63, -1, 69, 64, 65, -1,
                                    69, 68, 64, -1, 52, 65, 61, -1,
                                    52, 69, 65, -1, 70, 61, 62, -1,
                                    70, 52, 61, -1, 70, 62, 57, -1,
                                    71, 57, 58, -1, 71, 70, 57, -1,
                                    72, 58, 59, -1, 72, 71, 58, -1,
                                    72, 59, 60, -1, 51, 60, 54, -1,
                                    72, 60, 51, -1, 67, 54, 56, -1,
                                    73, 54, 67, -1, 51, 54, 73, -1,
                                    38, 66, 68, -1, 67, 66, 38, -1,
                                    53, 68, 69, -1, 38, 68, 53, -1,
                                    53, 69, 52, -1, 49, 52, 70, -1,
                                    49, 70, 71, -1, 74, 49, 71, -1,
                                    72, 74, 71, -1, 75, 32, 31, -1,
                                    76, 33, 32, -1, 76, 32, 75, -1,
                                    77, 31, 30, -1, 77, 75, 31, -1,
                                    78, 30, 39, -1, 77, 30, 78, -1,
                                    40, 79, 39, -1, 80, 39, 79, -1,
                                    78, 39, 80, -1, 40, 81, 79, -1,
                                    82, 79, 81, -1, 80, 79, 82, -1,
                                    40, 83, 81, -1, 84, 81, 83, -1,
                                    82, 81, 84, -1, 40, 85, 83, -1,
                                    86, 83, 85, -1, 84, 83, 86, -1,
                                    40, 35, 85, -1, 87, 85, 35, -1,
                                    86, 85, 87, -1, 88, 35, 34, -1,
                                    40, 28, 35, -1, 87, 35, 88, -1,
                                    89, 34, 36, -1, 88, 34, 89, -1,
                                    90, 36, 33, -1, 89, 36, 90, -1,
                                    90, 33, 76, -1, 53, 28, 40, -1,
                                    38, 53, 40, -1, 91, 92, 93, -1,
                                    94, 93, 92, -1, 95, 91, 93, -1,
                                    96, 95, 93, -1, 97, 96, 93, -1,
                                    94, 97, 93, -1, 98, 92, 91, -1,
                                    98, 94, 92, -1, 99, 91, 95, -1,
                                    98, 91, 99, -1, 96, 100, 95, -1,
                                    101, 95, 100, -1, 99, 95, 101, -1,
                                    102, 100, 96, -1, 102, 101, 100, -1,
                                    97, 102, 96, -1, 86, 101, 102, -1,
                                    87, 99, 101, -1, 86, 87, 101, -1,
                                    78, 102, 97, -1, 84, 86, 102, -1,
                                    78, 84, 102, -1, 77, 97, 94, -1,
                                    77, 78, 97, -1, 75, 94, 98, -1,
                                    77, 94, 75, -1, 88, 98, 99, -1,
                                    87, 88, 99, -1, 76, 75, 98, -1,
                                    88, 76, 98, -1, 88, 90, 76, -1,
                                    88, 89, 90, -1, 78, 82, 84, -1,
                                    78, 80, 82, -1, 73, 67, 38, -1,
                                    51, 73, 38, -1, 74, 51, 43, -1,
                                    72, 51, 74, -1, 103, 49, 74, -1,
                                    104, 44, 49, -1, 103, 104, 49, -1,
                                    105, 74, 43, -1, 45, 105, 43, -1,
                                    106, 74, 105, -1, 107, 103, 74, -1,
                                    107, 74, 106, -1, 108, 105, 45, -1,
                                    108, 106, 105, -1, 109, 45, 46, -1,
                                    109, 108, 45, -1, 110, 46, 47, -1,
                                    110, 109, 46, -1, 111, 47, 44, -1,
                                    111, 110, 47, -1, 112, 44, 104, -1,
                                    112, 111, 44, -1, 113, 104, 103, -1,
                                    112, 104, 113, -1, 113, 103, 107, -1,
                                    114, 106, 108, -1, 115, 116, 106, -1,
                                    107, 106, 116, -1, 114, 115, 106, -1,
                                    117, 108, 109, -1, 118, 114, 108, -1,
                                    119, 118, 108, -1, 117, 119, 108, -1,
                                    117, 109, 110, -1, 120, 110, 111, -1,
                                    120, 117, 110, -1, 121, 111, 122, -1,
                                    112, 122, 111, -1, 121, 120, 111, -1,
                                    112, 123, 122, -1, 124, 122, 123, -1,
                                    125, 121, 122, -1, 124, 125, 122, -1,
                                    112, 126, 123, -1, 127, 123, 126, -1,
                                    127, 124, 123, -1, 112, 128, 126, -1,
                                    129, 126, 128, -1, 129, 127, 126, -1,
                                    107, 116, 128, -1, 130, 128, 116, -1,
                                    113, 107, 128, -1, 112, 113, 128, -1,
                                    130, 129, 128, -1, 131, 116, 115, -1,
                                    131, 130, 116, -1, 132, 115, 114, -1,
                                    132, 131, 115, -1, 133, 114, 118, -1,
                                    132, 114, 133, -1, 134, 118, 119, -1,
                                    134, 133, 118, -1, 135, 119, 117, -1,
                                    135, 134, 119, -1, 136, 117, 120, -1,
                                    136, 135, 117, -1, 137, 120, 121, -1,
                                    137, 136, 120, -1, 125, 137, 121, -1,
                                    138, 133, 134, -1, 139, 132, 133, -1,
                                    138, 139, 133, -1, 140, 134, 135, -1,
                                    140, 138, 134, -1, 137, 135, 136, -1,
                                    141, 135, 137, -1, 141, 140, 135, -1,
                                    141, 137, 125, -1, 141, 125, 124, -1,
                                    142, 124, 127, -1, 141, 124, 142, -1,
                                    143, 127, 129, -1, 143, 142, 127, -1,
                                    131, 129, 130, -1, 139, 129, 131, -1,
                                    139, 143, 129, -1, 139, 131, 132, -1,
                                    144, 142, 143, -1, 145, 141, 142, -1,
                                    144, 145, 142, -1, 146, 143, 139, -1,
                                    146, 144, 143, -1, 147, 139, 138, -1,
                                    146, 139, 147, -1, 148, 138, 140, -1,
                                    147, 138, 148, -1, 149, 140, 141, -1,
                                    149, 148, 140, -1, 145, 149, 141, -1,
                                    144, 148, 149, -1, 146, 148, 144, -1,
                                    146, 147, 148, -1, 144, 149, 145, -1 ]
                                normalIndex [ 0, 0, 0, -1, 1, 1, 2, -1,
                                    0, 0, 0, -1, 3, 3, 4, -1,
                                    0, 0, 0, -1, 3, 4, 4, -1,
                                    0, 0, 0, -1, 2, 2, 5, -1,
                                    2, 1, 2, -1, 0, 0, 0, -1,
                                    5, 5, 6, -1, 0, 0, 0, -1,
                                    2, 5, 5, -1, 0, 0, 0, -1,
                                    6, 6, 7, -1, 0, 0, 0, -1,
                                    0, 0, 0, -1, 5, 6, 6, -1,
                                    0, 0, 0, -1, 7, 7, 8, -1,
                                    6, 7, 7, -1, 0, 0, 0, -1,
                                    8, 8, 9, -1, 0, 0, 0, -1,
                                    7, 8, 8, -1, 0, 0, 0, -1,
                                    9, 9, 10, -1, 8, 9, 9, -1,
                                    0, 0, 0, -1, 10, 10, 11, -1,
                                    0, 0, 0, -1, 9, 10, 10, -1,
                                    0, 0, 0, -1, 11, 11, 3, -1,
                                    0, 0, 0, -1, 0, 0, 0, -1,
                                    10, 11, 11, -1, 11, 3, 3, -1,
                                    12, 12, 12, -1, 13, 13, 13, -1,
                                    12, 12, 12, -1, 14, 14, 14, -1,
                                    14, 14, 14, -1, 14, 14, 14, -1,
                                    14, 14, 14, -1, 14, 14, 14, -1,
                                    14, 14, 14, -1, 14, 14, 14, -1,
                                    14, 14, 14, -1, 15, 15, 15, -1,
                                    15, 15, 15, -1, 14, 14, 14, -1,
                                    14, 14, 14, -1, 15, 15, 15, -1,
                                    16, 16, 16, -1, 16, 16, 16, -1,
                                    16, 16, 16, -1, 17, 17, 17, -1,
                                    17, 17, 17, -1, 1, 1, 1, -1,
                                    1, 1, 1, -1, 1, 1, 1, -1,
                                    1, 1, 1, -1, 1, 1, 1, -1,
                                    18, 18, 18, -1, 18, 18, 18, -1,
                                    1, 1, 1, -1, 13, 13, 13, -1,
                                    13, 13, 13, -1, 19, 19, 19, -1,
                                    20, 20, 20, -1, 20, 20, 20, -1,
                                    19, 19, 19, -1, 19, 19, 19, -1,
                                    19, 19, 19, -1, 20, 20, 20, -1,
                                    20, 20, 20, -1, 12, 12, 12, -1,
                                    0, 0, 0, -1, 0, 0, 0, -1,
                                    0, 0, 0, -1, 0, 0, 0, -1,
                                    0, 0, 0, -1, 0, 0, 0, -1,
                                    0, 0, 0, -1, 0, 0, 0, -1,
                                    0, 0, 0, -1, 0, 0, 0, -1,
                                    0, 0, 0, -1, 0, 0, 0, -1,
                                    0, 0, 0, -1, 0, 0, 0, -1,
                                    0, 0, 0, -1, 0, 0, 0, -1,
                                    0, 0, 0, -1, 0, 0, 0, -1,
                                    0, 0, 0, -1, 0, 0, 0, -1,
                                    0, 0, 0, -1, 0, 0, 0, -1,
                                    21, 1, 22, -1, 23, 24, 4, -1,
                                    23, 4, 4, -1, 25, 22, 26, -1,
                                    25, 21, 22, -1, 27, 26, 28, -1,
                                    27, 25, 26, -1, 28, 28, 29, -1,
                                    28, 27, 28, -1, 30, 29, 31, -1,
                                    30, 28, 29, -1, 30, 31, 8, -1,
                                    8, 8, 32, -1, 8, 30, 8, -1,
                                    33, 32, 34, -1, 33, 8, 32, -1,
                                    33, 34, 35, -1, 35, 35, 36, -1,
                                    33, 35, 35, -1, 23, 36, 24, -1,
                                    37, 36, 23, -1, 35, 36, 37, -1,
                                    20, 20, 20, -1, 20, 20, 20, -1,
                                    20, 20, 20, -1, 20, 20, 20, -1,
                                    20, 20, 20, -1, 19, 19, 19, -1,
                                    19, 19, 19, -1, 19, 19, 19, -1,
                                    19, 19, 19, -1, 38, 38, 39, -1,
                                    40, 40, 38, -1, 40, 38, 38, -1,
                                    39, 39, 41, -1, 39, 38, 39, -1,
                                    41, 41, 42, -1, 39, 41, 41, -1,
                                    14, 14, 14, -1, 42, 42, 43, -1,
                                    41, 42, 42, -1, 14, 14, 14, -1,
                                    43, 43, 44, -1, 42, 43, 43, -1,
                                    14, 14, 14, -1, 44, 44, 19, -1,
                                    43, 44, 44, -1, 14, 14, 14, -1,
                                    45, 45, 46, -1, 44, 19, 19, -1,
                                    14, 14, 14, -1, 46, 46, 47, -1,
                                    45, 46, 46, -1, 47, 47, 48, -1,
                                    14, 14, 14, -1, 46, 47, 47, -1,
                                    48, 48, 49, -1, 47, 48, 48, -1,
                                    49, 49, 40, -1, 48, 49, 49, -1,
                                    49, 40, 40, -1, 19, 19, 19, -1,
                                    19, 19, 19, -1, 14, 14, 14, -1,
                                    38, 38, 49, -1, 14, 14, 14, -1,
                                    14, 14, 14, -1, 41, 41, 38, -1,
                                    38, 41, 38, -1, 49, 49, 47, -1,
                                    49, 38, 49, -1, 47, 47, 45, -1,
                                    49, 47, 47, -1, 14, 14, 14, -1,
                                    19, 19, 43, -1, 47, 45, 45, -1,
                                    43, 43, 41, -1, 43, 19, 43, -1,
                                    41, 43, 41, -1, 14, 14, 14, -1,
                                    14, 14, 14, -1, 14, 14, 14, -1,
                                    14, 14, 14, -1, 14, 14, 14, -1,
                                    14, 14, 14, -1, 14, 14, 14, -1,
                                    14, 14, 14, -1, 14, 14, 14, -1,
                                    14, 14, 14, -1, 14, 14, 14, -1,
                                    14, 14, 14, -1, 14, 14, 14, -1,
                                    14, 14, 14, -1, 14, 14, 14, -1,
                                    14, 14, 14, -1, 14, 14, 14, -1,
                                    14, 14, 14, -1, 20, 20, 20, -1,
                                    20, 20, 20, -1, 19, 19, 19, -1,
                                    19, 19, 19, -1, 1, 1, 1, -1,
                                    1, 1, 1, -1, 1, 1, 1, -1,
                                    1, 1, 1, -1, 1, 1, 1, -1,
                                    19, 19, 50, -1, 51, 51, 45, -1,
                                    51, 45, 45, -1, 50, 50, 52, -1,
                                    50, 19, 50, -1, 42, 52, 53, -1,
                                    42, 50, 52, -1, 53, 53, 38, -1,
                                    53, 42, 53, -1, 38, 38, 54, -1,
                                    38, 53, 38, -1, 54, 54, 48, -1,
                                    54, 38, 54, -1, 48, 48, 51, -1,
                                    54, 48, 48, -1, 48, 51, 51, -1,
                                    1, 1, 1, -1, 1, 1, 1, -1,
                                    1, 1, 1, -1, 1, 1, 1, -1,
                                    1, 1, 1, -1, 1, 1, 1, -1,
                                    1, 1, 1, -1, 1, 1, 1, -1,
                                    1, 1, 1, -1, 1, 1, 1, -1,
                                    1, 1, 1, -1, 1, 1, 1, -1,
                                    1, 1, 1, -1, 1, 1, 1, -1,
                                    1, 1, 1, -1, 38, 38, 40, -1,
                                    39, 39, 38, -1, 38, 39, 38, -1,
                                    1, 1, 1, -1, 40, 40, 49, -1,
                                    40, 38, 40, -1, 1, 1, 1, -1,
                                    49, 49, 48, -1, 49, 40, 49, -1,
                                    1, 1, 1, -1, 48, 48, 47, -1,
                                    1, 1, 1, -1, 1, 1, 1, -1,
                                    48, 49, 48, -1, 47, 47, 46, -1,
                                    47, 48, 47, -1, 46, 46, 45, -1,
                                    46, 47, 46, -1, 19, 19, 44, -1,
                                    46, 45, 45, -1, 44, 44, 43, -1,
                                    44, 19, 44, -1, 43, 43, 42, -1,
                                    43, 44, 43, -1, 42, 42, 41, -1,
                                    42, 43, 42, -1, 41, 41, 39, -1,
                                    41, 42, 41, -1, 39, 41, 39, -1,
                                    1, 1, 1, -1, 1, 1, 1, -1,
                                    1, 1, 1, -1, 1, 1, 1, -1,
                                    1, 1, 1, -1, 1, 1, 1, -1,
                                    1, 1, 1, -1, 1, 1, 1, -1,
                                    1, 1, 1, -1, 1, 1, 1, -1,
                                    1, 1, 1, -1, 1, 1, 1, -1,
                                    1, 1, 1, -1, 1, 1, 1, -1,
                                    1, 1, 1, -1, 1, 1, 1, -1,
                                    1, 1, 1, -1, 1, 1, 1, -1,
                                    38, 38, 49, -1, 41, 41, 38, -1,
                                    38, 41, 38, -1, 49, 49, 47, -1,
                                    49, 38, 49, -1, 47, 47, 45, -1,
                                    49, 47, 47, -1, 19, 19, 43, -1,
                                    47, 45, 45, -1, 43, 43, 41, -1,
                                    43, 19, 43, -1, 41, 43, 41, -1,
                                    1, 1, 1, -1, 1, 1, 1, -1,
                                    1, 1, 1, -1, 1, 1, 1, -1 ]
                                ccw TRUE
                                solid TRUE
                                convex TRUE
                                creaseAngle 0

                              }

                            }

                        },
                          
                        DEF _+9 Group {
                          children 
                            DEF _+10 Shape {
                              appearance 
                              Appearance {
                                material 
                                Material {
                                  diffuseColor 0.028000001 0.028000001 0.69999999

                                }

                              }
                              geometry 
                              IndexedFaceSet {
                                coord 
                                Coordinate {
                                  point [ 13.6677 -28.3804 -76.300003,
                                      13.6677 28.3804 -76.300003,
                                      -9.9999997e-021 31.5 -76.300003,
                                      -9.9999997e-021 31.5 -65.800003,
                                      7 -4.6718699e-015 -76.300003,
                                      -9.9999997e-021 7 -76.300003,
                                      -13.6677 28.3804 -76.300003,
                                      -13.6677 28.3804 -65.800003,
                                      4.9497499 4.9497499 -76.300003,
                                      24.627899 -19.639601 -76.300003,
                                      24.627899 19.639601 -76.300003,
                                      13.6677 28.3804 -65.800003,
                                      30.710199 -7.0092602 -76.300003,
                                      30.710199 7.0092602 -76.300003,
                                      24.627899 19.639601 -65.800003,
                                      30.710199 7.0092602 -65.800003,
                                      30.710199 -7.0092602 -65.800003,
                                      24.627899 -19.639601 -65.800003,
                                      -9.9999997e-021 -7 -76.300003,
                                      -9.9999997e-021 -31.5 -76.300003,
                                      13.6677 -28.3804 -65.800003,
                                      4.9497499 -4.9497499 -76.300003,
                                      -13.6677 -28.3804 -76.300003,
                                      -9.9999997e-021 -31.5 -65.800003,
                                      -7 -5.95771e-015 -76.300003,
                                      -4.9497499 -4.9497499 -76.300003,
                                      -24.627899 19.639601 -76.300003,
                                      -24.627899 -19.639601 -76.300003,
                                      -13.6677 -28.3804 -65.800003,
                                      -30.710199 7.0092602 -76.300003,
                                      -30.710199 -7.0092602 -76.300003,
                                      -24.627899 -19.639601 -65.800003,
                                      -30.710199 -7.0092602 -65.800003,
                                      -30.710199 7.0092602 -65.800003,
                                      -24.627899 19.639601 -65.800003,
                                      -4.9497499 4.9497499 -76.300003,
                                      -9.9999997e-021 7 -77.800003,
                                      4.9497499 4.9497499 -77.800003,
                                      -4.9497499 4.9497499 -77.800003,
                                      -7 -6.0495601e-015 -77.800003,
                                      -4.9497499 -4.9497499 -77.800003,
                                      -9.9999997e-021 -7 -77.800003,
                                      4.9497499 -4.9497499 -77.800003,
                                      7 -4.7637201e-015 -77.800003,
                                      -14.3185 -29.7318 -77.800003,
                                      -14.3185 29.7318 -77.800003,
                                      -9.9999997e-021 33 -77.800003,
                                      -9.9999997e-021 33 -65.800003,
                                      14.3185 29.7318 -77.800003,
                                      14.3185 29.7318 -65.800003,
                                      -25.8006 -20.5748 -77.800003,
                                      -25.8006 20.5748 -77.800003,
                                      -14.3185 29.7318 -65.800003,
                                      -32.1726 -7.34303 -77.800003,
                                      -32.1726 7.34303 -77.800003,
                                      -25.8006 20.5748 -65.800003,
                                      -32.1726 7.34303 -65.800003,
                                      -32.1726 -7.34303 -65.800003,
                                      -25.8006 -20.5748 -65.800003,
                                      -9.9999997e-021 -33 -77.800003,
                                      -14.3185 -29.7318 -65.800003,
                                      14.3185 -29.7318 -77.800003,
                                      -9.9999997e-021 -33 -65.800003,
                                      25.8006 20.5748 -77.800003,
                                      25.8006 -20.5748 -77.800003,
                                      14.3185 -29.7318 -65.800003,
                                      32.1726 7.34303 -77.800003,
                                      32.1726 -7.34303 -77.800003,
                                      25.8006 -20.5748 -65.800003,
                                      32.1726 -7.34303 -65.800003,
                                      32.1726 7.34303 -65.800003,
                                      25.8006 20.5748 -65.800003 ]

                                }
                                normal 
                                Normal {
                                  vector [ 0 6.1230298e-017 1,
                                      -1.2246101e-016 -1 6.1230298e-017,
                                      -0.43388399 -0.90096903 5.5166601e-017,
                                      0.43388399 -0.90096903 5.5166601e-017,
                                      -0.78183198 -0.62348998 3.81765e-017,
                                      -0.97492802 -0.22252101 1.3625e-017,
                                      -0.97492802 0.22252101 -1.3625e-017,
                                      -0.78183198 0.62348998 -3.81765e-017,
                                      -0.43388399 0.90096903 -5.5166601e-017,
                                      0 1 -6.1230298e-017,
                                      2.4492101e-016 1 -6.1230298e-017,
                                      0.43388399 0.90096903 -5.5166601e-017,
                                      0.78183198 0.62348998 -3.81765e-017,
                                      0.97492802 0.22252101 -1.3625e-017,
                                      0.97492802 -0.22252101 1.3625e-017,
                                      0.78183198 -0.62348998 3.81765e-017,
                                      2.4492101e-016 -1 6.1230298e-017,
                                      0.70710701 -0.70710701 4.32964e-017,
                                      -0.70710701 -0.70710701 4.32964e-017,
                                      0 -1 6.1230298e-017,
                                      1 1.8369101e-016 0,
                                      0.70710701 0.70710701 -4.32964e-017,
                                      -1.2246101e-016 1 -6.1230298e-017,
                                      -0.70710701 0.70710701 -4.32964e-017,
                                      -1 -6.1230298e-017 0,
                                      0 -6.1230298e-017 -1,
                                      1.2246101e-016 1 -6.1230298e-017,
                                      -2.4492101e-016 -1 6.1230298e-017 ]

                                }
                                coordIndex [ 0, 1, 2, -1, 3, 2, 1, -1,
                                    4, 0, 2, -1, 5, 2, 6, -1,
                                    7, 6, 2, -1, 8, 2, 5, -1,
                                    8, 4, 2, -1, 7, 2, 3, -1,
                                    9, 10, 1, -1, 11, 1, 10, -1,
                                    0, 9, 1, -1, 11, 3, 1, -1,
                                    12, 13, 10, -1, 14, 10, 13, -1,
                                    9, 12, 10, -1, 11, 10, 14, -1,
                                    15, 13, 12, -1, 14, 13, 15, -1,
                                    16, 12, 9, -1, 15, 12, 16, -1,
                                    17, 9, 0, -1, 16, 9, 17, -1,
                                    18, 19, 0, -1, 20, 0, 19, -1,
                                    21, 18, 0, -1, 4, 21, 0, -1,
                                    17, 0, 20, -1, 6, 22, 19, -1,
                                    23, 19, 22, -1, 24, 6, 19, -1,
                                    25, 24, 19, -1, 18, 25, 19, -1,
                                    20, 19, 23, -1, 26, 27, 22, -1,
                                    28, 22, 27, -1, 6, 26, 22, -1,
                                    23, 22, 28, -1, 29, 30, 27, -1,
                                    31, 27, 30, -1, 26, 29, 27, -1,
                                    28, 27, 31, -1, 32, 30, 29, -1,
                                    31, 30, 32, -1, 33, 29, 26, -1,
                                    32, 29, 33, -1, 34, 26, 6, -1,
                                    33, 26, 34, -1, 35, 5, 6, -1,
                                    24, 35, 6, -1, 34, 6, 7, -1,
                                    36, 5, 35, -1, 37, 8, 5, -1,
                                    37, 5, 36, -1, 38, 35, 24, -1,
                                    38, 36, 35, -1, 39, 24, 25, -1,
                                    38, 24, 39, -1, 40, 25, 18, -1,
                                    39, 25, 40, -1, 41, 18, 21, -1,
                                    40, 18, 41, -1, 42, 21, 4, -1,
                                    41, 21, 42, -1, 43, 4, 8, -1,
                                    42, 4, 43, -1, 43, 8, 37, -1,
                                    44, 45, 46, -1, 47, 46, 45, -1,
                                    39, 44, 46, -1, 36, 46, 48, -1,
                                    49, 48, 46, -1, 38, 46, 36, -1,
                                    38, 39, 46, -1, 49, 46, 47, -1,
                                    50, 51, 45, -1, 52, 45, 51, -1,
                                    44, 50, 45, -1, 52, 47, 45, -1,
                                    53, 54, 51, -1, 55, 51, 54, -1,
                                    50, 53, 51, -1, 52, 51, 55, -1,
                                    56, 54, 53, -1, 55, 54, 56, -1,
                                    57, 53, 50, -1, 56, 53, 57, -1,
                                    58, 50, 44, -1, 57, 50, 58, -1,
                                    41, 59, 44, -1, 60, 44, 59, -1,
                                    40, 41, 44, -1, 39, 40, 44, -1,
                                    58, 44, 60, -1, 48, 61, 59, -1,
                                    62, 59, 61, -1, 43, 48, 59, -1,
                                    42, 43, 59, -1, 41, 42, 59, -1,
                                    60, 59, 62, -1, 63, 64, 61, -1,
                                    65, 61, 64, -1, 48, 63, 61, -1,
                                    62, 61, 65, -1, 66, 67, 64, -1,
                                    68, 64, 67, -1, 63, 66, 64, -1,
                                    65, 64, 68, -1, 69, 67, 66, -1,
                                    68, 67, 69, -1, 70, 66, 63, -1,
                                    69, 66, 70, -1, 71, 63, 48, -1,
                                    70, 63, 71, -1, 37, 36, 48, -1,
                                    43, 37, 48, -1, 71, 48, 49, -1,
                                    11, 49, 47, -1, 3, 47, 52, -1,
                                    11, 47, 3, -1, 14, 71, 49, -1,
                                    11, 14, 49, -1, 15, 70, 71, -1,
                                    14, 15, 71, -1, 15, 69, 70, -1,
                                    16, 68, 69, -1, 15, 16, 69, -1,
                                    17, 65, 68, -1, 16, 17, 68, -1,
                                    23, 62, 65, -1, 20, 23, 65, -1,
                                    17, 20, 65, -1, 28, 60, 62, -1,
                                    23, 28, 62, -1, 31, 58, 60, -1,
                                    28, 31, 60, -1, 32, 57, 58, -1,
                                    31, 32, 58, -1, 32, 56, 57, -1,
                                    33, 55, 56, -1, 32, 33, 56, -1,
                                    34, 52, 55, -1, 33, 34, 55, -1,
                                    7, 3, 52, -1, 34, 7, 52, -1 ]
                                normalIndex [ 0, 0, 0, -1, 1, 1, 2, -1,
                                    0, 0, 0, -1, 0, 0, 0, -1,
                                    3, 3, 1, -1, 0, 0, 0, -1,
                                    0, 0, 0, -1, 3, 1, 1, -1,
                                    0, 0, 0, -1, 2, 2, 4, -1,
                                    0, 0, 0, -1, 2, 1, 2, -1,
                                    0, 0, 0, -1, 4, 4, 5, -1,
                                    0, 0, 0, -1, 2, 4, 4, -1,
                                    5, 5, 6, -1, 4, 5, 5, -1,
                                    6, 6, 7, -1, 5, 6, 6, -1,
                                    7, 7, 8, -1, 6, 7, 7, -1,
                                    0, 0, 0, -1, 8, 8, 9, -1,
                                    0, 0, 0, -1, 0, 0, 0, -1,
                                    7, 8, 8, -1, 0, 0, 0, -1,
                                    10, 10, 11, -1, 0, 0, 0, -1,
                                    0, 0, 0, -1, 0, 0, 0, -1,
                                    8, 9, 9, -1, 0, 0, 0, -1,
                                    11, 11, 12, -1, 0, 0, 0, -1,
                                    10, 11, 11, -1, 0, 0, 0, -1,
                                    12, 12, 13, -1, 0, 0, 0, -1,
                                    11, 12, 12, -1, 13, 13, 14, -1,
                                    12, 13, 13, -1, 14, 14, 15, -1,
                                    13, 14, 14, -1, 15, 15, 3, -1,
                                    14, 15, 15, -1, 0, 0, 0, -1,
                                    0, 0, 0, -1, 15, 3, 3, -1,
                                    16, 16, 17, -1, 18, 18, 19, -1,
                                    18, 19, 19, -1, 17, 17, 20, -1,
                                    17, 16, 17, -1, 20, 20, 21, -1,
                                    17, 20, 20, -1, 21, 21, 22, -1,
                                    20, 21, 21, -1, 22, 22, 23, -1,
                                    21, 22, 22, -1, 23, 23, 24, -1,
                                    22, 23, 23, -1, 24, 24, 18, -1,
                                    23, 24, 24, -1, 24, 18, 18, -1,
                                    25, 25, 25, -1, 26, 26, 8, -1,
                                    25, 25, 25, -1, 25, 25, 25, -1,
                                    11, 11, 26, -1, 25, 25, 25, -1,
                                    25, 25, 25, -1, 11, 26, 26, -1,
                                    25, 25, 25, -1, 8, 8, 7, -1,
                                    25, 25, 25, -1, 8, 26, 8, -1,
                                    25, 25, 25, -1, 7, 7, 6, -1,
                                    25, 25, 25, -1, 8, 7, 7, -1,
                                    6, 6, 5, -1, 7, 6, 6, -1,
                                    5, 5, 4, -1, 6, 5, 5, -1,
                                    4, 4, 2, -1, 5, 4, 4, -1,
                                    25, 25, 25, -1, 2, 2, 27, -1,
                                    25, 25, 25, -1, 25, 25, 25, -1,
                                    4, 2, 2, -1, 25, 25, 25, -1,
                                    19, 19, 3, -1, 25, 25, 25, -1,
                                    25, 25, 25, -1, 25, 25, 25, -1,
                                    2, 27, 27, -1, 25, 25, 25, -1,
                                    3, 3, 15, -1, 25, 25, 25, -1,
                                    19, 3, 3, -1, 25, 25, 25, -1,
                                    15, 15, 14, -1, 25, 25, 25, -1,
                                    3, 15, 15, -1, 14, 14, 13, -1,
                                    15, 14, 14, -1, 13, 13, 12, -1,
                                    14, 13, 13, -1, 12, 12, 11, -1,
                                    13, 12, 12, -1, 25, 25, 25, -1,
                                    25, 25, 25, -1, 12, 11, 11, -1,
                                    0, 0, 0, -1, 0, 0, 0, -1,
                                    0, 0, 0, -1, 0, 0, 0, -1,
                                    0, 0, 0, -1, 0, 0, 0, -1,
                                    0, 0, 0, -1, 0, 0, 0, -1,
                                    0, 0, 0, -1, 0, 0, 0, -1,
                                    0, 0, 0, -1, 0, 0, 0, -1,
                                    0, 0, 0, -1, 0, 0, 0, -1,
                                    0, 0, 0, -1, 0, 0, 0, -1,
                                    0, 0, 0, -1, 0, 0, 0, -1,
                                    0, 0, 0, -1, 0, 0, 0, -1,
                                    0, 0, 0, -1, 0, 0, 0, -1,
                                    0, 0, 0, -1, 0, 0, 0, -1,
                                    0, 0, 0, -1, 0, 0, 0, -1,
                                    0, 0, 0, -1, 0, 0, 0, -1 ]
                                ccw TRUE
                                solid TRUE
                                convex TRUE
                                creaseAngle 0

                              }

                            }

                        } ]

                    }

                }

            }

        }

    }

}
