####
#
# OBJ File Generated by Meshlab
#
####
# Object shoulder_r.obj
#
# Vertices: 224
# Faces: 428
#
####
vn 3.141588 -0.007481 3.141574
v 0.002157 0.044995 0.002193 0.388235 0.435294 0.486275
vn 3.141596 0.002502 -3.141589
v 0.002098 -0.028998 -0.002167 0.388235 0.435294 0.486275
vn 3.141596 0.002523 -3.141574
v 0.002157 0.045002 -0.002049 0.388235 0.435294 0.486275
vn -3.141588 0.007503 -3.141589
v -0.002144 -0.028995 -0.002167 0.388235 0.435294 0.486275
vn 1.572044 1.567122 1.573418
v 0.002174 0.066795 0.002227 0.388235 0.435294 0.486275
vn 1.572048 1.571967 -1.568171
v 0.002175 0.066802 -0.002015 0.388235 0.435294 0.486275
vn -3.141588 0.007528 -3.141573
v -0.002085 0.045005 -0.002049 0.388235 0.435294 0.486275
vn 3.141588 -0.007505 3.141589
v 0.002098 -0.029005 0.002075 0.388235 0.435294 0.486275
vn 1.569547 -1.569478 -1.573182
v 0.002068 -0.066798 -0.002227 0.388235 0.435294 0.486275
vn -1.572045 -1.567133 -1.573427
v -0.002174 -0.066795 -0.002227 0.388235 0.435294 0.486275
vn -3.141596 -0.002481 3.141574
v -0.002085 0.044998 0.002193 0.388235 0.435294 0.486275
vn -3.141596 -0.002502 3.141589
v -0.002144 -0.029002 0.002075 0.388235 0.435294 0.486275
vn 1.569543 -1.574638 1.568424
v 0.002068 -0.066805 0.002015 0.388235 0.435294 0.486275
vn -1.572048 -1.571980 1.568179
v -0.002175 -0.066802 0.002015 0.388235 0.435294 0.486275
vn -1.569547 1.569465 1.573174
v -0.002068 0.066798 0.002227 0.388235 0.435294 0.486275
vn -1.569543 1.574627 -1.568415
v -0.002068 0.066805 -0.002015 0.388235 0.435294 0.486275
vn -2.988734 -2.690144 -0.684676
v -0.057547 -0.059018 0.039906 1.000000 0.000000 0.000000
vn 2.352828 -4.188517 -1.367037
v -0.018232 -0.059002 0.010407 1.000000 0.000000 0.000000
vn -0.003331 -4.184403 -2.727404
v -0.000047 -0.059033 0.020906 1.000000 0.000000 0.000000
vn 0.003338 4.193069 -2.714062
v -0.000042 -0.053033 0.020916 1.000000 0.000000 0.000000
vn 3.006550 -2.728710 -0.636618
v 0.049953 -0.059084 0.027906 1.000000 0.000000 0.000000
vn -2.359495 -4.184765 -1.367037
v 0.018138 -0.059031 0.010407 1.000000 0.000000 0.000000
vn -2.352825 4.192850 -1.353696
v 0.018143 -0.053031 0.010417 1.000000 0.000000 0.000000
vn -2.480493 -2.756754 -1.841713
v -0.031143 -0.058951 -0.015038 1.000000 0.000000 0.000000
vn 2.352847 -4.192833 1.353683
v -0.018232 -0.058969 -0.010595 1.000000 0.000000 0.000000
vn 2.359498 4.189098 -1.353696
v -0.018227 -0.053002 0.010417 1.000000 0.000000 0.000000
vn -0.003338 -4.193102 2.714036
v -0.000047 -0.058966 -0.021094 1.000000 0.000000 0.000000
vn 2.359517 4.184748 1.367024
v -0.018227 -0.052969 -0.010585 1.000000 0.000000 0.000000
vn 2.536614 -2.760872 -1.757140
v 0.031535 -0.059003 -0.013981 1.000000 0.000000 0.000000
vn -2.359521 -4.189081 1.353683
v 0.018138 -0.058998 -0.010595 1.000000 0.000000 0.000000
vn 0.003331 4.184437 2.727378
v -0.000042 -0.052966 -0.021084 1.000000 0.000000 0.000000
vn 1.125518 -2.378505 -2.694831
v 0.013283 -0.058960 -0.031914 1.000000 0.000000 0.000000
vn -1.037871 -2.376655 -2.731292
v -0.012296 -0.058939 -0.032346 1.000000 0.000000 0.000000
vn -2.352851 4.188500 1.367024
v 0.018143 -0.052998 -0.010585 1.000000 0.000000 0.000000
vn 1.569543 -1.574546 1.568293
v 0.049953 -0.059215 0.109906 1.000000 0.000000 0.000000
vn -1.572048 -1.572045 1.568293
v -0.057547 -0.059129 0.109906 1.000000 0.000000 0.000000
vn -2.984445 2.697067 -0.676097
v -0.057542 -0.053018 0.039916 1.000000 0.000000 0.000000
vn -2.476096 2.766552 -1.832917
v -0.031138 -0.052951 -0.015028 1.000000 0.000000 0.000000
vn -1.569547 1.569543 1.573296
v -0.057542 -0.053129 0.109915 1.000000 0.000000 0.000000
vn 1.572044 1.567042 1.573296
v 0.049958 -0.053215 0.109915 1.000000 0.000000 0.000000
vn 3.010893 2.725933 -0.627932
v 0.049958 -0.053084 0.027916 1.000000 0.000000 0.000000
vn 2.541011 2.762412 -1.748344
v 0.031540 -0.053003 -0.013971 1.000000 0.000000 0.000000
vn 1.129310 2.385281 -2.687245
v 0.013288 -0.052960 -0.031904 1.000000 0.000000 0.000000
vn -1.034079 2.386992 -2.723706
v -0.012292 -0.052939 -0.032336 1.000000 0.000000 0.000000
vn 3.010893 2.725933 -0.627932
v 0.050046 0.057916 0.028092 0.384314 0.498039 0.619608
vn -2.352839 4.192839 -1.353687
v 0.015633 0.057973 0.009093 0.384314 0.498039 0.619608
vn 0.003338 4.193090 -2.714045
v 0.000046 0.057971 0.018092 0.384314 0.498039 0.619608
vn -0.003331 -4.184424 -2.727387
v 0.000041 0.051971 0.018083 0.384314 0.498039 0.619608
vn -2.984445 2.697067 -0.676097
v -0.057454 0.057982 0.040092 0.384314 0.498039 0.619608
vn 2.359512 4.189087 -1.353687
v -0.015541 0.057998 0.009093 0.384314 0.498039 0.619608
vn 2.352843 -4.188506 -1.367029
v -0.015546 0.051998 0.009084 0.384314 0.498039 0.619608
vn 2.541011 2.762412 -1.748344
v 0.031628 0.057997 -0.013795 0.384314 0.498039 0.619608
vn -2.352843 4.188506 1.367029
v 0.015633 0.058002 -0.008909 0.384314 0.498039 0.619608
vn -2.359509 -4.184754 -1.367029
v 0.015629 0.051973 0.009084 0.384314 0.498039 0.619608
vn 0.003331 4.184424 2.727387
v 0.000046 0.058029 -0.017908 0.384314 0.498039 0.619608
vn -2.359512 -4.189087 1.353687
v 0.015629 0.052002 -0.008918 0.384314 0.498039 0.619608
vn -2.476096 2.766552 -1.832917
v -0.031049 0.058048 -0.014852 0.384314 0.498039 0.619608
vn 2.359509 4.184754 1.367029
v -0.015541 0.058027 -0.008909 0.384314 0.498039 0.619608
vn -0.003338 -4.193090 2.714045
v 0.000041 0.052029 -0.017917 0.384314 0.498039 0.619608
vn 1.129310 2.385281 -2.687245
v 0.013376 0.058040 -0.031728 0.384314 0.498039 0.619608
vn 2.352839 -4.192839 1.353687
v -0.015546 0.052027 -0.008918 0.384314 0.498039 0.619608
vn -1.034079 2.386992 -2.723706
v -0.012203 0.058061 -0.032160 0.384314 0.498039 0.619608
vn -2.480493 -2.756754 -1.841713
v -0.031054 0.052048 -0.014861 0.384314 0.498039 0.619608
vn -2.988734 -2.690144 -0.684676
v -0.057459 0.051982 0.040083 0.384314 0.498039 0.619608
vn -1.037871 -2.376655 -2.731292
v -0.012208 0.052061 -0.032169 0.384314 0.498039 0.619608
vn 1.125518 -2.378505 -2.694831
v 0.013371 0.052040 -0.031737 0.384314 0.498039 0.619608
vn 2.536614 -2.760872 -1.757140
v 0.031623 0.051997 -0.013804 0.384314 0.498039 0.619608
vn -1.569547 1.569543 1.573296
v -0.057454 0.057871 0.110092 0.384314 0.498039 0.619608
vn 1.572044 1.567042 1.573296
v 0.050046 0.057785 0.110092 0.384314 0.498039 0.619608
vn 3.006550 -2.728710 -0.636618
v 0.050041 0.051916 0.028083 0.384314 0.498039 0.619608
vn 1.569543 -1.574546 1.568293
v 0.050041 0.051785 0.110083 0.384314 0.498039 0.619608
vn -1.572048 -1.572045 1.568293
v -0.057459 0.051871 0.110083 0.384314 0.498039 0.619608
vn -1.572044 -1.567042 -1.573296
v -0.057542 -0.053120 0.103915 1.000000 0.000000 0.000000
vn 2.054044 2.057022 -3.923574
v -0.006015 -0.006171 0.103990 1.000000 0.000000 0.000000
vn 0.002316 2.908616 -3.922507
v -0.000007 -0.008666 0.103986 1.000000 0.000000 0.000000
vn 0.002306 2.896108 3.931752
v -0.000007 -0.008675 0.109986 1.000000 0.000000 0.000000
vn -2.050766 2.060290 -3.923574
v 0.006005 -0.006180 0.103990 1.000000 0.000000 0.000000
vn -2.050776 2.047782 3.930111
v 0.006005 -0.006190 0.109990 1.000000 0.000000 0.000000
vn 2.902371 0.003943 -3.927130
v -0.008500 -0.000159 0.104000 1.000000 0.000000 0.000000
vn 2.054034 2.044514 3.930111
v -0.006015 -0.006180 0.109990 1.000000 0.000000 0.000000
vn 2.050776 -2.047782 -3.930111
v -0.006005 0.005849 0.104009 1.000000 0.000000 0.000000
vn 2.902361 -0.008565 3.927130
v -0.008500 -0.000168 0.110000 1.000000 0.000000 0.000000
vn 0.002505 3.146591 -3.136586
v 0.050041 0.051794 0.104083 1.000000 0.000000 0.000000
vn -0.002306 -2.896108 -3.931752
v 0.000007 0.008334 0.104013 1.000000 0.000000 0.000000
vn 2.050766 -2.060290 3.923574
v -0.006005 0.005840 0.110009 1.000000 0.000000 0.000000
vn -1.569543 1.574546 -1.568293
v -0.057459 0.051880 0.104083 1.000000 0.000000 0.000000
vn -2.054034 -2.044514 -3.930111
v 0.006015 0.005840 0.104009 1.000000 0.000000 0.000000
vn -0.002316 -2.908616 3.922507
v 0.000007 0.008325 0.110013 1.000000 0.000000 0.000000
vn -2.902361 0.008565 -3.927130
v 0.008500 -0.000172 0.104000 1.000000 0.000000 0.000000
vn -2.054044 -2.057022 3.923574
v 0.006015 0.005830 0.110009 1.000000 0.000000 0.000000
vn -2.902371 -0.003943 3.927130
v 0.008500 -0.000182 0.110000 1.000000 0.000000 0.000000
vn 1.569551 -1.564540 -4.714885
v 0.050006 0.007795 0.104013 1.000000 0.000000 0.000000
vn -1.569547 1.569543 1.573296
v -0.057459 0.051871 0.110083 1.000000 0.000000 0.000000
vn 0.002497 3.136585 3.146592
v 0.050041 0.051785 0.110083 1.000000 0.000000 0.000000
vn 1.569547 -1.569543 -1.573296
v 0.049958 -0.053205 0.103915 1.000000 0.000000 0.000000
vn -1.572048 -1.572045 1.568293
v -0.057542 -0.053129 0.109915 1.000000 0.000000 0.000000
vn 1.569543 -1.574546 1.568293
v 0.049958 -0.053215 0.109915 1.000000 0.000000 0.000000
vn 1.572048 1.572045 -1.568293
v 0.064791 0.051783 0.104083 1.000000 0.000000 0.000000
vn 1.569547 -1.569543 -1.573296
v 0.064756 0.007783 0.104013 1.000000 0.000000 0.000000
vn 1.569539 -1.579549 4.709881
v 0.050006 0.007785 0.110013 1.000000 0.000000 0.000000
vn 1.569543 -1.574546 1.568293
v 0.064756 0.007773 0.110013 1.000000 0.000000 0.000000
vn 1.572044 1.567042 1.573296
v 0.064791 0.051773 0.110083 1.000000 0.000000 0.000000
vn 1.569543 -1.574546 1.568293
v -0.057547 -0.059129 0.109906 0.666667 0.207843 0.219608
vn 1.569547 -1.569543 -1.573296
v -0.057547 -0.059018 0.039906 0.666667 0.207843 0.219608
vn 2.095480 1.362432 -2.354025
v -0.057519 -0.024018 0.039962 0.666667 0.207843 0.219608
vn -2.093308 1.365767 -2.354025
v -0.060519 -0.024015 0.039962 0.666667 0.207843 0.219608
vn 4.189875 1.360765 -2.354025
v -0.057510 -0.012503 0.059980 0.666667 0.207843 0.219608
vn -4.187703 1.367435 -2.354025
v -0.060510 -0.012500 0.059980 0.666667 0.207843 0.219608
vn -1.572044 -1.567042 -1.573296
v -0.060547 -0.059015 0.039906 0.666667 0.207843 0.219608
vn 1.572048 1.572045 -1.568293
v -0.057454 0.057950 0.060092 0.666667 0.207843 0.219608
vn 1.572044 1.567042 1.573296
v -0.057454 0.057871 0.110092 0.666667 0.207843 0.219608
vn -1.572048 -1.572045 1.568293
v -0.060547 -0.059127 0.109906 0.666667 0.207843 0.219608
vn -1.569547 1.569543 1.573296
v -0.060454 0.057873 0.110092 0.666667 0.207843 0.219608
vn -1.569543 1.574546 -1.568293
v -0.060454 0.057953 0.060092 0.666667 0.207843 0.219608
vn -2.998032 -2.704019 -0.665024
v -0.062070 -0.088031 0.050566 0.600000 0.600000 0.600000
vn 2.478288 -3.138415 -1.909481
v 0.066930 -0.088097 0.027359 0.600000 0.600000 0.600000
vn 0.579778 -3.034414 2.774592
v 0.066930 -0.088177 0.077860 0.600000 0.600000 0.600000
vn 2.978214 -3.086814 -1.830190
v 0.071054 -0.087487 0.032511 0.600000 0.600000 0.600000
vn 1.567042 -4.716134 1.563290
v 0.055930 -0.088169 0.077860 0.600000 0.600000 0.600000
vn 1.574546 4.708629 1.578299
v 0.055931 -0.086169 0.077863 0.600000 0.600000 0.600000
vn -0.598713 3.016870 3.539098
v 0.066931 -0.086177 0.077863 0.600000 0.600000 0.600000
vn 2.069075 -2.050350 2.387898
v 0.076833 -0.084085 0.077866 0.600000 0.600000 0.600000
vn 3.531887 -3.302047 -1.868971
v 0.074536 -0.085873 0.036863 0.600000 0.600000 0.600000
vn -2.551859 -2.798021 -1.761894
v -0.031370 -0.087950 -0.015651 0.600000 0.600000 0.600000
vn 2.054617 -2.800803 -2.319319
v 0.026865 -0.087985 -0.022698 0.600000 0.600000 0.600000
vn 2.413870 3.138165 -2.054253
v 0.066931 -0.086097 0.027362 0.600000 0.600000 0.600000
vn 2.011329 3.091867 -2.232087
v 0.071197 -0.085325 0.032692 0.600000 0.600000 0.600000
vn -1.315218 -2.458815 -2.660059
v -0.015362 -0.087937 -0.032065 0.600000 0.600000 0.600000
vn 0.639826 -2.459984 -2.896636
v 0.007404 -0.087951 -0.034820 0.600000 0.600000 0.600000
vn 2.059080 2.804901 -2.310392
v 0.026866 -0.085985 -0.022695 0.600000 0.600000 0.600000
vn 0.643750 2.468176 -2.888787
v 0.007406 -0.085951 -0.034817 0.600000 0.600000 0.600000
vn -1.311294 2.469367 -2.652211
v -0.015360 -0.085937 -0.032062 0.600000 0.600000 0.600000
vn -2.547396 2.807679 -1.752966
v -0.031368 -0.085950 -0.015648 0.600000 0.600000 0.600000
vn 1.569543 -1.574546 1.568293
v 0.062430 -0.088220 0.106860 0.600000 0.600000 0.600000
vn -1.572048 -1.572045 1.568293
v -0.062070 -0.088121 0.106860 0.600000 0.600000 0.600000
vn -2.993721 2.710894 -0.656401
v -0.062069 -0.086031 0.050569 0.600000 0.600000 0.600000
vn 1.567046 -4.711131 -1.578299
v 0.055930 -0.088208 0.102860 0.600000 0.600000 0.600000
vn -1.569547 1.569543 1.573296
v -0.062062 -0.078121 0.106876 0.600000 0.600000 0.600000
vn -4.711135 1.577047 -1.568293
v -0.062069 -0.086118 0.104863 0.600000 0.600000 0.600000
vn -1.569543 1.574546 -1.568293
v -0.062062 -0.078118 0.104876 0.600000 0.600000 0.600000
vn 1.569547 -1.569543 -1.573296
v 0.062430 -0.088214 0.102860 0.600000 0.600000 0.600000
vn 1.572048 1.572045 -1.568293
v 0.062431 -0.086214 0.102863 0.600000 0.600000 0.600000
vn 4.713640 1.569544 -1.568293
v 0.062431 -0.086217 0.104863 0.600000 0.600000 0.600000
vn 1.572048 1.572045 -1.568293
v 0.062438 -0.078217 0.104876 0.600000 0.600000 0.600000
vn 1.572044 1.567042 1.573296
v 0.062438 -0.078220 0.106876 0.600000 0.600000 0.600000
vn 1.574550 4.713632 -1.563290
v 0.055931 -0.086208 0.102863 0.600000 0.600000 0.600000
vn -2.042357 2.067633 3.894548
v 0.075420 -0.082669 0.077869 0.600000 0.600000 0.600000
vn -1.457615 3.061341 -3.245591
v 0.074538 -0.083401 0.036867 0.600000 0.600000 0.600000
vn 2.688231 -1.409088 -2.598692
v 0.079233 -0.080813 0.036871 0.600000 0.600000 0.600000
vn -2.772188 1.315734 -3.579215
v 0.077782 -0.079257 0.036874 0.600000 0.600000 0.600000
vn 3.082904 -0.420479 -2.843877
v 0.080941 -0.074123 0.036882 0.600000 0.600000 0.600000
vn 3.021540 -0.607900 2.747933
v 0.080941 -0.074189 0.077882 0.600000 0.600000 0.600000
vn 1.572044 1.567042 1.573296
v 0.080946 -0.068189 0.077892 0.600000 0.600000 0.600000
vn -3.029594 0.577685 3.503555
v 0.078941 -0.074187 0.077882 0.600000 0.600000 0.600000
vn -1.569547 1.569543 1.573296
v 0.078946 -0.068187 0.077892 0.600000 0.600000 0.600000
vn -3.103043 0.352448 -3.362232
v 0.078941 -0.074122 0.036882 0.600000 0.600000 0.600000
vn -1.569543 1.574546 -1.568293
v 0.078946 -0.068122 0.036892 0.600000 0.600000 0.600000
vn 1.572048 1.572045 -1.568293
v 0.080946 -0.068123 0.036892 0.600000 0.600000 0.600000
vn -1.569543 1.574546 -1.568293
v 0.081060 0.074876 0.037119 0.462745 0.533333 0.572549
vn 1.569547 -1.569543 -1.573296
v 0.082439 -0.076124 0.036879 0.462745 0.533333 0.572549
vn -1.572044 -1.567042 -1.573296
v 0.080939 -0.076123 0.036879 0.462745 0.533333 0.572549
vn 1.569543 -1.574546 1.568293
v 0.082439 -0.076236 0.106879 0.462745 0.533333 0.572549
vn -1.569547 1.569543 1.573296
v 0.081060 0.074765 0.107119 0.462745 0.533333 0.572549
vn -1.572048 -1.572045 1.568293
v 0.080939 -0.076235 0.106879 0.462745 0.533333 0.572549
vn -1.531115 -0.562782 2.632244
v 0.080940 -0.075834 0.106879 0.462745 0.533333 0.572549
vn -1.127792 0.869462 2.244421
v 0.081059 0.074364 0.107119 0.462745 0.533333 0.572549
vn 1.572048 1.572045 -1.568293
v 0.082560 0.074875 0.037119 0.462745 0.533333 0.572549
vn 6.171502 -0.579031 0.390930
v 0.082446 -0.068236 0.106892 0.462745 0.533333 0.572549
vn 1.572044 1.567042 1.573296
v 0.082560 0.074764 0.107119 0.462745 0.533333 0.572549
vn 6.275880 0.147398 0.097512
v 0.082553 0.066764 0.107107 0.462745 0.533333 0.572549
vn 3.021482 -0.608040 2.747836
v 0.082446 -0.068238 0.108392 0.462745 0.533333 0.572549
vn 0.989665 -0.132178 6.120065
v 0.082066 -0.072099 0.106885 0.462745 0.533333 0.572549
vn 2.702364 0.728271 4.558537
v 0.082179 0.070628 0.107113 0.462745 0.533333 0.572549
vn 3.117039 0.234767 3.034511
v 0.082553 0.066761 0.108607 0.462745 0.533333 0.572549
vn 2.058009 -1.824758 1.684460
v 0.076575 -0.082375 0.108369 0.462745 0.533333 0.572549
vn -1.572048 -1.572045 1.568293
v 0.052430 -0.088214 0.108360 0.462745 0.533333 0.572549
vn 2.029953 1.843071 1.687347
v 0.076705 0.080908 0.108629 0.462745 0.533333 0.572549
vn -1.569543 1.574546 -1.568293
v 0.052569 0.086788 0.107138 0.462745 0.533333 0.572549
vn 0.825888 2.004834 -0.895044
v 0.073697 0.083388 0.107133 0.462745 0.533333 0.572549
vn 1.089028 -2.207459 -1.226803
v 0.073563 -0.084846 0.106865 0.462745 0.533333 0.572549
vn 0.603624 3.017119 2.753631
v 0.062569 0.086777 0.108638 0.462745 0.533333 0.572549
vn 0.594698 3.029246 -2.744312
v 0.062569 0.086780 0.107138 0.462745 0.533333 0.572549
vn -1.569547 1.569543 1.573296
v 0.052569 0.086785 0.108638 0.462745 0.533333 0.572549
vn -1.572044 -1.567042 -1.573296
v 0.052430 -0.088212 0.106860 0.462745 0.533333 0.572549
vn 0.454374 -3.069525 -2.851401
v 0.062430 -0.088220 0.106860 0.462745 0.533333 0.572549
vn 0.466237 -3.074566 2.841081
v 0.062430 -0.088222 0.108360 0.462745 0.533333 0.572549
vn -0.598301 -3.029292 3.520137
v 0.067068 0.084776 0.107135 0.600000 0.600000 0.600000
vn 1.569539 -1.579549 4.709881
v 0.062568 0.084780 0.107135 0.600000 0.600000 0.600000
vn 1.567046 -4.711131 -1.578299
v 0.062568 0.084783 0.105135 0.600000 0.600000 0.600000
vn 1.569543 -1.574546 1.568293
v 0.062561 0.076780 0.107122 0.600000 0.600000 0.600000
vn 2.416012 -3.137140 -2.039545
v 0.067068 0.084903 0.027634 0.600000 0.600000 0.600000
vn -2.998032 -2.704019 -0.665024
v -0.061932 0.084968 0.050841 0.600000 0.600000 0.600000
vn -4.713636 -1.564540 -1.573296
v -0.061932 0.084882 0.105135 0.600000 0.600000 0.600000
vn -1.572044 -1.567042 -1.573296
v -0.061939 0.076882 0.105122 0.600000 0.600000 0.600000
vn 1.569547 -1.569543 -1.573296
v 0.062561 0.076783 0.105122 0.600000 0.600000 0.600000
vn -1.569547 1.569543 1.573296
v -0.061931 0.086879 0.107138 0.600000 0.600000 0.600000
vn 1.810784 -3.060152 -2.128398
v 0.071332 0.084107 0.032962 0.600000 0.600000 0.600000
vn 0.603625 3.017118 2.753631
v 0.067069 0.086776 0.107138 0.600000 0.600000 0.600000
vn -2.059267 -2.054877 3.913242
v 0.075550 0.081254 0.107130 0.600000 0.600000 0.600000
vn -1.425170 -3.068300 -3.286420
v 0.074670 0.082164 0.037131 0.600000 0.600000 0.600000
vn -2.551859 -2.798021 -1.761894
v -0.031232 0.085049 -0.015376 0.600000 0.600000 0.600000
vn 2.054617 -2.800803 -2.319319
v 0.027003 0.085014 -0.022423 0.600000 0.600000 0.600000
vn 2.489133 3.139369 -1.878174
v 0.067069 0.086903 0.027637 0.600000 0.600000 0.600000
vn 2.825983 3.106642 -1.734476
v 0.071192 0.086270 0.032788 0.600000 0.600000 0.600000
vn -1.315218 -2.458815 -2.660059
v -0.015224 0.085063 -0.031790 0.600000 0.600000 0.600000
vn 0.639826 -2.459984 -2.896636
v 0.007542 0.085049 -0.034545 0.600000 0.600000 0.600000
vn 2.059080 2.804901 -2.310392
v 0.027004 0.087014 -0.022419 0.600000 0.600000 0.600000
vn 0.643750 2.468176 -2.888787
v 0.007543 0.087049 -0.034541 0.600000 0.600000 0.600000
vn -1.311294 2.469367 -2.652211
v -0.015223 0.087063 -0.031786 0.600000 0.600000 0.600000
vn -2.547396 2.807679 -1.752966
v -0.031230 0.087049 -0.015372 0.600000 0.600000 0.600000
vn -2.993721 2.710894 -0.656401
v -0.061931 0.086968 0.050844 0.600000 0.600000 0.600000
vn -1.572048 -1.572045 1.568293
v -0.061939 0.076879 0.107122 0.600000 0.600000 0.600000
vn 2.048651 2.059878 2.382743
v 0.076965 0.082667 0.107132 0.600000 0.600000 0.600000
vn 1.569543 -1.574546 1.568293
v 0.081053 0.066765 0.107107 0.600000 0.600000 0.600000
vn 3.027696 0.581346 2.770554
v 0.081058 0.072765 0.107116 0.600000 0.600000 0.600000
vn 2.679603 1.452696 -2.647963
v 0.079361 0.079569 0.037127 0.600000 0.600000 0.600000
vn -3.022464 -0.604438 3.533398
v 0.079058 0.072767 0.107116 0.600000 0.600000 0.600000
vn 3.584636 3.280106 -1.884042
v 0.074672 0.084636 0.037135 0.600000 0.600000 0.600000
vn 1.569547 -1.569543 -1.573296
v 0.081053 0.066876 0.037107 0.600000 0.600000 0.600000
vn 3.093402 0.389468 -2.891824
v 0.081058 0.072876 0.037116 0.600000 0.600000 0.600000
vn -1.572048 -1.572045 1.568293
v 0.079053 0.066767 0.107107 0.600000 0.600000 0.600000
vn -1.572044 -1.567042 -1.573296
v 0.079053 0.066878 0.037107 0.600000 0.600000 0.600000
vn -3.098380 -0.358402 -3.395664
v 0.079058 0.072878 0.037116 0.600000 0.600000 0.600000
vn -2.777558 -1.279624 -3.617763
v 0.077907 0.078015 0.037124 0.600000 0.600000 0.600000
# 224 vertices, 0 vertices normals

f 1//1 2//2 3//3
f 4//4 3//3 2//2
f 5//5 1//1 3//3
f 5//5 3//3 6//6
f 7//7 6//6 3//3
f 4//4 7//7 3//3
f 1//1 8//8 2//2
f 9//9 2//2 8//8
f 10//10 2//2 9//9
f 4//4 2//2 10//10
f 11//11 12//12 8//8
f 13//13 8//8 12//12
f 1//1 11//11 8//8
f 13//13 9//9 8//8
f 7//7 12//12 11//11
f 14//14 13//13 12//12
f 4//4 14//14 12//12
f 4//4 12//12 7//7
f 15//15 11//11 1//1
f 16//16 11//11 15//15
f 7//7 11//11 16//16
f 15//15 1//1 5//5
f 14//14 9//9 13//13
f 10//10 9//9 14//14
f 4//4 10//10 14//14
f 15//15 5//5 6//6
f 16//16 15//15 6//6
f 7//7 16//16 6//6
f 17//17 18//18 19//19
f 20//20 19//19 18//18
f 21//21 19//19 22//22
f 23//23 22//22 19//19
f 21//21 17//17 19//19
f 23//23 19//19 20//20
f 24//24 25//25 18//18
f 26//26 18//18 25//25
f 24//24 18//18 17//17
f 26//26 20//20 18//18
f 24//24 27//27 25//25
f 28//28 25//25 27//27
f 26//26 25//25 28//28
f 29//29 30//30 27//27
f 31//31 27//27 30//30
f 32//32 29//29 27//27
f 33//33 32//32 27//27
f 24//24 33//33 27//27
f 28//28 27//27 31//31
f 21//21 22//22 30//30
f 34//34 30//30 22//22
f 29//29 21//21 30//30
f 31//31 30//30 34//34
f 34//34 22//22 23//23
f 35//35 36//36 17//17
f 37//37 17//17 36//36
f 21//21 35//35 17//17
f 38//38 24//24 17//17
f 38//38 17//17 37//37
f 39//39 36//36 35//35
f 39//39 37//37 36//36
f 40//40 35//35 21//21
f 39//39 35//35 40//40
f 41//41 21//21 29//29
f 40//40 21//21 41//41
f 42//42 29//29 32//32
f 41//41 29//29 42//42
f 43//43 32//32 33//33
f 42//42 32//32 43//43
f 44//44 33//33 24//24
f 43//43 33//33 44//44
f 44//44 24//24 38//38
f 41//41 23//23 20//20
f 37//37 20//20 26//26
f 41//41 20//20 37//37
f 42//42 34//34 23//23
f 41//41 42//42 23//23
f 42//42 31//31 34//34
f 38//38 28//28 31//31
f 43//43 38//38 31//31
f 42//42 43//43 31//31
f 37//37 26//26 28//28
f 38//38 37//37 28//28
f 39//39 41//41 37//37
f 43//43 44//44 38//38
f 39//39 40//40 41//41
f 45//45 46//46 47//47
f 48//48 47//47 46//46
f 49//49 47//47 50//50
f 51//51 50//50 47//47
f 49//49 45//45 47//47
f 51//51 47//47 48//48
f 52//52 53//53 46//46
f 54//54 46//46 53//53
f 45//45 52//52 46//46
f 54//54 48//48 46//46
f 52//52 55//55 53//53
f 56//56 53//53 55//55
f 54//54 53//53 56//56
f 57//57 58//58 55//55
f 59//59 55//55 58//58
f 60//60 57//57 55//55
f 52//52 60//60 55//55
f 56//56 55//55 59//59
f 49//49 50//50 58//58
f 61//61 58//58 50//50
f 49//49 58//58 57//57
f 59//59 58//58 61//61
f 61//61 50//50 51//51
f 60//60 62//62 57//57
f 63//63 57//57 62//62
f 64//64 49//49 57//57
f 64//64 57//57 63//63
f 65//65 62//62 60//60
f 65//65 63//63 62//62
f 66//66 60//60 52//52
f 65//65 60//60 66//66
f 67//67 52//52 45//45
f 66//66 52//52 67//67
f 68//68 69//69 45//45
f 70//70 45//45 69//69
f 49//49 68//68 45//45
f 67//67 45//45 70//70
f 71//71 69//69 68//68
f 70//70 69//69 71//71
f 72//72 68//68 49//49
f 71//71 68//68 72//72
f 72//72 49//49 64//64
f 64//64 51//51 48//48
f 70//70 48//48 54//54
f 70//70 64//64 48//48
f 63//63 61//61 51//51
f 64//64 63//63 51//51
f 63//63 59//59 61//61
f 67//67 56//56 59//59
f 65//65 59//59 63//63
f 66//66 67//67 59//59
f 65//65 66//66 59//59
f 70//70 54//54 56//56
f 67//67 70//70 56//56
f 71//71 72//72 64//64
f 70//70 71//71 64//64
f 73//73 74//74 75//75
f 76//76 75//75 74//74
f 73//73 75//75 77//77
f 78//78 77//77 75//75
f 78//78 75//75 76//76
f 73//73 79//79 74//74
f 80//80 74//74 79//79
f 80//80 76//76 74//74
f 73//73 81//81 79//79
f 82//82 79//79 81//81
f 80//80 79//79 82//82
f 83//83 84//84 81//81
f 85//85 81//81 84//84
f 73//73 86//86 81//81
f 83//83 81//81 86//86
f 82//82 81//81 85//85
f 83//83 87//87 84//84
f 88//88 84//84 87//87
f 85//85 84//84 88//88
f 83//83 89//89 87//87
f 90//90 87//87 89//89
f 88//88 87//87 90//90
f 83//83 77//77 89//89
f 91//91 89//89 77//77
f 90//90 89//89 91//91
f 92//92 73//73 77//77
f 83//83 92//92 77//77
f 91//91 77//77 78//78
f 93//93 86//86 73//73
f 94//94 83//83 86//86
f 94//94 86//86 93//93
f 92//92 95//95 73//73
f 96//96 73//73 95//95
f 96//96 93//93 73//73
f 97//97 95//95 92//92
f 96//96 95//95 97//97
f 98//98 99//99 92//92
f 100//100 92//92 99//99
f 83//83 98//98 92//92
f 97//97 92//92 100//100
f 101//101 99//99 98//98
f 100//100 99//99 101//101
f 102//102 98//98 83//83
f 101//101 98//98 102//102
f 102//102 83//83 94//94
f 97//97 78//78 76//76
f 97//97 76//76 80//80
f 97//97 91//91 78//78
f 97//97 90//90 91//91
f 93//93 88//88 90//90
f 100//100 93//93 90//90
f 97//97 100//100 90//90
f 93//93 85//85 88//88
f 93//93 82//82 85//85
f 93//93 80//80 82//82
f 96//96 80//80 93//93
f 96//96 97//97 80//80
f 100//100 94//94 93//93
f 101//101 102//102 94//94
f 100//100 101//101 94//94
f 103//103 104//104 105//105
f 106//106 105//105 104//104
f 107//107 103//103 105//105
f 108//108 107//107 105//105
f 108//108 105//105 106//106
f 109//109 104//104 103//103
f 109//109 106//106 104//104
f 110//110 111//111 103//103
f 112//112 103//103 111//111
f 107//107 110//110 103//103
f 109//109 103//103 112//112
f 113//113 111//111 110//110
f 112//112 111//111 113//113
f 114//114 110//110 107//107
f 113//113 110//110 114//114
f 114//114 107//107 108//108
f 109//109 108//108 106//106
f 113//113 114//114 108//108
f 109//109 113//113 108//108
f 109//109 112//112 113//113
f 115//115 116//116 117//117
f 118//118 117//117 116//116
f 119//119 115//115 117//117
f 120//120 119//119 117//117
f 120//120 117//117 121//121
f 122//122 121//121 117//117
f 123//123 117//117 118//118
f 122//122 117//117 123//123
f 124//124 125//125 116//116
f 126//126 116//116 125//125
f 115//115 124//124 116//116
f 127//127 116//116 126//126
f 127//127 118//118 116//116
f 128//128 129//129 125//125
f 130//130 125//125 129//129
f 124//124 128//128 125//125
f 126//126 125//125 130//130
f 131//131 129//129 128//128
f 130//130 129//129 131//131
f 132//132 128//128 124//124
f 131//131 128//128 132//132
f 133//133 124//124 115//115
f 132//132 124//124 133//133
f 134//134 135//135 115//115
f 136//136 115//115 135//135
f 137//137 134//134 115//115
f 119//119 137//137 115//115
f 133//133 115//115 136//136
f 138//138 135//135 134//134
f 136//136 135//135 139//139
f 140//140 139//139 135//135
f 140//140 135//135 138//138
f 137//137 141//141 134//134
f 142//142 134//134 141//141
f 143//143 134//134 142//142
f 144//144 134//134 143//143
f 138//138 134//134 145//145
f 144//144 145//145 134//134
f 142//142 141//141 137//137
f 146//146 137//137 119//119
f 142//142 137//137 146//146
f 146//146 119//119 120//120
f 126//126 120//120 121//121
f 147//147 126//126 121//121
f 147//147 121//121 122//122
f 139//139 146//146 120//120
f 136//136 139//139 120//120
f 126//126 136//136 120//120
f 139//139 142//142 146//146
f 139//139 143//143 142//142
f 144//144 143//143 139//139
f 144//144 139//139 140//140
f 126//126 133//133 136//136
f 130//130 132//132 133//133
f 126//126 130//130 133//133
f 130//130 131//131 132//132
f 147//147 127//127 126//126
f 140//140 138//138 145//145
f 144//144 140//140 145//145
f 148//148 123//123 118//118
f 127//127 148//148 118//118
f 149//149 123//123 148//148
f 122//122 123//123 149//149
f 147//147 148//148 127//127
f 150//150 149//149 148//148
f 150//150 148//148 147//147
f 122//122 151//151 152//152
f 153//153 152//152 151//151
f 154//154 122//122 152//152
f 155//155 154//154 152//152
f 153//153 155//155 152//152
f 122//122 149//149 151//151
f 156//156 151//151 149//149
f 157//157 151//151 156//156
f 158//158 151//151 157//157
f 153//153 151//151 158//158
f 156//156 149//149 150//150
f 147//147 122//122 154//154
f 150//150 147//147 154//154
f 156//156 150//150 154//154
f 157//157 156//156 154//154
f 155//155 157//157 154//154
f 158//158 157//157 155//155
f 153//153 158//158 155//155
f 159//159 160//160 161//161
f 162//162 161//161 160//160
f 163//163 159//159 161//161
f 162//162 164//164 161//161
f 165//165 161//161 164//164
f 166//166 163//163 161//161
f 165//165 166//166 161//161
f 159//159 167//167 160//160
f 162//162 160//160 167//167
f 163//163 167//167 159//159
f 168//168 162//162 167//167
f 169//169 170//170 167//167
f 171//171 167//167 170//170
f 163//163 169//169 167//167
f 171//171 168//168 167//167
f 172//172 164//164 162//162
f 172//172 165//165 164//164
f 172//172 162//162 168//168
f 173//173 170//170 169//169
f 174//174 171//171 170//170
f 173//173 174//174 170//170
f 166//166 169//169 163//163
f 173//173 169//169 166//166
f 175//175 168//168 171//171
f 172//172 168//168 175//175
f 176//176 171//171 174//174
f 175//175 171//171 176//176
f 177//177 174//174 166//166
f 173//173 166//166 174//174
f 177//177 176//176 174//174
f 178//178 166//166 165//165
f 179//179 166//166 178//178
f 177//177 166//166 179//179
f 180//180 178//178 165//165
f 175//175 180//180 165//165
f 172//172 175//175 165//165
f 178//178 181//181 182//182
f 177//177 182//182 181//181
f 179//179 178//178 182//182
f 177//177 179//179 182//182
f 178//178 183//183 181//181
f 176//176 181//181 183//183
f 177//177 181//181 176//176
f 184//184 183//183 178//178
f 176//176 183//183 184//184
f 184//184 178//178 185//185
f 180//180 185//185 178//178
f 176//176 185//185 186//186
f 180//180 186//186 185//185
f 175//175 176//176 186//186
f 175//175 186//186 180//180
f 176//176 184//184 185//185
f 187//187 188//188 189//189
f 190//190 189//189 188//188
f 191//191 187//187 189//189
f 192//192 191//191 189//189
f 193//193 192//192 189//189
f 194//194 193//193 189//189
f 195//195 189//189 190//190
f 195//195 194//194 189//189
f 196//196 188//188 187//187
f 190//190 188//188 196//196
f 197//197 187//187 191//191
f 196//196 187//187 198//198
f 199//199 198//198 187//187
f 200//200 199//199 187//187
f 200//200 187//187 197//197
f 201//201 202//202 191//191
f 203//203 191//191 202//202
f 192//192 201//201 191//191
f 204//204 191//191 203//203
f 204//204 197//197 191//191
f 205//205 206//206 202//202
f 207//207 202//202 206//206
f 201//201 205//205 202//202
f 203//203 202//202 207//207
f 208//208 206//206 205//205
f 207//207 206//206 208//208
f 209//209 205//205 201//201
f 208//208 205//205 209//209
f 210//210 201//201 192//192
f 209//209 201//201 210//210
f 211//211 192//192 193//193
f 210//210 192//192 211//211
f 196//196 211//211 193//193
f 212//212 196//196 193//193
f 194//194 212//212 193//193
f 203//203 210//210 211//211
f 196//196 203//203 211//211
f 207//207 209//209 210//210
f 203//203 207//207 210//210
f 207//207 208//208 209//209
f 196//196 198//198 203//203
f 213//213 203//203 198//198
f 204//204 203//203 213//213
f 199//199 213//213 198//198
f 212//212 190//190 196//196
f 214//214 215//215 213//213
f 216//216 213//213 215//215
f 217//217 214//214 213//213
f 199//199 217//217 213//213
f 204//204 213//213 218//218
f 216//216 218//218 213//213
f 219//219 215//215 214//214
f 220//220 216//216 215//215
f 219//219 220//220 215//215
f 217//217 221//221 214//214
f 222//222 214//214 221//221
f 222//222 219//219 214//214
f 223//223 221//221 217//217
f 223//223 222//222 221//221
f 223//223 217//217 199//199
f 224//224 199//199 200//200
f 224//224 223//223 199//199
f 195//195 190//190 212//212
f 195//195 212//212 194//194
f 218//218 200//200 197//197
f 204//204 218//218 197//197
f 216//216 200//200 218//218
f 224//224 200//200 216//216
f 224//224 216//216 220//220
f 223//223 220//220 219//219
f 224//224 220//220 223//223
f 223//223 219//219 222//222
# 428 faces, 0 coords texture

# End of File
