#VRML V2.0 utf8


Group {
  children 
    DEF _+0 Group {
      children 
        DEF _+1 Transform {
          translation 0 0 0
          rotation -0 -0 -0.99999994  1.5700002
          scale 1 1 1
          scaleOrientation 0 0 1  0
          center 0 0 0
          children 
            DEF _+2 Transform {
              translation 0 0 0
              rotation 0 1 0  3.1400001
              scale 1 1 1
              scaleOrientation 0 0 1  0
              center 0 0 0
              children 
                DEF _+3 Transform {
                  translation 0 0 0
                  rotation 0 0 0.99999994  1.5700002
                  scale 1 1 1
                  scaleOrientation 0 0 1  0
                  center 0 0 0
                  children 
                    DEF _+4 Group {
                      children 
                        DEF _+5 Transform {
                          scale 0.001 0.001 0.001
                          children 
                            DEF _+6 Group {
                              children 
                                DEF _+7 Shape {
                                  appearance 
                                  Appearance {
                                    material 
                                    Material {
                                      diffuseColor 0.386933 0.50074798 0.62

                                    }

                                  }
                                  geometry 
                                  IndexedFaceSet {
                                    coord 
                                    Coordinate {
                                      point [ -30 -38 -50,
                                          30 -38 -50,
                                          30 -38 -28,
                                          30 -32 -44,
                                          -30 -38 -28,
                                          -40 -75 -28,
                                          30 -75 16,
                                          30 -38 16,
                                          30 -75 -28,
                                          -30 -7.1054299e-015 -50,
                                          30 7.1054299e-015 -50,
                                          11 0 -50,
                                          5.5 -9.5262804 -50,
                                          -5.5 -9.5262804 -50,
                                          -30 -32 -44,
                                          -30 -32 -28,
                                          52.400002 -38 51,
                                          -30 -38 51,
                                          -30 -38 28,
                                          -30 -32 28,
                                          13 -38 28,
                                          13 -75 28,
                                          -40 -32 28,
                                          -7.9987402 -13.8567 51,
                                          -30 -7.1054299e-015 51,
                                          -30 -7.1054299e-015 45,
                                          -30 -32 45,
                                          30 -38 18,
                                          52.400002 -38 18,
                                          52.400002 -32 45,
                                          7.9987402 -13.8567 51,
                                          16 0 51,
                                          20.145201 22.2299 51,
                                          52.400002 -7 51,
                                          52.400002 -32 18,
                                          30 -32 18,
                                          -16 0 51,
                                          -16 0 45,
                                          -21.556499 20.863701 51,
                                          -7.9987402 13.8567 51,
                                          -7.9987402 13.8567 45,
                                          -7.9987402 -13.8567 45,
                                          7.9987402 -13.8567 45,
                                          -0.98461097 29.9834 51,
                                          7.9987402 13.8567 51,
                                          16 0 45,
                                          7.9987402 13.8567 45,
                                          20.145201 22.2299 45,
                                          52.400002 -7 45,
                                          -21.556499 20.863701 45,
                                          -0.98461097 29.9834 45,
                                          20.351601 -32 11.75,
                                          -11.75 -32 20.351601,
                                          1.05734e-014 -32 23.5,
                                          11.75 -32 20.351601,
                                          20.351601 -32 -11.75,
                                          23.5 -32 0,
                                          23.5 -75 0,
                                          20.351601 -75 11.75,
                                          30 7.1054299e-015 -44,
                                          11.75 -32 -20.351601,
                                          21.2115 21.2145 -50,
                                          21.2115 21.2145 -44,
                                          5.5 -9.5262804 -44,
                                          11 0 -44,
                                          5.5 9.5262804 -50,
                                          -21.2115 21.2145 -50,
                                          20.351601 -75 -11.75,
                                          11.75 -75 -20.351601,
                                          1.37303e-016 -75 -23.5,
                                          5.5 9.5262804 -44,
                                          -11 0 -50,
                                          -5.5 -9.5262804 -44,
                                          -5.5 9.5262804 -50,
                                          -11 0 -44,
                                          -5.5 9.5262804 -44,
                                          -21.2115 21.2145 -44,
                                          -30 -7.1054299e-015 -44,
                                          3.4316699e-015 29.9995 -50,
                                          3.4316699e-015 29.9995 -44,
                                          -23.5 -32 0,
                                          1.37303e-016 -32 -23.5,
                                          -11.75 -32 -20.351601,
                                          -20.351601 -32 -11.75,
                                          -40 -32 -28,
                                          -20.351601 -32 11.75,
                                          -40 -75 28,
                                          -11.75 -75 -20.351601,
                                          -20.351601 -75 -11.75,
                                          -23.5 -75 -6.70532e-030,
                                          -20.351601 -75 11.75,
                                          -11.75 -75 20.351601,
                                          -5.0807501e-015 -75 23.5,
                                          11.75 -75 20.351601 ]

                                    }
                                    normal 
                                    Normal {
                                      vector [ 1.2246101e-016 -1 0,
                                          1 1.2246101e-016 0,
                                          0 0 -1,
                                          -1 -1.2246101e-016 0,
                                          0 0 1,
                                          0.57668298 7.0621001e-017 0.81696802,
                                          1 3.6738201e-016 0,
                                          0.5 0.86602497 0,
                                          0.5 -0.86602497 0,
                                          1 3.44505e-016 0,
                                          -0.5 0.86602497 0,
                                          -1 -2.4492101e-016 0,
                                          -0.5 -0.86602497 0,
                                          0.671507 0.74099803 0,
                                          -1 -3.0615201e-016 0,
                                          -0.71859801 0.69542599 0,
                                          -0.0327655 0.99946302 0,
                                          -1.2246101e-016 1 0,
                                          0.70710701 0.70710701 0,
                                          1 -1.2246101e-016 0,
                                          -1 1.2246101e-016 0,
                                          1 0 0,
                                          -0.70710701 0.70710701 0,
                                          -1 2.4492101e-016 0,
                                          1.8369101e-016 1 0,
                                          -1 0 0,
                                          -0.86602497 0 0.5,
                                          -0.86602497 0 -0.5,
                                          -0.5 0 0.86602497,
                                          -6.1230298e-017 0 1,
                                          1.60814e-016 0 1,
                                          0.5 0 0.86602497,
                                          0.86602497 0 0.5,
                                          1 0 1.2246101e-016,
                                          1 0 -1.2246101e-016,
                                          0.86602497 0 -0.5,
                                          0.5 0 -0.86602497,
                                          -6.1230298e-017 0 -1,
                                          3.82859e-016 0 -1,
                                          -0.5 0 -0.86602497 ]

                                    }
                                    coordIndex [ 0, 1, 2, -1, 3, 2, 1, -1,
                                        4, 0, 2, -1, 5, 4, 2, -1,
                                        6, 2, 7, -1, 3, 7, 2, -1,
                                        8, 2, 6, -1, 5, 2, 8, -1,
                                        9, 1, 0, -1, 10, 3, 1, -1,
                                        11, 10, 1, -1, 12, 11, 1, -1,
                                        13, 12, 1, -1, 9, 13, 1, -1,
                                        14, 0, 4, -1, 14, 9, 0, -1,
                                        15, 14, 4, -1, 5, 15, 4, -1,
                                        16, 17, 18, -1, 19, 18, 17, -1,
                                        20, 16, 18, -1, 21, 20, 18, -1,
                                        22, 18, 19, -1, 21, 18, 22, -1,
                                        23, 17, 16, -1, 24, 17, 23, -1,
                                        25, 17, 24, -1, 26, 17, 25, -1,
                                        26, 19, 17, -1, 27, 28, 16, -1,
                                        29, 16, 28, -1, 20, 27, 16, -1,
                                        30, 23, 16, -1, 31, 30, 16, -1,
                                        32, 31, 16, -1, 32, 16, 33, -1,
                                        29, 33, 16, -1, 34, 28, 27, -1,
                                        34, 29, 28, -1, 20, 7, 27, -1,
                                        3, 27, 7, -1, 35, 34, 27, -1,
                                        3, 35, 27, -1, 21, 7, 20, -1,
                                        21, 6, 7, -1, 24, 23, 36, -1,
                                        37, 36, 23, -1, 38, 36, 39, -1,
                                        40, 39, 36, -1, 38, 24, 36, -1,
                                        40, 36, 37, -1, 41, 23, 30, -1,
                                        41, 37, 23, -1, 42, 30, 31, -1,
                                        41, 30, 42, -1, 43, 44, 31, -1,
                                        45, 31, 44, -1, 32, 43, 31, -1,
                                        42, 31, 45, -1, 43, 39, 44, -1,
                                        46, 44, 39, -1, 45, 44, 46, -1,
                                        43, 38, 39, -1, 46, 39, 40, -1,
                                        47, 32, 33, -1, 29, 48, 33, -1,
                                        47, 33, 48, -1, 25, 24, 38, -1,
                                        49, 38, 43, -1, 49, 25, 38, -1,
                                        50, 43, 32, -1, 49, 43, 50, -1,
                                        50, 32, 47, -1, 26, 48, 29, -1,
                                        42, 48, 26, -1, 42, 45, 48, -1,
                                        47, 48, 45, -1, 35, 29, 34, -1,
                                        51, 29, 35, -1, 26, 29, 19, -1,
                                        52, 19, 29, -1, 53, 52, 29, -1,
                                        54, 53, 29, -1, 51, 54, 29, -1,
                                        55, 35, 3, -1, 55, 56, 35, -1,
                                        51, 35, 56, -1, 57, 8, 6, -1,
                                        58, 57, 6, -1, 21, 58, 6, -1,
                                        10, 59, 3, -1, 14, 3, 59, -1,
                                        60, 3, 14, -1, 60, 55, 3, -1,
                                        61, 59, 10, -1, 62, 59, 61, -1,
                                        63, 14, 59, -1, 63, 59, 64, -1,
                                        62, 64, 59, -1, 65, 10, 11, -1,
                                        66, 10, 65, -1, 66, 61, 10, -1,
                                        67, 8, 57, -1, 68, 69, 8, -1,
                                        5, 8, 69, -1, 67, 68, 8, -1,
                                        64, 11, 12, -1, 70, 65, 11, -1,
                                        70, 11, 64, -1, 63, 12, 13, -1,
                                        63, 64, 12, -1, 9, 71, 13, -1,
                                        72, 13, 71, -1, 63, 13, 72, -1,
                                        66, 73, 71, -1, 74, 71, 73, -1,
                                        66, 71, 9, -1, 72, 71, 74, -1,
                                        66, 65, 73, -1, 75, 73, 65, -1,
                                        74, 73, 75, -1, 75, 65, 70, -1,
                                        76, 66, 9, -1, 14, 77, 9, -1,
                                        76, 9, 77, -1, 66, 78, 61, -1,
                                        62, 61, 78, -1, 79, 78, 66, -1,
                                        62, 78, 79, -1, 79, 66, 76, -1,
                                        74, 77, 14, -1, 74, 75, 77, -1,
                                        62, 77, 75, -1, 62, 76, 77, -1,
                                        80, 14, 15, -1, 72, 74, 14, -1,
                                        63, 72, 14, -1, 81, 60, 14, -1,
                                        82, 81, 14, -1, 83, 82, 14, -1,
                                        80, 83, 14, -1, 84, 19, 15, -1,
                                        80, 15, 19, -1, 5, 84, 15, -1,
                                        49, 26, 25, -1, 84, 22, 19, -1,
                                        85, 80, 19, -1, 52, 85, 19, -1,
                                        41, 26, 37, -1, 49, 37, 26, -1,
                                        41, 42, 26, -1, 50, 40, 37, -1,
                                        49, 50, 37, -1, 50, 46, 40, -1,
                                        47, 45, 46, -1, 50, 47, 46, -1,
                                        62, 70, 64, -1, 62, 75, 70, -1,
                                        62, 79, 76, -1, 86, 22, 84, -1,
                                        21, 22, 86, -1, 86, 84, 5, -1,
                                        57, 56, 55, -1, 58, 51, 56, -1,
                                        58, 56, 57, -1, 67, 55, 60, -1,
                                        67, 57, 55, -1, 68, 60, 81, -1,
                                        67, 60, 68, -1, 69, 81, 82, -1,
                                        68, 81, 69, -1, 87, 82, 83, -1,
                                        69, 82, 87, -1, 88, 83, 80, -1,
                                        87, 83, 88, -1, 89, 80, 85, -1,
                                        88, 80, 89, -1, 90, 85, 52, -1,
                                        89, 85, 90, -1, 91, 52, 53, -1,
                                        90, 52, 91, -1, 92, 53, 54, -1,
                                        91, 53, 92, -1, 93, 54, 51, -1,
                                        92, 54, 93, -1, 93, 51, 58, -1,
                                        21, 93, 58, -1, 21, 92, 93, -1,
                                        86, 91, 92, -1, 21, 86, 92, -1,
                                        86, 90, 91, -1, 86, 89, 90, -1,
                                        86, 88, 89, -1, 5, 87, 88, -1,
                                        86, 5, 88, -1, 5, 69, 87, -1 ]
                                    normalIndex [ 0, 0, 0, -1, 1, 1, 1, -1,
                                        0, 0, 0, -1, 2, 2, 2, -1,
                                        1, 1, 1, -1, 1, 1, 1, -1,
                                        1, 1, 1, -1, 2, 2, 2, -1,
                                        2, 2, 2, -1, 1, 1, 1, -1,
                                        2, 2, 2, -1, 2, 2, 2, -1,
                                        2, 2, 2, -1, 2, 2, 2, -1,
                                        3, 3, 3, -1, 3, 3, 3, -1,
                                        3, 3, 3, -1, 2, 2, 2, -1,
                                        0, 0, 0, -1, 3, 3, 3, -1,
                                        0, 0, 0, -1, 4, 4, 4, -1,
                                        4, 4, 4, -1, 4, 4, 4, -1,
                                        4, 4, 4, -1, 4, 4, 4, -1,
                                        3, 3, 3, -1, 3, 3, 3, -1,
                                        3, 3, 3, -1, 0, 0, 0, -1,
                                        1, 1, 1, -1, 0, 0, 0, -1,
                                        4, 4, 4, -1, 4, 4, 4, -1,
                                        4, 4, 4, -1, 4, 4, 4, -1,
                                        1, 1, 1, -1, 2, 2, 2, -1,
                                        1, 1, 1, -1, 0, 0, 0, -1,
                                        1, 1, 1, -1, 2, 2, 2, -1,
                                        1, 1, 1, -1, 5, 5, 5, -1,
                                        5, 5, 5, -1, 4, 4, 4, -1,
                                        6, 6, 7, -1, 4, 4, 4, -1,
                                        8, 8, 1, -1, 4, 4, 4, -1,
                                        8, 1, 9, -1, 7, 7, 10, -1,
                                        7, 6, 7, -1, 10, 10, 11, -1,
                                        7, 10, 10, -1, 4, 4, 4, -1,
                                        11, 11, 12, -1, 4, 4, 4, -1,
                                        10, 11, 11, -1, 4, 4, 4, -1,
                                        12, 12, 8, -1, 11, 12, 12, -1,
                                        4, 4, 4, -1, 12, 8, 8, -1,
                                        13, 13, 13, -1, 1, 1, 1, -1,
                                        13, 13, 13, -1, 14, 14, 15, -1,
                                        15, 15, 16, -1, 15, 14, 15, -1,
                                        16, 16, 13, -1, 15, 16, 16, -1,
                                        16, 13, 13, -1, 2, 2, 2, -1,
                                        2, 2, 2, -1, 2, 2, 2, -1,
                                        2, 2, 2, -1, 17, 17, 17, -1,
                                        17, 17, 17, -1, 17, 17, 17, -1,
                                        17, 17, 17, -1, 17, 17, 17, -1,
                                        17, 17, 17, -1, 17, 17, 17, -1,
                                        17, 17, 17, -1, 17, 17, 17, -1,
                                        17, 17, 17, -1, 0, 0, 0, -1,
                                        0, 0, 0, -1, 0, 0, 0, -1,
                                        1, 1, 1, -1, 4, 4, 4, -1,
                                        17, 17, 17, -1, 17, 17, 17, -1,
                                        18, 19, 19, -1, 18, 19, 18, -1,
                                        4, 4, 4, -1, 4, 4, 4, -1,
                                        4, 4, 4, -1, 2, 2, 2, -1,
                                        2, 2, 2, -1, 2, 2, 2, -1,
                                        0, 0, 0, -1, 0, 0, 0, -1,
                                        0, 0, 0, -1, 0, 0, 0, -1,
                                        20, 20, 10, -1, 12, 12, 3, -1,
                                        12, 3, 3, -1, 10, 10, 7, -1,
                                        10, 20, 10, -1, 2, 2, 2, -1,
                                        7, 7, 21, -1, 10, 7, 7, -1,
                                        2, 2, 2, -1, 21, 21, 8, -1,
                                        2, 2, 2, -1, 7, 21, 21, -1,
                                        2, 2, 2, -1, 8, 8, 12, -1,
                                        21, 8, 8, -1, 8, 12, 12, -1,
                                        22, 22, 23, -1, 3, 3, 3, -1,
                                        22, 23, 23, -1, 2, 2, 2, -1,
                                        18, 18, 24, -1, 24, 24, 22, -1,
                                        18, 24, 24, -1, 24, 22, 22, -1,
                                        4, 4, 4, -1, 4, 4, 4, -1,
                                        4, 4, 4, -1, 4, 4, 4, -1,
                                        17, 17, 17, -1, 4, 4, 4, -1,
                                        4, 4, 4, -1, 17, 17, 17, -1,
                                        17, 17, 17, -1, 17, 17, 17, -1,
                                        17, 17, 17, -1, 17, 17, 17, -1,
                                        17, 17, 17, -1, 2, 2, 2, -1,
                                        2, 2, 2, -1, 17, 17, 17, -1,
                                        17, 17, 17, -1, 17, 17, 17, -1,
                                        2, 2, 2, -1, 2, 2, 2, -1,
                                        2, 2, 2, -1, 2, 2, 2, -1,
                                        2, 2, 2, -1, 2, 2, 2, -1,
                                        2, 2, 2, -1, 2, 2, 2, -1,
                                        4, 4, 4, -1, 4, 4, 4, -1,
                                        4, 4, 4, -1, 3, 3, 3, -1,
                                        4, 4, 4, -1, 3, 3, 3, -1,
                                        25, 25, 26, -1, 27, 27, 25, -1,
                                        27, 25, 25, -1, 26, 26, 28, -1,
                                        26, 25, 26, -1, 28, 28, 29, -1,
                                        26, 28, 28, -1, 30, 29, 31, -1,
                                        28, 29, 30, -1, 31, 31, 32, -1,
                                        30, 31, 31, -1, 32, 32, 33, -1,
                                        31, 32, 32, -1, 34, 34, 35, -1,
                                        32, 33, 33, -1, 35, 35, 36, -1,
                                        34, 35, 35, -1, 36, 36, 37, -1,
                                        35, 36, 36, -1, 38, 37, 39, -1,
                                        36, 37, 38, -1, 39, 39, 27, -1,
                                        38, 39, 39, -1, 39, 27, 27, -1,
                                        0, 0, 0, -1, 0, 0, 0, -1,
                                        0, 0, 0, -1, 0, 0, 0, -1,
                                        0, 0, 0, -1, 0, 0, 0, -1,
                                        0, 0, 0, -1, 0, 0, 0, -1,
                                        0, 0, 0, -1, 0, 0, 0, -1 ]
                                    ccw TRUE
                                    solid TRUE
                                    convex TRUE
                                    creaseAngle 0

                                  }

                                }

                            }

                        }

                    }

                }

            }

        }

    }

}
