####
#
# OBJ File Generated by Meshlab
#
####
# Object thumb_r2.obj
#
# Vertices: 160
# Faces: 320
#
####
vn 1.179124 -2.751169 2.844501
v 0.000857 -0.005002 0.002056 0.874510 0.945098 1.000000
vn -2.417206 -3.768514 -1.759204
v 0.000599 -0.005000 0.000431 0.874510 0.945098 1.000000
vn -2.987833 -3.769908 -0.003001
v 0.000740 -0.005000 -0.000004 0.874510 0.945098 1.000000
vn -2.987833 3.769908 0.003001
v 0.000740 -0.002800 -0.000002 0.874510 0.945098 1.000000
vn 1.570796 -1.569545 -1.572046
v 0.002400 -0.004998 -0.002254 0.874510 0.945098 1.000000
vn -2.417206 -3.771310 1.753201
v 0.000599 -0.005000 -0.000439 0.874510 0.945098 1.000000
vn -2.417206 3.768514 1.759204
v 0.000599 -0.002800 -0.000437 0.874510 0.945098 1.000000
vn 0.306448 -2.947719 3.109064
v -0.000100 -0.005002 0.002246 0.874510 0.945098 1.000000
vn -0.923290 -3.767647 -2.844599
v 0.000229 -0.005001 0.000700 0.874510 0.945098 1.000000
vn -2.417206 3.771310 -1.753201
v 0.000599 -0.002800 0.000433 0.874510 0.945098 1.000000
vn 0.923290 -3.767647 -2.844599
v -0.000229 -0.005001 0.000700 0.874510 0.945098 1.000000
vn -0.923290 3.772171 -2.838596
v 0.000229 -0.002801 0.000702 0.874510 0.945098 1.000000
vn -1.570796 -1.572046 1.569545
v -0.037600 -0.005002 0.002246 0.874510 0.945098 1.000000
vn 2.417206 -3.768514 -1.759204
v -0.000599 -0.005000 0.000431 0.874510 0.945098 1.000000
vn 0.923290 3.772171 -2.838596
v -0.000229 -0.002801 0.000702 0.874510 0.945098 1.000000
vn 2.987833 -3.769908 -0.003001
v -0.000740 -0.005000 -0.000004 0.874510 0.945098 1.000000
vn 2.417206 3.771310 -1.753201
v -0.000599 -0.002800 0.000433 0.874510 0.945098 1.000000
vn 2.417206 -3.771310 1.753201
v -0.000599 -0.005000 -0.000439 0.874510 0.945098 1.000000
vn 2.987833 3.769908 0.003001
v -0.000740 -0.002800 -0.000002 0.874510 0.945098 1.000000
vn 0.923290 -3.772171 2.838596
v -0.000229 -0.004999 -0.000708 0.874510 0.945098 1.000000
vn 2.417206 3.768514 1.759204
v -0.000599 -0.002800 -0.000437 0.874510 0.945098 1.000000
vn -0.923290 -3.772171 2.838596
v 0.000229 -0.004999 -0.000708 0.874510 0.945098 1.000000
vn 0.923290 3.767647 2.844599
v -0.000229 -0.002799 -0.000706 0.874510 0.945098 1.000000
vn -0.923290 3.767647 2.844599
v 0.000229 -0.002799 -0.000706 0.874510 0.945098 1.000000
vn -1.570796 -1.574548 4.711137
v -0.037600 -0.002502 0.002248 0.874510 0.945098 1.000000
vn -1.570796 -1.569545 -1.572046
v -0.037600 -0.004998 -0.002254 0.874510 0.945098 1.000000
vn -1.570796 -1.567044 -4.713638
v -0.037600 -0.002498 -0.002252 0.874510 0.945098 1.000000
vn 0.306448 2.942764 3.113754
v -0.000100 -0.002802 0.002248 0.874510 0.945098 1.000000
vn -1.570796 1.567044 4.713638
v -0.037600 0.002498 0.002252 0.874510 0.945098 1.000000
vn -1.570796 1.569545 1.572046
v -0.037600 0.004998 0.002254 0.874510 0.945098 1.000000
vn 1.570796 1.567044 4.713638
v -0.002250 -0.002802 0.002248 0.874510 0.945098 1.000000
vn 2.178753 -2.750610 2.176564
v 0.001668 -0.005001 0.001514 0.874510 0.945098 1.000000
vn 1.179124 2.746636 2.848878
v 0.000857 -0.002802 0.002057 0.874510 0.945098 1.000000
vn 2.846691 -2.749841 1.176936
v 0.002210 -0.005001 0.000703 0.874510 0.945098 1.000000
vn 2.178753 2.747140 2.180941
v 0.001668 -0.002801 0.001516 0.874510 0.945098 1.000000
vn 3.111410 -2.945485 0.304103
v 0.002400 -0.005000 -0.000254 0.874510 0.945098 1.000000
vn 2.846691 2.747963 1.181313
v 0.002210 -0.002801 0.000704 0.874510 0.945098 1.000000
vn 1.570796 1.572046 -1.569545
v 0.002400 -0.002798 -0.002252 0.874510 0.945098 1.000000
vn 3.111410 2.944997 0.308793
v 0.002400 -0.002800 -0.000252 0.874510 0.945098 1.000000
vn 1.570796 -1.567044 -4.713638
v -0.002250 0.002802 -0.002248 0.874510 0.945098 1.000000
vn 1.570796 1.572046 -1.569545
v 0.002400 0.005002 -0.002246 0.874510 0.945098 1.000000
vn 1.570796 1.574548 -4.711137
v -0.002250 -0.002798 -0.002252 0.874510 0.945098 1.000000
vn 0.306448 2.942764 3.113754
v -0.000100 0.004998 0.002254 0.874510 0.945098 1.000000
vn 2.417206 3.771309 -1.753202
v -0.000607 0.005000 0.000445 0.874510 0.945098 1.000000
vn 2.987832 3.769910 0.003001
v -0.000750 0.005000 0.000004 0.874510 0.945098 1.000000
vn 2.987832 -3.769910 -0.003001
v -0.000750 0.002800 0.000002 0.874510 0.945098 1.000000
vn -1.570796 1.572046 -1.569545
v -0.037600 0.005002 -0.002246 0.874510 0.945098 1.000000
vn 2.417206 3.768512 1.759205
v -0.000607 0.005000 -0.000437 0.874510 0.945098 1.000000
vn 2.417206 -3.771309 1.753202
v -0.000607 0.002800 -0.000439 0.874510 0.945098 1.000000
vn 0.923290 3.772172 -2.838595
v -0.000232 0.004999 0.000717 0.874510 0.945098 1.000000
vn 2.417206 -3.768512 -1.759205
v -0.000607 0.002800 0.000443 0.874510 0.945098 1.000000
vn -0.923290 3.772172 -2.838595
v 0.000232 0.004999 0.000717 0.874510 0.945098 1.000000
vn 0.923290 -3.767647 -2.844598
v -0.000232 0.002799 0.000716 0.874510 0.945098 1.000000
vn 1.179124 2.746636 2.848878
v 0.000857 0.004998 0.002064 0.874510 0.945098 1.000000
vn -2.417206 3.771309 -1.753202
v 0.000607 0.005000 0.000445 0.874510 0.945098 1.000000
vn -0.923290 -3.767647 -2.844598
v 0.000232 0.002799 0.000716 0.874510 0.945098 1.000000
vn -2.987832 3.769910 0.003001
v 0.000750 0.005000 0.000004 0.874510 0.945098 1.000000
vn -2.417206 -3.768512 -1.759205
v 0.000607 0.002800 0.000443 0.874510 0.945098 1.000000
vn 2.178753 2.747140 2.180941
v 0.001668 0.004999 0.001522 0.874510 0.945098 1.000000
vn -2.417206 3.768512 1.759205
v 0.000607 0.005000 -0.000437 0.874510 0.945098 1.000000
vn -2.987832 -3.769910 -0.003001
v 0.000750 0.002800 0.000002 0.874510 0.945098 1.000000
vn 2.846691 2.747963 1.181313
v 0.002210 0.004999 0.000711 0.874510 0.945098 1.000000
vn -0.923290 3.767647 2.844598
v 0.000232 0.005001 -0.000709 0.874510 0.945098 1.000000
vn -2.417206 -3.771309 1.753202
v 0.000607 0.002800 -0.000439 0.874510 0.945098 1.000000
vn 0.923290 3.767647 2.844598
v -0.000232 0.005001 -0.000709 0.874510 0.945098 1.000000
vn -0.923290 -3.772172 2.838595
v 0.000232 0.002801 -0.000711 0.874510 0.945098 1.000000
vn 3.111410 2.944997 0.308793
v 0.002400 0.005000 -0.000246 0.874510 0.945098 1.000000
vn 0.923290 -3.772172 2.838595
v -0.000232 0.002801 -0.000711 0.874510 0.945098 1.000000
vn 0.306448 -2.947719 3.109064
v -0.000100 0.002798 0.002252 0.874510 0.945098 1.000000
vn 1.179124 -2.751169 2.844501
v 0.000857 0.002798 0.002062 0.874510 0.945098 1.000000
vn 1.570796 -1.574548 4.711137
v -0.002250 0.002798 0.002252 0.874510 0.945098 1.000000
vn -1.570796 1.574548 -4.711137
v -0.037600 0.002502 -0.002248 0.874510 0.945098 1.000000
vn 3.111410 -2.945485 0.304103
v 0.002400 0.002800 -0.000248 0.874510 0.945098 1.000000
vn 1.570796 -1.569545 -1.572046
v 0.002400 0.002802 -0.002248 0.874510 0.945098 1.000000
vn 2.846691 -2.749841 1.176936
v 0.002210 0.002799 0.000709 0.874510 0.945098 1.000000
vn 2.178753 -2.750610 2.176564
v 0.001668 0.002799 0.001520 0.874510 0.945098 1.000000
vn -1.570796 1.569545 1.572046
v -0.042250 0.002498 0.002252 0.874510 0.945098 1.000000
vn -1.570796 1.572046 -1.569545
v -0.042250 0.002502 -0.002248 0.874510 0.945098 1.000000
vn -1.570796 -1.569545 -1.572046
v -0.042250 -0.002498 -0.002252 0.874510 0.945098 1.000000
vn -1.570796 -1.572046 1.569545
v -0.042250 -0.002502 0.002248 0.874510 0.945098 1.000000
vn 2.628003 -3.666335 1.514390
v -0.040909 -0.002500 -0.000527 0.874510 0.945098 1.000000
vn 1.517307 -3.667300 2.625047
v -0.040525 -0.002499 -0.000911 0.874510 0.945098 1.000000
vn 2.628003 3.666335 -1.514390
v -0.040909 0.002500 0.000527 0.874510 0.945098 1.000000
vn -1.517307 3.663115 2.630883
v -0.039475 0.002501 -0.000907 0.874510 0.945098 1.000000
vn 3.034513 3.665271 0.002918
v -0.041050 0.002500 0.000002 0.874510 0.945098 1.000000
vn 2.628003 3.663919 1.520226
v -0.040909 0.002500 -0.000523 0.874510 0.945098 1.000000
vn 0.000000 3.662786 3.037458
v -0.040000 0.002501 -0.001048 0.874510 0.945098 1.000000
vn 1.517307 3.663115 2.630883
v -0.040525 0.002501 -0.000907 0.874510 0.945098 1.000000
vn 1.517307 3.667300 -2.625047
v -0.040525 0.002499 0.000911 0.874510 0.945098 1.000000
vn -1.517307 -3.663115 -2.630883
v -0.039475 -0.002501 0.000907 0.874510 0.945098 1.000000
vn 3.034513 -3.665271 -0.002918
v -0.041050 -0.002500 -0.000002 0.874510 0.945098 1.000000
vn 2.628003 -3.663919 -1.520226
v -0.040909 -0.002500 0.000523 0.874510 0.945098 1.000000
vn 0.000000 -3.662786 -3.037458
v -0.040000 -0.002501 0.001048 0.874510 0.945098 1.000000
vn 1.517307 -3.663115 -2.630883
v -0.040525 -0.002501 0.000907 0.874510 0.945098 1.000000
vn -2.628003 -3.663919 -1.520226
v -0.039091 -0.002500 0.000523 0.874510 0.945098 1.000000
vn -2.628003 3.663919 1.520226
v -0.039091 0.002500 -0.000523 0.874510 0.945098 1.000000
vn 0.000000 3.667618 -3.031622
v -0.040000 0.002499 0.001052 0.874510 0.945098 1.000000
vn -1.517307 3.667300 -2.625047
v -0.039475 0.002499 0.000911 0.874510 0.945098 1.000000
vn -2.628003 3.666335 -1.514390
v -0.039091 0.002500 0.000527 0.874510 0.945098 1.000000
vn -3.034513 3.665271 0.002918
v -0.038950 0.002500 0.000002 0.874510 0.945098 1.000000
vn 0.000000 -3.667618 3.031622
v -0.040000 -0.002499 -0.001052 0.874510 0.945098 1.000000
vn -1.517307 -3.667300 2.625047
v -0.039475 -0.002499 -0.000911 0.874510 0.945098 1.000000
vn -2.628003 -3.666335 1.514390
v -0.039091 -0.002500 -0.000527 0.874510 0.945098 1.000000
vn -3.034513 -3.665271 -0.002918
v -0.038950 -0.002500 -0.000002 0.874510 0.945098 1.000000
vn -2.158590 1.641564 0.236864
v -0.058750 0.007120 -0.002744 0.000000 0.000000 1.000000
vn -2.999947 -1.316618 -2.687678
v -0.058750 -0.004159 -0.005753 0.000000 0.000000 1.000000
vn -2.158580 -1.641942 0.234255
v -0.058750 -0.007115 -0.002756 0.000000 0.000000 1.000000
vn -1.813302 -2.280807 0.583250
v -0.058495 -0.007306 -0.002607 0.000000 0.000000 1.000000
vn -1.026656 1.729665 5.065852
v -0.046750 0.006997 0.004256 0.000000 0.000000 1.000000
vn -1.026656 -1.737729 5.063091
v -0.046750 -0.007003 0.004244 0.000000 0.000000 1.000000
vn -2.999947 1.320896 -2.685578
v -0.058750 0.004168 -0.005747 0.000000 0.000000 1.000000
vn -0.827153 1.932500 -5.257784
v -0.035750 0.001274 -0.012749 0.000000 0.000000 1.000000
vn -0.827153 -1.924126 -5.260854
v -0.035750 -0.001253 -0.012751 0.000000 0.000000 1.000000
vn -0.709487 -5.322904 -1.968465
v -0.046750 -0.009998 -0.001947 0.000000 0.000000 1.000000
vn -1.813370 2.280019 0.586841
v -0.058495 0.007310 -0.002595 0.000000 0.000000 1.000000
vn -0.709488 5.326032 -1.959986
v -0.046750 0.010002 -0.001931 0.000000 0.000000 1.000000
vn -1.786491 3.051153 2.853463
v -0.050442 0.009152 0.002103 0.000000 0.000000 1.000000
vn 2.140890 1.197864 -2.575555
v -0.025750 0.003010 -0.012748 0.000000 0.000000 1.000000
vn 2.356194 1.108585 2.682401
v -0.025750 0.006997 0.004256 0.000000 0.000000 1.000000
vn 2.356194 -1.112855 2.680632
v -0.025750 -0.007003 0.004244 0.000000 0.000000 1.000000
vn 2.140890 -1.193761 -2.577459
v -0.025750 -0.002990 -0.012752 0.000000 0.000000 1.000000
vn 2.356194 -2.682401 1.108585
v -0.025750 -0.010001 0.001242 0.000000 0.000000 1.000000
vn 2.155744 2.595634 -1.178158
v -0.025750 0.010004 -0.005634 0.000000 0.000000 1.000000
vn 2.356194 2.680632 1.112855
v -0.025750 0.009999 0.001258 0.000000 0.000000 1.000000
vn -0.399970 5.314351 2.004059
v -0.046750 0.009999 0.001258 0.000000 0.000000 1.000000
vn 2.155744 -2.593755 -1.182290
v -0.025750 -0.009996 -0.005650 0.000000 0.000000 1.000000
vn -0.399969 -5.317536 1.995595
v -0.046750 -0.010001 0.001242 0.000000 0.000000 1.000000
vn -1.786494 -3.055684 2.848602
v -0.050442 -0.009156 0.002089 0.000000 0.000000 1.000000
vn -2.846668 1.181344 -2.747935
v -0.016619 0.001912 0.002252 0.000000 0.000000 1.000000
vn 2.846680 1.181327 -2.747948
v -0.007381 0.001912 0.002252 0.000000 0.000000 1.000000
vn 3.081229 0.002189 -2.748896
v -0.007000 -0.000002 0.002250 0.000000 0.000000 1.000000
vn 3.081229 -0.002189 2.748896
v -0.007000 -0.000003 0.003750 0.000000 0.000000 1.000000
vn -3.081229 0.002189 -2.748896
v -0.017000 -0.000002 0.002250 0.000000 0.000000 1.000000
vn 2.846680 -1.176950 -2.749825
v -0.007381 -0.001915 0.002248 0.000000 0.000000 1.000000
vn 2.846680 -1.181327 2.747948
v -0.007381 -0.001916 0.003748 0.000000 0.000000 1.000000
vn -2.178752 2.180961 -2.747183
v -0.015536 0.003534 0.002253 0.000000 0.000000 1.000000
vn 2.178752 2.180952 -2.747161
v -0.008464 0.003534 0.002253 0.000000 0.000000 1.000000
vn 2.846680 1.176950 2.749825
v -0.007381 0.001910 0.003752 0.000000 0.000000 1.000000
vn -1.179145 2.848864 -2.746619
v -0.013913 0.004618 0.002254 0.000000 0.000000 1.000000
vn 1.179134 2.848872 -2.746628
v -0.010087 0.004618 0.002254 0.000000 0.000000 1.000000
vn 2.178752 2.176575 2.750631
v -0.008464 0.003533 0.003753 0.000000 0.000000 1.000000
vn -0.000000 3.083415 -2.746438
v -0.012000 0.004998 0.002254 0.000000 0.000000 1.000000
vn 1.179134 2.844495 2.751161
v -0.010087 0.004616 0.003754 0.000000 0.000000 1.000000
vn -0.000000 3.079038 2.751345
v -0.012000 0.004997 0.003754 0.000000 0.000000 1.000000
vn -1.179145 2.844487 2.751152
v -0.013913 0.004616 0.003754 0.000000 0.000000 1.000000
vn -2.178752 2.176584 2.750652
v -0.015536 0.003533 0.003753 0.000000 0.000000 1.000000
vn -2.846668 1.176967 2.749813
v -0.016619 0.001910 0.003752 0.000000 0.000000 1.000000
vn -2.846668 -1.176967 -2.749813
v -0.016619 -0.001915 0.002248 0.000000 0.000000 1.000000
vn -3.081229 -0.002189 2.748896
v -0.017000 -0.000003 0.003750 0.000000 0.000000 1.000000
vn 2.178752 -2.176575 -2.750631
v -0.008464 -0.003537 0.002247 0.000000 0.000000 1.000000
vn -2.178752 -2.176584 -2.750652
v -0.015536 -0.003537 0.002247 0.000000 0.000000 1.000000
vn -2.846668 -1.181344 2.747935
v -0.016619 -0.001916 0.003748 0.000000 0.000000 1.000000
vn 1.179134 -2.844495 -2.751161
v -0.010087 -0.004621 0.002246 0.000000 0.000000 1.000000
vn -1.179145 -2.844487 -2.751152
v -0.013913 -0.004621 0.002246 0.000000 0.000000 1.000000
vn -2.178752 -2.180961 2.747183
v -0.015536 -0.003539 0.003747 0.000000 0.000000 1.000000
vn -0.000000 -3.079038 -2.751345
v -0.012000 -0.005002 0.002246 0.000000 0.000000 1.000000
vn -1.179145 -2.848864 2.746619
v -0.013913 -0.004622 0.003746 0.000000 0.000000 1.000000
vn -0.000000 -3.083415 2.746438
v -0.012000 -0.005003 0.003746 0.000000 0.000000 1.000000
vn 1.179134 -2.848872 2.746628
v -0.010087 -0.004622 0.003746 0.000000 0.000000 1.000000
vn 2.178752 -2.180952 2.747161
v -0.008464 -0.003539 0.003747 0.000000 0.000000 1.000000
# 160 vertices, 0 vertices normals

f 1//1 2//2 3//3
f 4//4 3//3 2//2
f 5//5 3//3 6//6
f 7//7 6//6 3//3
f 5//5 1//1 3//3
f 7//7 3//3 4//4
f 8//8 9//9 2//2
f 10//10 2//2 9//9
f 1//1 8//8 2//2
f 10//10 4//4 2//2
f 8//8 11//11 9//9
f 12//12 9//9 11//11
f 10//10 9//9 12//12
f 13//13 14//14 11//11
f 15//15 11//11 14//14
f 8//8 13//13 11//11
f 12//12 11//11 15//15
f 13//13 16//16 14//14
f 17//17 14//14 16//16
f 15//15 14//14 17//17
f 13//13 18//18 16//16
f 19//19 16//16 18//18
f 17//17 16//16 19//19
f 13//13 20//20 18//18
f 21//21 18//18 20//20
f 19//19 18//18 21//21
f 5//5 22//22 20//20
f 23//23 20//20 22//22
f 5//5 20//20 13//13
f 21//21 20//20 23//23
f 5//5 6//6 22//22
f 24//24 22//22 6//6
f 23//23 22//22 24//24
f 24//24 6//6 7//7
f 25//25 13//13 8//8
f 26//26 5//5 13//13
f 27//27 26//26 13//13
f 27//27 13//13 25//25
f 28//28 8//8 1//1
f 29//29 8//8 30//30
f 31//31 30//30 8//8
f 31//31 8//8 28//28
f 29//29 25//25 8//8
f 5//5 32//32 1//1
f 33//33 1//1 32//32
f 33//33 28//28 1//1
f 5//5 34//34 32//32
f 35//35 32//32 34//34
f 33//33 32//32 35//35
f 5//5 36//36 34//34
f 37//37 34//34 36//36
f 35//35 34//34 37//37
f 38//38 36//36 5//5
f 38//38 39//39 36//36
f 37//37 36//36 39//39
f 38//38 5//5 26//26
f 40//40 26//26 41//41
f 27//27 41//41 26//26
f 42//42 38//38 26//26
f 40//40 42//42 26//26
f 43//43 44//44 45//45
f 46//46 45//45 44//44
f 47//47 45//45 48//48
f 49//49 48//48 45//45
f 47//47 43//43 45//45
f 49//49 45//45 46//46
f 43//43 50//50 44//44
f 51//51 44//44 50//50
f 51//51 46//46 44//44
f 43//43 52//52 50//50
f 53//53 50//50 52//52
f 51//51 50//50 53//53
f 54//54 55//55 52//52
f 56//56 52//52 55//55
f 54//54 52//52 43//43
f 53//53 52//52 56//56
f 54//54 57//57 55//55
f 58//58 55//55 57//57
f 56//56 55//55 58//58
f 59//59 60//60 57//57
f 61//61 57//57 60//60
f 54//54 59//59 57//57
f 58//58 57//57 61//61
f 62//62 63//63 60//60
f 64//64 60//60 63//63
f 59//59 62//62 60//60
f 61//61 60//60 64//64
f 47//47 65//65 63//63
f 66//66 63//63 65//65
f 41//41 47//47 63//63
f 67//67 41//41 63//63
f 62//62 67//67 63//63
f 64//64 63//63 66//66
f 47//47 48//48 65//65
f 68//68 65//65 48//48
f 66//66 65//65 68//68
f 68//68 48//48 49//49
f 47//47 30//30 43//43
f 69//69 43//43 30//30
f 70//70 54//54 43//43
f 70//70 43//43 69//69
f 29//29 30//30 47//47
f 71//71 69//69 30//30
f 31//31 71//71 30//30
f 72//72 47//47 41//41
f 72//72 29//29 47//47
f 73//73 41//41 67//67
f 74//74 41//41 73//73
f 40//40 41//41 74//74
f 27//27 72//72 41//41
f 73//73 67//67 62//62
f 75//75 62//62 59//59
f 75//75 73//73 62//62
f 76//76 59//59 54//54
f 75//75 59//59 76//76
f 76//76 54//54 70//70
f 77//77 78//78 79//79
f 72//72 79//79 78//78
f 80//80 77//77 79//79
f 81//81 80//80 79//79
f 27//27 79//79 72//72
f 82//82 79//79 27//27
f 82//82 81//81 79//79
f 83//83 78//78 77//77
f 84//84 72//72 78//78
f 83//83 85//85 78//78
f 86//86 78//78 85//85
f 87//87 84//84 78//78
f 88//88 87//87 78//78
f 86//86 88//88 78//78
f 25//25 77//77 80//80
f 29//29 77//77 25//25
f 89//89 77//77 29//29
f 89//89 83//83 77//77
f 90//90 25//25 80//80
f 81//81 91//91 80//80
f 92//92 80//80 91//91
f 93//93 90//90 80//80
f 94//94 93//93 80//80
f 92//92 94//94 80//80
f 42//42 31//31 28//28
f 19//19 42//42 28//28
f 17//17 19//19 28//28
f 15//15 17//17 28//28
f 12//12 15//15 28//28
f 33//33 12//12 28//28
f 95//95 27//27 25//25
f 90//90 95//95 25//25
f 96//96 29//29 72//72
f 97//97 89//89 29//29
f 98//98 97//97 29//29
f 99//99 98//98 29//29
f 100//100 99//99 29//29
f 96//96 100//100 29//29
f 53//53 69//69 71//71
f 56//56 58//58 69//69
f 70//70 69//69 58//58
f 53//53 56//56 69//69
f 40//40 71//71 31//31
f 49//49 71//71 40//40
f 49//49 46//46 71//71
f 51//51 71//71 46//46
f 51//51 53//53 71//71
f 40//40 31//31 42//42
f 42//42 39//39 38//38
f 24//24 39//39 42//42
f 37//37 39//39 24//24
f 75//75 74//74 73//73
f 68//68 40//40 74//74
f 66//66 68//68 74//74
f 64//64 66//66 74//74
f 61//61 64//64 74//74
f 70//70 61//61 74//74
f 76//76 70//70 74//74
f 75//75 76//76 74//74
f 23//23 24//24 42//42
f 21//21 23//23 42//42
f 19//19 21//21 42//42
f 68//68 49//49 40//40
f 84//84 96//96 72//72
f 101//101 82//82 27//27
f 102//102 101//101 27//27
f 103//103 102//102 27//27
f 104//104 103//103 27//27
f 95//95 104//104 27//27
f 35//35 7//7 4//4
f 33//33 4//4 10//10
f 33//33 35//35 4//4
f 37//37 24//24 7//7
f 35//35 37//37 7//7
f 33//33 10//10 12//12
f 70//70 58//58 61//61
f 85//85 91//91 81//81
f 83//83 92//92 91//91
f 83//83 91//91 85//85
f 86//86 81//81 82//82
f 86//86 85//85 81//81
f 88//88 82//82 101//101
f 86//86 82//82 88//88
f 87//87 101//101 102//102
f 88//88 101//101 87//87
f 84//84 102//102 103//103
f 87//87 102//102 84//84
f 96//96 103//103 104//104
f 84//84 103//103 96//96
f 100//100 104//104 95//95
f 96//96 104//104 100//100
f 99//99 95//95 90//90
f 100//100 95//95 99//99
f 98//98 90//90 93//93
f 99//99 90//90 98//98
f 97//97 93//93 94//94
f 98//98 93//93 97//97
f 89//89 94//94 92//92
f 97//97 94//94 89//89
f 89//89 92//92 83//83
f 105//105 106//106 107//107
f 108//108 107//107 106//106
f 109//109 105//105 107//107
f 109//109 107//107 110//110
f 108//108 110//110 107//107
f 105//105 111//111 106//106
f 112//112 106//106 111//111
f 113//113 114//114 106//106
f 108//108 106//106 114//114
f 113//113 106//106 112//112
f 115//115 111//111 105//105
f 116//116 112//112 111//111
f 115//115 116//116 111//111
f 117//117 105//105 109//109
f 115//115 105//105 117//117
f 118//118 119//119 120//120
f 109//109 120//120 119//119
f 121//121 118//118 120//120
f 122//122 121//121 120//120
f 110//110 122//122 120//120
f 109//109 110//110 120//120
f 123//123 124//124 119//119
f 125//125 119//119 124//124
f 118//118 123//123 119//119
f 125//125 109//109 119//119
f 116//116 124//124 123//123
f 116//116 125//125 124//124
f 112//112 123//123 118//118
f 116//116 123//123 112//112
f 113//113 118//118 121//121
f 113//113 112//112 118//118
f 122//122 126//126 121//121
f 113//113 121//121 126//126
f 127//127 126//126 122//122
f 127//127 114//114 126//126
f 113//113 126//126 114//114
f 127//127 122//122 110//110
f 128//128 127//127 110//110
f 128//128 110//110 108//108
f 117//117 109//109 125//125
f 128//128 114//114 127//127
f 128//128 108//108 114//114
f 115//115 125//125 116//116
f 115//115 117//117 125//125
f 129//129 130//130 131//131
f 132//132 131//131 130//130
f 133//133 129//129 131//131
f 134//134 133//133 131//131
f 135//135 134//134 131//131
f 135//135 131//131 132//132
f 136//136 137//137 130//130
f 138//138 130//130 137//137
f 129//129 136//136 130//130
f 138//138 132//132 130//130
f 139//139 140//140 137//137
f 141//141 137//137 140//140
f 136//136 139//139 137//137
f 138//138 137//137 141//141
f 139//139 142//142 140//140
f 143//143 140//140 142//142
f 141//141 140//140 143//143
f 144//144 142//142 139//139
f 143//143 142//142 144//144
f 145//145 139//139 136//136
f 144//144 139//139 145//145
f 146//146 136//136 129//129
f 145//145 136//136 146//146
f 147//147 129//129 133//133
f 146//146 129//129 147//147
f 134//134 148//148 133//133
f 149//149 133//133 148//148
f 147//147 133//133 149//149
f 150//150 151//151 148//148
f 152//152 148//148 151//151
f 134//134 150//150 148//148
f 149//149 148//148 152//152
f 153//153 154//154 151//151
f 155//155 151//151 154//154
f 150//150 153//153 151//151
f 152//152 151//151 155//155
f 153//153 156//156 154//154
f 157//157 154//154 156//156
f 155//155 154//154 157//157
f 158//158 156//156 153//153
f 157//157 156//156 158//158
f 159//159 153//153 150//150
f 158//158 153//153 159//159
f 160//160 150//150 134//134
f 159//159 150//150 160//160
f 160//160 134//134 135//135
f 152//152 135//135 132//132
f 149//149 152//152 132//132
f 138//138 149//149 132//132
f 155//155 160//160 135//135
f 152//152 155//155 135//135
f 157//157 159//159 160//160
f 155//155 157//157 160//160
f 157//157 158//158 159//159
f 138//138 147//147 149//149
f 141//141 146//146 147//147
f 138//138 141//141 147//147
f 143//143 145//145 146//146
f 141//141 143//143 146//146
f 143//143 144//144 145//145
# 320 faces, 0 coords texture

# End of File
