####
#
# OBJ File Generated by Meshlab
#
####
# Object underarm_r.obj
#
# Vertices: 44
# Faces: 84
#
####
vn -1.427109 2.000555 -2.223647
v -0.008289 0.022507 -0.250000 0.866667 0.847059 0.866667
vn 1.427109 -2.000555 -2.223647
v 0.008289 -0.022507 -0.250000 0.866667 0.847059 0.866667
vn -1.430292 -1.998280 -2.223647
v -0.008325 -0.022493 -0.250000 0.866667 0.847059 0.866667
vn 2.827874 -2.245909 0.057581
v 0.012979 -0.022510 -0.239736 0.866667 0.847059 0.866667
vn -2.831446 -2.241403 0.057581
v -0.013015 -0.022490 -0.239736 0.866667 0.847059 0.866667
vn 2.217689 -4.714156 -0.000000
v -0.002518 -0.022498 -0.240000 0.866667 0.847059 0.866667
vn -0.003752 -4.712387 2.221441
v -0.000018 -0.022500 -0.242500 0.866667 0.847059 0.866667
vn 1.430292 1.998280 -2.223647
v 0.008325 0.022493 -0.250000 0.866667 0.847059 0.866667
vn 2.831446 2.241403 0.057581
v 0.013015 0.022490 -0.239736 0.866667 0.847059 0.866667
vn -2.827874 2.245909 0.057581
v -0.012979 0.022510 -0.239736 0.866667 0.847059 0.866667
vn -2.217689 4.714156 -0.000000
v 0.002518 0.022498 -0.240000 0.866667 0.847059 0.866667
vn 0.003752 4.712387 2.221441
v 0.000018 0.022500 -0.242500 0.866667 0.847059 0.866667
vn 1.569545 -1.572046 1.570796
v 0.022482 -0.022518 -0.046500 0.866667 0.847059 0.866667
vn 1.572046 1.569545 1.570796
v 0.022518 0.022482 -0.046500 0.866667 0.847059 0.866667
vn -1.569545 1.572046 1.570796
v -0.022482 0.022518 -0.046500 0.866667 0.847059 0.866667
vn 2.357878 2.092531 -1.360340
v 0.022518 0.022482 -0.221236 0.866667 0.847059 0.866667
vn -1.572046 -1.569545 1.570796
v -0.022518 -0.022482 -0.046500 0.866667 0.847059 0.866667
vn -2.354543 2.096283 -1.360340
v -0.022482 0.022518 -0.221236 0.866667 0.847059 0.866667
vn 2.354543 -2.096283 -1.360340
v 0.022482 -0.022518 -0.221236 0.866667 0.847059 0.866667
vn -2.357878 -2.092531 -1.360340
v -0.022518 -0.022482 -0.221236 0.866667 0.847059 0.866667
vn 2.225193 4.710619 0.000000
v -0.002482 0.022502 -0.240000 0.866667 0.847059 0.866667
vn -2.225193 -4.710619 -0.000000
v 0.002482 -0.022502 -0.240000 0.866667 0.847059 0.866667
vn 0.003752 4.712387 -2.221441
v 0.000018 0.022500 -0.237500 0.866667 0.847059 0.866667
vn -0.003752 -4.712387 -2.221441
v -0.000018 -0.022500 -0.237500 0.866667 0.847059 0.866667
vn -2.182666 4.659831 -0.649908
v -0.007874 0.022506 -0.229670 0.866667 0.847059 0.866667
vn 2.190083 4.656350 -0.649908
v 0.007910 0.022494 -0.229670 0.866667 0.847059 0.866667
vn -2.190083 -4.656350 -0.649908
v -0.007910 -0.022494 -0.229670 0.866667 0.847059 0.866667
vn 2.182666 -4.659831 -0.649908
v 0.007874 -0.022506 -0.229670 0.866667 0.847059 0.866667
vn -2.053987 -2.050720 -2.356218
v -0.034759 -0.031706 -0.212500 1.000000 1.000000 1.000000
vn -2.050720 2.053987 -2.356218
v -0.034706 0.034761 -0.212500 1.000000 1.000000 1.000000
vn 0.002311 2.902438 -2.356171
v -0.001461 0.048501 -0.212500 1.000000 1.000000 1.000000
vn 0.002311 2.902438 2.356171
v -0.001461 0.048501 -0.066500 1.000000 1.000000 1.000000
vn -0.002311 -2.902438 -2.356171
v -0.001536 -0.045499 -0.212500 1.000000 1.000000 1.000000
vn 2.053987 2.050720 -2.356218
v 0.031761 0.034708 -0.212500 1.000000 1.000000 1.000000
vn 2.053987 2.050720 2.356218
v 0.031761 0.034708 -0.066500 1.000000 1.000000 1.000000
vn -2.902438 0.002311 -2.356171
v -0.048499 0.001539 -0.212500 1.000000 1.000000 1.000000
vn -2.050720 2.053987 2.356218
v -0.034706 0.034761 -0.066500 1.000000 1.000000 1.000000
vn -2.902438 0.002311 2.356171
v -0.048499 0.001539 -0.066500 1.000000 1.000000 1.000000
vn -2.053987 -2.050720 2.356218
v -0.034759 -0.031706 -0.066500 1.000000 1.000000 1.000000
vn 2.050720 -2.053987 -2.356218
v 0.031708 -0.031759 -0.212500 1.000000 1.000000 1.000000
vn -0.002311 -2.902438 2.356171
v -0.001536 -0.045499 -0.066500 1.000000 1.000000 1.000000
vn 2.902438 -0.002311 -2.356171
v 0.045501 0.001464 -0.212500 1.000000 1.000000 1.000000
vn 2.050720 -2.053987 2.356218
v 0.031708 -0.031759 -0.066500 1.000000 1.000000 1.000000
vn 2.902438 -0.002311 2.356171
v 0.045501 0.001464 -0.066500 1.000000 1.000000 1.000000
# 44 vertices, 0 vertices normals

f 1//1 2//2 3//3
f 4//4 3//3 2//2
f 5//5 1//1 3//3
f 6//6 3//3 7//7
f 4//4 7//7 3//3
f 5//5 3//3 6//6
f 1//1 8//8 2//2
f 9//9 2//2 8//8
f 4//4 2//2 9//9
f 10//10 8//8 1//1
f 11//11 8//8 12//12
f 10//10 12//12 8//8
f 9//9 8//8 11//11
f 5//5 10//10 1//1
f 13//13 14//14 15//15
f 16//16 15//15 14//14
f 17//17 13//13 15//15
f 18//18 17//17 15//15
f 16//16 18//18 15//15
f 19//19 14//14 13//13
f 19//19 16//16 14//14
f 20//20 13//13 17//17
f 20//20 19//19 13//13
f 20//20 17//17 18//18
f 10//10 21//21 12//12
f 7//7 12//12 21//21
f 22//22 11//11 12//12
f 22//22 12//12 7//7
f 10//10 23//23 21//21
f 6//6 21//21 23//23
f 6//6 7//7 21//21
f 9//9 11//11 23//23
f 24//24 23//23 11//11
f 10//10 25//25 23//23
f 9//9 23//23 25//25
f 6//6 23//23 24//24
f 24//24 11//11 22//22
f 26//26 25//25 18//18
f 27//27 18//18 25//25
f 16//16 26//26 18//18
f 20//20 18//18 27//27
f 27//27 25//25 10//10
f 26//26 9//9 25//25
f 5//5 27//27 10//10
f 4//4 9//9 26//26
f 19//19 26//26 16//16
f 28//28 26//26 19//19
f 4//4 26//26 28//28
f 20//20 27//27 19//19
f 28//28 19//19 27//27
f 4//4 22//22 7//7
f 4//4 24//24 22//22
f 5//5 6//6 24//24
f 4//4 28//28 24//24
f 5//5 24//24 28//28
f 5//5 28//28 27//27
f 29//29 30//30 31//31
f 32//32 31//31 30//30
f 33//33 29//29 31//31
f 34//34 33//33 31//31
f 35//35 34//34 31//31
f 35//35 31//31 32//32
f 29//29 36//36 30//30
f 37//37 30//30 36//36
f 37//37 32//32 30//30
f 38//38 36//36 29//29
f 37//37 36//36 38//38
f 39//39 29//29 33//33
f 38//38 29//29 39//39
f 34//34 40//40 33//33
f 41//41 33//33 40//40
f 39//39 33//33 41//41
f 34//34 42//42 40//40
f 43//43 40//40 42//42
f 41//41 40//40 43//43
f 44//44 42//42 34//34
f 43//43 42//42 44//44
f 44//44 34//34 35//35
f 43//43 35//35 32//32
f 41//41 43//43 32//32
f 37//37 41//41 32//32
f 43//43 44//44 35//35
f 37//37 39//39 41//41
f 37//37 38//38 39//39
# 84 faces, 0 coords texture

# End of File
