####
#
# OBJ File Generated by Meshlab
#
####
# Object underarm_l.obj
#
# Vertices: 44
# Faces: 84
#
####
vn -2.046965 -2.053987 -2.359481
v -0.031444 -0.031759 -0.212550 1.000000 1.000000 1.000000
vn -2.050233 2.050720 -2.359486
v -0.031497 0.034708 -0.212550 1.000000 1.000000 1.000000
vn 0.001442 2.902438 -2.356172
v 0.001726 0.048501 -0.212497 1.000000 1.000000 1.000000
vn -0.006063 2.902438 2.356165
v 0.001493 0.048501 -0.066498 1.000000 1.000000 1.000000
vn 0.006063 -2.902438 -2.356165
v 0.001801 -0.045499 -0.212497 1.000000 1.000000 1.000000
vn 2.054469 2.053987 -2.352949
v 0.034970 0.034761 -0.212445 1.000000 1.000000 1.000000
vn 2.046965 2.053987 2.359481
v 0.034738 0.034761 -0.066445 1.000000 1.000000 1.000000
vn -2.898682 -0.002311 -2.360791
v -0.045237 0.001464 -0.212572 1.000000 1.000000 1.000000
vn -2.057737 2.050720 2.352944
v -0.031729 0.034708 -0.066551 1.000000 1.000000 1.000000
vn -2.906187 -0.002311 2.351546
v -0.045469 0.001464 -0.066572 1.000000 1.000000 1.000000
vn -2.054469 -2.053987 2.352949
v -0.031677 -0.031759 -0.066550 1.000000 1.000000 1.000000
vn 2.057737 -2.050720 -2.352944
v 0.035023 -0.031706 -0.212444 1.000000 1.000000 1.000000
vn -0.001442 -2.902438 2.356172
v 0.001568 -0.045499 -0.066498 1.000000 1.000000 1.000000
vn 2.906187 0.002311 -2.351546
v 0.048763 0.001539 -0.212423 1.000000 1.000000 1.000000
vn 2.050233 -2.050720 2.359486
v 0.034791 -0.031706 -0.066445 1.000000 1.000000 1.000000
vn 2.898682 0.002311 2.360791
v 0.048531 0.001539 -0.066423 1.000000 1.000000 1.000000
vn -1.426749 1.998280 -2.225922
v -0.008000 0.022493 -0.250013 0.866667 0.847059 0.866667
vn 1.430648 2.000555 -2.221372
v 0.008613 0.022507 -0.249987 0.866667 0.847059 0.866667
vn 1.433832 -1.998280 -2.221367
v 0.008649 -0.022493 -0.249986 0.866667 0.847059 0.866667
vn 2.827778 2.245909 0.062084
v 0.013287 0.022510 -0.239715 0.866667 0.847059 0.866667
vn -1.423566 -2.000555 -2.225917
v -0.007965 -0.022507 -0.250013 0.866667 0.847059 0.866667
vn 2.831351 -2.241403 0.062090
v 0.013322 -0.022490 -0.239715 0.866667 0.847059 0.866667
vn -2.831534 2.241403 0.053071
v -0.012707 0.022490 -0.239756 0.866667 0.847059 0.866667
vn -2.225190 4.710619 -0.003544
v 0.002790 0.022502 -0.239996 0.866667 0.847059 0.866667
vn -0.007290 4.712387 2.221433
v 0.000294 0.022500 -0.242500 0.866667 0.847059 0.866667
vn -2.827962 -2.245909 0.053077
v -0.012671 -0.022510 -0.239756 0.866667 0.847059 0.866667
vn 0.000214 -4.712387 2.221445
v 0.000330 -0.022500 -0.242500 0.866667 0.847059 0.866667
vn 2.225190 -4.710619 0.003544
v -0.002174 -0.022502 -0.240004 0.866667 0.847059 0.866667
vn -1.574546 1.569545 1.568291
v -0.022518 0.022482 -0.046536 0.866667 0.847059 0.866667
vn 1.569543 -1.569545 1.573298
v 0.022518 -0.022482 -0.046464 0.866667 0.847059 0.866667
vn 1.567042 1.572046 1.573294
v 0.022482 0.022518 -0.046464 0.866667 0.847059 0.866667
vn 2.360042 -2.092531 -1.356583
v 0.022796 -0.022482 -0.221200 0.866667 0.847059 0.866667
vn 2.356707 2.096283 -1.356588
v 0.022760 0.022518 -0.221200 0.866667 0.847059 0.866667
vn -1.572045 -1.572046 1.568295
v -0.022482 -0.022518 -0.046536 0.866667 0.847059 0.866667
vn -2.352374 -2.096283 -1.364088
v -0.022204 -0.022518 -0.221272 0.866667 0.847059 0.866667
vn -2.355709 2.092531 -1.364093
v -0.022240 0.022482 -0.221272 0.866667 0.847059 0.866667
vn 2.183698 4.659831 -0.646431
v 0.008166 0.022506 -0.229657 0.866667 0.847059 0.866667
vn 2.191115 -4.656350 -0.646419
v 0.008202 -0.022494 -0.229657 0.866667 0.847059 0.866667
vn -2.181628 -4.659831 -0.653383
v -0.007583 -0.022506 -0.229682 0.866667 0.847059 0.866667
vn 0.007290 -4.712387 -2.221433
v 0.000322 -0.022500 -0.237500 0.866667 0.847059 0.866667
vn -0.000214 4.712387 -2.221445
v 0.000286 0.022500 -0.237500 0.866667 0.847059 0.866667
vn -2.189045 4.656350 -0.653395
v -0.007618 0.022494 -0.229682 0.866667 0.847059 0.866667
vn 2.217686 4.714156 0.003532
v -0.002210 0.022498 -0.240004 0.866667 0.847059 0.866667
vn -2.217686 -4.714156 -0.003532
v 0.002826 -0.022498 -0.239996 0.866667 0.847059 0.866667
# 44 vertices, 0 vertices normals

f 1//1 2//2 3//3
f 4//4 3//3 2//2
f 5//5 1//1 3//3
f 6//6 5//5 3//3
f 7//7 6//6 3//3
f 7//7 3//3 4//4
f 1//1 8//8 2//2
f 9//9 2//2 8//8
f 9//9 4//4 2//2
f 10//10 8//8 1//1
f 9//9 8//8 10//10
f 11//11 1//1 5//5
f 10//10 1//1 11//11
f 6//6 12//12 5//5
f 13//13 5//5 12//12
f 11//11 5//5 13//13
f 6//6 14//14 12//12
f 15//15 12//12 14//14
f 13//13 12//12 15//15
f 16//16 14//14 6//6
f 15//15 14//14 16//16
f 16//16 6//6 7//7
f 15//15 7//7 4//4
f 13//13 15//15 4//4
f 9//9 13//13 4//4
f 15//15 16//16 7//7
f 9//9 11//11 13//13
f 9//9 10//10 11//11
f 17//17 18//18 19//19
f 20//20 19//19 18//18
f 21//21 17//17 19//19
f 22//22 21//21 19//19
f 22//22 19//19 20//20
f 23//23 18//18 17//17
f 24//24 18//18 25//25
f 23//23 25//25 18//18
f 20//20 18//18 24//24
f 26//26 17//17 21//21
f 23//23 17//17 26//26
f 22//22 27//27 21//21
f 28//28 21//21 27//27
f 28//28 26//26 21//21
f 29//29 30//30 31//31
f 32//32 31//31 30//30
f 33//33 29//29 31//31
f 33//33 31//31 32//32
f 29//29 34//34 30//30
f 35//35 30//30 34//34
f 35//35 32//32 30//30
f 36//36 34//34 29//29
f 35//35 34//34 36//36
f 36//36 29//29 33//33
f 37//37 33//33 32//32
f 38//38 37//37 32//32
f 39//39 38//38 32//32
f 35//35 39//39 32//32
f 36//36 33//33 37//37
f 24//24 40//40 41//41
f 28//28 41//41 40//40
f 20//20 24//24 41//41
f 42//42 20//20 41//41
f 23//23 42//42 41//41
f 43//43 23//23 41//41
f 43//43 41//41 28//28
f 24//24 44//44 40//40
f 22//22 40//40 44//44
f 22//22 38//38 40//40
f 26//26 40//40 38//38
f 28//28 40//40 26//26
f 25//25 27//27 44//44
f 22//22 44//44 27//27
f 24//24 25//25 44//44
f 43//43 27//27 25//25
f 43//43 28//28 27//27
f 43//43 25//25 23//23
f 22//22 37//37 38//38
f 22//22 20//20 37//37
f 42//42 37//37 20//20
f 36//36 37//37 42//42
f 26//26 38//38 39//39
f 23//23 39//39 42//42
f 36//36 42//42 39//39
f 23//23 26//26 39//39
f 35//35 36//36 39//39
# 84 faces, 0 coords texture

# End of File
