####
#
# OBJ File Generated by Meshlab
#
####
# Object wrist1_l.obj
#
# Vertices: 112
# Faces: 224
#
####
vn 2.945941 -0.764433 -3.647503
v 0.004981 -0.008078 0.023504 1.000000 0.000000 0.000000
vn 0.003752 2.221473 -4.712359
v -0.000019 -0.005000 0.023500 1.000000 0.000000 0.000000
vn -2.217658 -0.000000 -4.714184
v 0.004981 0.000000 0.023504 1.000000 0.000000 0.000000
vn -2.225161 -0.000000 4.710647
v 0.004978 0.000000 0.027504 1.000000 0.000000 0.000000
vn 2.746171 0.000000 -2.122897
v 0.009481 0.000000 0.023508 1.000000 0.000000 0.000000
vn 0.003752 -2.221473 -4.712359
v -0.000019 0.005000 0.023500 1.000000 0.000000 0.000000
vn -0.003752 -2.221473 4.712359
v -0.000022 0.005000 0.027500 1.000000 0.000000 0.000000
vn -2.742787 0.000000 -2.127267
v -0.009519 0.000000 0.023492 1.000000 0.000000 0.000000
vn 2.225161 -0.000000 -4.710647
v -0.005019 0.000000 0.023496 1.000000 0.000000 0.000000
vn -0.003752 2.221473 4.712359
v -0.000022 -0.005000 0.027500 1.000000 0.000000 0.000000
vn -2.940130 0.764433 -3.652189
v -0.005019 0.008078 0.023496 1.000000 0.000000 0.000000
vn 2.217658 -0.000000 4.714184
v -0.005022 0.000000 0.027496 1.000000 0.000000 0.000000
vn 2.945941 0.764433 -3.647503
v 0.004981 0.008078 0.023504 1.000000 0.000000 0.000000
vn -1.569545 1.570796 -1.572046
v -0.005019 0.017000 0.023496 1.000000 0.000000 0.000000
vn -1.572046 1.570796 1.569545
v -0.005022 0.017000 0.027496 1.000000 0.000000 0.000000
vn 1.572046 1.570796 -1.569545
v 0.004981 0.017000 0.023504 1.000000 0.000000 0.000000
vn 1.569545 1.570796 1.572046
v 0.004978 0.017000 0.027504 1.000000 0.000000 0.000000
vn -2.945941 0.764433 3.647503
v -0.005022 0.008078 0.027496 1.000000 0.000000 0.000000
vn -2.940130 -0.764433 -3.652189
v -0.005019 -0.008078 0.023496 1.000000 0.000000 0.000000
vn -2.746171 0.000000 2.122897
v -0.009522 0.000000 0.027492 1.000000 0.000000 0.000000
vn 1.572046 -1.570796 -1.569545
v 0.004981 -0.017000 0.023504 1.000000 0.000000 0.000000
vn -1.569545 -1.570796 -1.572046
v -0.005019 -0.017000 0.023496 1.000000 0.000000 0.000000
vn -2.945941 -0.764433 3.647503
v -0.005022 -0.008078 0.027496 1.000000 0.000000 0.000000
vn -1.572046 -1.570796 1.569545
v -0.005022 -0.017000 0.027496 1.000000 0.000000 0.000000
vn 1.569545 -1.570796 1.572046
v 0.004978 -0.017000 0.027504 1.000000 0.000000 0.000000
vn 2.940130 -0.764433 3.652189
v 0.004978 -0.008078 0.027504 1.000000 0.000000 0.000000
vn 2.742787 0.000000 2.127267
v 0.009478 0.000000 0.027508 1.000000 0.000000 0.000000
vn 2.940130 0.764433 3.652189
v 0.004978 0.008078 0.027504 1.000000 0.000000 0.000000
vn -2.945941 -0.764433 3.647503
v -0.004981 -0.008078 -0.023504 0.827451 0.000000 0.000000
vn -0.003752 2.221472 4.712360
v 0.000019 -0.004750 -0.023500 0.827451 0.000000 0.000000
vn 2.217659 -0.000000 4.714183
v -0.004731 0.000000 -0.023504 0.827451 0.000000 0.000000
vn 2.225162 -0.000000 -4.710646
v -0.004728 0.000000 -0.027504 0.827451 0.000000 0.000000
vn -2.746171 0.000000 2.122897
v -0.009481 0.000000 -0.023508 0.827451 0.000000 0.000000
vn -0.003752 -2.221472 4.712360
v 0.000019 0.004750 -0.023500 0.827451 0.000000 0.000000
vn 0.003752 -2.221472 -4.712360
v 0.000022 0.004750 -0.027500 0.827451 0.000000 0.000000
vn 2.742787 0.000000 2.127267
v 0.009519 0.000000 -0.023492 0.827451 0.000000 0.000000
vn -2.225162 -0.000000 4.710646
v 0.004769 0.000000 -0.023496 0.827451 0.000000 0.000000
vn 0.003752 2.221472 -4.712360
v 0.000022 -0.004750 -0.027500 0.827451 0.000000 0.000000
vn 2.940130 0.764433 3.652189
v 0.005019 0.008078 -0.023496 0.827451 0.000000 0.000000
vn -2.217659 -0.000000 -4.714183
v 0.004772 0.000000 -0.027496 0.827451 0.000000 0.000000
vn -2.945941 0.764433 3.647503
v -0.004981 0.008078 -0.023504 0.827451 0.000000 0.000000
vn 1.569545 1.570796 1.572046
v 0.005019 0.017500 -0.023496 0.827451 0.000000 0.000000
vn 1.572046 1.570796 -1.569545
v 0.005022 0.017500 -0.027496 0.827451 0.000000 0.000000
vn -1.572046 1.570796 1.569545
v -0.004981 0.017500 -0.023504 0.827451 0.000000 0.000000
vn -1.569545 1.570796 -1.572046
v -0.004978 0.017500 -0.027504 0.827451 0.000000 0.000000
vn 2.945941 0.764433 -3.647503
v 0.005022 0.008078 -0.027496 0.827451 0.000000 0.000000
vn 2.940130 -0.764433 3.652189
v 0.005019 -0.008078 -0.023496 0.827451 0.000000 0.000000
vn 2.746171 0.000000 -2.122897
v 0.009522 0.000000 -0.027492 0.827451 0.000000 0.000000
vn -1.572046 -1.570796 1.569545
v -0.004981 -0.017500 -0.023504 0.827451 0.000000 0.000000
vn 1.569545 -1.570796 1.572046
v 0.005019 -0.017500 -0.023496 0.827451 0.000000 0.000000
vn 2.945941 -0.764433 -3.647503
v 0.005022 -0.008078 -0.027496 0.827451 0.000000 0.000000
vn 1.572046 -1.570796 -1.569545
v 0.005022 -0.017500 -0.027496 0.827451 0.000000 0.000000
vn -1.569545 -1.570796 -1.572046
v -0.004978 -0.017500 -0.027504 0.827451 0.000000 0.000000
vn -2.940130 -0.764433 -3.652189
v -0.004978 -0.008078 -0.027504 0.827451 0.000000 0.000000
vn -2.742787 0.000000 -2.127267
v -0.009478 0.000000 -0.027508 0.827451 0.000000 0.000000
vn -2.940130 0.764433 -3.652189
v -0.004978 0.008078 -0.027504 0.827451 0.000000 0.000000
vn -2.893492 3.712104 0.846024
v -0.005009 -0.017000 0.010905 1.000000 0.027451 0.027451
vn 0.001769 4.712389 -2.221441
v -0.000005 -0.017000 0.006500 1.000000 0.027451 0.027451
vn 2.221441 4.712389 0.001769
v -0.006500 -0.017000 -0.000005 1.000000 0.027451 0.027451
vn 2.221441 -4.712389 0.001769
v -0.006500 -0.022000 -0.000005 1.000000 0.027451 0.027451
vn -2.644043 2.000571 -0.002105
v -0.012000 -0.017000 -0.000010 1.000000 0.027451 0.027451
vn -0.001769 4.712389 2.221441
v 0.000005 -0.017000 -0.006500 1.000000 0.027451 0.027451
vn -0.001769 -4.712389 2.221441
v 0.000005 -0.022000 -0.006500 1.000000 0.027451 0.027451
vn 2.644043 2.000571 0.002105
v 0.012000 -0.017000 0.000010 1.000000 0.027451 0.027451
vn -2.221441 4.712389 -0.001769
v 0.006500 -0.017000 0.000005 1.000000 0.027451 0.027451
vn 0.001769 -4.712389 -2.221441
v -0.000005 -0.022000 0.006500 1.000000 0.027451 0.027451
vn 2.893492 3.712104 -0.846024
v 0.005009 -0.017000 -0.010905 1.000000 0.027451 0.027451
vn -2.221441 -4.712389 -0.001769
v 0.006500 -0.022000 0.000005 1.000000 0.027451 0.027451
vn -2.892142 3.712104 -0.850631
v -0.004991 -0.017000 -0.010913 1.000000 0.027451 0.027451
vn 1.572046 1.570796 -1.569545
v 0.005023 -0.017000 -0.028496 1.000000 0.027451 0.027451
vn 1.572046 -1.570796 -1.569545
v 0.005023 -0.022000 -0.028496 1.000000 0.027451 0.027451
vn -1.569545 1.570796 -1.572046
v -0.004977 -0.017000 -0.028504 1.000000 0.027451 0.027451
vn -1.569545 -1.570796 -1.572046
v -0.004977 -0.022000 -0.028504 1.000000 0.027451 0.027451
vn 2.893492 -3.712104 -0.846024
v 0.005009 -0.022000 -0.010905 1.000000 0.027451 0.027451
vn 2.892142 3.712104 0.850631
v 0.004991 -0.017000 0.010913 1.000000 0.027451 0.027451
vn 2.644043 -2.000571 0.002105
v 0.012000 -0.022000 0.000010 1.000000 0.027451 0.027451
vn -1.572046 1.570796 1.569545
v -0.005022 -0.017000 0.027496 1.000000 0.027451 0.027451
vn 1.569545 1.570796 1.572046
v 0.004978 -0.017000 0.027504 1.000000 0.027451 0.027451
vn 2.892142 -3.712104 0.850631
v 0.004991 -0.022000 0.010913 1.000000 0.027451 0.027451
vn 1.569545 -1.570796 1.572046
v 0.004978 -0.022000 0.027504 1.000000 0.027451 0.027451
vn -1.572046 -1.570796 1.569545
v -0.005022 -0.022000 0.027496 1.000000 0.027451 0.027451
vn -2.893492 -3.712104 0.846024
v -0.005009 -0.022000 0.010905 1.000000 0.027451 0.027451
vn -2.644043 -2.000571 -0.002105
v -0.012000 -0.022000 -0.000010 1.000000 0.027451 0.027451
vn -2.892142 -3.712104 -0.850631
v -0.004991 -0.022000 -0.010913 1.000000 0.027451 0.027451
vn 2.893492 -3.712104 -0.846024
v 0.005009 0.017000 -0.010905 1.000000 0.027451 0.027451
vn -2.892142 -3.712104 -0.850631
v -0.004991 0.017000 -0.010913 1.000000 0.027451 0.027451
vn -1.569545 -1.570796 -1.572046
v -0.004977 0.017000 -0.028504 1.000000 0.027451 0.027451
vn -1.569545 1.570796 -1.572046
v -0.004977 0.022000 -0.028504 1.000000 0.027451 0.027451
vn 1.572046 -1.570796 -1.569545
v 0.005023 0.017000 -0.028496 1.000000 0.027451 0.027451
vn 1.572046 1.570796 -1.569545
v 0.005023 0.022000 -0.028496 1.000000 0.027451 0.027451
vn 2.221441 -4.712389 0.001769
v -0.008000 0.017000 -0.000006 1.000000 0.027451 0.027451
vn -2.644043 -2.000571 -0.002105
v -0.012000 0.017000 -0.000010 1.000000 0.027451 0.027451
vn -2.892142 3.712104 -0.850631
v -0.004991 0.022000 -0.010913 1.000000 0.027451 0.027451
vn -0.001769 -4.712389 2.221441
v 0.000006 0.017000 -0.008000 1.000000 0.027451 0.027451
vn 0.001769 -4.712389 -2.221441
v -0.000006 0.017000 0.008000 1.000000 0.027451 0.027451
vn -2.893492 -3.712104 0.846024
v -0.005009 0.017000 0.010905 1.000000 0.027451 0.027451
vn -2.644043 2.000571 -0.002105
v -0.012000 0.022000 -0.000010 1.000000 0.027451 0.027451
vn 1.569545 -1.570796 1.572046
v 0.004978 0.017000 0.027504 1.000000 0.027451 0.027451
vn -1.572046 -1.570796 1.569545
v -0.005022 0.017000 0.027496 1.000000 0.027451 0.027451
vn -2.893492 3.712104 0.846024
v -0.005009 0.022000 0.010905 1.000000 0.027451 0.027451
vn 2.892142 -3.712104 0.850631
v 0.004991 0.017000 0.010913 1.000000 0.027451 0.027451
vn -1.572046 1.570796 1.569545
v -0.005022 0.022000 0.027496 1.000000 0.027451 0.027451
vn 1.569545 1.570796 1.572046
v 0.004978 0.022000 0.027504 1.000000 0.027451 0.027451
vn -2.221441 -4.712389 -0.001769
v 0.008000 0.017000 0.000006 1.000000 0.027451 0.027451
vn 2.644043 -2.000571 0.002105
v 0.012000 0.017000 0.000010 1.000000 0.027451 0.027451
vn 2.892142 3.712104 0.850631
v 0.004991 0.022000 0.010913 1.000000 0.027451 0.027451
vn 2.644043 2.000571 0.002105
v 0.012000 0.022000 0.000010 1.000000 0.027451 0.027451
vn 2.893492 3.712104 -0.846024
v 0.005009 0.022000 -0.010905 1.000000 0.027451 0.027451
vn -0.001769 4.712389 2.221441
v 0.000006 0.022000 -0.008000 1.000000 0.027451 0.027451
vn 2.221441 4.712389 0.001769
v -0.008000 0.022000 -0.000006 1.000000 0.027451 0.027451
vn -2.221441 4.712389 -0.001769
v 0.008000 0.022000 0.000006 1.000000 0.027451 0.027451
vn 0.001769 4.712389 -2.221441
v -0.000006 0.022000 0.008000 1.000000 0.027451 0.027451
# 112 vertices, 0 vertices normals

f 1//1 2//2 3//3
f 4//4 3//3 2//2
f 5//5 3//3 6//6
f 7//7 6//6 3//3
f 5//5 1//1 3//3
f 7//7 3//3 4//4
f 8//8 9//9 2//2
f 10//10 2//2 9//9
f 1//1 8//8 2//2
f 10//10 4//4 2//2
f 11//11 6//6 9//9
f 12//12 9//9 6//6
f 8//8 11//11 9//9
f 10//10 9//9 12//12
f 5//5 6//6 11//11
f 12//12 6//6 7//7
f 13//13 11//11 14//14
f 15//15 14//14 11//11
f 16//16 13//13 14//14
f 17//17 16//16 14//14
f 17//17 14//14 15//15
f 18//18 11//11 8//8
f 13//13 5//5 11//11
f 18//18 15//15 11//11
f 1//1 19//19 8//8
f 20//20 8//8 19//19
f 18//18 8//8 20//20
f 21//21 22//22 19//19
f 23//23 19//19 22//22
f 1//1 21//21 19//19
f 20//20 19//19 23//23
f 24//24 22//22 21//21
f 23//23 22//22 24//24
f 25//25 21//21 1//1
f 24//24 21//21 25//25
f 26//26 1//1 5//5
f 25//25 1//1 26//26
f 27//27 5//5 13//13
f 26//26 5//5 27//27
f 28//28 13//13 16//16
f 27//27 13//13 28//28
f 28//28 16//16 17//17
f 28//28 7//7 4//4
f 27//27 4//4 10//10
f 27//27 28//28 4//4
f 20//20 12//12 7//7
f 20//20 7//7 28//28
f 23//23 10//10 12//12
f 20//20 23//23 12//12
f 23//23 27//27 10//10
f 18//18 17//17 15//15
f 18//18 28//28 17//17
f 18//18 20//20 28//28
f 23//23 26//26 27//27
f 24//24 25//25 26//26
f 23//23 24//24 26//26
f 29//29 30//30 31//31
f 32//32 31//31 30//30
f 33//33 31//31 34//34
f 35//35 34//34 31//31
f 33//33 29//29 31//31
f 35//35 31//31 32//32
f 36//36 37//37 30//30
f 38//38 30//30 37//37
f 29//29 36//36 30//30
f 38//38 32//32 30//30
f 39//39 34//34 37//37
f 40//40 37//37 34//34
f 36//36 39//39 37//37
f 38//38 37//37 40//40
f 33//33 34//34 39//39
f 40//40 34//34 35//35
f 41//41 39//39 42//42
f 43//43 42//42 39//39
f 44//44 41//41 42//42
f 45//45 44//44 42//42
f 45//45 42//42 43//43
f 46//46 39//39 36//36
f 41//41 33//33 39//39
f 46//46 43//43 39//39
f 29//29 47//47 36//36
f 48//48 36//36 47//47
f 46//46 36//36 48//48
f 49//49 50//50 47//47
f 51//51 47//47 50//50
f 29//29 49//49 47//47
f 48//48 47//47 51//51
f 52//52 50//50 49//49
f 51//51 50//50 52//52
f 53//53 49//49 29//29
f 52//52 49//49 53//53
f 54//54 29//29 33//33
f 53//53 29//29 54//54
f 55//55 33//33 41//41
f 54//54 33//33 55//55
f 56//56 41//41 44//44
f 55//55 41//41 56//56
f 56//56 44//44 45//45
f 56//56 35//35 32//32
f 55//55 32//32 38//38
f 55//55 56//56 32//32
f 48//48 40//40 35//35
f 48//48 35//35 56//56
f 51//51 38//38 40//40
f 48//48 51//51 40//40
f 51//51 55//55 38//38
f 46//46 45//45 43//43
f 46//46 56//56 45//45
f 46//46 48//48 56//56
f 51//51 54//54 55//55
f 52//52 53//53 54//54
f 51//51 52//52 54//54
f 57//57 58//58 59//59
f 60//60 59//59 58//58
f 61//61 59//59 62//62
f 63//63 62//62 59//59
f 61//61 57//57 59//59
f 63//63 59//59 60//60
f 64//64 65//65 58//58
f 66//66 58//58 65//65
f 57//57 64//64 58//58
f 66//66 60//60 58//58
f 67//67 62//62 65//65
f 68//68 65//65 62//62
f 64//64 67//67 65//65
f 66//66 65//65 68//68
f 61//61 62//62 67//67
f 68//68 62//62 63//63
f 69//69 67//67 70//70
f 71//71 70//70 67//67
f 72//72 69//69 70//70
f 73//73 72//72 70//70
f 73//73 70//70 71//71
f 74//74 67//67 64//64
f 69//69 61//61 67//67
f 74//74 71//71 67//67
f 57//57 75//75 64//64
f 76//76 64//64 75//75
f 74//74 64//64 76//76
f 77//77 78//78 75//75
f 79//79 75//75 78//78
f 57//57 77//77 75//75
f 76//76 75//75 79//79
f 80//80 78//78 77//77
f 79//79 78//78 80//80
f 81//81 77//77 57//57
f 80//80 77//77 81//81
f 82//82 57//57 61//61
f 81//81 57//57 82//82
f 83//83 61//61 69//69
f 82//82 61//61 83//83
f 84//84 69//69 72//72
f 83//83 69//69 84//84
f 84//84 72//72 73//73
f 84//84 63//63 60//60
f 83//83 60//60 66//66
f 83//83 84//84 60//60
f 76//76 68//68 63//63
f 76//76 63//63 84//84
f 79//79 66//66 68//68
f 76//76 79//79 68//68
f 79//79 83//83 66//66
f 74//74 73//73 71//71
f 74//74 84//84 73//73
f 74//74 76//76 84//84
f 79//79 82//82 83//83
f 80//80 81//81 82//82
f 79//79 80//80 82//82
f 85//85 86//86 87//87
f 88//88 87//87 86//86
f 89//89 85//85 87//87
f 90//90 89//89 87//87
f 90//90 87//87 88//88
f 91//91 92//92 86//86
f 93//93 86//86 92//92
f 94//94 86//86 85//85
f 91//91 86//86 94//94
f 93//93 88//88 86//86
f 95//95 96//96 92//92
f 97//97 92//92 96//96
f 91//91 95//95 92//92
f 93//93 92//92 97//97
f 98//98 99//99 96//96
f 100//100 96//96 99//99
f 101//101 98//98 96//96
f 95//95 101//101 96//96
f 97//97 96//96 100//100
f 102//102 99//99 98//98
f 100//100 99//99 102//102
f 103//103 98//98 101//101
f 102//102 98//98 103//103
f 104//104 105//105 101//101
f 106//106 101//101 105//105
f 95//95 104//104 101//101
f 103//103 101//101 106//106
f 94//94 85//85 105//105
f 107//107 105//105 85//85
f 104//104 94//94 105//105
f 106//106 105//105 107//107
f 108//108 85//85 89//89
f 107//107 85//85 108//108
f 108//108 89//89 90//90
f 109//109 94//94 104//104
f 110//110 91//91 94//94
f 110//110 94//94 109//109
f 111//111 104//104 95//95
f 111//111 109//109 104//104
f 112//112 95//95 91//91
f 111//111 95//95 112//112
f 112//112 91//91 110//110
f 93//93 90//90 88//88
f 93//93 108//108 90//90
f 111//111 107//107 108//108
f 109//109 108//108 93//93
f 111//111 108//108 109//109
f 112//112 106//106 107//107
f 111//111 112//112 107//107
f 102//102 103//103 106//106
f 100//100 102//102 106//106
f 112//112 100//100 106//106
f 110//110 97//97 100//100
f 112//112 110//110 100//100
f 109//109 93//93 97//97
f 110//110 109//109 97//97
# 224 faces, 0 coords texture

# End of File
