####
#
# OBJ File Generated by Meshlab
#
####
# Object wrist1_r.obj
#
# Vertices: 112
# Faces: 224
#
####
vn 2.946549 0.764994 3.646895
v 0.004988 0.008055 -0.023510 1.000000 0.000000 0.000000
vn 0.001983 -2.217719 4.714128
v -0.000015 0.004981 -0.023504 1.000000 0.000000 0.000000
vn -2.217657 0.005522 4.714181
v 0.004981 -0.000023 -0.023504 1.000000 0.000000 0.000000
vn -2.225161 -0.001982 -4.710647
v 0.004978 -0.000026 -0.027504 1.000000 0.000000 0.000000
vn 2.746170 -0.000495 2.122898
v 0.009481 -0.000026 -0.023508 1.000000 0.000000 0.000000
vn 0.005520 2.225223 4.710588
v -0.000023 -0.005019 -0.023496 1.000000 0.000000 0.000000
vn -0.001983 2.217719 -4.714128
v -0.000026 -0.005022 -0.027496 1.000000 0.000000 0.000000
vn -2.742786 0.003879 2.127265
v -0.009519 -0.000011 -0.023492 1.000000 0.000000 0.000000
vn 2.225161 0.001982 4.710647
v -0.005019 -0.000015 -0.023496 1.000000 0.000000 0.000000
vn -0.005520 -2.225223 -4.710588
v -0.000018 0.004978 -0.027504 1.000000 0.000000 0.000000
vn -2.940737 -0.759182 3.652796
v -0.005025 -0.008092 -0.023490 1.000000 0.000000 0.000000
vn 2.217657 -0.005522 -4.714181
v -0.005022 -0.000018 -0.027496 1.000000 0.000000 0.000000
vn 2.945332 -0.763872 3.648113
v 0.004975 -0.008100 -0.023498 1.000000 0.000000 0.000000
vn -1.570795 -1.568293 1.573297
v -0.005032 -0.017015 -0.023482 1.000000 0.000000 0.000000
vn -1.573297 -1.570794 -1.568294
v -0.005035 -0.017018 -0.027482 1.000000 0.000000 0.000000
vn 1.570795 -1.570796 1.570797
v 0.004968 -0.017023 -0.023490 1.000000 0.000000 0.000000
vn 1.568294 -1.573298 -1.570793
v 0.004965 -0.017026 -0.027490 1.000000 0.000000 0.000000
vn -2.946549 -0.764994 -3.646895
v -0.005028 -0.008096 -0.027490 1.000000 0.000000 0.000000
vn -2.939520 0.769684 3.651577
v -0.005012 0.008063 -0.023502 1.000000 0.000000 0.000000
vn -2.746170 0.000495 -2.122898
v -0.009522 -0.000014 -0.027492 1.000000 0.000000 0.000000
vn 1.573297 1.570794 1.568294
v 0.004995 0.016977 -0.023518 1.000000 0.000000 0.000000
vn -1.568294 1.573298 1.570793
v -0.005005 0.016985 -0.023510 1.000000 0.000000 0.000000
vn -2.945332 0.763872 -3.648113
v -0.005015 0.008060 -0.027502 1.000000 0.000000 0.000000
vn -1.570795 1.570796 -1.570797
v -0.005008 0.016982 -0.027510 1.000000 0.000000 0.000000
vn 1.570795 1.568293 -1.573297
v 0.004992 0.016974 -0.027518 1.000000 0.000000 0.000000
vn 2.940737 0.759182 -3.652796
v 0.004985 0.008052 -0.027510 1.000000 0.000000 0.000000
vn 2.742786 -0.003879 -2.127265
v 0.009478 -0.000029 -0.027508 1.000000 0.000000 0.000000
vn 2.939520 -0.769684 -3.651577
v 0.004972 -0.008104 -0.027498 1.000000 0.000000 0.000000
vn -2.945332 0.763872 -3.648113
v -0.004975 0.008100 0.023498 0.827451 0.000000 0.000000
vn -0.005520 -2.225222 -4.710589
v 0.000022 0.004769 0.023496 0.827451 0.000000 0.000000
vn 2.217658 -0.005522 -4.714181
v -0.004731 0.000022 0.023504 0.827451 0.000000 0.000000
vn 2.225161 0.001982 4.710646
v -0.004728 0.000026 0.027504 0.827451 0.000000 0.000000
vn -2.746170 0.000495 -2.122898
v -0.009481 0.000026 0.023508 0.827451 0.000000 0.000000
vn -0.001983 2.217719 -4.714129
v 0.000015 -0.004731 0.023504 0.827451 0.000000 0.000000
vn 0.005520 2.225222 4.710589
v 0.000018 -0.004728 0.027504 0.827451 0.000000 0.000000
vn 2.742786 -0.003879 -2.127265
v 0.009519 0.000011 0.023492 0.827451 0.000000 0.000000
vn -2.225161 -0.001982 -4.710646
v 0.004769 0.000015 0.023496 0.827451 0.000000 0.000000
vn 0.001983 -2.217719 4.714129
v 0.000026 0.004772 0.027496 0.827451 0.000000 0.000000
vn 2.939520 -0.769684 -3.651577
v 0.005012 -0.008063 0.023502 0.827451 0.000000 0.000000
vn -2.217658 0.005522 4.714181
v 0.004772 0.000018 0.027496 0.827451 0.000000 0.000000
vn -2.946549 -0.764994 -3.646895
v -0.004988 -0.008055 0.023510 0.827451 0.000000 0.000000
vn 1.568294 -1.573298 -1.570793
v 0.005005 -0.017485 0.023510 0.827451 0.000000 0.000000
vn 1.570795 -1.570796 1.570797
v 0.005008 -0.017482 0.027510 0.827451 0.000000 0.000000
vn -1.573297 -1.570794 -1.568294
v -0.004995 -0.017477 0.023518 0.827451 0.000000 0.000000
vn -1.570795 -1.568293 1.573297
v -0.004992 -0.017474 0.027518 0.827451 0.000000 0.000000
vn 2.945332 -0.763872 3.648113
v 0.005015 -0.008060 0.027502 0.827451 0.000000 0.000000
vn 2.940737 0.759182 -3.652796
v 0.005025 0.008092 0.023490 0.827451 0.000000 0.000000
vn 2.746170 -0.000495 2.122898
v 0.009522 0.000014 0.027492 0.827451 0.000000 0.000000
vn -1.570795 1.570796 -1.570797
v -0.004967 0.017523 0.023490 0.827451 0.000000 0.000000
vn 1.570795 1.568293 -1.573297
v 0.005033 0.017515 0.023482 0.827451 0.000000 0.000000
vn 2.946549 0.764994 3.646895
v 0.005028 0.008096 0.027490 0.827451 0.000000 0.000000
vn 1.573297 1.570794 1.568294
v 0.005036 0.017518 0.027482 0.827451 0.000000 0.000000
vn -1.568294 1.573298 1.570793
v -0.004964 0.017526 0.027490 0.827451 0.000000 0.000000
vn -2.939520 0.769684 3.651577
v -0.004972 0.008104 0.027498 0.827451 0.000000 0.000000
vn -2.742786 0.003879 2.127265
v -0.009478 0.000029 0.027508 0.827451 0.000000 0.000000
vn -2.940737 -0.759182 3.652796
v -0.004985 -0.008052 0.027510 0.827451 0.000000 0.000000
vn -2.896447 -3.710472 -0.843068
v -0.004995 0.016995 -0.010918 1.000000 0.027451 0.027451
vn -0.001983 -4.710617 2.225195
v 0.000008 0.016995 -0.006514 1.000000 0.027451 0.027451
vn 2.217688 -4.714156 0.001988
v -0.006486 0.017005 -0.000008 1.000000 0.027451 0.027451
vn 2.225192 4.710616 -0.005522
v -0.006482 0.022005 -0.000012 1.000000 0.027451 0.027451
vn -2.645634 -1.998463 0.003697
v -0.011986 0.017010 -0.000004 1.000000 0.027451 0.027451
vn -0.005520 -4.714155 -2.217685
v 0.000019 0.017005 0.006486 1.000000 0.027451 0.027451
vn 0.001983 4.710617 -2.225195
v 0.000023 0.022005 0.006482 1.000000 0.027451 0.027451
vn 2.642449 -2.002676 -0.000509
v 0.012014 0.016990 -0.000023 1.000000 0.027451 0.027451
vn -2.225192 -4.710616 0.005522
v 0.006514 0.016995 -0.000019 1.000000 0.027451 0.027451
vn 0.005520 4.714155 2.217685
v 0.000012 0.021995 -0.006518 1.000000 0.027451 0.027451
vn 2.890536 -3.713731 0.848984
v 0.005022 0.017005 0.010891 1.000000 0.027451 0.027451
vn -2.217688 4.714156 -0.001988
v 0.006518 0.021995 -0.000023 1.000000 0.027451 0.027451
vn -2.895096 -3.709121 0.853586
v -0.004978 0.017013 0.010899 1.000000 0.027451 0.027451
vn 1.570795 -1.570796 1.570797
v 0.005036 0.017019 0.028482 1.000000 0.027451 0.027451
vn 1.573297 1.570794 1.568294
v 0.005040 0.022019 0.028478 1.000000 0.027451 0.027451
vn -1.570795 -1.568293 1.573297
v -0.004964 0.017027 0.028490 1.000000 0.027451 0.027451
vn -1.568294 1.573298 1.570793
v -0.004960 0.022027 0.028486 1.000000 0.027451 0.027451
vn 2.896447 3.710472 0.843068
v 0.005026 0.022005 0.010887 1.000000 0.027451 0.027451
vn 2.889185 -3.715082 -0.847671
v 0.005005 0.016987 -0.010926 1.000000 0.027451 0.027451
vn 2.645634 1.998463 -0.003697
v 0.012018 0.021990 -0.000027 1.000000 0.027451 0.027451
vn -1.573297 -1.570794 -1.568294
v -0.005008 0.016982 -0.027510 1.000000 0.027451 0.027451
vn 1.568294 -1.573298 -1.570793
v 0.004992 0.016974 -0.027518 1.000000 0.027451 0.027451
vn 2.895096 3.709121 -0.853586
v 0.005009 0.021987 -0.010930 1.000000 0.027451 0.027451
vn 1.570795 1.568293 -1.573297
v 0.004996 0.021974 -0.027521 1.000000 0.027451 0.027451
vn -1.570795 1.570796 -1.570797
v -0.005004 0.021982 -0.027514 1.000000 0.027451 0.027451
vn -2.890536 3.713731 -0.848984
v -0.004991 0.021995 -0.010922 1.000000 0.027451 0.027451
vn -2.642449 2.002676 0.000509
v -0.011982 0.022010 -0.000008 1.000000 0.027451 0.027451
vn -2.889185 3.715082 0.847671
v -0.004974 0.022013 0.010895 1.000000 0.027451 0.027451
vn 2.896447 3.710472 0.843068
v 0.004995 -0.016995 0.010918 1.000000 0.027451 0.027451
vn -2.889185 3.715082 0.847671
v -0.005005 -0.016987 0.010926 1.000000 0.027451 0.027451
vn -1.568294 1.573298 1.570793
v -0.004991 -0.016973 0.028518 1.000000 0.027451 0.027451
vn -1.570795 -1.568293 1.573297
v -0.004995 -0.021973 0.028521 1.000000 0.027451 0.027451
vn 1.573297 1.570794 1.568294
v 0.005009 -0.016981 0.028510 1.000000 0.027451 0.027451
vn 1.570795 -1.570796 1.570797
v 0.005005 -0.021981 0.028514 1.000000 0.027451 0.027451
vn 2.225192 4.710616 -0.005522
v -0.008014 -0.016994 0.000020 1.000000 0.027451 0.027451
vn -2.642449 2.002676 0.000509
v -0.012014 -0.016990 0.000023 1.000000 0.027451 0.027451
vn -2.895096 -3.709121 0.853586
v -0.005009 -0.021987 0.010930 1.000000 0.027451 0.027451
vn 0.001983 4.710617 -2.225195
v -0.000007 -0.016994 0.008014 1.000000 0.027451 0.027451
vn 0.005520 4.714155 2.217685
v -0.000020 -0.017006 -0.007986 1.000000 0.027451 0.027451
vn -2.890536 3.713731 -0.848984
v -0.005022 -0.017005 -0.010891 1.000000 0.027451 0.027451
vn -2.645634 -1.998463 0.003697
v -0.012018 -0.021990 0.000027 1.000000 0.027451 0.027451
vn 1.570795 1.568293 -1.573297
v 0.004965 -0.017026 -0.027490 1.000000 0.027451 0.027451
vn -1.570795 1.570796 -1.570797
v -0.005035 -0.017018 -0.027482 1.000000 0.027451 0.027451
vn -2.896447 -3.710472 -0.843068
v -0.005026 -0.022005 -0.010887 1.000000 0.027451 0.027451
vn 2.895096 3.709121 -0.853586
v 0.004978 -0.017013 -0.010899 1.000000 0.027451 0.027451
vn -1.573297 -1.570794 -1.568294
v -0.005039 -0.022018 -0.027478 1.000000 0.027451 0.027451
vn 1.568294 -1.573298 -1.570793
v 0.004961 -0.022026 -0.027486 1.000000 0.027451 0.027451
vn -2.217688 4.714156 -0.001988
v 0.007986 -0.017006 0.000007 1.000000 0.027451 0.027451
vn 2.645634 1.998463 -0.003697
v 0.011986 -0.017010 0.000004 1.000000 0.027451 0.027451
vn 2.889185 -3.715082 -0.847671
v 0.004974 -0.022013 -0.010895 1.000000 0.027451 0.027451
vn 2.642449 -2.002676 -0.000509
v 0.011982 -0.022010 0.000008 1.000000 0.027451 0.027451
vn 2.890536 -3.713731 0.848984
v 0.004991 -0.021995 0.010922 1.000000 0.027451 0.027451
vn -0.005520 -4.714155 -2.217685
v -0.000011 -0.021994 0.008018 1.000000 0.027451 0.027451
vn 2.217688 -4.714156 0.001988
v -0.008018 -0.021994 0.000024 1.000000 0.027451 0.027451
vn -2.225192 -4.710616 0.005522
v 0.007982 -0.022006 0.000011 1.000000 0.027451 0.027451
vn -0.001983 -4.710617 2.225195
v -0.000024 -0.022006 -0.007982 1.000000 0.027451 0.027451
# 112 vertices, 0 vertices normals

f 1//1 2//2 3//3
f 4//4 3//3 2//2
f 5//5 3//3 6//6
f 7//7 6//6 3//3
f 5//5 1//1 3//3
f 7//7 3//3 4//4
f 8//8 9//9 2//2
f 10//10 2//2 9//9
f 1//1 8//8 2//2
f 10//10 4//4 2//2
f 11//11 6//6 9//9
f 12//12 9//9 6//6
f 8//8 11//11 9//9
f 10//10 9//9 12//12
f 5//5 6//6 11//11
f 12//12 6//6 7//7
f 13//13 11//11 14//14
f 15//15 14//14 11//11
f 16//16 13//13 14//14
f 17//17 16//16 14//14
f 17//17 14//14 15//15
f 18//18 11//11 8//8
f 13//13 5//5 11//11
f 18//18 15//15 11//11
f 1//1 19//19 8//8
f 20//20 8//8 19//19
f 18//18 8//8 20//20
f 21//21 22//22 19//19
f 23//23 19//19 22//22
f 1//1 21//21 19//19
f 20//20 19//19 23//23
f 24//24 22//22 21//21
f 23//23 22//22 24//24
f 25//25 21//21 1//1
f 24//24 21//21 25//25
f 26//26 1//1 5//5
f 25//25 1//1 26//26
f 27//27 5//5 13//13
f 26//26 5//5 27//27
f 28//28 13//13 16//16
f 27//27 13//13 28//28
f 28//28 16//16 17//17
f 28//28 7//7 4//4
f 27//27 4//4 10//10
f 27//27 28//28 4//4
f 20//20 12//12 7//7
f 20//20 7//7 28//28
f 23//23 10//10 12//12
f 20//20 23//23 12//12
f 23//23 27//27 10//10
f 18//18 17//17 15//15
f 18//18 28//28 17//17
f 18//18 20//20 28//28
f 23//23 26//26 27//27
f 24//24 25//25 26//26
f 23//23 24//24 26//26
f 29//29 30//30 31//31
f 32//32 31//31 30//30
f 33//33 31//31 34//34
f 35//35 34//34 31//31
f 33//33 29//29 31//31
f 35//35 31//31 32//32
f 36//36 37//37 30//30
f 38//38 30//30 37//37
f 29//29 36//36 30//30
f 38//38 32//32 30//30
f 39//39 34//34 37//37
f 40//40 37//37 34//34
f 36//36 39//39 37//37
f 38//38 37//37 40//40
f 33//33 34//34 39//39
f 40//40 34//34 35//35
f 41//41 39//39 42//42
f 43//43 42//42 39//39
f 44//44 41//41 42//42
f 45//45 44//44 42//42
f 45//45 42//42 43//43
f 46//46 39//39 36//36
f 41//41 33//33 39//39
f 46//46 43//43 39//39
f 29//29 47//47 36//36
f 48//48 36//36 47//47
f 46//46 36//36 48//48
f 49//49 50//50 47//47
f 51//51 47//47 50//50
f 29//29 49//49 47//47
f 48//48 47//47 51//51
f 52//52 50//50 49//49
f 51//51 50//50 52//52
f 53//53 49//49 29//29
f 52//52 49//49 53//53
f 54//54 29//29 33//33
f 53//53 29//29 54//54
f 55//55 33//33 41//41
f 54//54 33//33 55//55
f 56//56 41//41 44//44
f 55//55 41//41 56//56
f 56//56 44//44 45//45
f 56//56 35//35 32//32
f 55//55 32//32 38//38
f 55//55 56//56 32//32
f 48//48 40//40 35//35
f 48//48 35//35 56//56
f 51//51 38//38 40//40
f 48//48 51//51 40//40
f 51//51 55//55 38//38
f 46//46 45//45 43//43
f 46//46 56//56 45//45
f 46//46 48//48 56//56
f 51//51 54//54 55//55
f 52//52 53//53 54//54
f 51//51 52//52 54//54
f 57//57 58//58 59//59
f 60//60 59//59 58//58
f 61//61 59//59 62//62
f 63//63 62//62 59//59
f 61//61 57//57 59//59
f 63//63 59//59 60//60
f 64//64 65//65 58//58
f 66//66 58//58 65//65
f 57//57 64//64 58//58
f 66//66 60//60 58//58
f 67//67 62//62 65//65
f 68//68 65//65 62//62
f 64//64 67//67 65//65
f 66//66 65//65 68//68
f 61//61 62//62 67//67
f 68//68 62//62 63//63
f 69//69 67//67 70//70
f 71//71 70//70 67//67
f 72//72 69//69 70//70
f 73//73 72//72 70//70
f 73//73 70//70 71//71
f 74//74 67//67 64//64
f 69//69 61//61 67//67
f 74//74 71//71 67//67
f 57//57 75//75 64//64
f 76//76 64//64 75//75
f 74//74 64//64 76//76
f 77//77 78//78 75//75
f 79//79 75//75 78//78
f 57//57 77//77 75//75
f 76//76 75//75 79//79
f 80//80 78//78 77//77
f 79//79 78//78 80//80
f 81//81 77//77 57//57
f 80//80 77//77 81//81
f 82//82 57//57 61//61
f 81//81 57//57 82//82
f 83//83 61//61 69//69
f 82//82 61//61 83//83
f 84//84 69//69 72//72
f 83//83 69//69 84//84
f 84//84 72//72 73//73
f 84//84 63//63 60//60
f 83//83 60//60 66//66
f 83//83 84//84 60//60
f 76//76 68//68 63//63
f 76//76 63//63 84//84
f 79//79 66//66 68//68
f 76//76 79//79 68//68
f 79//79 83//83 66//66
f 74//74 73//73 71//71
f 74//74 84//84 73//73
f 74//74 76//76 84//84
f 79//79 82//82 83//83
f 80//80 81//81 82//82
f 79//79 80//80 82//82
f 85//85 86//86 87//87
f 88//88 87//87 86//86
f 89//89 85//85 87//87
f 90//90 89//89 87//87
f 90//90 87//87 88//88
f 91//91 92//92 86//86
f 93//93 86//86 92//92
f 94//94 86//86 85//85
f 91//91 86//86 94//94
f 93//93 88//88 86//86
f 95//95 96//96 92//92
f 97//97 92//92 96//96
f 91//91 95//95 92//92
f 93//93 92//92 97//97
f 98//98 99//99 96//96
f 100//100 96//96 99//99
f 101//101 98//98 96//96
f 95//95 101//101 96//96
f 97//97 96//96 100//100
f 102//102 99//99 98//98
f 100//100 99//99 102//102
f 103//103 98//98 101//101
f 102//102 98//98 103//103
f 104//104 105//105 101//101
f 106//106 101//101 105//105
f 95//95 104//104 101//101
f 103//103 101//101 106//106
f 94//94 85//85 105//105
f 107//107 105//105 85//85
f 104//104 94//94 105//105
f 106//106 105//105 107//107
f 108//108 85//85 89//89
f 107//107 85//85 108//108
f 108//108 89//89 90//90
f 109//109 94//94 104//104
f 110//110 91//91 94//94
f 110//110 94//94 109//109
f 111//111 104//104 95//95
f 111//111 109//109 104//104
f 112//112 95//95 91//91
f 111//111 95//95 112//112
f 112//112 91//91 110//110
f 93//93 90//90 88//88
f 93//93 108//108 90//90
f 111//111 107//107 108//108
f 109//109 108//108 93//93
f 111//111 108//108 109//109
f 112//112 106//106 107//107
f 111//111 112//112 107//107
f 102//102 103//103 106//106
f 100//100 102//102 106//106
f 112//112 100//100 106//106
f 110//110 97//97 100//100
f 112//112 110//110 100//100
f 109//109 93//93 97//97
f 110//110 109//109 97//97
# 224 faces, 0 coords texture

# End of File
