####
#
# OBJ File Generated by Meshlab
#
####
# Object elbow_r.obj
#
# Vertices: 19
# Faces: 34
#
####
vn -3.291053 -0.011888 2.537182
v -0.028892 -0.018848 0.040730 0.898039 0.898039 0.898039
vn -1.197368 2.276229 2.753340
v -0.007968 0.011523 0.045524 0.898039 0.898039 0.898039
vn -2.563030 1.490081 -2.149609
v -0.024412 0.012064 -0.028616 0.898039 0.898039 0.898039
vn -1.153255 -1.539746 5.549975
v -0.013762 -0.025390 0.044033 0.898039 0.898039 0.898039
vn -0.198225 -3.847567 2.634482
v -0.000581 -0.047764 0.036295 0.898039 0.898039 0.898039
vn -2.897891 -0.415557 -2.802829
v -0.028702 -0.017558 -0.028805 0.898039 0.898039 0.898039
vn 2.915782 -3.125364 0.674155
v 0.027515 -0.046485 0.018906 0.898039 0.898039 0.898039
vn 2.649939 -0.953394 2.791294
v 0.028535 -0.025465 0.043998 0.898039 0.898039 0.898039
vn 2.653528 -0.695461 -2.708023
v 0.028928 -0.024735 -0.029129 0.898039 0.898039 0.898039
vn -0.448785 -1.526343 -5.815049
v -0.010997 -0.025267 -0.028989 0.898039 0.898039 0.898039
vn -2.145691 -3.254388 -1.865329
v -0.021932 -0.045883 -0.015949 0.898039 0.898039 0.898039
vn 2.979747 -3.200570 -0.557127
v 0.027497 -0.046503 -0.003876 0.898039 0.898039 0.898039
vn 0.623117 -4.087735 -2.765471
v 0.011375 -0.046516 -0.019972 0.898039 0.898039 0.898039
vn 1.479223 2.618479 2.830702
v 0.008175 0.011582 0.043990 0.898039 0.898039 0.898039
vn 2.549112 1.381349 -2.187561
v 0.024382 0.012339 -0.029028 0.898039 0.898039 0.898039
vn 1.275568 2.505803 -1.971307
v 0.013315 0.023847 -0.029005 0.898039 0.898039 0.898039
vn 2.940560 0.764314 2.752122
v 0.028535 -0.016965 0.043991 0.898039 0.898039 0.898039
vn -0.781054 2.548125 -1.752691
v -0.008278 0.027030 -0.028847 0.898039 0.898039 0.898039
vn -2.833339 -2.959754 0.739132
v -0.027485 -0.046485 0.018950 0.898039 0.898039 0.898039
# 19 vertices, 0 vertices normals

f 1//1 2//2 3//3
f 4//4 1//1 5//5
f 6//6 1//1 3//3
f 2//2 1//1 4//4
f 7//7 8//8 5//5
f 9//9 8//8 7//7
f 6//6 10//10 11//11
f 12//12 13//13 9//9
f 14//14 15//15 16//16
f 17//17 15//15 14//14
f 2//2 18//18 3//3
f 18//18 2//2 14//14
f 18//18 14//14 16//16
f 1//1 19//19 5//5
f 9//9 13//13 10//10
f 10//10 13//13 11//11
f 8//8 4//4 5//5
f 9//9 17//17 8//8
f 9//9 7//7 12//12
f 9//9 15//15 17//17
f 9//9 6//6 15//15
f 18//18 6//6 3//3
f 10//10 6//6 9//9
f 16//16 15//15 6//6
f 16//16 6//6 18//18
f 8//8 14//14 4//4
f 4//4 14//14 2//2
f 8//8 17//17 14//14
f 12//12 19//19 13//13
f 5//5 19//19 7//7
f 13//13 19//19 11//11
f 12//12 7//7 19//19
f 6//6 19//19 1//1
f 11//11 19//19 6//6
# 34 faces, 0 coords texture

# End of File
