#VRML V2.0 utf8


Group {
  children 
    DEF _+0 Group {
      children 
        DEF _+1 Transform {
          scale 0.001 0.001 0.001
          children 
            DEF _+2 Transform {
              translation 0 0 0
              rotation 0.99999994 0 0  1.5700002
              scale 1 1 1
              scaleOrientation 0 0 1  0
              center 0 0 0
              children 
                DEF _+3 Transform {
                  translation 0 0 0
                  rotation 0 0 0.99999994  1.5700002
                  scale 1 1 1
                  scaleOrientation 0 0 1  0
                  center 0 0 0
                  children 
                    DEF _+4 Transform {
                      translation 7.5 0 0
                      rotation 0 0 1  0
                      scale 1 1 1
                      scaleOrientation 0 0 1  0
                      center 0 0 0
                      children 
                        DEF _+5 Transform {
                          translation 0 0 0
                          rotation 0 0 1  0
                          scale 1 1 1
                          scaleOrientation 0 0 1  0
                          center 0 0 0
                          children 
                            DEF _+6 Shape {
                              appearance 
                              Appearance {
                                material 
                                Material {
                                  diffuseColor 0.89999998 0.89999998 0.89999998
                                  ambientIntensity 0.17999999
                                  specularColor 0.1 0.1 0.1
                                  shininess 0.5

                                }

                              }
                              geometry 
                              IndexedFaceSet {
                                coord 
                                Coordinate {
                                  point [ 33.192402 28.9249 18.879999,
                                      38.027199 8.0041704 -11.4865,
                                      -36.126099 24.3894 -12.0869,
                                      36.502102 13.7969 25.4252,
                                      28.756201 0.60960001 47.792999,
                                      -36.3423 28.679399 17.535101,
                                      11.3909 -27.5 46.5,
                                      36.5 -28.5 25.5,
                                      -36.625301 -28.951099 24.7118,
                                      -36.518101 10.9736 25.244101,
                                      -23.5026 21.9188 45.869999,
                                      -11.3909 -27.5 46.5,
                                      -27.5 -11.3909 46.5,
                                      36.5056 -8.1402903 -11.5467,
                                      -36.498299 -24.4048 -12.3621,
                                      -36.475201 -13.3378 -23.869801,
                                      36.5 -28.5 17,
                                      -36.331799 8.2554197 -27.0525,
                                      11.3909 27.5 46.5 ]

                                }
                                normal 
                                Normal {
                                  vector [ 0.095339492 0.93192047 -0.34990638,
                                      0.17140387 0.75240326 -0.63601112,
                                      0.11814905 0.86412424 -0.48921373,
                                      0.88430858 0.19788033 0.42289692,
                                      0.73188996 0.42732263 0.53078479,
                                      0.82813472 0.29373303 0.47740316,
                                      -0.054809362 0.99617386 0.068069763,
                                      0.062676966 0.97369516 -0.21906485,
                                      0.99757916 0.062003352 0.031486936,
                                      0.9762938 0.21635549 0.0063842558,
                                      0.99459422 0.031232581 0.099029906,
                                      0.5810371 -0.39176261 0.71338493,
                                      0.0012606672 -0.99999923 -0.00026791499,
                                      0.0058741905 -0.99961501 0.027117237,
                                      0.0027877239 -0.99817431 0.060335144,
                                      -0.8730846 0.20189776 0.44380242,
                                      -0.89111179 0.10460445 0.44156268,
                                      -0.87073934 0.15772207 0.46576443,
                                      -0.53451806 -0.53451806 0.65466088,
                                      0.17579487 -0.75754482 -0.62866688,
                                      0.16602223 -0.71093708 -0.68337768,
                                      0.18464264 -0.80016708 -0.57064867,
                                      0.15411375 0.67088026 -0.72537488,
                                      0.19020592 -0.080359086 -0.97844988,
                                      0.20481877 -0.015654661 -0.97867477,
                                      0.17475609 -0.14470991 -0.97391957,
                                      0.68200231 0.46746865 0.56244648,
                                      -0.99210989 0.0016140324 0.12536092,
                                      -0.89686924 0.055412129 0.43881097,
                                      -0.93906504 0.08086966 0.33409134,
                                      0.99386775 7.0101582e-005 0.11057494,
                                      0.9771235 0.10575326 0.18451491,
                                      -0.00027388395 -0.99813879 -0.060982864,
                                      0 -0.99778962 0.066453025,
                                      -0.0067154751 -0.99253976 -0.12173621,
                                      -0.99994922 0.0077649672 -0.0064219562,
                                      -0.99999285 0.003596494 -0.0011679981,
                                      -0.99987364 0.014365654 -0.006815894,
                                      -0.99969018 0.022541761 -0.010561032,
                                      -0.98176837 0.00010184027 0.19008088,
                                      -0.99998945 0.0044139507 -0.0012694878,
                                      0.99933106 -0.031447604 0.018667862,
                                      1 -0.00027505183 0,
                                      0 0 1,
                                      -0.023946088 0.0053734099 0.99969876,
                                      -0.010742638 0.010742638 0.99988461,
                                      -0.074253239 0 0.99723947,
                                      -0.037152268 0 0.99930966,
                                      -0.021482797 0.021482797 0.99953836,
                                      -0.081162579 0.98144555 0.17371598,
                                      -0.0026004703 0.99884969 -0.047881119,
                                      -0.15608542 0.94247454 0.29559952 ]

                                }
                                coordIndex [ 0, 1, 2, -1, 3, 0, 4, -1,
                                    5, 0, 2, -1, 1, 0, 3, -1,
                                    6, 7, 4, -1, 8, 7, 6, -1,
                                    5, 9, 10, -1, 11, 12, 8, -1,
                                    13, 14, 15, -1, 16, 14, 13, -1,
                                    1, 17, 2, -1, 17, 1, 13, -1,
                                    17, 13, 15, -1, 0, 18, 4, -1,
                                    8, 12, 9, -1, 9, 12, 10, -1,
                                    7, 3, 4, -1, 8, 16, 7, -1,
                                    8, 6, 11, -1, 8, 14, 16, -1,
                                    8, 5, 14, -1, 17, 5, 2, -1,
                                    9, 5, 8, -1, 15, 14, 5, -1,
                                    15, 5, 17, -1, 7, 13, 3, -1,
                                    3, 13, 1, -1, 7, 16, 13, -1,
                                    11, 18, 12, -1, 4, 18, 6, -1,
                                    12, 18, 10, -1, 11, 6, 18, -1,
                                    5, 18, 0, -1, 10, 18, 5, -1 ]
                                normalIndex [ 0, 1, 2, -1, 3, 4, 5, -1,
                                    6, 7, 0, -1, 8, 9, 10, -1,
                                    11, 11, 11, -1, 12, 13, 14, -1,
                                    15, 16, 17, -1, 18, 18, 18, -1,
                                    19, 19, 20, -1, 21, 19, 19, -1,
                                    1, 22, 1, -1, 23, 24, 23, -1,
                                    23, 23, 25, -1, 4, 26, 4, -1,
                                    27, 28, 29, -1, 16, 28, 17, -1,
                                    30, 31, 3, -1, 12, 32, 13, -1,
                                    12, 14, 33, -1, 12, 34, 32, -1,
                                    27, 35, 36, -1, 37, 35, 38, -1,
                                    39, 35, 27, -1, 40, 36, 35, -1,
                                    40, 35, 37, -1, 30, 41, 10, -1,
                                    10, 41, 8, -1, 30, 42, 41, -1,
                                    43, 44, 45, -1, 46, 44, 47, -1,
                                    45, 44, 48, -1, 43, 47, 44, -1,
                                    6, 49, 50, -1, 51, 49, 6, -1 ]
                                ccw TRUE
                                solid FALSE
                                convex TRUE
                                creaseAngle 0.5

                              }

                            }

                        }

                    }

                }

            }

        }

    }

}
