####
#
# OBJ File Generated by Meshlab
#
####
# Object elbow_l.obj
#
# Vertices: 19
# Faces: 34
#
####
vn 3.291053 -0.015924 -2.537160
v 0.028893 -0.018912 -0.040700 0.898039 0.898039 0.898039
vn 1.197365 2.271842 -2.756961
v 0.007968 0.011450 -0.045543 0.898039 0.898039 0.898039
vn 2.563028 1.493505 2.147233
v 0.024412 0.012110 0.028597 0.898039 0.898039 0.898039
vn 1.153257 -1.548581 -5.547516
v 0.013762 -0.025460 -0.043993 0.898039 0.898039 0.898039
vn 0.198230 -3.851757 -2.628351
v 0.000581 -0.047822 -0.036219 0.898039 0.898039 0.898039
vn 2.897891 -0.411089 2.803488
v 0.028702 -0.017512 0.028833 0.898039 0.898039 0.898039
vn -2.915778 -3.126437 -0.669177
v -0.027515 -0.046515 -0.018832 0.898039 0.898039 0.898039
vn -2.649938 -0.957842 -2.789772
v -0.028535 -0.025535 -0.043957 0.898039 0.898039 0.898039
vn -2.653527 -0.691151 2.709127
v -0.028928 -0.024689 0.029168 0.898039 0.898039 0.898039
vn 0.448787 -1.517080 5.817472
v 0.010997 -0.025221 0.029029 0.898039 0.898039 0.898039
vn 2.145695 -3.251411 1.870509
v 0.021932 -0.045857 0.016022 0.898039 0.898039 0.898039
vn -2.979743 -3.199683 0.562223
v -0.027497 -0.046497 0.003950 0.898039 0.898039 0.898039
vn -0.623112 -4.083326 2.771977
v -0.011375 -0.046484 0.020046 0.898039 0.898039 0.898039
vn -1.479226 2.613966 -2.834868
v -0.008175 0.011512 -0.044008 0.898039 0.898039 0.898039
vn -2.549114 1.384828 2.185358
v -0.024382 0.012385 0.029008 0.898039 0.898039 0.898039
vn -1.275571 2.508938 1.967314
v -0.013315 0.023893 0.028967 0.898039 0.898039 0.898039
vn -2.940561 0.759927 -2.753336
v -0.028535 -0.017035 -0.043964 0.898039 0.898039 0.898039
vn 0.781051 2.550914 1.748630
v 0.008278 0.027075 0.028804 0.898039 0.898039 0.898039
vn 2.833343 -2.960924 -0.734417
v 0.027485 -0.046515 -0.018876 0.898039 0.898039 0.898039
# 19 vertices, 0 vertices normals

f 1//1 2//2 3//3
f 4//4 1//1 5//5
f 6//6 1//1 3//3
f 2//2 1//1 4//4
f 7//7 8//8 5//5
f 9//9 8//8 7//7
f 6//6 10//10 11//11
f 12//12 13//13 9//9
f 14//14 15//15 16//16
f 17//17 15//15 14//14
f 2//2 18//18 3//3
f 18//18 2//2 14//14
f 18//18 14//14 16//16
f 1//1 19//19 5//5
f 9//9 13//13 10//10
f 10//10 13//13 11//11
f 8//8 4//4 5//5
f 9//9 17//17 8//8
f 9//9 7//7 12//12
f 9//9 15//15 17//17
f 9//9 6//6 15//15
f 18//18 6//6 3//3
f 10//10 6//6 9//9
f 16//16 15//15 6//6
f 16//16 6//6 18//18
f 8//8 14//14 4//4
f 4//4 14//14 2//2
f 8//8 17//17 14//14
f 12//12 19//19 13//13
f 5//5 19//19 7//7
f 13//13 19//19 11//11
f 12//12 7//7 19//19
f 6//6 19//19 1//1
f 11//11 19//19 6//6
# 34 faces, 0 coords texture

# End of File
