#VRML V2.0 utf8


Group {
  children 
    DEF _+0 Group {
      children 
        DEF _+1 Transform {
          translation 0 0 0
          rotation 0 0.99999994 0  1.5700002
          scale 1 1 1
          scaleOrientation 0 0 1  0
          center 0 0 0
          children 
            DEF _+2 Transform {
              translation 0 0 0
              rotation 0.99999994 0 0  1.5700002
              scale 1 1 1
              scaleOrientation 0 0 1  0
              center 0 0 0

            }

        }

    }

}
