#VRML V2.0 utf8


Group {
  children 
    DEF _+0 Group {
      children 
        DEF _+1 Transform {
          scale 0.001 0.001 0.001
          children 
            DEF _+2 Transform {
              translation -35 0 -605
              rotation 0 0 1  0
              scale 1 1 1
              scaleOrientation 0 0 1  0
              center 0 0 0
              children 
                DEF _+3 Transform {
                  rotation 0 0 1  3.1400001
                  children 
                    DEF _+4 Transform {
                      translation 0 0 0
                      rotation 0 0 1  0
                      scale 1 1 1
                      scaleOrientation 0 0 1  0
                      center 0 0 0
                      children 
                        DEF _+5 Shape {
                          appearance 
                          Appearance {
                            material 
                            Material {
                              diffuseColor 0.89999998 0.89999998 0.89999998
                              ambientIntensity 0.17999999
                              specularColor 0.1 0.1 0.1
                              shininess 0.5

                            }

                          }
                          geometry 
                          IndexedFaceSet {
                            coord 
                            Coordinate {
                              point [ -46.036301 -42.569302 617.61499,
                                  -41.103901 43.760201 617.77899,
                                  -99.824898 17.959801 540.03003,
                                  -47 42.5 596,
                                  -29.2075 42.474701 540,
                                  -56.756802 -42.5 580.59802,
                                  -99.288803 -17.4764 540.03699,
                                  -46.449501 -42.4599 540,
                                  7.8159701e-014 -42.5 611,
                                  4.2632601e-014 42.5 611,
                                  29.1231 17.298 540.36603,
                                  29.146799 -17.277399 540.00598,
                                  -0.00505374 42.4953 540.00098,
                                  -0.0012736199 -42.491901 540.005 ]

                            }
                            normal 
                            Normal {
                              vector [ -0.81573486 0.016227804 0.57819819,
                                  -0.80427474 0.044826195 0.59256458,
                                  -0.1636627 0.98636061 -0.017532708,
                                  -0.16597268 0.98469543 -0.053178228,
                                  -0.41183239 0.91119528 -0.010825604,
                                  -0.21844599 -0.97575212 0.013751814,
                                  -0.53151554 -0.84631604 0.035219792,
                                  -0.2184142 -0.97422403 -0.056414738,
                                  -0.61954647 -0.76451272 0.17799586,
                                  0.14223757 -0.010006987 0.98978204,
                                  0.15249145 -0.0050038248 0.98829216,
                                  0.16272514 6.8013556e-017 0.98667145,
                                  0.92450047 3.8640965e-016 0.38118088,
                                  0.9249922 -0.001655039 0.3799825,
                                  0.92547989 -0.0033100711 0.37878245,
                                  0.65423262 0.75629342 -9.6630611e-005,
                                  -0.82625246 -0.012389337 0.56316382,
                                  -0.077596113 0.99607855 -0.042502768,
                                  0.020168899 0.99779743 -0.063195884,
                                  0.010100564 0.99944806 -0.031648435,
                                  -0.00034212475 0.99999988 -0.00037103938,
                                  -0.49052346 0.86750448 0.082600042,
                                  -0.00026636096 -0.0002924515 -1,
                                  0.0034856107 0.0017757065 -0.99999231,
                                  -0.00012906568 -0.00022615076 -1,
                                  0.010791156 0.0051792488 -0.99992847,
                                  0.021547277 0.010425154 -0.99971354,
                                  0.00010769277 -8.5763124e-005 -1,
                                  -6.7608373e-005 0.00044047998 -1,
                                  0.65423149 -0.75629437 -9.8009303e-005,
                                  -0.00031387073 -0.99999976 -0.00063834869,
                                  -0.10817851 -0.99371952 -0.028617743,
                                  0.00062403176 -0.99999911 -0.0011649915,
                                  0.0011869586 -0.9999969 -0.0022159077 ]

                            }
                            coordIndex [ 0, 1, 2, -1, 3, 4, 2, -1,
                                5, 6, 7, -1, 0, 6, 5, -1,
                                0, 8, 1, -1, 1, 8, 9, -1,
                                9, 8, 10, -1, 10, 8, 11, -1,
                                12, 9, 10, -1, 0, 2, 6, -1,
                                3, 1, 9, -1, 3, 9, 12, -1,
                                4, 3, 12, -1, 2, 1, 3, -1,
                                2, 4, 11, -1, 11, 4, 12, -1,
                                11, 12, 10, -1, 11, 13, 7, -1,
                                7, 6, 11, -1, 11, 6, 2, -1,
                                11, 8, 13, -1, 7, 13, 5, -1,
                                5, 13, 8, -1, 5, 8, 0, -1 ]
                            normalIndex [ 0, 1, 0, -1, 2, 3, 4, -1,
                                5, 6, 7, -1, 8, 6, 6, -1,
                                9, 10, 10, -1, 10, 10, 11, -1,
                                12, 13, 13, -1, 13, 13, 14, -1,
                                15, 15, 15, -1, 0, 0, 16, -1,
                                17, 18, 19, -1, 17, 19, 20, -1,
                                3, 17, 20, -1, 4, 21, 4, -1,
                                22, 22, 23, -1, 23, 24, 25, -1,
                                23, 25, 26, -1, 23, 27, 28, -1,
                                28, 28, 23, -1, 23, 28, 22, -1,
                                29, 29, 29, -1, 7, 30, 31, -1,
                                31, 30, 32, -1, 31, 32, 33, -1 ]
                            ccw TRUE
                            solid FALSE
                            convex TRUE
                            creaseAngle 0.5

                          }

                        }

                    }

                }

            }

        }

    }

}
