#VRML V2.0 utf8


Group {
  children 
    DEF _+0 Group {
      children 
        DEF _+1 Transform {
          scale 0.001 0.001 0.001
          children 
            DEF _+2 Transform {
              translation 0 0 0
              rotation 0 0.99999994 0  1.5700002
              scale 1 1 1
              scaleOrientation 0 0 1  0
              center 0 0 0
              children 
                DEF _+3 Transform {
                  translation 0 0 0
                  rotation 0 0 1  0
                  scale 1 1 1
                  scaleOrientation 0 0 1  0
                  center 0 0 0
                  children 
                    DEF _+4 Shape {
                      appearance 
                      Appearance {
                        material 
                        Material {
                          diffuseColor 0.89999998 0.89999998 0.89999998
                          ambientIntensity 0.17999999
                          specularColor 0.1 0.1 0.1
                          shininess 0.5

                        }

                      }
                      geometry 
                      IndexedFaceSet {
                        coord 
                        Coordinate {
                          point [ 62.9263 134.203 92.814301,
                              -28.042 146.16701 95.365501,
                              47.4841 88.004097 124.11,
                              78.405998 65.185799 -43.165001,
                              77.070297 8.2703695 -32.169201,
                              -74.992599 5.0989699 -35.203999,
                              -62.034 151.967 -18.486099,
                              61.6339 149.48199 -22.072001,
                              -64.746803 130.394 -40.752701,
                              71.174202 143.95 28.098499,
                              118.327 62.416 -3.9886799,
                              67.610703 85.049301 114.224,
                              -52.792702 89.2714 123.58,
                              -27.9918 166.733 68.459801,
                              -70.708702 133.938 72.192101,
                              -77.588997 65.114998 -43.1315,
                              -111.471 36.277599 -34.3022,
                              114.307 34.0121 -31.7969,
                              -118.271 61.995399 -3.8521199,
                              76.228401 111.549 -41.780499,
                              78.813202 -27.174999 99.0056,
                              -74.402199 -38.2505 -7.24999,
                              73.914398 -50.4021 22.822701,
                              -69.463997 -63.303699 75.2388,
                              59.1917 -60.283501 79.917,
                              -2.7402699 -42.138802 139.66499,
                              54.614899 -27.1168 122.592,
                              24.1388 174.416 34.911301,
                              -56.8438 -28.773199 121.064,
                              -71.329201 78.546501 106.784,
                              -77.759598 -21.560699 101.949,
                              70.815002 -20.821699 -17.8304 ]

                        }
                        normal 
                        Normal {
                          vector [ 0.22024162 0.6709702 0.70802021,
                              0.073341765 0.60185033 0.79523402,
                              0.14019385 0.38574892 0.91189003,
                              0.084074765 -0.06793429 -0.99414104,
                              0.13462646 -0.3318336 -0.93368208,
                              -0.01748408 -0.29454127 -0.95547879,
                              0.00061111117 0.83167213 -0.55526674,
                              0.020298468 0.73156142 -0.68147331,
                              0.026174771 0.60529387 -0.79557163,
                              0.78170776 0.62323356 0.022650663,
                              0.86945254 0.46048757 -0.17889543,
                              0.76041102 0.6335513 -0.14278574,
                              0.91961187 0.24264224 0.30893183,
                              0.90239084 0.34080794 0.26370576,
                              0.91945642 0.13870758 0.36791331,
                              -0.0014479953 0.28614789 0.95818436,
                              0.13452639 0.74470603 0.6536938,
                              0.15081854 0.82700133 0.5415926,
                              -0.50320876 0.62520528 0.59657288,
                              -0.55824673 0.76396793 0.32359505,
                              -0.60888249 0.62722552 0.48564407,
                              -0.11227378 0.055747002 -0.99211228,
                              -0.11912987 -0.0332863 -0.99232054,
                              -0.23730592 -0.018556656 -0.97125775,
                              0.27926064 -0.21311842 -0.93626595,
                              -0.81160194 0.41124603 -0.41494438,
                              -0.79660267 0.36230928 -0.48389682,
                              -0.84293693 0.46277431 -0.27440345,
                              -0.84841532 0.50397861 -0.16185457,
                              0.02784135 0.26090363 -0.96496332,
                              0.012718327 0.33324578 -0.94275421,
                              0.84064949 0.45446995 -0.29455981,
                              0.81636178 0.34088925 -0.46620604,
                              0.82593757 0.4103196 -0.38660702,
                              0.83925718 0.50421637 -0.20350248,
                              0.89759779 -0.088818319 0.43177477,
                              0.95508951 0.1168946 0.27228606,
                              0.86453569 0.085031778 0.49532586,
                              -0.58767349 0.54607439 0.59702814,
                              -0.63047338 0.46346664 0.62265712,
                              -0.22316842 -0.53042054 -0.81783235,
                              -0.43850183 -0.49127164 -0.75257456,
                              -0.13943364 -0.50629884 -0.85101098,
                              0.16887559 0.037343848 -0.98492974,
                              0.24172743 -0.074428715 -0.96748561,
                              0.93771613 -0.33310694 0.098631598,
                              0.90593004 -0.41013363 0.10526734,
                              0.87345099 -0.47857007 0.089743622,
                              0.020826694 -0.99725455 0.0710603,
                              0.011422858 -0.95343381 0.30138603,
                              0.45312786 -0.67966527 0.57682782,
                              0.36473241 -0.71582639 0.59545183,
                              0.55066681 0.82969576 0.091493078,
                              0.44101167 0.86811209 0.22779433,
                              0.37715784 0.85972404 0.3444221,
                              0.66455561 0.74673688 0.027381612,
                              0.71050769 0.70131332 -0.057778854,
                              0.92560071 0.36310345 0.10686105,
                              0.87151605 0.48885062 0.03853498,
                              -0.16801909 0.056468405 0.98416513,
                              -0.44063455 0.03312213 0.89707541,
                              -0.51061648 -0.00080240367 0.85980821,
                              -0.8599779 0.39046621 0.32859418,
                              -0.92414844 0.27724299 0.26284206,
                              -0.86934942 0.21599978 0.44449502,
                              -0.62314123 0.096506111 0.7761324,
                              -0.77267367 0.018922504 0.63452131,
                              0.54576272 0.13040702 0.82773012,
                              0.27795324 0.47333014 0.83588302,
                              0.26633245 0.2914876 0.91875029,
                              0.30338591 0.13764663 0.94287348,
                              0.48460817 -0.0023397966 0.8747282,
                              0.25035453 0.79144216 0.55762166,
                              -0.45450351 0.86988258 0.19165263,
                              -0.58164686 0.81333101 0.013399801,
                              -0.67305046 0.70353371 0.22813037,
                              -0.41217509 0.9110803 0.0066515733,
                              -0.098332405 0.96410686 -0.24663489,
                              -0.28058845 0.95016927 -0.13582554,
                              0.82625836 0.00609734 0.56325829,
                              0.66356194 0.11083652 0.73986536,
                              -0.53715169 -0.59590638 0.59696203,
                              -0.38250118 -0.68421853 0.62091702,
                              0.61568052 -0.61410159 -0.49377811,
                              0.48800847 -0.5580188 -0.67116523,
                              0.013132139 -0.80129558 -0.59812444,
                              0.10785569 -0.58211857 -0.80591875,
                              0.021439971 -0.93475449 -0.35464668,
                              0.0046969387 -0.97391379 -0.22686937,
                              0.017237898 -0.89461416 -0.44650671,
                              0.82358563 -0.55514163 0.11629575,
                              0.537233 -0.63706887 0.55274236,
                              -0.13231778 -0.63850856 -0.75815481,
                              -0.09040992 -0.33394012 -0.93824846,
                              0.21800029 -0.60647839 -0.76463062,
                              0.38579234 -0.45134389 -0.8046447,
                              -0.82268393 0.54359329 0.1664259,
                              -0.78371215 0.61655122 -0.075232133,
                              -0.90370452 0.42800003 0.011579072,
                              0.93488586 -0.30521077 0.18120365,
                              0.9568994 -0.11591588 0.26628384,
                              0.14192325 0.063299805 0.98785168,
                              -0.93148327 -0.3616339 0.039495781,
                              -0.95527357 -0.12212307 0.26932937,
                              -0.96015614 -0.19293901 0.20217498,
                              -0.67112881 0.24102874 0.70106429,
                              -0.68603987 0.47794357 0.54856104,
                              -0.83318889 0.16586348 0.52752775,
                              -0.79969901 0.14251059 0.58324277,
                              0.0071689077 -0.9986136 -0.05214889,
                              -0.96564943 -0.087225854 0.24477075,
                              -0.84719008 -0.059040818 0.52799916,
                              -0.91626942 -0.40036461 -0.012589763,
                              -0.87831354 -0.46953288 -0.090024471,
                              -0.67445773 -0.48835275 0.55373144,
                              0.17083621 0.2341608 0.95707029,
                              -0.11352012 0.19100788 0.97500223,
                              -0.016110281 0.040057752 0.99906749,
                              -0.069214664 0.90916026 -0.41065407,
                              -0.070917204 0.16571605 -0.98362035,
                              0.13467897 0.1902633 -0.97245133 ]

                        }
                        coordIndex [ 0, 1, 2, -1, 3, 4, 5, -1,
                            6, 7, 8, -1, 9, 10, 7, -1,
                            10, 0, 11, -1, 1, 12, 2, -1,
                            1, 0, 13, -1, 1, 13, 14, -1,
                            8, 15, 16, -1, 15, 3, 5, -1,
                            15, 5, 16, -1, 3, 17, 4, -1,
                            18, 8, 16, -1, 18, 6, 8, -1,
                            7, 19, 8, -1, 10, 17, 19, -1,
                            7, 10, 19, -1, 20, 10, 11, -1,
                            14, 12, 1, -1, 21, 16, 5, -1,
                            3, 19, 17, -1, 17, 20, 22, -1,
                            23, 24, 25, -1, 24, 26, 25, -1,
                            9, 27, 0, -1, 9, 7, 27, -1,
                            0, 10, 9, -1, 25, 12, 28, -1,
                            14, 18, 29, -1, 28, 12, 30, -1,
                            11, 0, 2, -1, 2, 26, 11, -1,
                            13, 0, 27, -1, 13, 6, 14, -1,
                            13, 27, 6, -1, 26, 20, 11, -1,
                            23, 25, 28, -1, 22, 31, 17, -1,
                            21, 31, 22, -1, 22, 23, 21, -1,
                            22, 20, 24, -1, 20, 26, 24, -1,
                            31, 21, 5, -1, 31, 5, 4, -1,
                            31, 4, 17, -1, 14, 6, 18, -1,
                            20, 17, 10, -1, 2, 25, 26, -1,
                            23, 30, 18, -1, 12, 14, 29, -1,
                            29, 30, 12, -1, 22, 24, 23, -1,
                            18, 30, 29, -1, 23, 18, 16, -1,
                            23, 16, 21, -1, 23, 28, 30, -1,
                            2, 12, 25, -1, 6, 27, 7, -1,
                            3, 15, 8, -1, 8, 19, 3, -1 ]
                        normalIndex [ 0, 1, 2, -1, 3, 4, 5, -1,
                            6, 7, 8, -1, 9, 10, 11, -1,
                            12, 13, 14, -1, 1, 15, 2, -1,
                            1, 16, 17, -1, 18, 19, 20, -1,
                            21, 22, 23, -1, 22, 3, 5, -1,
                            22, 5, 23, -1, 3, 24, 4, -1,
                            25, 25, 26, -1, 27, 28, 25, -1,
                            8, 29, 30, -1, 31, 32, 33, -1,
                            34, 10, 33, -1, 35, 36, 37, -1,
                            38, 39, 18, -1, 40, 41, 42, -1,
                            3, 43, 44, -1, 45, 46, 47, -1,
                            48, 48, 49, -1, 50, 50, 51, -1,
                            52, 53, 54, -1, 55, 56, 52, -1,
                            13, 57, 58, -1, 59, 60, 61, -1,
                            62, 63, 64, -1, 61, 65, 66, -1,
                            67, 68, 69, -1, 70, 71, 67, -1,
                            17, 72, 54, -1, 73, 74, 75, -1,
                            76, 77, 78, -1, 71, 79, 80, -1,
                            81, 82, 81, -1, 83, 84, 84, -1,
                            85, 86, 87, -1, 87, 88, 89, -1,
                            47, 46, 90, -1, 91, 50, 50, -1,
                            86, 92, 93, -1, 86, 93, 4, -1,
                            94, 4, 95, -1, 96, 97, 98, -1,
                            99, 45, 100, -1, 70, 101, 71, -1,
                            102, 103, 104, -1, 105, 106, 107, -1,
                            108, 66, 65, -1, 87, 48, 109, -1,
                            110, 111, 107, -1, 102, 104, 112, -1,
                            102, 112, 113, -1, 81, 81, 114, -1,
                            115, 116, 117, -1, 118, 77, 6, -1,
                            3, 22, 119, -1, 119, 120, 3, -1 ]
                        ccw TRUE
                        solid FALSE
                        convex TRUE
                        creaseAngle 0.5

                      }

                    }

                }

            }

        }

    }

}
