####
#
# OBJ File Generated by Meshlab
#
####
# Object head.obj
#
# Vertices: 32
# Faces: 60
#
####
vn 2.775149 3.054333 -2.819589
v 0.092864 0.134203 -0.062852 0.898039 0.898039 0.898039
vn 4.128976 3.778877 1.046360
v 0.095343 0.146167 0.028118 0.898039 0.898039 0.898039
vn 5.408158 1.557042 -1.374149
v 0.124148 0.088004 -0.047385 0.898039 0.898039 0.898039
vn -6.041607 -0.287240 -0.922290
v -0.043103 0.065186 -0.078440 0.898039 0.898039 0.898039
vn -5.594265 -2.181971 -0.981037
v -0.032108 0.008270 -0.077096 0.898039 0.898039 0.898039
vn -5.340119 -2.226144 1.034240
v -0.035264 0.005099 0.074965 0.898039 0.898039 0.898039
vn -1.692820 3.934970 2.341748
v -0.018535 0.151967 0.062019 0.898039 0.898039 0.898039
vn -2.383505 3.590501 -2.144797
v -0.022023 0.149482 -0.061651 0.898039 0.898039 0.898039
vn -3.889911 2.141463 1.908712
v -0.040804 0.130394 0.064714 0.898039 0.898039 0.898039
vn 0.442666 3.955028 -4.406592
v 0.028155 0.143950 -0.071152 0.898039 0.898039 0.898039
vn -0.142790 0.925303 -5.197163
v -0.003894 0.062416 -0.118330 0.898039 0.898039 0.898039
vn 3.822991 1.003585 -4.007619
v 0.114278 0.085049 -0.067520 0.898039 0.898039 0.898039
vn 4.668894 1.528695 2.153061
v 0.123538 0.089271 0.052891 0.898039 0.898039 0.898039
vn 1.754672 4.868670 1.271357
v 0.068437 0.166733 0.028046 0.898039 0.898039 0.898039
vn 1.980171 3.163377 4.152949
v 0.072136 0.133938 0.070766 0.898039 0.898039 0.898039
vn -6.058851 -0.030870 0.922536
v -0.043193 0.065115 0.077555 0.898039 0.898039 0.898039
vn -2.655472 -0.715366 3.272423
v -0.034391 0.036278 0.111444 0.898039 0.898039 0.898039
vn -2.433535 -0.848975 -3.249749
v -0.031706 0.034012 -0.114332 0.898039 0.898039 0.898039
vn -0.244468 0.798156 5.103913
v -0.003946 0.061995 0.118268 0.898039 0.898039 0.898039
vn -3.999371 1.770702 -2.338576
v -0.041720 0.111549 -0.076262 0.898039 0.898039 0.898039
vn 2.457562 -1.833196 -4.443078
v 0.099068 -0.027175 -0.078734 0.898039 0.898039 0.898039
vn -2.344806 -3.552055 2.118395
v -0.007309 -0.038251 0.074396 0.898039 0.898039 0.898039
vn -1.193316 -3.924188 -2.550055
v 0.022882 -0.050402 -0.073896 0.898039 0.898039 0.898039
vn 0.602055 -3.623139 2.320376
v 0.075183 -0.063304 0.069524 0.898039 0.898039 0.898039
vn 0.993093 -4.507817 -2.148172
v 0.079964 -0.060284 -0.059128 0.898039 0.898039 0.898039
vn 3.782078 -2.301500 0.035481
v 0.139663 -0.042139 0.002851 0.898039 0.898039 0.898039
vn 4.418671 -1.840152 -2.703429
v 0.122635 -0.027117 -0.054517 0.898039 0.898039 0.898039
vn 0.200837 5.216994 -1.009785
v 0.034931 0.174416 -0.024111 0.898039 0.898039 0.898039
vn 4.407809 -1.797727 2.909399
v 0.121019 -0.028773 0.056940 0.898039 0.898039 0.898039
vn 3.354723 0.916776 4.874352
v 0.106727 0.078547 0.071414 0.898039 0.898039 0.898039
vn 2.796776 -1.204676 4.801128
v 0.101887 -0.021561 0.077841 0.898039 0.898039 0.898039
vn -4.052892 -3.669850 -1.637299
v -0.017774 -0.020822 -0.070829 0.898039 0.898039 0.898039
# 32 vertices, 0 vertices normals

f 1//1 2//2 3//3
f 4//4 5//5 6//6
f 7//7 8//8 9//9
f 10//10 11//11 8//8
f 11//11 1//1 12//12
f 2//2 13//13 3//3
f 2//2 1//1 14//14
f 2//2 14//14 15//15
f 9//9 16//16 17//17
f 16//16 4//4 6//6
f 16//16 6//6 17//17
f 4//4 18//18 5//5
f 19//19 9//9 17//17
f 19//19 7//7 9//9
f 8//8 20//20 9//9
f 11//11 18//18 20//20
f 8//8 11//11 20//20
f 21//21 11//11 12//12
f 15//15 13//13 2//2
f 22//22 17//17 6//6
f 4//4 20//20 18//18
f 18//18 21//21 23//23
f 24//24 25//25 26//26
f 25//25 27//27 26//26
f 10//10 28//28 1//1
f 10//10 8//8 28//28
f 1//1 11//11 10//10
f 26//26 13//13 29//29
f 15//15 19//19 30//30
f 29//29 13//13 31//31
f 12//12 1//1 3//3
f 3//3 27//27 12//12
f 14//14 1//1 28//28
f 14//14 7//7 15//15
f 14//14 28//28 7//7
f 27//27 21//21 12//12
f 24//24 26//26 29//29
f 23//23 32//32 18//18
f 22//22 32//32 23//23
f 23//23 24//24 22//22
f 23//23 21//21 25//25
f 21//21 27//27 25//25
f 32//32 22//22 6//6
f 32//32 6//6 5//5
f 32//32 5//5 18//18
f 15//15 7//7 19//19
f 21//21 18//18 11//11
f 3//3 26//26 27//27
f 24//24 31//31 19//19
f 13//13 15//15 30//30
f 30//30 31//31 13//13
f 23//23 25//25 24//24
f 19//19 31//31 30//30
f 24//24 19//19 17//17
f 24//24 17//17 22//22
f 24//24 29//29 31//31
f 3//3 13//13 26//26
f 7//7 28//28 8//8
f 4//4 16//16 9//9
f 9//9 20//20 4//4
# 60 faces, 0 coords texture

# End of File
