#VRML V2.0 utf8


Group {
  children 
    DEF _+0 Group {
      children 
        DEF _+1 Transform {
          scale 0.001 0.001 0.001
          children 
            DEF _+2 Transform {
              translation 0 0 0
              rotation 0.99999994 0 0  1.5700002
              scale 1 1 1
              scaleOrientation 0 0 1  0
              center 0 0 0
              children 
                DEF _+3 Transform {
                  translation 0 0 0
                  rotation -0 -0 -0.99999994  1.5700002
                  scale 1 1 1
                  scaleOrientation 0 0 1  0
                  center 0 0 0
                  children 
                    DEF _+4 Group {
                      children 
                        DEF _+5 Transform {
                          translation 0 0 0
                          rotation 0 0 1  0
                          scale 1 1 1
                          scaleOrientation 0 0 1  0
                          center 0 0 0
                          children 
                            DEF _+6 Shape {
                              appearance 
                              Appearance {
                                material 
                                Material {
                                  diffuseColor 0.89999998 0.89999998 0.89999998
                                  ambientIntensity 0.17999999
                                  specularColor 0.1 0.1 0.1
                                  shininess 0.5

                                }

                              }
                              geometry 
                              IndexedFaceSet {
                                coord 
                                Coordinate {
                                  point [ -25.75 12.75 3,
                                      -25.75 5.6420102 10,
                                      2.55459 2.1963699 4.99159,
                                      -35.75 12.75 1.26352,
                                      -58.75 5.75 4.16326,
                                      -58.689701 2.70784 7.1785102,
                                      2.50914 2.2127299 -4.9946899,
                                      -25.75 5.6420102 -10,
                                      -25.75 12.75 -3,
                                      -46.75 1.93915 -10,
                                      -35.75 12.75 -1.26352,
                                      -58.700901 2.7174101 -7.1679702,
                                      -50.442299 -2.0961499 -9.1538496,
                                      -46.75 1.93915 10,
                                      -46.75 -4.25 7,
                                      -50.442299 -2.0961499 9.1538496,
                                      -46.75 -1.25 10,
                                      -58.75 5.75 -4.16326,
                                      -46.75 -4.25 -7,
                                      1.03971 -2.0276 5.0445499,
                                      -7.0934701 -3.7504201 3.90676,
                                      1.1324199 -2.0095201 -5.0462599,
                                      -46.75 -1.25 -10,
                                      -25.75 -1.25 10,
                                      -25.75 -4.25 7,
                                      -23.8381 -4.23454 -6.8866701,
                                      -25.75 -1.25 -10 ]

                                }
                                normal 
                                Normal {
                                  vector [ -0.013045483 0.70161396 0.71243781,
                                      0.042648412 0.7010352 0.71185017,
                                      0.20691527 0.68648869 0.69707924,
                                      -0.12278644 0.6966247 0.70685035,
                                      -0.12322462 0.69736046 0.70604831,
                                      -0.12278584 0.69675499 0.70672214,
                                      0.2067802 0.68650872 -0.69709957,
                                      0.042579446 0.70103735 -0.71185231,
                                      -0.013090931 0.70161361 -0.71243739,
                                      -0.12262718 0.69628572 -0.70721197,
                                      -0.12278722 0.6966508 -0.7068246,
                                      -0.2301767 0.0065595019 -0.97312677,
                                      -0.1520685 0.0021992903 -0.9883675,
                                      -0.22677886 0.0032797889 -0.97394085,
                                      -0.12264073 0.6962924 0.70720309,
                                      -0.50348985 -0.8640011 0.00035491833,
                                      -0.50348371 -0.86400437 0.00089312682,
                                      -4.5659192e-008 -0.70710683 0.70710683,
                                      -0.11240018 0 0.99366307,
                                      -0.11398935 0.0015121583 0.99348086,
                                      -0.22649354 0.003004615 0.97400808,
                                      -0.12326758 0.69745827 -0.70594406,
                                      -0.122787 0.69679403 -0.7066834,
                                      -0.50365537 -0.86390471 -0.00025260754,
                                      -0.22960693 0.0060091726 0.97326499,
                                      0.20720774 -0.97829705 0.00015087554,
                                      0.11055028 -0.9932887 -0.034001127,
                                      0.15199956 -0.98699778 -0.052265346,
                                      -0.074880235 0 -0.99719256,
                                      0.0013249314 -0.71206594 -0.7021113,
                                      0.0019872992 -0.7071054 -0.7071054,
                                      -9.1318398e-008 -0.70710683 -0.70710683,
                                      0.18017322 -0.052301813 0.98224348,
                                      0.17726825 -0.026159987 0.98381495,
                                      0.08897949 -0.01313096 0.99594682,
                                      0.0092954328 -0.99995667 0.00053766283,
                                      0.041345697 -0.99855518 -0.034324259,
                                      0.11400016 -0.68127304 -0.72309828,
                                      0.039388683 -0.70455813 -0.70855236,
                                      0.05711164 -0.7029497 -0.70894295,
                                      0.11849935 -0.01559512 -0.99283165,
                                      0.17712863 -0.023311032 -0.98391163,
                                      0.17975241 -0.046609212 -0.98260713,
                                      0.054812029 -0.74702501 0.66253239,
                                      0.10812902 -0.85045588 0.51481348,
                                      0.10965501 -0.78225917 0.61322612,
                                      0.054887105 -0.70604086 0.70604086,
                                      -0.29116166 0.95667398 0,
                                      -0.19600406 0.9806031 0,
                                      -0.29116163 0.95667392 0,
                                      -0.098002031 0.99518621 0,
                                      0.17750435 0.98412007 -1.3994988e-005,
                                      0.34937114 0.93698442 -2.7545493e-005,
                                      0.17750074 0.98412067 0,
                                      0.087455191 0 0.99616849,
                                      -0.99984467 -0.017622406 0.00038391139,
                                      -0.99986905 -0.016188322 -0,
                                      -0.99981809 -0.019056451 0.00076782185,
                                      -0.50360221 -0.86393565 -0.00022950175,
                                      -0.50354588 -0.86396837 0.00023661219,
                                      0.058334745 0 -0.9982971,
                                      -3.0439459e-008 -0.70710677 0.70710677,
                                      0.00033990131 -0.99999988 -0.00050985196,
                                      -0 -1 0,
                                      0.94613957 -0.32375497 0.0016045594,
                                      0.9507429 -0.30994314 -0.0048348252,
                                      0.94129664 -0.33748478 0.0080435369 ]

                                }
                                coordIndex [ 0, 1, 2, -1, 3, 4, 5, -1,
                                    6, 7, 8, -1, 8, 7, 9, -1,
                                    9, 10, 8, -1, 11, 9, 12, -1,
                                    13, 1, 0, -1, 13, 0, 3, -1,
                                    13, 3, 5, -1, 5, 14, 15, -1,
                                    14, 16, 15, -1, 16, 13, 15, -1,
                                    17, 10, 11, -1, 11, 10, 9, -1,
                                    18, 11, 12, -1, 5, 15, 13, -1,
                                    19, 20, 21, -1, 22, 12, 9, -1,
                                    22, 18, 12, -1, 19, 2, 23, -1,
                                    24, 25, 20, -1, 21, 25, 26, -1,
                                    25, 21, 20, -1, 26, 6, 21, -1,
                                    24, 20, 19, -1, 19, 23, 24, -1,
                                    4, 10, 17, -1, 10, 4, 3, -1,
                                    8, 0, 2, -1, 8, 2, 6, -1,
                                    8, 10, 3, -1, 0, 8, 3, -1,
                                    23, 13, 16, -1, 13, 23, 1, -1,
                                    11, 4, 17, -1, 11, 5, 4, -1,
                                    11, 14, 5, -1, 11, 18, 14, -1,
                                    22, 7, 26, -1, 22, 9, 7, -1,
                                    25, 22, 26, -1, 22, 25, 18, -1,
                                    23, 2, 1, -1, 24, 23, 16, -1,
                                    24, 16, 14, -1, 18, 24, 14, -1,
                                    25, 24, 18, -1, 6, 26, 7, -1,
                                    21, 6, 2, -1, 2, 19, 21, -1 ]
                                normalIndex [ 0, 1, 2, -1, 3, 4, 5, -1,
                                    6, 7, 8, -1, 8, 7, 9, -1,
                                    9, 10, 8, -1, 11, 12, 13, -1,
                                    14, 1, 0, -1, 14, 0, 3, -1,
                                    14, 3, 5, -1, 15, 15, 16, -1,
                                    17, 17, 17, -1, 18, 19, 20, -1,
                                    21, 10, 22, -1, 22, 10, 9, -1,
                                    23, 23, 23, -1, 24, 20, 19, -1,
                                    25, 26, 27, -1, 28, 13, 12, -1,
                                    29, 30, 31, -1, 32, 33, 34, -1,
                                    35, 36, 26, -1, 37, 38, 39, -1,
                                    36, 27, 26, -1, 40, 41, 42, -1,
                                    43, 44, 45, -1, 45, 46, 43, -1,
                                    47, 48, 49, -1, 48, 47, 50, -1,
                                    51, 51, 52, -1, 51, 52, 52, -1,
                                    51, 48, 50, -1, 53, 51, 50, -1,
                                    34, 19, 18, -1, 19, 34, 54, -1,
                                    55, 55, 56, -1, 55, 57, 55, -1,
                                    58, 59, 15, -1, 58, 23, 59, -1,
                                    28, 60, 40, -1, 28, 12, 60, -1,
                                    38, 29, 39, -1, 29, 38, 30, -1,
                                    34, 33, 54, -1, 43, 46, 61, -1,
                                    43, 61, 17, -1, 62, 35, 63, -1,
                                    36, 35, 62, -1, 41, 40, 60, -1,
                                    64, 65, 64, -1, 64, 66, 64, -1 ]
                                ccw TRUE
                                solid FALSE
                                convex TRUE
                                creaseAngle 0.5

                              }

                            }

                        }

                    }

                }

            }

        }

    }

}
