####
#
# OBJ File Generated by Meshlab
#
####
# Object middle_r1.obj
#
# Vertices: 20
# Faces: 36
#
####
vn -2.734731 2.645884 -1.320940
v -0.002076 0.004998 -0.000817 0.898039 0.898039 0.898039
vn -2.445602 -2.411064 -1.588060
v -0.001981 -0.005003 -0.001208 0.898039 0.898039 0.898039
vn -6.096511 -0.615702 -0.699697
v -0.003747 -0.002698 0.007041 0.898039 0.898039 0.898039
vn -2.449196 -3.944369 1.183905
v -0.002246 -0.004972 0.037604 0.898039 0.898039 0.898039
vn -2.038061 -1.532097 2.648936
v -0.002248 -0.002468 0.042252 0.898039 0.898039 0.898039
vn -3.133525 -3.115467 0.117419
v -0.003746 -0.004979 0.029186 0.898039 0.898039 0.898039
vn -3.141107 3.087943 0.143957
v -0.003754 0.005018 0.029511 0.898039 0.898039 0.898039
vn -2.041840 1.531382 2.638226
v -0.002252 0.002532 0.042248 0.898039 0.898039 0.898039
vn -2.440881 3.977503 1.192653
v -0.002254 0.005028 0.037596 0.898039 0.898039 0.898039
vn -3.135987 -3.135126 -0.055288
v -0.003746 -0.004993 0.012004 0.898039 0.898039 0.898039
vn -3.214723 3.035069 -0.219361
v -0.003751 0.004973 0.009249 0.898039 0.898039 0.898039
vn -6.191928 -0.190287 0.616410
v -0.003758 -0.001129 0.033102 0.898039 0.898039 0.898039
vn 2.645941 2.957013 0.741476
v 0.002246 0.005032 0.037596 0.898039 0.898039 0.898039
vn 2.065195 -1.380031 2.315724
v 0.002252 -0.002465 0.042252 0.898039 0.898039 0.898039
vn 1.525269 1.546762 -1.571402
v 0.002246 0.005000 -0.002404 0.898039 0.898039 0.898039
vn 1.559131 -1.562571 -1.569517
v 0.002254 -0.005000 -0.002396 0.898039 0.898039 0.898039
vn 2.650646 -2.951612 0.746182
v 0.002254 -0.004968 0.037604 0.898039 0.898039 0.898039
vn 2.062993 1.387004 2.313521
v 0.002248 0.002535 0.042248 0.898039 0.898039 0.898039
vn -0.885771 -2.578051 -2.873215
v -0.000288 -0.005002 -0.002375 0.898039 0.898039 0.898039
vn -1.221833 2.356735 -2.626603
v -0.000758 0.004998 -0.002308 0.898039 0.898039 0.898039
# 20 vertices, 0 vertices normals

f 1//1 2//2 3//3
f 4//4 5//5 6//6
f 7//7 8//8 9//9
f 3//3 2//2 10//10
f 11//11 1//1 3//3
f 8//8 12//12 5//5
f 12//12 6//6 5//5
f 12//12 8//8 7//7
f 13//13 14//14 15//15
f 16//16 15//15 14//14
f 16//16 14//14 17//17
f 18//18 14//14 13//13
f 17//17 14//14 4//4
f 4//4 14//14 5//5
f 8//8 14//14 18//18
f 14//14 8//8 5//5
f 8//8 18//18 13//13
f 9//9 8//8 13//13
f 16//16 19//19 15//15
f 15//15 19//19 20//20
f 17//17 2//2 16//16
f 6//6 2//2 4//4
f 4//4 2//2 17//17
f 6//6 10//10 2//2
f 19//19 16//16 2//2
f 20//20 2//2 1//1
f 19//19 2//2 20//20
f 13//13 15//15 1//1
f 11//11 7//7 1//1
f 9//9 1//1 7//7
f 9//9 13//13 1//1
f 20//20 1//1 15//15
f 3//3 7//7 11//11
f 6//6 7//7 10//10
f 10//10 7//7 3//3
f 12//12 7//7 6//6
# 36 faces, 0 coords texture

# End of File
