#VRML V2.0 utf8


Group {
  children 
    DEF _+0 Group {
      children 
        DEF _+1 Transform {
          scale 0.001 0.001 0.001
          children 
            DEF _+2 Transform {
              translation 0 0 0
              rotation -0 -0 -0.99999994  1.5700002
              scale 1 1 1
              scaleOrientation 0 0 1  0
              center 0 0 0
              children 
                DEF _+3 Transform {
                  translation 0 0 0
                  rotation -0.99999994 -0 -0  1.5700002
                  scale 1 1 1
                  scaleOrientation 0 0 1  0
                  center 0 0 0
                  children 
                    DEF _+4 Transform {
                      translation 0 0 0
                      rotation 0 0 1  0
                      scale 1 1 1
                      scaleOrientation 0 0 1  0
                      center 0 0 0
                      children 
                        DEF _+5 Shape {
                          appearance 
                          Appearance {
                            material 
                            Material {
                              diffuseColor 0.89999998 0.89999998 0.89999998
                              ambientIntensity 0.17999999
                              specularColor 0.1 0.1 0.1
                              shininess 0.5

                            }

                          }
                          geometry 
                          IndexedFaceSet {
                            coord 
                            Coordinate {
                              point [ 24.5 -36 5,
                                  1.29119 -83.290497 2.1612899,
                                  24.5 -36 -5,
                                  24.2652 -7.27071 -11.7137,
                                  -0.83148199 -82.725601 -3.2861099,
                                  3.7852399 79.536797 -1.1784,
                                  -25 36 10,
                                  -24.0182 23.2465 26.828199,
                                  -18.5 -23 25,
                                  24.6353 -0 11.3899,
                                  -24.9995 -39.950699 -10.1209,
                                  -25.0021 0.12845799 -14.9224,
                                  24.5 36 5,
                                  -25 -43.5 10,
                                  -25 36 -10,
                                  20.0336 40.078602 -8.2414598,
                                  -25 -23 25 ]

                            }
                            normal 
                            Normal {
                              vector [ 0.98898542 -0.14791636 -0.005362845,
                                  0.87079394 -0.45541304 -0.18524781,
                                  0.94281292 -0.30835104 -0.12658376,
                                  0.12816831 -0.096184969 -0.98707724,
                                  0.3293668 -0.21230692 -0.92002356,
                                  0.19336182 -0.17219478 -0.96589863,
                                  0.81316578 -0.45419404 -0.36396348,
                                  -0.67616832 0.56764871 0.46965042,
                                  0.21092877 -0.16109817 0.96413511,
                                  0.36431432 -0.19570091 0.91048133,
                                  0.3518635 -0.00042496817 0.93605125,
                                  0.04990733 -0.12353946 -0.99108392,
                                  0.050251767 0.032475006 -0.99820846,
                                  0.35004908 0.22473915 0.90937233,
                                  0.25523767 0.10393642 0.96127564,
                                  -0.83616436 -0.54251552 0.080659181,
                                  -0.86112744 -0.50065583 -0.088336438,
                                  0.33005103 0.28475723 0.89998871,
                                  -0.83416033 0.55152208 0,
                                  0.89801317 0.40185356 -0.17912568,
                                  0.97096062 0.17340824 -0.16481832,
                                  0.93687314 0.25732997 -0.23674911,
                                  0.021632252 0.18478379 -0.98254108,
                                  0.041618884 0.13363992 -0.99015564,
                                  0.02400621 0.16039161 -0.98676151,
                                  -0.54680789 -0.49440926 0.67569268,
                                  -0.78533477 -0.56759274 0.24715963,
                                  0 -0.1994625 0.97990543,
                                  0.17979729 -0.29630983 0.93801576,
                                  0.99631721 0.028809816 -0.080758825,
                                  0.97500956 -0.22216296 0,
                                  0.99987209 -5.1266426e-005 -0.016000966,
                                  -0.9972316 0.01832203 0.072066657,
                                  -0.99930763 0.0091673611 0.036058292,
                                  -0.99988902 0.0036661704 0.014434581,
                                  -1 2.3772061e-005 4.0072904e-005 ]

                            }
                            coordIndex [ 0, 1, 2, -1, 3, 2, 4, -1,
                                4, 2, 1, -1, 5, 6, 7, -1,
                                8, 0, 9, -1, 3, 10, 11, -1,
                                10, 3, 4, -1, 12, 7, 9, -1,
                                4, 13, 10, -1, 7, 12, 5, -1,
                                5, 14, 6, -1, 5, 12, 15, -1,
                                5, 15, 14, -1, 3, 11, 15, -1,
                                1, 16, 13, -1, 4, 1, 13, -1,
                                8, 16, 1, -1, 1, 0, 8, -1,
                                9, 7, 8, -1, 3, 15, 12, -1,
                                3, 0, 2, -1, 3, 9, 0, -1,
                                3, 12, 9, -1, 14, 15, 11, -1,
                                7, 6, 16, -1, 16, 14, 11, -1,
                                10, 13, 16, -1, 16, 6, 14, -1,
                                16, 11, 10, -1, 16, 8, 7, -1 ]
                            normalIndex [ 0, 1, 2, -1, 3, 4, 5, -1,
                                6, 1, 1, -1, 7, 7, 7, -1,
                                8, 9, 10, -1, 3, 11, 12, -1,
                                11, 3, 5, -1, 13, 14, 10, -1,
                                15, 15, 16, -1, 14, 13, 17, -1,
                                18, 18, 18, -1, 19, 20, 21, -1,
                                22, 23, 24, -1, 3, 12, 23, -1,
                                25, 25, 25, -1, 15, 26, 15, -1,
                                8, 27, 28, -1, 28, 9, 8, -1,
                                10, 14, 8, -1, 29, 21, 20, -1,
                                29, 0, 30, -1, 29, 31, 0, -1,
                                29, 20, 31, -1, 24, 23, 12, -1,
                                32, 33, 34, -1, 34, 35, 35, -1,
                                35, 35, 34, -1, 34, 33, 35, -1,
                                34, 35, 35, -1, 27, 8, 14, -1 ]
                            ccw TRUE
                            solid FALSE
                            convex TRUE
                            creaseAngle 0.5

                          }

                        }

                    }

                }

            }

        }

    }

}
