####
#
# OBJ File Generated by Meshlab
#
####
# Object neck_roll_link.obj
#
# Vertices: 17
# Faces: 30
#
####
vn -2.104655 1.470199 -3.410909
v -0.003149 0.002001 -0.047737 0.898039 0.898039 0.898039
vn -2.738240 -2.004421 -0.541919
v -0.034900 -0.077867 -0.006370 0.898039 0.898039 0.898039
vn -5.495496 1.957764 -1.787467
v -0.016506 0.006997 -0.012494 0.898039 0.898039 0.898039
vn -1.496613 2.070717 0.960402
v -0.015770 0.028116 0.014676 0.898039 0.898039 0.898039
vn -2.609400 -2.179149 1.296093
v -0.031142 -0.077803 0.014903 0.898039 0.898039 0.898039
vn 1.111311 1.624113 -2.867339
v 0.002580 0.003477 -0.048323 0.898039 0.898039 0.898039
vn 5.530459 1.921623 -1.765432
v 0.016494 0.007023 -0.012494 0.898039 0.898039 0.898039
vn 2.627229 -1.970992 -0.390421
v 0.035167 -0.078169 -0.006101 0.898039 0.898039 0.898039
vn 2.078438 -2.811510 -2.269366
v 0.020681 -0.077763 -0.025841 0.898039 0.898039 0.898039
vn -2.076959 -2.820953 -2.264476
v -0.020557 -0.077796 -0.025841 0.898039 0.898039 0.898039
vn -0.732330 -3.242702 -3.006486
v -0.007281 -0.077780 -0.032235 0.898039 0.898039 0.898039
vn 0.721992 -3.237842 -3.009354
v 0.007229 -0.077766 -0.032293 0.898039 0.898039 0.898039
vn 1.500612 2.092606 0.959472
v 0.015725 0.028141 0.014676 0.898039 0.898039 0.898039
vn -1.203288 -1.986836 2.815513
v -0.015804 -0.076825 0.031109 0.898039 0.898039 0.898039
vn 1.220923 -1.978975 2.425099
v 0.016485 -0.077787 0.030895 0.898039 0.898039 0.898039
vn 5.245114 -0.160336 2.550512
v 0.029784 -0.065788 0.014266 0.898039 0.898039 0.898039
vn 0.197113 1.088079 5.873913
v 0.001830 0.002978 0.023503 0.898039 0.898039 0.898039
# 17 vertices, 0 vertices normals

f 1//1 2//2 3//3
f 4//4 1//1 3//3
f 2//2 5//5 4//4
f 2//2 4//4 3//3
f 6//6 7//7 8//8
f 9//9 6//6 8//8
f 2//2 1//1 10//10
f 1//1 11//11 10//10
f 12//12 11//11 1//1
f 6//6 9//9 12//12
f 13//13 8//8 7//7
f 6//6 13//13 7//7
f 5//5 14//14 4//4
f 13//13 6//6 4//4
f 4//4 6//6 1//1
f 15//15 16//16 13//13
f 13//13 16//16 8//8
f 15//15 13//13 17//17
f 14//14 15//15 17//17
f 17//17 13//13 4//4
f 4//4 14//14 17//17
f 12//12 1//1 6//6
f 10//10 11//11 15//15
f 11//11 12//12 15//15
f 15//15 14//14 5//5
f 15//15 2//2 10//10
f 15//15 12//12 9//9
f 8//8 15//15 9//9
f 15//15 5//5 2//2
f 16//16 15//15 8//8
# 30 faces, 0 coords texture

# End of File
