####
#
# OBJ File Generated by Meshlab
#
####
# Object neck_yaw_link.obj
#
# Vertices: 13
# Faces: 22
#
####
vn 2.670549 -2.431620 -1.076878
v 0.057353 -0.015954 0.100091 0.898039 0.898039 0.898039
vn 0.004348 0.000000 -2.730410
v -0.000051 0.000000 0.031988 0.898039 0.898039 0.898039
vn 2.666674 2.435866 -1.076884
v 0.057328 0.016046 0.100091 0.898039 0.898039 0.898039
vn 0.001823 3.633236 -2.960975
v -0.000061 0.004622 0.035760 0.898039 0.898039 0.898039
vn 0.007609 -3.633235 -2.960966
v -0.000053 -0.004622 0.035760 0.898039 0.898039 0.898039
vn -2.663232 -2.435289 -1.084707
v -0.057646 -0.016046 0.099908 0.898039 0.898039 0.898039
vn -2.667107 2.430923 -1.083956
v -0.057672 0.015954 0.099908 0.898039 0.898039 0.898039
vn -2.617076 -2.951026 0.743481
v -0.057664 -0.016046 0.111290 0.898039 0.898039 0.898039
vn 1.907259 -1.794122 1.536480
v 0.057347 -0.015954 0.104091 0.898039 0.898039 0.898039
vn -1.665097 -1.257133 2.277379
v -0.057513 -0.006424 0.129963 0.898039 0.898039 0.898039
vn -1.628653 1.147477 2.215388
v -0.057693 0.006178 0.130253 0.898039 0.898039 0.898039
vn 1.904593 1.797185 1.536431
v 0.057322 0.016046 0.104091 0.898039 0.898039 0.898039
vn -2.621284 2.963233 0.746506
v -0.057668 0.015954 0.111288 0.898039 0.898039 0.898039
# 13 vertices, 0 vertices normals

f 1//1 2//2 3//3
f 4//4 3//3 2//2
f 5//5 2//2 1//1
f 6//6 7//7 2//2
f 6//6 2//2 5//5
f 4//4 2//2 7//7
f 8//8 9//9 10//10
f 11//11 12//12 13//13
f 6//6 5//5 1//1
f 4//4 7//7 3//3
f 12//12 9//9 3//3
f 3//3 9//9 1//1
f 12//12 11//11 9//9
f 10//10 9//9 11//11
f 1//1 8//8 6//6
f 9//9 8//8 1//1
f 7//7 13//13 3//3
f 3//3 13//13 12//12
f 8//8 11//11 6//6
f 6//6 11//11 7//7
f 11//11 8//8 10//10
f 11//11 13//13 7//7
# 22 faces, 0 coords texture

# End of File
