####
#
# OBJ File Generated by Meshlab
#
####
# Object palm2_r.obj
#
# Vertices: 12
# Faces: 20
#
####
vn -2.383066 1.440273 2.237331
v -0.002310 0.075264 0.042510 0.898039 0.898039 0.898039
vn -3.982577 2.499610 -0.797036
v -0.004310 0.075490 0.007860 0.898039 0.898039 0.898039
vn -1.137762 -2.209239 0.528386
v -0.004244 -0.010486 0.032114 0.898039 0.898039 0.898039
vn 0.829384 1.377003 1.113388
v 0.002188 0.077753 0.042570 0.898039 0.898039 0.898039
vn -2.635833 -1.012247 3.351828
v -0.002248 -0.002536 0.042248 0.898039 0.898039 0.898039
vn 1.026287 1.643681 -1.163639
v 0.002188 0.078017 0.004344 0.898039 0.898039 0.898039
vn -2.505512 1.791276 -3.554499
v -0.002310 0.074995 0.003860 0.898039 0.898039 0.898039
vn 1.504247 0.215496 -2.672339
v 0.002225 0.032004 -0.002375 0.898039 0.898039 0.898039
vn -2.153189 -1.100533 -3.326261
v -0.001580 -0.003673 -0.002914 0.898039 0.898039 0.898039
vn -0.779519 -1.862981 -0.392436
v -0.004239 -0.011881 0.007856 0.898039 0.898039 0.898039
vn 1.609750 -1.478369 1.953013
v 0.002256 -0.004814 0.042150 0.898039 0.898039 0.898039
vn 2.026869 -1.562389 -2.091603
v 0.002254 -0.004996 -0.002404 0.898039 0.898039 0.898039
# 12 vertices, 0 vertices normals

f 1//1 2//2 3//3
f 2//2 1//1 4//4
f 5//5 1//1 3//3
f 2//2 6//6 7//7
f 8//8 9//9 7//7
f 9//9 2//2 7//7
f 10//10 11//11 3//3
f 11//11 10//10 12//12
f 4//4 6//6 2//2
f 4//4 12//12 8//8
f 8//8 6//6 4//4
f 4//4 11//11 12//12
f 4//4 5//5 11//11
f 4//4 1//1 5//5
f 9//9 12//12 10//10
f 3//3 11//11 5//5
f 9//9 8//8 12//12
f 8//8 7//7 6//6
f 3//3 2//2 10//10
f 9//9 10//10 2//2
# 20 faces, 0 coords texture

# End of File
