#VRML V2.0 utf8


Group {
  children 
    DEF _+0 Group {
      children 
        DEF _+1 Transform {
          scale 0.001 0.001 0.001
          children 
            DEF _+2 Transform {
              translation 0 0 0
              rotation 0 0 -0.99999994  1.5700002
              scale 1 1 1
              scaleOrientation 0 0 1  0
              center 0 0 0
              children 
                DEF _+3 Group {
                  children 
                    DEF _+4 Transform {
                      translation 0 0 0
                      rotation 0 0 1  0
                      scale 1 1 1
                      scaleOrientation 0 0 1  0
                      center 0 0 0
                      children 
                        DEF _+5 Shape {
                          appearance 
                          Appearance {
                            material 
                            Material {
                              diffuseColor 0.89999998 0.89999998 0.89999998
                              ambientIntensity 0.17999999
                              specularColor 0.1 0.1 0.1
                              shininess 0.5

                            }

                          }
                          geometry 
                          IndexedFaceSet {
                            coord 
                            Coordinate {
                              point [ 68.488297 -23.601299 33.4646,
                                  -0.60131001 -53.311699 32.7342,
                                  18.5 -38.5 -6.6613397e-016,
                                  13.3308 10.8411 -9.0880404,
                                  66.570099 -17.393299 33.509602,
                                  0.0205968 1.4863501 -12.5142,
                                  -18.5 -38.5 -2.6645399e-015,
                                  -23.5124 -41.376801 33.492199,
                                  -17.5597 6.5418401 -5.8956099,
                                  -15.9133 -6.3395801 31.4128,
                                  -23.8137 -19.875099 33.503201,
                                  16.190399 -6.49717 31.5042 ]

                            }
                            normal 
                            Normal {
                              vector [ 0.39014763 -0.90281707 -0.18084827,
                                  0.20029519 -0.93122029 -0.3044844,
                                  0.5430761 -0.0042222813 -0.8396728,
                                  0.63397652 0.062996052 -0.77078235,
                                  0.45826754 -0.11433851 -0.8814292,
                                  0.6770016 0.21428938 -0.70409441,
                                  0.31342018 -0.18126447 -0.93215394,
                                  0.17091949 -0.22147609 -0.96007025,
                                  -0.46091664 -0.8756507 -0.14419389,
                                  0.029622495 0.92928761 0.36816716,
                                  -0.096790209 0.93948096 0.32864451,
                                  -0.046781633 0.93128431 0.36127672,
                                  -0.19350274 -0.21028569 -0.95829886,
                                  -0.014841497 -0.19154784 -0.9813711,
                                  -0.15998407 0.53213185 -0.83140892,
                                  -0.37824529 -0.1123749 -0.91885936,
                                  -0.82862639 0.51685965 0.21502222,
                                  -0.0022071053 0.10502239 0.99446744,
                                  -0.0032730501 0.15735047 0.98753744,
                                  -0.00205817 0.15380161 0.98809969,
                                  -0.98871809 -0.01377844 -0.14915378,
                                  -0.988213 -0.0068358826 -0.15293314,
                                  -0.9876458 0.00010710285 -0.15670288,
                                  2.2265796e-017 -0.91107279 -0.41224578,
                                  0.092887774 0.91799456 0.38556176,
                                  0.18162987 0.90888453 0.37541896,
                                  0.0022363395 -0.025762867 0.99966568,
                                  -0.0065797456 -0.009281625 0.99993533,
                                  -1.824117e-005 0.027302777 0.99962723,
                                  0.0054987282 -0.021378763 0.99975622 ]

                            }
                            coordIndex [ 0, 1, 2, -1, 3, 0, 2, -1,
                                4, 0, 3, -1, 2, 5, 3, -1,
                                6, 1, 7, -1, 3, 8, 9, -1,
                                6, 5, 2, -1, 3, 5, 8, -1,
                                8, 5, 6, -1, 8, 10, 9, -1,
                                10, 11, 9, -1, 7, 10, 6, -1,
                                6, 10, 8, -1, 6, 2, 1, -1,
                                3, 9, 11, -1, 3, 11, 4, -1,
                                1, 0, 4, -1, 10, 7, 4, -1,
                                7, 1, 4, -1, 11, 10, 4, -1 ]
                            normalIndex [ 0, 1, 1, -1, 2, 3, 4, -1,
                                5, 3, 3, -1, 6, 7, 4, -1,
                                8, 8, 8, -1, 9, 10, 11, -1,
                                12, 13, 7, -1, 14, 14, 14, -1,
                                15, 12, 12, -1, 16, 16, 16, -1,
                                17, 18, 19, -1, 20, 21, 21, -1,
                                21, 21, 22, -1, 23, 1, 1, -1,
                                9, 11, 24, -1, 9, 24, 25, -1,
                                26, 27, 28, -1, 17, 29, 28, -1,
                                29, 26, 28, -1, 18, 17, 28, -1 ]
                            ccw TRUE
                            solid FALSE
                            convex TRUE
                            creaseAngle 0.5

                          }

                        }

                    }

                }

            }

        }

    }

}
