####
#
# OBJ File Generated by Meshlab
#
####
# Object ring_r2.obj
#
# Vertices: 19
# Faces: 34
#
####
vn 4.849105 -2.003662 -0.864642
v 0.012735 -0.002985 0.018263 0.898039 0.898039 0.898039
vn -0.474309 -1.908808 1.732753
v 0.001705 -0.008368 0.049654 0.898039 0.898039 0.898039
vn 2.159332 -5.006810 -0.481525
v 0.005627 -0.009985 0.018262 0.898039 0.898039 0.898039
vn 5.007545 -0.937930 0.862976
v 0.012728 -0.001241 0.028261 0.898039 0.898039 0.898039
vn 1.634716 -1.059434 2.802875
v 0.005709 -0.004122 0.051258 0.898039 0.898039 0.898039
vn -5.227232 2.211288 -0.413353
v -0.004265 0.007015 0.018241 0.898039 0.898039 0.898039
vn -2.020607 5.200972 -0.475906
v -0.001249 0.010040 0.018446 0.898039 0.898039 0.898039
vn -2.557909 1.949652 -2.170526
v -0.002124 0.004914 -0.001014 0.898039 0.898039 0.898039
vn 2.156696 5.005955 -0.486016
v 0.005627 0.010015 0.018247 0.898039 0.898039 0.898039
vn 4.845843 1.993558 -0.821323
v 0.012735 0.003015 0.018258 0.898039 0.898039 0.898039
vn 0.985150 1.654922 -2.602285
v 0.002176 0.004985 -0.002565 0.898039 0.898039 0.898039
vn -0.370823 1.768354 1.755815
v 0.001799 0.008344 0.049777 0.898039 0.898039 0.898039
vn 3.659825 1.810807 2.785059
v 0.006365 0.003901 0.049275 0.898039 0.898039 0.898039
vn 1.029450 -1.690775 -2.617390
v 0.002199 -0.004995 -0.002506 0.898039 0.898039 0.898039
vn -2.023523 -5.201940 -0.473259
v -0.001249 -0.010011 0.018462 0.898039 0.898039 0.898039
vn -5.227198 -2.211977 -0.409859
v -0.004265 -0.006985 0.018252 0.898039 0.898039 0.898039
vn -2.502022 -1.916565 -2.179581
v -0.002117 -0.004904 -0.001090 0.898039 0.898039 0.898039
vn -4.012360 2.412720 1.042131
v -0.004281 0.007031 0.039241 0.898039 0.898039 0.898039
vn -4.054131 -2.395838 1.043140
v -0.004281 -0.006969 0.039252 0.898039 0.898039 0.898039
# 19 vertices, 0 vertices normals

f 1//1 2//2 3//3
f 2//2 1//1 4//4
f 4//4 5//5 2//2
f 6//6 7//7 8//8
f 9//9 10//10 11//11
f 9//9 12//12 10//10
f 13//13 10//10 12//12
f 3//3 14//14 1//1
f 15//15 16//16 17//17
f 12//12 7//7 18//18
f 11//11 8//8 7//7
f 15//15 17//17 14//14
f 15//15 2//2 19//19
f 4//4 13//13 5//5
f 9//9 7//7 12//12
f 18//18 7//7 6//6
f 4//4 10//10 13//13
f 1//1 10//10 4//4
f 13//13 12//12 5//5
f 5//5 12//12 2//2
f 14//14 10//10 1//1
f 10//10 14//14 11//11
f 2//2 15//15 3//3
f 9//9 11//11 7//7
f 8//8 17//17 6//6
f 6//6 17//17 16//16
f 18//18 6//6 19//19
f 16//16 19//19 6//6
f 16//16 15//15 19//19
f 12//12 19//19 2//2
f 12//12 18//18 19//19
f 15//15 14//14 3//3
f 11//11 17//17 8//8
f 14//14 17//17 11//11
# 34 faces, 0 coords texture

# End of File
