#VRML V2.0 utf8


Group {
  children 
    DEF _+0 Group {
      children 
        DEF _+1 Transform {
          scale 0.001 0.001 0.001
          children 
            DEF _+2 Transform {
              translation 0 0 0
              rotation 0.99999994 0 0  1.5700002
              scale 1 1 1
              scaleOrientation 0 0 1  0
              center 0 0 0
              children 
                DEF _+3 Transform {
                  translation 0 0 0
                  rotation -0 -0 -0.99999994  1.5700002
                  scale 1 1 1
                  scaleOrientation 0 0 1  0
                  center 0 0 0
                  children 
                    DEF _+4 Group {
                      children 
                        DEF _+5 Transform {
                          translation 0 0 0
                          rotation 0 0 1  0
                          scale 1 1 1
                          scaleOrientation 0 0 1  0
                          center 0 0 0
                          children 
                            DEF _+6 Shape {
                              appearance 
                              Appearance {
                                material 
                                Material {
                                  diffuseColor 0.89999998 0.89999998 0.89999998
                                  ambientIntensity 0.17999999
                                  specularColor 0.1 0.1 0.1
                                  shininess 0.5

                                }

                              }
                              geometry 
                              IndexedFaceSet {
                                coord 
                                Coordinate {
                                  point [ -18.25 12.75 3,
                                      -49.646198 1.7442501 8.4074097,
                                      -18.25 5.6420102 10,
                                      -28.25 12.75 1.26352,
                                      -51.25 5.75 4.16326,
                                      -18.25 -4.25 -7,
                                      -18.4554 -1.23462 -10.0253,
                                      1.00888 -2.1252401 -4.9147601,
                                      -18.25 5.6420102 -10,
                                      -18.25 12.75 -3,
                                      2.5627401 2.1741199 -4.9871602,
                                      -49.7817 1.8390599 -8.3040705,
                                      -49.273499 6.4043598 -3.8620701,
                                      2.51178 2.1965699 4.9930801,
                                      -18.4554 -1.23462 10.0253,
                                      -18.25 -4.25 7,
                                      1.09203 -2.1177299 4.9029899,
                                      -39.25 -4.25 -7,
                                      -39.25 -4.25 7 ]

                                }
                                normal 
                                Normal {
                                  vector [ 0.010858736 0.70186186 0.71223027,
                                      -0.12282901 0.69713694 0.70633775,
                                      0.078930996 0.69948447 0.71027553,
                                      -0.12307981 0.69750309 0.70593262,
                                      -0.12348578 0.69795579 0.70541412,
                                      0.076600097 -0.70358086 -0.70647454,
                                      0.023017133 -0.59849656 -0.80079466,
                                      0.15274905 -0.69475085 -0.70284349,
                                      0.079197206 0.69946963 -0.71026051,
                                      0.010785109 0.70256555 -0.71153718,
                                      0.27721575 0.67417347 -0.68457407,
                                      -0.12272245 0.69774324 -0.70575744,
                                      -0.036229707 0.76422954 -0.64392596,
                                      -0.15044136 0.81209356 -0.56380093,
                                      0.27699071 0.67421901 0.68462026,
                                      0.023926407 -0.60230964 0.79790395,
                                      0.076620221 -0.70357919 0.70647418,
                                      0.15278892 -0.69474512 0.70284051,
                                      -0.071043305 -0.1740531 -0.98217022,
                                      0.088091902 -0.33033147 -0.93974513,
                                      -0.043756798 -0.54093438 -0.83992589,
                                      0.24113217 -0.054696493 -0.96894974,
                                      0.24799225 -0.10584456 -0.96296257,
                                      0.087457694 -0.11555026 -0.9894439,
                                      0.089035131 -0.1181168 0.98900008,
                                      0.24787121 -0.10168785 0.96344149,
                                      0.24118687 -0.052614003 0.96905142,
                                      0.089160658 -0.33208463 0.93902618,
                                      -0.068207204 -0.18134524 0.98105127,
                                      -0.042292599 -0.54709464 0.83600175,
                                      -0.15854205 0.97789538 -0.13632719,
                                      -0.23702018 0.94988596 -0.20380899,
                                      -0.29040548 0.9568817 0.0064991829,
                                      0.090591542 0.00095809839 -0.9958877,
                                      -0.11043416 0.87034941 -0.4798919,
                                      -0.20622709 0.89839667 -0.38775477,
                                      0.23297617 0.9724825 -0,
                                      0.19434953 0.97507161 -0.10706913,
                                      -0.93087757 0.30267826 -0.20457979,
                                      -0.93032664 -0.36669123 0.0054630125,
                                      0.45308334 0.89146817 0.00015394339,
                                      0.30961519 0.95086187 0.00010519745,
                                      0.45303625 0.89149207 0.00030788677,
                                      0.092251256 0.00090797973 0.99573535,
                                      0.10967891 -0.99396712 -0.00016856485,
                                      0.054896615 -0.99849212 -4.2204854e-005,
                                      0.10962766 -0.99397278 -8.4282423e-005,
                                      0.054870877 -0.99849349 0,
                                      0 -1 0,
                                      -0.50005841 -0.86599159 -0.00043188891,
                                      -0.49958763 -0.86626291 -0.00086377759,
                                      -0.50052893 -0.86571991 0,
                                      0.94523549 -0.32638744 -0.0010756886,
                                      0.94039279 -0.34000325 -0.0077044335,
                                      0.94983935 -0.31268916 0.005553328 ]

                                }
                                coordIndex [ 0, 1, 2, -1, 1, 0, 3, -1,
                                    3, 4, 1, -1, 5, 6, 7, -1,
                                    8, 9, 10, -1, 8, 11, 9, -1,
                                    12, 9, 11, -1, 2, 13, 0, -1,
                                    14, 15, 16, -1, 11, 6, 17, -1,
                                    10, 7, 6, -1, 14, 16, 13, -1,
                                    14, 1, 18, -1, 3, 12, 4, -1,
                                    8, 6, 11, -1, 17, 6, 5, -1,
                                    3, 9, 12, -1, 0, 9, 3, -1,
                                    12, 11, 4, -1, 4, 11, 1, -1,
                                    13, 9, 0, -1, 9, 13, 10, -1,
                                    1, 14, 2, -1, 8, 10, 6, -1,
                                    7, 16, 5, -1, 5, 16, 15, -1,
                                    17, 5, 18, -1, 15, 18, 5, -1,
                                    15, 14, 18, -1, 11, 18, 1, -1,
                                    11, 17, 18, -1, 14, 13, 2, -1,
                                    10, 16, 7, -1, 13, 16, 10, -1 ]
                                normalIndex [ 0, 1, 2, -1, 1, 0, 3, -1,
                                    3, 4, 1, -1, 5, 6, 7, -1,
                                    8, 9, 10, -1, 8, 11, 12, -1,
                                    13, 12, 11, -1, 2, 14, 0, -1,
                                    15, 16, 17, -1, 18, 19, 20, -1,
                                    21, 22, 23, -1, 24, 25, 26, -1,
                                    27, 28, 29, -1, 30, 31, 32, -1,
                                    33, 23, 18, -1, 20, 6, 5, -1,
                                    30, 34, 35, -1, 36, 37, 30, -1,
                                    38, 38, 38, -1, 39, 39, 39, -1,
                                    40, 41, 36, -1, 41, 40, 42, -1,
                                    28, 24, 43, -1, 33, 21, 23, -1,
                                    44, 44, 45, -1, 45, 46, 47, -1,
                                    48, 45, 48, -1, 47, 48, 45, -1,
                                    16, 15, 29, -1, 49, 49, 50, -1,
                                    49, 51, 49, -1, 24, 26, 43, -1,
                                    52, 52, 53, -1, 54, 52, 52, -1 ]
                                ccw TRUE
                                solid FALSE
                                convex TRUE
                                creaseAngle 0.5

                              }

                            }

                        }

                    }

                }

            }

        }

    }

}
