#VRML V2.0 utf8


Group {
  children 
    DEF _+0 Group {
      children 
        DEF _+1 Transform {
          scale 0.001 0.001 0.001
          children 
            DEF _+2 Transform {
              translation 0 0 0
              rotation 0 0 0.99999994  1.5700002
              scale 1 1 1
              scaleOrientation 0 0 1  0
              center 0 0 0
              children 
                DEF _+3 Transform {
                  translation 0 0 0
                  rotation 0 0 0.99999994  1.5700002
                  scale 1 1 1
                  scaleOrientation 0 0 1  0
                  center 0 0 0
                  children 
                    DEF _+4 Transform {
                      translation 0 0 0
                      rotation 0 0 1  0
                      scale 1 1 1
                      scaleOrientation 0 0 1  0
                      center 0 0 0
                      children 
                        DEF _+5 Shape {
                          appearance 
                          Appearance {
                            material 
                            Material {
                              diffuseColor 0.89999998 0.89999998 0.89999998
                              ambientIntensity 0.17999999
                              specularColor 0.1 0.1 0.1
                              shininess 0.5

                            }

                          }
                          geometry 
                          IndexedFaceSet {
                            coord 
                            Coordinate {
                              point [ 30 -38 50,
                                  30 -75 28,
                                  60.315102 -33.8545 -51.898701,
                                  53.826599 -8.20959 -50.977001,
                                  26.4121 16.420799 50.2057,
                                  6.9850602 30.6394 -50.923901,
                                  -12.0605 29.1462 50.0504,
                                  -23.6635 19.1544 -51.2677,
                                  -30 -7.1054299e-015 50,
                                  -40 -75 28,
                                  -30 -38 50,
                                  -40 -75 -28,
                                  -30 -38 -51,
                                  28.814699 -74.907997 -26.1639,
                                  -41.209202 -35.869301 0.0604578 ]

                            }
                            normal 
                            Normal {
                              vector [ 0.95779401 -0.051169962 0.28286427,
                                  0.94736451 -0.16362442 0.27518654,
                                  0.96512496 0.044560932 0.25796926,
                                  0.95137322 0.23348853 0.20092872,
                                  0.95808464 0.14839937 0.2450543,
                                  0.4844771 0.8742944 0.029855637,
                                  0.31292844 0.94696516 0.073027551,
                                  0.63830656 0.76964748 -0.014408209,
                                  -0.94541115 0.32112986 -0.055438291,
                                  -0.94842529 0.30934569 0.069244206,
                                  -0.85075623 0.5235616 0.045796357,
                                  0 -0.51107544 0.85953593,
                                  0.019527512 -0.5373351 -0.84314275,
                                  0.015941141 -0.53097111 -0.84723997,
                                  0.023112515 -0.54366142 -0.8389864,
                                  -0.98613322 0.064655356 -0.15284224,
                                  -0.9807151 0.018035239 0.19460905,
                                  -0.99269646 0.12001584 -0.012247784,
                                  -0.0021090705 -0.0011056321 0.99999714,
                                  -0.0012490833 -0.0019722369 0.99999732,
                                  -0.0031636048 -0.0016584474 0.99999368,
                                  0 0 1,
                                  -0.0038290317 0.00062757783 0.99999249,
                                  -0.95612562 0.04245653 0.28986433,
                                  -0.91036648 0 0.41380292,
                                  -0.958565 0.23568524 0.1600177,
                                  -0.96279252 0.10557613 -0.24876563,
                                  -0.97215164 0.17668501 -0.15395997,
                                  -0.95749205 0.26851365 -0.10540072,
                                  -0.34991249 0.93532866 -0.052168198,
                                  0.0046958858 0.0026746781 -0.99998546,
                                  0.0073730703 0.010256696 -0.99992025,
                                  -0.00068969768 0.012791443 -0.99991786,
                                  -0.011460245 0.033019286 -0.99938911,
                                  -0.0047218804 0.014058733 -0.99989003,
                                  0.00066848251 -0.99999952 -0.00084930001,
                                  0 -0.99999857 -0.0016985988,
                                  0.0013369642 -0.99999917 0,
                                  0.78766263 -0.61583549 -0.018282982 ]

                            }
                            coordIndex [ 0, 1, 2, -1, 2, 3, 4, -1,
                                4, 5, 6, -1, 4, 3, 5, -1,
                                7, 8, 6, -1, 0, 9, 1, -1,
                                0, 10, 9, -1, 0, 2, 4, -1,
                                11, 12, 2, -1, 11, 2, 13, -1,
                                11, 9, 14, -1, 8, 0, 4, -1,
                                10, 0, 8, -1, 8, 4, 6, -1,
                                8, 9, 10, -1, 14, 9, 8, -1,
                                12, 11, 7, -1, 7, 11, 14, -1,
                                8, 7, 14, -1, 6, 5, 7, -1,
                                7, 5, 3, -1, 3, 2, 12, -1,
                                12, 7, 3, -1, 9, 13, 1, -1,
                                13, 9, 11, -1, 13, 2, 1, -1 ]
                            normalIndex [ 0, 1, 2, -1, 2, 3, 4, -1,
                                5, 5, 6, -1, 5, 7, 5, -1,
                                8, 9, 10, -1, 11, 11, 11, -1,
                                11, 11, 11, -1, 0, 2, 4, -1,
                                12, 13, 12, -1, 12, 12, 14, -1,
                                15, 16, 17, -1, 18, 19, 20, -1,
                                21, 19, 18, -1, 18, 20, 22, -1,
                                23, 16, 24, -1, 17, 16, 25, -1,
                                26, 15, 27, -1, 28, 15, 17, -1,
                                9, 28, 17, -1, 29, 29, 29, -1,
                                30, 31, 32, -1, 32, 33, 34, -1,
                                34, 30, 32, -1, 35, 35, 36, -1,
                                35, 35, 37, -1, 38, 38, 38, -1 ]
                            ccw TRUE
                            solid FALSE
                            convex TRUE
                            creaseAngle 0.5

                          }

                        }

                    }

                }

            }

        }

    }

}
