#VRML V2.0 utf8


Group {
  children 
    DEF _+0 Group {
      children 
        DEF _+1 Transform {
          scale 0.001 0.001 0.001
          children 
            DEF _+2 Transform {
              translation 0 0 0
              rotation -0 -0 -0.99999994  1.5700002
              scale 1 1 1
              scaleOrientation 0 0 1  0
              center 0 0 0
              children 
                DEF _+3 Transform {
                  translation 0 0 -110
                  rotation 0 0 1  0
                  scale 1 1 1
                  scaleOrientation 0 0 1  0
                  center 0 0 0
                  children 
                    DEF _+4 Transform {
                      translation 0 0 0
                      rotation -0 -0.99999994 -0  1.5700002
                      scale 1 1 1
                      scaleOrientation 0 0 1  0
                      center 0 0 0
                      children 
                        DEF _+5 Transform {
                          translation 0 0 0
                          rotation 0 0 1  0
                          scale 1 1 1
                          scaleOrientation 0 0 1  0
                          center 0 0 0
                          children 
                            DEF _+6 Shape {
                              appearance 
                              Appearance {
                                material 
                                Material {
                                  diffuseColor 0.89999998 0.89999998 0.89999998
                                  ambientIntensity 0.17999999
                                  specularColor 0.1 0.1 0.1
                                  shininess 0.5

                                }

                              }
                              geometry 
                              IndexedFaceSet {
                                coord 
                                Coordinate {
                                  point [ 59.523998 -62.008202 87.994202,
                                      133.21899 -27.251801 87.998497,
                                      3.2300501 -62.008202 87.994202,
                                      0.326489 78.595901 -80.180397,
                                      76.223099 72.375198 -86.990898,
                                      3.2300501 -61.992001 -87.005798,
                                      141.68201 16.2229 -86.998497,
                                      59.9132 -61.9683 -87.003601,
                                      1.4556 75.8526 87.9991,
                                      0.230049 49.994499 59.004601,
                                      0.230049 -60.505501 58.9944,
                                      0.230049 -60.494598 -58.0056,
                                      70.230003 -60.505501 58.9944,
                                      140.265 19.894501 88.386597,
                                      73.225601 82.469803 87.751297,
                                      143.939 -10.9791 87.999001,
                                      143.939 -10.9637 -87.000999,
                                      73.230003 82.507004 -74.992302,
                                      133.508 -27.281401 -87.095497 ]

                                }
                                normal 
                                Normal {
                                  vector [ 0 -0.00012358441 1,
                                      -0.085492164 0.046552755 -0.99525076,
                                      -0.028525129 0.015596791 -0.99947131,
                                      -0.042777531 0.023349039 -0.99881178,
                                      0.0017785751 0.0011830729 -0.99999768,
                                      -0.00083864416 0.0009639847 -0.99999923,
                                      -0.99867749 0.0087788189 0.050656568,
                                      -0.9996962 0.0060642958 -0.023888417,
                                      -0.99978209 0.013043233 0.016301541,
                                      -0.99934798 -0.0030319632 0.03597651,
                                      -0.9946779 -0.012806449 0.10223486,
                                      -1.2140812e-005 -6.0607457e-005 1,
                                      0.0009875457 0.0016206068 0.99999815,
                                      -1.1731722e-005 -7.9707766e-005 1,
                                      -0.44722793 -0.89442015 -8.3073821e-005,
                                      -0.22965896 -0.97327113 -0.0001247935,
                                      -0.44723842 -0.89441478 -8.3344174e-005,
                                      0.19185072 -0.98139787 -0.007187929,
                                      0.14336197 -0.98927683 0.027904039,
                                      0.36796013 -0.92956412 0.022716111,
                                      -0.99866509 -0.0074564153 -0.05111333,
                                      -0.99465311 -0.015586213 -0.1020897,
                                      -0.023833666 -0.015385473 0.99959755,
                                      -0.010418784 -0.0052334573 0.99993205,
                                      -0.0069499528 -0.0034963293 0.99996972,
                                      0.99655187 0.082731575 0.0063196025,
                                      0.97217238 0.22693788 -0.058138296,
                                      0.99493551 0.10046588 0.0031655182,
                                      0.44602862 -0.89329463 0.055525199,
                                      -0.073292494 0.99727476 0.0084405914,
                                      -0.054744821 0.99836159 0.016652564,
                                      -0.091809943 0.99577659 0.00022513729,
                                      0.0048414902 0.76462668 -0.64445525,
                                      0.77466059 0.62507427 -0.095829874,
                                      0.7458896 0.66302675 -0.063593544,
                                      0.65105242 0.75895846 -0.010628303,
                                      0.78813076 0.60888869 -0.090025678,
                                      0.88845867 0.45734411 -0.038437448,
                                      0.68234766 0.7310279 0.00018553656,
                                      0.0026837103 0.0017254145 -0.99999499,
                                      0.007890325 0.00074708625 -0.99996859,
                                      0.83884007 -0.54437757 0.00071199058,
                                      0.84256041 -0.53860182 -4.7394566e-005,
                                      0.83507967 -0.55012727 0.0014713418,
                                      0.44651791 -0.89471793 -0.010072147,
                                      -0.22975494 -0.97324854 -9.0100679e-005,
                                      0.99299377 0.11816734 1.0398734e-005 ]

                                }
                                coordIndex [ 0, 1, 2, -1, 3, 4, 5, -1,
                                    4, 6, 7, -1, 8, 3, 9, -1,
                                    8, 10, 2, -1, 1, 8, 2, -1,
                                    10, 8, 9, -1, 10, 5, 2, -1,
                                    11, 5, 10, -1, 5, 7, 0, -1,
                                    12, 0, 7, -1, 11, 3, 5, -1,
                                    13, 14, 15, -1, 6, 13, 16, -1,
                                    1, 15, 8, -1, 14, 8, 15, -1,
                                    12, 1, 0, -1, 8, 17, 3, -1,
                                    14, 17, 8, -1, 17, 4, 3, -1,
                                    4, 13, 6, -1, 4, 17, 13, -1,
                                    14, 13, 17, -1, 18, 6, 16, -1,
                                    6, 18, 7, -1, 15, 18, 16, -1,
                                    1, 18, 15, -1, 1, 12, 18, -1,
                                    7, 18, 12, -1, 4, 7, 5, -1,
                                    9, 3, 10, -1, 10, 3, 11, -1,
                                    2, 5, 0, -1, 16, 13, 15, -1 ]
                                normalIndex [ 0, 0, 0, -1, 1, 2, 3, -1,
                                    2, 4, 5, -1, 6, 7, 8, -1,
                                    6, 9, 10, -1, 11, 12, 13, -1,
                                    9, 6, 8, -1, 14, 15, 15, -1,
                                    16, 15, 14, -1, 15, 17, 18, -1,
                                    19, 18, 17, -1, 20, 7, 21, -1,
                                    22, 23, 24, -1, 25, 26, 27, -1,
                                    11, 24, 12, -1, 23, 12, 24, -1,
                                    19, 28, 18, -1, 29, 29, 30, -1,
                                    31, 29, 29, -1, 32, 32, 32, -1,
                                    33, 34, 35, -1, 33, 36, 37, -1,
                                    38, 34, 36, -1, 39, 4, 40, -1,
                                    4, 39, 5, -1, 41, 41, 42, -1,
                                    43, 41, 41, -1, 28, 19, 44, -1,
                                    17, 44, 19, -1, 2, 5, 3, -1,
                                    8, 7, 9, -1, 9, 7, 20, -1,
                                    45, 15, 18, -1, 27, 26, 46, -1 ]
                                ccw TRUE
                                solid FALSE
                                convex TRUE
                                creaseAngle 0.5

                              }

                            }

                        }

                    }

                }

            }

        }

    }

}
