#VRML V2.0 utf8


Group {
  children 
    DEF _+0 Group {
      children 
        DEF _+1 Transform {
          scale 0.001 0.001 0.001
          children 
            DEF _+2 Transform {
              translation 0 0 0
              rotation -0 -0 -0.99999994  1.5700002
              scale 1 1 1
              scaleOrientation 0 0 1  0
              center 0 0 0
              children 
                DEF _+3 Transform {
                  translation 0 0 0
                  rotation 0 1 0  3.1400001
                  scale 1 1 1
                  scaleOrientation 0 0 1  0
                  center 0 0 0
                  children 
                    DEF _+4 Transform {
                      translation 0 0 0
                      rotation 0 0 0.99999994  1.5700002
                      scale 1 1 1
                      scaleOrientation 0 0 1  0
                      center 0 0 0
                      children 
                        DEF _+5 Transform {
                          translation 0 0 0
                          rotation 0 0 1  0
                          scale 1 1 1
                          scaleOrientation 0 0 1  0
                          center 0 0 0
                          children 
                            DEF _+6 Shape {
                              appearance 
                              Appearance {
                                material 
                                Material {
                                  diffuseColor 0.89999998 0.89999998 0.89999998
                                  ambientIntensity 0.17999999
                                  specularColor 0.1 0.1 0.1
                                  shininess 0.5

                                }

                              }
                              geometry 
                              IndexedFaceSet {
                                coord 
                                Coordinate {
                                  point [ 26.143499 16.622801 -51.1362,
                                      53.8218 -8.2055397 50.957001,
                                      60.202801 -33.846401 51.328602,
                                      30 -38 -50,
                                      30 -75 -28,
                                      -23.6661 19.1514 51.215199,
                                      -12.0604 29.1464 -50.0056,
                                      -30 -7.1054299e-015 -50,
                                      6.9850502 30.6394 50.9781,
                                      -41.209202 -35.869301 -0.0604578,
                                      -40 -75 -28,
                                      -40 -75 28,
                                      28.6668 -74.894897 27.4417,
                                      -30 -38 51,
                                      -30 -38 -50 ]

                                }
                                normal 
                                Normal {
                                  vector [ 0.95801061 0.14835358 -0.24537097,
                                      0.95126951 0.23382005 -0.20103359,
                                      0.96503383 0.04444243 -0.25833046,
                                      0.95763808 -0.051515564 -0.28332943,
                                      0.94719726 -0.16387714 -0.27561155,
                                      -0.94539809 0.32116601 0.055451158,
                                      -0.85072345 0.52361119 -0.045837875,
                                      -0.94841963 0.30935898 -0.069262445,
                                      0.48255098 0.87536681 -0.029621091,
                                      0.30875418 0.94839364 -0.072252393,
                                      0.63832188 0.76964021 0.014116728,
                                      -0.99269456 0.12002919 0.012267711,
                                      -0.9807151 0.018035242 -0.19460903,
                                      -0.98613828 0.064743288 0.15277287,
                                      0.78715086 -0.61643302 0.02009712,
                                      0.00076530798 -0.99999934 0.00094786455,
                                      0.0015306149 -0.99999893 0,
                                      0 -0.99999821 0.0018957275,
                                      0.020573933 -0.51461303 0.85717571,
                                      0.014141637 -0.52204686 0.85279959,
                                      0.0077077025 -0.52942026 0.84832484,
                                      -0.95856023 0.23569503 -0.16003181,
                                      -0.95612562 0.042456537 -0.28986433,
                                      -0.91036648 0 -0.41380292,
                                      -0.35012519 0.93524694 0.052206125,
                                      0 -0.51107544 -0.85953593,
                                      -0.012444912 -0.0078510577 -0.9998917,
                                      -4.3777014e-005 -6.9121597e-005 -1,
                                      -0.018667853 -0.011776892 -0.99975628,
                                      0 0 -1,
                                      -0.037239179 -0.023409881 -0.99903214,
                                      -0.95747912 0.26858634 0.10533343,
                                      -0.97214878 0.1767661 0.1538852,
                                      -0.96284682 0.10577355 0.24847165,
                                      0.0037472604 0.0064887046 0.99997193,
                                      0.0073643853 0.011422215 0.99990773,
                                      0.0054677743 0.0060495501 0.99996674,
                                      -0.003487291 -0.0033788821 0.9999882,
                                      0.0028869384 0.0067082904 0.99997342 ]

                                }
                                coordIndex [ 0, 1, 2, -1, 3, 2, 4, -1,
                                    5, 6, 7, -1, 8, 0, 6, -1,
                                    1, 0, 8, -1, 9, 10, 11, -1,
                                    2, 12, 4, -1, 12, 11, 10, -1,
                                    10, 4, 12, -1, 2, 13, 12, -1,
                                    12, 13, 11, -1, 9, 7, 10, -1,
                                    7, 14, 10, -1, 8, 6, 5, -1,
                                    3, 4, 10, -1, 10, 14, 3, -1,
                                    0, 2, 3, -1, 3, 7, 6, -1,
                                    14, 7, 3, -1, 6, 0, 3, -1,
                                    5, 7, 9, -1, 5, 9, 11, -1,
                                    5, 11, 13, -1, 5, 1, 8, -1,
                                    5, 13, 2, -1, 1, 5, 2, -1 ]
                                normalIndex [ 0, 1, 2, -1, 3, 2, 4, -1,
                                    5, 6, 7, -1, 8, 8, 9, -1,
                                    10, 8, 8, -1, 11, 12, 13, -1,
                                    14, 14, 14, -1, 15, 16, 15, -1,
                                    15, 17, 15, -1, 18, 19, 19, -1,
                                    19, 19, 20, -1, 11, 21, 12, -1,
                                    22, 23, 12, -1, 24, 24, 24, -1,
                                    25, 25, 25, -1, 25, 25, 25, -1,
                                    0, 2, 3, -1, 26, 27, 28, -1,
                                    29, 27, 26, -1, 28, 30, 26, -1,
                                    31, 7, 11, -1, 31, 11, 13, -1,
                                    32, 13, 33, -1, 34, 35, 36, -1,
                                    34, 37, 38, -1, 35, 34, 38, -1 ]
                                ccw TRUE
                                solid FALSE
                                convex TRUE
                                creaseAngle 0.5

                              }

                            }

                        }

                    }

                }

            }

        }

    }

}
