####
#
# OBJ File Generated by Meshlab
#
####
# Object thumb_l1.obj
#
# Vertices: 20
# Faces: 36
#
####
vn 1.318831 -2.651286 2.730514
v 0.000813 -0.005002 0.002068 0.898039 0.898039 0.898039
vn 1.589977 2.405902 2.449437
v 0.001212 0.004998 0.001989 0.898039 0.898039 0.898039
vn 0.700183 0.605436 6.097483
v -0.007038 0.002698 0.003751 0.898039 0.898039 0.898039
vn -1.180766 3.941405 2.455474
v -0.037600 0.004998 0.002254 0.898039 0.898039 0.898039
vn -2.647716 1.530959 2.040500
v -0.042250 0.002498 0.002252 0.898039 0.898039 0.898039
vn -0.114941 3.110566 3.138482
v -0.029182 0.004997 0.003754 0.898039 0.898039 0.898039
vn -0.146417 -3.092825 3.136186
v -0.029515 -0.005000 0.003746 0.898039 0.898039 0.898039
vn -2.639446 -1.532530 2.039400
v -0.042250 -0.002502 0.002248 0.898039 0.898039 0.898039
vn -1.195821 -3.980434 2.434545
v -0.037600 -0.005002 0.002246 0.898039 0.898039 0.898039
vn 0.057782 3.130084 3.140975
v -0.012000 0.004997 0.003754 0.898039 0.898039 0.898039
vn 0.216942 -3.040358 3.209886
v -0.009253 -0.004972 0.003743 0.898039 0.898039 0.898039
vn -0.616262 0.180918 6.192223
v -0.033101 0.001149 0.003759 0.898039 0.898039 0.898039
vn -0.743829 -2.952205 -2.650645
v -0.037600 -0.004998 -0.002254 0.898039 0.898039 0.898039
vn -2.314623 1.385161 -2.062994
v -0.042250 0.002502 -0.002248 0.898039 0.898039 0.898039
vn 1.570171 -1.545582 -1.527731
v 0.002400 -0.004998 -0.002254 0.898039 0.898039 0.898039
vn 1.570762 1.563802 -1.556642
v 0.002400 0.005002 -0.002246 0.898039 0.898039 0.898039
vn -0.743830 2.956422 -2.645942
v -0.037600 0.005002 -0.002246 0.898039 0.898039 0.898039
vn -2.314623 -1.381874 -2.065197
v -0.042250 -0.002498 -0.002252 0.898039 0.898039 0.898039
vn 2.875267 2.574349 0.889873
v 0.002379 0.005000 0.000296 0.898039 0.898039 0.898039
vn 2.624725 -2.360768 1.218077
v 0.002304 -0.005001 0.000750 0.898039 0.898039 0.898039
# 20 vertices, 0 vertices normals

f 1//1 2//2 3//3
f 4//4 5//5 6//6
f 7//7 8//8 9//9
f 3//3 2//2 10//10
f 11//11 1//1 3//3
f 8//8 12//12 5//5
f 12//12 6//6 5//5
f 12//12 8//8 7//7
f 13//13 14//14 15//15
f 16//16 15//15 14//14
f 16//16 14//14 17//17
f 18//18 14//14 13//13
f 17//17 14//14 4//4
f 4//4 14//14 5//5
f 8//8 14//14 18//18
f 14//14 8//8 5//5
f 8//8 18//18 13//13
f 9//9 8//8 13//13
f 16//16 19//19 15//15
f 15//15 19//19 20//20
f 17//17 2//2 16//16
f 6//6 2//2 4//4
f 4//4 2//2 17//17
f 6//6 10//10 2//2
f 19//19 16//16 2//2
f 20//20 2//2 1//1
f 19//19 2//2 20//20
f 13//13 15//15 1//1
f 11//11 7//7 1//1
f 9//9 1//1 7//7
f 9//9 13//13 1//1
f 20//20 1//1 15//15
f 3//3 7//7 11//11
f 6//6 7//7 10//10
f 10//10 7//7 3//3
f 12//12 7//7 6//6
# 36 faces, 0 coords texture

# End of File
