#VRML V2.0 utf8


Group {
  children 
    DEF _+0 Group {
      children 
        DEF _+1 Transform {
          scale 0.001 0.001 0.001
          children 
            DEF _+2 Transform {
              translation 0 0 -46.5
              rotation 0 0 1  0
              scale 1 1 1
              scaleOrientation 0 0 1  0
              center 0 0 0
              children 
                DEF _+3 Transform {
                  translation 0 0 0
                  rotation 0 1 0  3.1400001
                  scale 1 1 1
                  scaleOrientation 0 0 1  0
                  center 0 0 0
                  children 
                    DEF _+4 Transform {
                      translation 0 0 0
                      rotation 0 0 0.99999994  1.5700002
                      scale 1 1 1
                      scaleOrientation 0 0 1  0
                      center 0 0 0
                      children 
                        DEF _+5 Transform {
                          translation 0 0 0
                          rotation 0 0 1  0
                          scale 1 1 1
                          scaleOrientation 0 0 1  0
                          center 0 0 0
                          children 
                            DEF _+6 Shape {
                              appearance 
                              Appearance {
                                material 
                                Material {
                                  diffuseColor 0.89999998 0.89999998 0.89999998
                                  ambientIntensity 0.17999999
                                  specularColor 0.1 0.1 0.1
                                  shininess 0.5

                                }

                              }
                              geometry 
                              IndexedFaceSet {
                                coord 
                                Coordinate {
                                  point [ 22.5 8.3066196 203.5,
                                      22.5 -8.3066196 203.5,
                                      48.5 1.5 166,
                                      34.7337 -31.7337 166,
                                      34.7337 34.7337 166,
                                      1.5 48.5 166,
                                      22.5 22.5 0,
                                      48.5 1.5 20,
                                      22.5 -22.5 0,
                                      -22.5 8.3066196 203.5,
                                      -31.7337 34.7337 166,
                                      -45.5 1.5 166,
                                      34.7337 -31.7337 20,
                                      -22.5 -8.3066196 203.5,
                                      -22.5 22.5 0,
                                      -45.5 1.5 20,
                                      -31.7337 34.7337 20,
                                      -22.5 -22.5 0,
                                      1.5 48.5 20,
                                      1.5 -45.5 166,
                                      34.7337 34.7337 20,
                                      1.5 -45.5 20,
                                      -31.7337 -31.7337 166,
                                      -31.7337 -31.7337 20 ]

                                }
                                normal 
                                Normal {
                                  vector [ 0.8240971 0.16862892 0.54076624,
                                      0.83006966 -0.17096826 0.53080511,
                                      0.84515518 -0.0015079227 0.53451866,
                                      0.89566588 -0.37100911 0.24522376,
                                      0.91660166 -0.2900795 0.27512774,
                                      0.80226499 0.33231995 0.49591774,
                                      0.15325245 0.71574885 0.68133497,
                                      0.30235216 0.72991878 0.6130268,
                                      0.67681694 0.15196913 -0.72029442,
                                      0.71752918 -0.0029106773 -0.69652253,
                                      0.68896455 -0.15665989 -0.70766193,
                                      -0.15568541 0.72196823 0.67418385,
                                      -0.30684519 0.74076551 0.59758896,
                                      -0.0015497303 0.74256992 0.66976678,
                                      -0.85319203 0.17405994 0.49169752,
                                      -0.91314435 0.37824914 0.15197092,
                                      -0.90689802 0.2526665 0.33718792,
                                      0.74200881 -0.30736014 -0.59577912,
                                      -0.8589642 -0.17630221 0.4807266,
                                      -0.87525672 -0.0014351062 0.48365644,
                                      -0.72789508 0.16287149 -0.66606426,
                                      -0.77085239 0.31930795 -0.55120689,
                                      -0.74070626 -0.16771078 -0.65055925,
                                      -0.77267021 -0.0029200295 -0.63480103,
                                      0.15196913 0.67681694 -0.72029442,
                                      -0.15665987 0.68896449 -0.70766199,
                                      -0.0029106666 0.71752906 -0.69652247,
                                      -0.30736011 0.74200875 -0.59577918,
                                      0.15895216 -0.74404418 0.64894718,
                                      -0.16142024 -0.75040704 0.64096236,
                                      -0.0015587461 -0.7724238 0.63510555,
                                      0.31321886 -0.75615245 0.57456714,
                                      0.72170377 0.29894924 -0.62431812,
                                      0.29894924 0.72170377 -0.62431812,
                                      -0.0029200295 -0.77267021 -0.63480103,
                                      -0.16771078 -0.74070626 -0.65055925,
                                      0.16287149 -0.72789508 -0.66606426,
                                      0.31930795 -0.77085239 -0.55120689,
                                      -0.90195441 -0.37361401 0.21654284,
                                      -0.92437613 -0.29063109 0.24710818,
                                      -0.31772545 -0.76703197 0.55741602,
                                      -0.32769054 -0.79108912 -0.51652384,
                                      -0.79108912 -0.32769054 -0.51652384,
                                      -0.92387509 0.38269413 0,
                                      -0.89939964 0.3725557 0.22865395,
                                      0.92387509 -0.38269413 0,
                                      0.91153389 -0.37758204 0.16290449,
                                      0 0 1,
                                      0 0 -1,
                                      -0.38269413 0.92387509 0,
                                      0.92387509 0.38269413 0,
                                      0.38269413 0.92387509 -0,
                                      0.38269413 -0.92387509 0,
                                      -0.38269413 -0.92387509 0,
                                      -0.91425037 -0.37870732 0.14396894,
                                      -0.92387509 -0.38269413 0 ]

                                }
                                coordIndex [ 0, 1, 2, -1, 3, 2, 1, -1,
                                    4, 0, 2, -1, 0, 4, 5, -1,
                                    6, 7, 8, -1, 9, 5, 10, -1,
                                    9, 0, 5, -1, 9, 10, 11, -1,
                                    8, 7, 12, -1, 13, 9, 11, -1,
                                    14, 15, 16, -1, 14, 17, 15, -1,
                                    6, 14, 18, -1, 18, 14, 16, -1,
                                    1, 13, 19, -1, 19, 3, 1, -1,
                                    7, 6, 20, -1, 6, 18, 20, -1,
                                    21, 17, 8, -1, 12, 21, 8, -1,
                                    22, 13, 11, -1, 22, 19, 13, -1,
                                    17, 21, 23, -1, 23, 15, 17, -1,
                                    15, 10, 16, -1, 15, 11, 10, -1,
                                    3, 12, 2, -1, 12, 7, 2, -1,
                                    9, 13, 0, -1, 13, 1, 0, -1,
                                    14, 6, 8, -1, 14, 8, 17, -1,
                                    10, 18, 16, -1, 18, 10, 5, -1,
                                    2, 7, 20, -1, 20, 4, 2, -1,
                                    20, 18, 5, -1, 4, 20, 5, -1,
                                    21, 12, 3, -1, 19, 21, 3, -1,
                                    23, 21, 19, -1, 22, 23, 19, -1,
                                    11, 15, 23, -1, 23, 22, 11, -1 ]
                                normalIndex [ 0, 1, 2, -1, 3, 4, 1, -1,
                                    5, 0, 0, -1, 6, 7, 6, -1,
                                    8, 9, 10, -1, 11, 11, 12, -1,
                                    11, 6, 13, -1, 14, 15, 16, -1,
                                    10, 10, 17, -1, 18, 14, 19, -1,
                                    20, 20, 21, -1, 20, 22, 23, -1,
                                    24, 25, 26, -1, 25, 25, 27, -1,
                                    28, 29, 30, -1, 28, 31, 28, -1,
                                    8, 8, 32, -1, 24, 24, 33, -1,
                                    34, 35, 36, -1, 37, 36, 36, -1,
                                    38, 18, 39, -1, 40, 29, 29, -1,
                                    35, 35, 41, -1, 42, 22, 22, -1,
                                    43, 15, 43, -1, 43, 44, 15, -1,
                                    3, 45, 46, -1, 45, 45, 46, -1,
                                    47, 47, 47, -1, 47, 47, 47, -1,
                                    48, 48, 48, -1, 48, 48, 48, -1,
                                    49, 49, 49, -1, 49, 49, 49, -1,
                                    50, 50, 50, -1, 50, 50, 50, -1,
                                    51, 51, 51, -1, 51, 51, 51, -1,
                                    52, 52, 52, -1, 52, 52, 52, -1,
                                    53, 53, 53, -1, 53, 53, 53, -1,
                                    54, 55, 55, -1, 55, 38, 54, -1 ]
                                ccw TRUE
                                solid FALSE
                                convex TRUE
                                creaseAngle 0.5

                              }

                            }

                        }

                    }

                }

            }

        }

    }

}
