#VRML V2.0 utf8


Group {
  children 
    DEF _+0 Group {
      children 
        DEF _+1 Transform {
          scale 0.001 0.001 0.001
          children 
            DEF _+2 Transform {
              translation 0 0 0
              rotation -0 -0.99999994 -0  1.5700002
              scale 1 1 1
              scaleOrientation 0 0 1  0
              center 0 0 0
              children 
                DEF _+3 Transform {
                  translation -25.299999 0 0
                  rotation 0 0 1  0
                  scale 1 1 1
                  scaleOrientation 0 0 1  0
                  center 0 0 0
                  children 
                    DEF _+4 Transform {
                      translation 0 0 0
                      rotation 0 0 1  0
                      scale 1 1 1
                      scaleOrientation 0 0 1  0
                      center 0 0 0
                      children 
                        DEF _+5 Shape {
                          appearance 
                          Appearance {
                            material 
                            Material {
                              diffuseColor 0.89999998 0.89999998 0.89999998
                              ambientIntensity 0.17999999
                              specularColor 0.1 0.1 0.1
                              shininess 0.5

                            }

                          }
                          geometry 
                          IndexedFaceSet {
                            coord 
                            Coordinate {
                              point [ -69.835503 28.178101 26.8894,
                                  -69.926399 15.2909 35.692299,
                                  4.76682 11.7526 8.2778502,
                                  2.7239499 -8.84517 13.831,
                                  -69.114304 39.8983 5.1366501,
                                  -244.14101 37.296101 19.257299,
                                  -71.973602 -9.7248602 39.421501,
                                  -284.72101 39.367699 10.0836,
                                  -294.13101 36.874401 -33.73,
                                  -295.20499 -23.0207 -32.377399,
                                  -68.9291 -38.860401 12.1225,
                                  0.70487899 -12.8186 -9.5321503,
                                  -229.119 1.54814 38.4039,
                                  -70.604401 33.278099 -24.141701,
                                  2.6532099 9.8333902 -12.58,
                                  -69.156998 14.5311 -38.210899,
                                  -69.265404 -6.7177901 -41.343201,
                                  -284.10699 -22.944599 11.0199,
                                  -136.224 -0.94764 -43.374802,
                                  -71.559898 -33.931999 -24.705601,
                                  -231.351 -40.172001 -8.0452499,
                                  -233.271 -33.2258 21.1604 ]

                            }
                            normal 
                            Normal {
                              vector [ 0.20902351 0.66743433 0.7147311,
                                  0.19604465 0.39036763 0.89954406,
                                  0.33689442 0.55645889 0.75951016,
                                  0.33362514 0.16326787 0.92845988,
                                  0.33462483 0.37892738 0.86280948,
                                  0.19798683 0.30371666 0.93196434,
                                  0.10954671 0.78665131 0.60760128,
                                  0.11088102 0.91458768 0.38888919,
                                  0.0073560486 0.84841424 0.52928185,
                                  0.21963216 0.77498275 0.59259045,
                                  0.31400359 0.70252401 0.63864052,
                                  0.11475847 0.68356192 0.72081453,
                                  -0.048853539 0.5991661 0.79913282,
                                  0.073478371 0.43907243 0.89544201,
                                  0.25279716 0.25879556 0.93226522,
                                  0.16461582 0.13224131 0.97745281,
                                  -0.97355366 0.0082131866 0.2283109,
                                  -0.97772181 0.022245008 0.20872295,
                                  0.17787993 -0.98388261 0.018266758,
                                  0.34684232 -0.93783993 -0.012516064,
                                  0.38094175 -0.91639036 0.12293136,
                                  0.13205148 0.31026345 0.94143456,
                                  -0.16885427 0.26515839 0.94930464,
                                  -0.071642384 0.47997558 0.87435174,
                                  -0.06858588 0.34299815 0.93682891,
                                  0.13042955 0.39677641 0.90860146,
                                  -0.32487968 0.2124687 0.92158026,
                                  0.010764264 0.99018365 -0.1393574,
                                  0.14611165 0.98561335 -0.08495611,
                                  0.17923066 0.95758122 -0.22564287,
                                  0.33351108 0.37212279 -0.86619568,
                                  0.18138449 0.41616052 -0.8910163,
                                  0.1765426 0.59949958 -0.78066194,
                                  0.26638213 0.042646084 -0.96292359,
                                  0.18048181 0.29695678 -0.93767965,
                                  0.36719346 0.19897772 -0.90861255,
                                  0.10366324 0.41727823 -0.90284711,
                                  0.026815992 0.44911313 -0.89307231,
                                  -0.00066987699 0.99697357 0.077737935,
                                  0.12414022 0.98355097 0.13121226,
                                  0.013961978 0.93815082 0.34594545,
                                  -0.96880335 -0.005823547 0.24776231,
                                  -0.36249217 -0.20313135 0.90958065,
                                  -0.23471679 0.041234076 0.97118878,
                                  -0.028949646 0.1318074 -0.99085253,
                                  -0.00213877 -0.020170899 -0.99979424,
                                  -0.030691674 -0.25981754 -0.96516985,
                                  0.24203357 -0.96875679 -0.054130752,
                                  0.16696246 -0.97561336 -0.1424852,
                                  -0.11333908 -0.99302226 -0.032572385,
                                  0.10573612 -0.95389795 -0.2808893,
                                  0.25391147 -0.64706475 0.71891326,
                                  0.079118185 -0.600348 0.79581571,
                                  0.13632481 -0.66972739 0.72998679,
                                  -0.094161592 -0.51830095 0.84999865,
                                  -0.14807189 -0.42511016 0.89294797,
                                  0.35787073 0.92583871 -0.1214544,
                                  0.34390813 0.9229182 -0.1730587,
                                  0.18016447 0.9707734 -0.15855537,
                                  -0.0049274084 0.13648713 -0.99062955,
                                  0.11241186 0.30008337 -0.94726628,
                                  -0.26020327 -0.95492697 0.14285891,
                                  -0.13135746 -0.98656964 0.097085379,
                                  -0.12806782 -0.96671385 0.22150163,
                                  0.13210008 -0.98839211 0.075037934,
                                  0.36421987 -0.34120131 -0.86655957,
                                  0.28884771 -0.10227454 -0.95189643,
                                  0.37337562 -0.010347577 -0.9276225,
                                  -0.25689995 -0.28891978 0.92224067,
                                  0.15408935 0.36348313 -0.91876894,
                                  -0.0046047764 0.29871204 -0.95433223,
                                  -0.28509465 -0.95559323 0.074582979,
                                  -0.026938904 -0.35159531 -0.93576443,
                                  0.10295828 -0.51212144 -0.85271984,
                                  -0.0060933474 -0.83967054 -0.54306191,
                                  0.00094442366 -0.93941122 -0.34279093,
                                  -0.022834493 -0.84437698 -0.53526264,
                                  0.23975985 -0.40995011 -0.88003188,
                                  0.072789229 -0.60915607 -0.78970277,
                                  -0.0062321941 -0.50179052 -0.86496681,
                                  0.15149646 -0.52484894 -0.83760518,
                                  0.99093437 -0.10842214 -0.079333149,
                                  0.98853415 -0.12202141 -0.088944502,
                                  0.99305415 -0.094792172 -0.069699354 ]

                            }
                            coordIndex [ 0, 1, 2, -1, 3, 2, 1, -1,
                                0, 4, 5, -1, 0, 2, 4, -1,
                                0, 5, 1, -1, 3, 1, 6, -1,
                                7, 8, 9, -1, 10, 11, 3, -1,
                                1, 12, 6, -1, 5, 12, 1, -1,
                                5, 7, 12, -1, 8, 4, 13, -1,
                                14, 15, 13, -1, 16, 15, 14, -1,
                                13, 15, 8, -1, 8, 7, 4, -1,
                                4, 7, 5, -1, 17, 7, 9, -1,
                                7, 17, 12, -1, 8, 18, 9, -1,
                                10, 19, 11, -1, 20, 19, 10, -1,
                                3, 6, 10, -1, 6, 21, 10, -1,
                                21, 6, 12, -1, 2, 14, 4, -1,
                                13, 4, 14, -1, 16, 18, 15, -1,
                                17, 20, 21, -1, 21, 20, 10, -1,
                                11, 16, 14, -1, 12, 17, 21, -1,
                                15, 18, 8, -1, 20, 17, 9, -1,
                                18, 19, 9, -1, 19, 20, 9, -1,
                                19, 16, 11, -1, 19, 18, 16, -1,
                                3, 14, 2, -1, 3, 11, 14, -1 ]
                            normalIndex [ 0, 1, 2, -1, 3, 4, 5, -1,
                                6, 7, 8, -1, 9, 10, 7, -1,
                                11, 12, 13, -1, 3, 14, 15, -1,
                                16, 17, 16, -1, 18, 19, 20, -1,
                                21, 22, 15, -1, 23, 24, 25, -1,
                                23, 26, 22, -1, 27, 28, 29, -1,
                                30, 31, 32, -1, 33, 34, 35, -1,
                                32, 36, 37, -1, 27, 38, 28, -1,
                                39, 38, 40, -1, 41, 16, 16, -1,
                                26, 42, 43, -1, 44, 45, 46, -1,
                                47, 48, 19, -1, 49, 50, 18, -1,
                                51, 52, 53, -1, 52, 54, 53, -1,
                                54, 52, 55, -1, 56, 57, 28, -1,
                                29, 58, 57, -1, 33, 59, 60, -1,
                                61, 62, 63, -1, 63, 62, 64, -1,
                                65, 66, 67, -1, 68, 42, 54, -1,
                                69, 59, 70, -1, 62, 61, 71, -1,
                                72, 73, 46, -1, 74, 75, 76, -1,
                                73, 77, 65, -1, 78, 79, 80, -1,
                                81, 81, 82, -1, 81, 83, 81, -1 ]
                            ccw TRUE
                            solid FALSE
                            convex TRUE
                            creaseAngle 0.5

                          }

                        }

                    }

                }

            }

        }

    }

}
