####
#
# OBJ File Generated by Meshlab
#
####
# Object wrist2_l.obj
#
# Vertices: 18
# Faces: 32
#
####
vn -1.221866 -2.391868 -2.533177
v -0.004034 -0.035994 -0.029003 0.898039 0.898039 0.898039
vn -1.225898 -2.391865 2.531232
v -0.004080 -0.035994 0.028997 0.898039 0.898039 0.898039
vn -2.952116 -2.270876 -0.047280
v -0.022555 -0.034964 -0.000018 0.898039 0.898039 0.898039
vn 1.218275 -2.395754 -2.531235
v 0.003966 -0.036006 -0.028997 0.898039 0.898039 0.898039
vn 3.057415 0.252781 -3.699303
v 0.011048 -0.003270 -0.028991 0.898039 0.898039 0.898039
vn 2.944940 -2.280266 -0.042585
v 0.022444 -0.035036 0.000018 0.898039 0.898039 0.898039
vn 1.214243 -2.395750 2.533174
v 0.003920 -0.036006 0.029003 0.898039 0.898039 0.898039
vn 2.215799 1.821140 2.347212
v 0.009198 0.006872 0.029007 0.898039 0.898039 0.898039
vn 5.547710 0.186928 0.831837
v 0.022425 -0.032036 0.001044 0.898039 0.898039 0.898039
vn 2.220869 1.816277 -2.341504
v 0.009244 0.006872 -0.028993 0.898039 0.898039 0.898039
vn -3.050700 0.262507 -3.704166
v -0.011013 -0.003235 -0.029009 0.898039 0.898039 0.898039
vn 3.043975 0.244917 3.745270
v 0.011002 -0.003270 0.029009 0.898039 0.898039 0.898039
vn -3.049140 0.254619 3.740419
v -0.011059 -0.003234 0.028991 0.898039 0.898039 0.898039
vn -2.213723 1.828193 2.343686
v -0.009222 0.006901 0.028993 0.898039 0.898039 0.898039
vn -5.548404 0.204596 0.823003
v -0.022528 -0.031964 0.001008 0.898039 0.898039 0.898039
vn -2.211342 1.823335 -2.345033
v -0.009176 0.006901 -0.029007 0.898039 0.898039 0.898039
vn 0.006234 2.808920 -2.212871
v 0.000041 0.011500 -0.029000 0.898039 0.898039 0.898039
vn 0.002711 2.808923 2.212875
v -0.000005 0.011500 0.029000 0.898039 0.898039 0.898039
# 18 vertices, 0 vertices normals

f 1//1 2//2 3//3
f 4//4 5//5 6//6
f 7//7 4//4 6//6
f 8//8 9//9 10//10
f 9//9 5//5 10//10
f 9//9 6//6 5//5
f 11//11 1//1 3//3
f 12//12 9//9 8//8
f 12//12 7//7 6//6
f 6//6 9//9 12//12
f 13//13 3//3 2//2
f 13//13 14//14 15//15
f 3//3 13//13 15//15
f 15//15 14//14 16//16
f 11//11 15//15 16//16
f 15//15 11//11 3//3
f 7//7 1//1 4//4
f 7//7 2//2 1//1
f 11//11 16//16 17//17
f 11//11 5//5 4//4
f 1//1 11//11 4//4
f 10//10 5//5 11//11
f 11//11 17//17 10//10
f 18//18 10//10 17//17
f 18//18 8//8 10//10
f 7//7 14//14 2//2
f 8//8 18//18 14//14
f 14//14 7//7 12//12
f 14//14 12//12 8//8
f 14//14 13//13 2//2
f 14//14 17//17 16//16
f 14//14 18//18 17//17
# 32 faces, 0 coords texture

# End of File
