####
#
# OBJ File Generated by Meshlab
#
####
# Object wrist1_r.obj
#
# Vertices: 16
# Faces: 28
#
####
vn 1.442803 -2.118707 -2.140138
v 0.004961 -0.022026 -0.027486 0.898039 0.898039 0.898039
vn 3.109067 -0.005115 -3.313366
v 0.009478 -0.000029 -0.027508 0.898039 0.898039 0.898039
vn 3.096213 -2.914552 -0.005711
v 0.011982 -0.022010 0.000008 0.898039 0.898039 0.898039
vn 3.100850 2.909605 -0.010352
v 0.012018 0.021990 -0.000027 0.898039 0.898039 0.898039
vn 1.446172 2.112994 -2.143510
v 0.004996 0.021974 -0.027521 0.898039 0.898039 0.898039
vn -3.790716 0.005604 3.245564
v -0.009478 0.000029 0.027508 0.898039 0.898039 0.898039
vn -1.457095 -2.081900 2.122123
v -0.004995 -0.021973 0.028521 0.898039 0.898039 0.898039
vn -1.453776 2.087597 2.118801
v -0.004960 0.022027 0.028486 0.898039 0.898039 0.898039
vn -3.100859 -2.909614 -0.000781
v -0.012018 -0.021990 0.000027 0.898039 0.898039 0.898039
vn -3.096222 2.914543 -0.005422
v -0.011982 0.022010 -0.000008 0.898039 0.898039 0.898039
vn 3.795879 -0.000441 3.239529
v 0.009522 0.000014 0.027492 0.898039 0.898039 0.898039
vn 1.460470 2.085275 2.116482
v 0.005040 0.022019 0.028478 0.898039 0.898039 0.898039
vn 1.457150 -2.084222 2.119805
v 0.005005 -0.021981 0.028514 0.898039 0.898039 0.898039
vn -3.114339 -0.000157 -3.308415
v -0.009522 -0.000014 -0.027492 0.898039 0.898039 0.898039
vn -1.449581 -2.116403 -2.137837
v -0.005039 -0.022018 -0.027478 0.898039 0.898039 0.898039
vn -1.446212 2.115299 -2.141209
v -0.005004 0.021982 -0.027514 0.898039 0.898039 0.898039
# 16 vertices, 0 vertices normals

f 1//1 2//2 3//3
f 4//4 2//2 5//5
f 4//4 3//3 2//2
f 6//6 7//7 8//8
f 6//6 9//9 7//7
f 8//8 10//10 6//6
f 6//6 10//10 9//9
f 11//11 12//12 13//13
f 11//11 13//13 3//3
f 11//11 4//4 12//12
f 4//4 11//11 3//3
f 14//14 15//15 9//9
f 9//9 10//10 14//14
f 10//10 16//16 14//14
f 12//12 8//8 7//7
f 12//12 7//7 13//13
f 1//1 13//13 7//7
f 3//3 13//13 1//1
f 1//1 9//9 15//15
f 7//7 9//9 1//1
f 12//12 16//16 8//8
f 16//16 10//10 8//8
f 4//4 16//16 12//12
f 16//16 4//4 5//5
f 14//14 16//16 5//5
f 5//5 2//2 14//14
f 14//14 2//2 1//1
f 14//14 1//1 15//15
# 28 faces, 0 coords texture

# End of File
