#VRML V2.0 utf8


Group {
  children 
    DEF _+0 Group {
      children 
        DEF _+1 Transform {
          scale 0.001 0.001 0.001
          children 
            DEF _+2 Transform {
              translation 0 0 0
              rotation 0.99999994 0 0  1.5700002
              scale 1 1 1
              scaleOrientation 0 0 1  0
              center 0 0 0
              children 
                DEF _+3 Transform {
                  translation 0 0 0
                  rotation -0 -0.99999994 -0  1.5700002
                  scale 1 1 1
                  scaleOrientation 0 0 1  0
                  center 0 0 0
                  children 
                    DEF _+4 Group {
                      children 
                        DEF _+5 Shape {
                          appearance 
                          Appearance {
                            material 
                            Material {
                              diffuseColor 0 0 1

                            }

                          }
                          geometry 
                          IndexedFaceSet {
                            coord 
                            Coordinate {
                              point [ 10 -1.25 4.25,
                                  -10 -1.25 -20.75,
                                  10 -1.25 -20.75,
                                  10 8.75 -20.75,
                                  -10 -1.25 4.25,
                                  -10 58.75 4.25,
                                  -10 8.75 -20.75,
                                  10 58.75 4.25,
                                  10 58.75 -5.75,
                                  -10 58.75 -5.75 ]

                            }
                            normal 
                            Normal {
                              vector [ 0 -1 1.30104e-016,
                                  -6.7654202e-017 8.5001503e-017 -1,
                                  1 -1.66533e-016 -6.0715302e-017,
                                  -1 1.66533e-016 6.0715302e-017,
                                  6.7654202e-017 -8.5001503e-017 1,
                                  0 1 -1.30104e-016,
                                  -6.4800998e-017 0.287348 -0.95782602 ]

                            }
                            coordIndex [ 0, 1, 2, -1, 3, 2, 1, -1,
                                3, 0, 2, -1, 0, 4, 1, -1,
                                5, 1, 4, -1, 6, 1, 5, -1,
                                3, 1, 6, -1, 7, 4, 0, -1,
                                5, 4, 7, -1, 7, 0, 8, -1,
                                3, 8, 0, -1, 7, 8, 9, -1,
                                3, 9, 8, -1, 5, 7, 9, -1,
                                6, 5, 9, -1, 3, 6, 9, -1 ]
                            normalIndex [ 0, 0, 0, -1, 1, 1, 1, -1,
                                2, 2, 2, -1, 0, 0, 0, -1,
                                3, 3, 3, -1, 3, 3, 3, -1,
                                1, 1, 1, -1, 4, 4, 4, -1,
                                4, 4, 4, -1, 2, 2, 2, -1,
                                2, 2, 2, -1, 5, 5, 5, -1,
                                6, 6, 6, -1, 5, 5, 5, -1,
                                3, 3, 3, -1, 6, 6, 6, -1 ]
                            ccw TRUE
                            solid TRUE
                            convex TRUE
                            creaseAngle 0

                          }

                        }

                    }

                }

            }

        }

    }

}
