####
#
# OBJ File Generated by Meshlab
#
####
# Object middle_r2.obj
#
# Vertices: 10
# Faces: 16
#
####
vn -1.569545 -1.573297 -1.569544
v -0.004242 -0.010004 -0.001242 0.000000 0.000000 1.000000
vn 1.569545 1.570795 -1.572047
v 0.020742 0.010016 -0.001258 0.000000 0.000000 1.000000
vn 1.572046 -1.570795 -1.569546
v 0.020758 -0.009984 -0.001242 0.000000 0.000000 1.000000
vn 3.077615 -2.847326 0.453632
v 0.020758 -0.009977 0.008758 0.000000 0.000000 1.000000
vn -1.572046 1.568294 -1.572045
v -0.004258 0.009996 -0.001258 0.000000 0.000000 1.000000
vn -1.572046 1.570795 1.569546
v -0.004258 0.010043 0.058742 0.000000 0.000000 1.000000
vn 3.073076 2.852942 0.449094
v 0.020742 0.010023 0.008742 0.000000 0.000000 1.000000
vn -1.569545 -1.570795 1.572047
v -0.004242 -0.009957 0.058758 0.000000 0.000000 1.000000
vn 1.506032 -1.859444 2.023642
v 0.005758 -0.009949 0.058758 0.000000 0.000000 1.000000
vn 1.503067 1.865060 2.020677
v 0.005742 0.010051 0.058742 0.000000 0.000000 1.000000
# 10 vertices, 0 vertices normals

f 1//1 2//2 3//3
f 4//4 3//3 2//2
f 4//4 1//1 3//3
f 1//1 5//5 2//2
f 6//6 2//2 5//5
f 7//7 2//2 6//6
f 4//4 2//2 7//7
f 8//8 5//5 1//1
f 6//6 5//5 8//8
f 8//8 1//1 9//9
f 4//4 9//9 1//1
f 8//8 9//9 10//10
f 4//4 10//10 9//9
f 6//6 8//8 10//10
f 7//7 6//6 10//10
f 4//4 7//7 10//10
# 16 faces, 0 coords texture

# End of File
