#VRML V2.0 utf8


Group {
  children 
    DEF _+0 Group {
      children 
        DEF _+1 Transform {
          scale 0.001 0.001 0.001
          children 
            DEF _+2 Transform {
              translation 0 0 0
              rotation 0.99999994 0 0  1.5700002
              scale 1 1 1
              scaleOrientation 0 0 1  0
              center 0 0 0
              children 
                DEF _+3 Transform {
                  translation 0 0 0
                  rotation -0 -0.99999994 -0  1.5700002
                  scale 1 1 1
                  scaleOrientation 0 0 1  0
                  center 0 0 0
                  children 
                    DEF _+4 Transform {
                      translation -4.25 0 0
                      rotation 0 0 1  0
                      scale 1 1 1
                      scaleOrientation 0 0 1  0
                      center 0 0 0
                      children 
                        DEF _+5 Group {
                          children 
                            DEF _+6 Shape {
                              appearance 
                              Appearance {
                                material 
                                Material {
                                  diffuseColor 0.87840003 0.949 1

                                }

                              }
                              geometry 
                              IndexedFaceSet {
                                coord 
                                Coordinate {
                                  point [ 10.67 -2.4000001 3.75,
                                      -5 -2.4000001 -21.25,
                                      10.67 -2.4000001 -21.25,
                                      -5 42.25 -21.25,
                                      10.67 42.25 -21.25,
                                      -5 -2.4000001 3.75,
                                      -5 42.25 3.75,
                                      10.67 42.25 3.75 ]

                                }
                                normal 
                                Normal {
                                  vector [ -2.7755599e-016 -1 -1.66533e-016,
                                      5.5511198e-017 7.4593103e-017 -1,
                                      1 -5.5511198e-017 2.7755599e-017,
                                      -1 5.5511198e-017 -2.7755599e-017,
                                      -5.5511198e-017 -7.4593103e-017 1,
                                      2.7755599e-016 1 1.66533e-016 ]

                                }
                                coordIndex [ 0, 1, 2, -1, 3, 2, 1, -1,
                                    4, 0, 2, -1, 3, 4, 2, -1,
                                    0, 5, 1, -1, 6, 1, 5, -1,
                                    3, 1, 6, -1, 7, 5, 0, -1,
                                    6, 5, 7, -1, 7, 0, 4, -1,
                                    6, 7, 4, -1, 3, 6, 4, -1 ]
                                normalIndex [ 0, 0, 0, -1, 1, 1, 1, -1,
                                    2, 2, 2, -1, 1, 1, 1, -1,
                                    0, 0, 0, -1, 3, 3, 3, -1,
                                    3, 3, 3, -1, 4, 4, 4, -1,
                                    4, 4, 4, -1, 2, 2, 2, -1,
                                    5, 5, 5, -1, 5, 5, 5, -1 ]
                                ccw TRUE
                                solid TRUE
                                convex TRUE
                                creaseAngle 0

                              }

                            }

                        }

                    }

                }

            }

        }

    }

}
