####
#
# OBJ File Generated by Meshlab
#
####
# Object palm1_r.obj
#
# Vertices: 16
# Faces: 24
#
####
vn 1.567042 -1.573296 -1.572044
v 0.018154 -0.023529 -0.010814 0.247059 0.247059 0.247059
vn 1.574546 1.568293 1.569543
v 0.018256 0.018471 0.033485 0.247059 0.247059 0.247059
vn 1.569543 -1.573296 1.569547
v 0.018189 -0.023529 0.033486 0.247059 0.247059 0.247059
vn -1.567042 1.573296 1.572044
v -0.045744 0.018573 0.033536 0.247059 0.247059 0.247059
vn -1.572045 -1.568293 1.572048
v -0.045811 -0.023427 0.033536 0.247059 0.247059 0.247059
vn 1.572045 1.568293 -1.572048
v 0.018221 0.018471 -0.010815 0.247059 0.247059 0.247059
vn -1.569543 1.573296 -1.569547
v -0.045779 0.018573 -0.010764 0.247059 0.247059 0.247059
vn -1.574546 -1.568293 -1.569543
v -0.045846 -0.023427 -0.010764 0.247059 0.247059 0.247059
vn -1.485486 -1.055788 1.239531
v -0.041544 0.018566 0.033533 0.247059 0.247059 0.247059
vn 1.574546 1.568293 1.569543
v -0.017068 0.066027 0.033514 0.247059 0.247059 0.247059
vn -1.479953 2.085801 1.904424
v -0.025068 0.066040 0.033520 0.247059 0.247059 0.247059
vn -1.482984 2.085801 -1.902065
v -0.025070 0.066040 0.031520 0.247059 0.247059 0.247059
vn -1.487458 -1.055788 -1.237164
v -0.041545 0.018566 0.031533 0.247059 0.247059 0.247059
vn 1.569543 -1.573296 1.569547
v -0.017144 0.018527 0.033514 0.247059 0.247059 0.247059
vn 1.572045 1.568293 -1.572048
v -0.017070 0.066027 0.031514 0.247059 0.247059 0.247059
vn 1.567042 -1.573296 -1.572044
v -0.017145 0.018527 0.031514 0.247059 0.247059 0.247059
# 16 vertices, 0 vertices normals

f 1//1 2//2 3//3
f 4//4 3//3 2//2
f 5//5 1//1 3//3
f 4//4 5//5 3//3
f 1//1 6//6 2//2
f 7//7 2//2 6//6
f 4//4 2//2 7//7
f 8//8 6//6 1//1
f 7//7 6//6 8//8
f 8//8 1//1 5//5
f 7//7 8//8 5//5
f 4//4 7//7 5//5
f 9//9 10//10 11//11
f 12//12 11//11 10//10
f 13//13 9//9 11//11
f 13//13 11//11 12//12
f 9//9 14//14 10//10
f 15//15 10//10 14//14
f 15//15 12//12 10//10
f 16//16 14//14 9//9
f 15//15 14//14 16//16
f 16//16 9//9 13//13
f 16//16 13//13 12//12
f 15//15 16//16 12//12
# 24 faces, 0 coords texture

# End of File
