#VRML V2.0 utf8


Group {
  children 
    DEF _+0 Group {
      children 
        DEF _+1 Transform {
          scale 0.001 0.001 0.001
          children 
            DEF _+2 Transform {
              translation 0 0 0
              rotation -0 -0.99999994 -0  1.5700002
              scale 1 1 1
              scaleOrientation 0 0 1  0
              center 0 0 0
              children [ 
                DEF _+3 Group {
                  children 
                    DEF _+4 Shape {
                      appearance 
                      Appearance {
                        material 
                        Material {
                          diffuseColor 0.25 0.25 0.25

                        }

                      }
                      geometry 
                      IndexedFaceSet {
                        coord 
                        Coordinate {
                          point [ -10.8 -18.5 -18.200001,
                              -10.8 23.5 -18.200001,
                              33.5 23.5 -18.200001,
                              -10.8 23.5 45.799999,
                              33.5 -18.5 -18.200001,
                              33.5 23.5 45.799999,
                              -10.8 -18.5 45.799999,
                              33.5 -18.5 45.799999 ]

                        }
                        normal 
                        Normal {
                          vector [ -1.17961e-016 -1.4589001e-014 -1,
                              -2.22045e-016 1 -1.4571699e-014,
                              1 1.11022e-016 -1.21431e-017,
                              -1 -1.11022e-016 1.21431e-017,
                              2.22045e-016 -1 1.4571699e-014,
                              1.17961e-016 1.4589001e-014 1 ]

                        }
                        coordIndex [ 0, 1, 2, -1, 3, 2, 1, -1,
                            4, 0, 2, -1, 5, 4, 2, -1,
                            3, 5, 2, -1, 6, 1, 0, -1,
                            3, 1, 6, -1, 7, 0, 4, -1,
                            6, 0, 7, -1, 7, 4, 5, -1,
                            3, 7, 5, -1, 3, 6, 7, -1 ]
                        normalIndex [ 0, 0, 0, -1, 1, 1, 1, -1,
                            0, 0, 0, -1, 2, 2, 2, -1,
                            1, 1, 1, -1, 3, 3, 3, -1,
                            3, 3, 3, -1, 4, 4, 4, -1,
                            4, 4, 4, -1, 2, 2, 2, -1,
                            5, 5, 5, -1, 5, 5, 5, -1 ]
                        ccw TRUE
                        solid TRUE
                        convex TRUE
                        creaseAngle 0

                      }

                    }

                },
                  
                DEF _+5 Group {
                  children 
                    DEF _+6 Shape {
                      appearance 
                      Appearance {
                        material 
                        Material {
                          diffuseColor 0.25 0.25 0.25

                        }

                      }
                      geometry 
                      IndexedFaceSet {
                        coord 
                        Coordinate {
                          point [ 33.5 -18.5 17.200001,
                              33.5 -18.5 41.599998,
                              33.5 -66 25.200001,
                              31.5 -66 25.200001,
                              33.5 -66 17.200001,
                              31.5 -66 17.200001,
                              31.5 -18.5 41.599998,
                              31.5 -18.5 17.200001 ]

                        }
                        normal 
                        Normal {
                          vector [ 1 1.11022e-016 -1.21431e-017,
                              7.9025097e-017 -0.326359 0.94524598,
                              2.22045e-016 -1 1.4571699e-014,
                              -2.22045e-016 1 -1.4571699e-014,
                              -6.9388902e-018 -1.45335e-014 -1,
                              -1 -1.11022e-016 1.21431e-017 ]

                        }
                        coordIndex [ 0, 1, 2, -1, 3, 2, 1, -1,
                            4, 0, 2, -1, 5, 4, 2, -1,
                            5, 2, 3, -1, 6, 1, 0, -1,
                            6, 3, 1, -1, 7, 0, 4, -1,
                            6, 0, 7, -1, 7, 4, 5, -1,
                            6, 5, 3, -1, 6, 7, 5, -1 ]
                        normalIndex [ 0, 0, 0, -1, 1, 1, 1, -1,
                            0, 0, 0, -1, 2, 2, 2, -1,
                            2, 2, 2, -1, 3, 3, 3, -1,
                            1, 1, 1, -1, 4, 4, 4, -1,
                            3, 3, 3, -1, 4, 4, 4, -1,
                            5, 5, 5, -1, 5, 5, 5, -1 ]
                        ccw TRUE
                        solid TRUE
                        convex TRUE
                        creaseAngle 0

                      }

                    }

                } ]

            }

        }

    }

}
