####
#
# OBJ File Generated by Meshlab
#
####
# Object pinky_r1.obj
#
# Vertices: 8
# Faces: 12
#
####
vn -1.569545 -1.573297 -1.569544
v -0.003742 -0.010675 -0.002392 0.874510 0.945098 1.000000
vn 1.569545 1.570795 -1.572047
v 0.021246 0.005015 -0.002404 0.874510 0.945098 1.000000
vn 1.572046 -1.570795 -1.569546
v 0.021258 -0.010655 -0.002392 0.874510 0.945098 1.000000
vn 1.569545 1.573297 1.569544
v 0.021246 0.005051 0.042246 0.874510 0.945098 1.000000
vn 1.572046 -1.568294 1.572045
v 0.021258 -0.010619 0.042258 0.874510 0.945098 1.000000
vn -1.572046 1.568294 -1.572045
v -0.003754 0.004995 -0.002404 0.874510 0.945098 1.000000
vn -1.572046 1.570795 1.569546
v -0.003754 0.005031 0.042246 0.874510 0.945098 1.000000
vn -1.569545 -1.570795 1.572047
v -0.003742 -0.010639 0.042258 0.874510 0.945098 1.000000
# 8 vertices, 0 vertices normals

f 1//1 2//2 3//3
f 4//4 3//3 2//2
f 5//5 1//1 3//3
f 4//4 5//5 3//3
f 1//1 6//6 2//2
f 7//7 2//2 6//6
f 4//4 2//2 7//7
f 8//8 6//6 1//1
f 7//7 6//6 8//8
f 8//8 1//1 5//5
f 7//7 8//8 5//5
f 4//4 7//7 5//5
# 12 faces, 0 coords texture

# End of File
