#VRML V2.0 utf8


Group {
  children 
    DEF _+0 Group {
      children 
        DEF _+1 Transform {
          scale 0.001 0.001 0.001
          children 
            DEF _+2 Transform {
              translation 0 0 0
              rotation 0.99999994 0 0  1.5700002
              scale 1 1 1
              scaleOrientation 0 0 1  0
              center 0 0 0
              children 
                DEF _+3 Transform {
                  translation 0 0 0
                  rotation 0 0.99999994 0  1.5700002
                  scale 1 1 1
                  scaleOrientation 0 0 1  0
                  center 0 0 0
                  children 
                    DEF _+4 Group {
                      children 
                        DEF _+5 Shape {
                          appearance 
                          Appearance {
                            material 
                            Material {
                              diffuseColor 0 0 1

                            }

                          }
                          geometry 
                          IndexedFaceSet {
                            coord 
                            Coordinate {
                              point [ -10 -8.75 -4.25,
                                  10 -8.75 20.75,
                                  -10 -8.75 20.75,
                                  -10 1.25 20.75,
                                  10 -8.75 -4.25,
                                  10 51.25 -4.25,
                                  10 1.25 20.75,
                                  -10 51.25 -4.25,
                                  -10 51.25 5.75,
                                  10 51.25 5.75 ]

                            }
                            normal 
                            Normal {
                              vector [ 2.22045e-016 -1 -5.20417e-018,
                                  6.2449999e-017 2.4286101e-017 1,
                                  -1 1.11022e-016 1.56125e-017,
                                  1 -1.11022e-016 -1.56125e-017,
                                  -6.2449999e-017 -2.4286101e-017 -1,
                                  -2.22045e-016 1 5.20417e-018,
                                  -3.9877501e-018 0.287348 0.95782602 ]

                            }
                            coordIndex [ 0, 1, 2, -1, 3, 2, 1, -1,
                                3, 0, 2, -1, 0, 4, 1, -1,
                                5, 1, 4, -1, 6, 1, 5, -1,
                                3, 1, 6, -1, 7, 4, 0, -1,
                                5, 4, 7, -1, 7, 0, 8, -1,
                                3, 8, 0, -1, 7, 8, 9, -1,
                                3, 9, 8, -1, 5, 7, 9, -1,
                                6, 5, 9, -1, 3, 6, 9, -1 ]
                            normalIndex [ 0, 0, 0, -1, 1, 1, 1, -1,
                                2, 2, 2, -1, 0, 0, 0, -1,
                                3, 3, 3, -1, 3, 3, 3, -1,
                                1, 1, 1, -1, 4, 4, 4, -1,
                                4, 4, 4, -1, 2, 2, 2, -1,
                                2, 2, 2, -1, 5, 5, 5, -1,
                                6, 6, 6, -1, 5, 5, 5, -1,
                                3, 3, 3, -1, 6, 6, 6, -1 ]
                            ccw TRUE
                            solid TRUE
                            convex TRUE
                            creaseAngle 0

                          }

                        }

                    }

                }

            }

        }

    }

}
