#VRML V2.0 utf8


Group {
  children 
    DEF _+0 Group {
      children 
        DEF _+1 Transform {
          scale 0.001 0.001 0.001
          children 
            DEF _+2 Transform {
              translation 0 0 -46.5
              rotation 0 0 1  0
              scale 1 1 1
              scaleOrientation 0 0 1  0
              center 0 0 0
              children 
                DEF _+3 Transform {
                  translation 0 0 0
                  rotation 0 1 0  3.1400001
                  scale 1 1 1
                  scaleOrientation 0 0 1  0
                  center 0 0 0
                  children 
                    DEF _+4 Group {
                      children 
                        DEF _+5 Shape {
                          appearance 
                          Appearance {
                            material 
                            Material {
                              diffuseColor 1 1 1

                            }

                          }
                          geometry 
                          IndexedFaceSet {
                            coord 
                            Coordinate {
                              point [ -23.501301 40.702 -46.5,
                                  23.501301 40.702 -46.5,
                                  47 9.6276197e-014 -46.5,
                                  47 6.9630899e-014 193.5,
                                  -47 1.02676e-013 -46.5,
                                  23.501301 -40.702 -46.5,
                                  23.501301 -40.702 193.5,
                                  23.501301 40.702 193.5,
                                  -23.501301 40.702 193.5,
                                  -23.501301 -40.702 -46.5,
                                  -47 7.6030402e-014 193.5,
                                  -23.501301 -40.702 193.5 ]

                            }
                            normal 
                            Normal {
                              vector [ -2.7842e-018 1.11022e-016 -1,
                                  1 5.4380501e-017 4.4562399e-018,
                                  0.5 0.86602497 5.03022e-017,
                                  0.5 -0.86602497 -4.58459e-017,
                                  1 -1.90541e-016 4.4562399e-018,
                                  -0.5 0.86602497 4.58459e-017,
                                  -1 6.80802e-017 -4.4562399e-018,
                                  -0.5 -0.86602497 -5.03022e-017,
                                  2.7842e-018 -1.11022e-016 1 ]

                            }
                            coordIndex [ 0, 1, 2, -1, 3, 2, 1, -1,
                                4, 0, 2, -1, 5, 4, 2, -1,
                                6, 5, 2, -1, 6, 2, 3, -1,
                                7, 1, 0, -1, 7, 3, 1, -1,
                                8, 0, 4, -1, 7, 0, 8, -1,
                                5, 9, 4, -1, 10, 4, 9, -1,
                                8, 4, 10, -1, 11, 9, 5, -1,
                                10, 9, 11, -1, 11, 5, 6, -1,
                                11, 6, 3, -1, 10, 11, 3, -1,
                                7, 10, 3, -1, 7, 8, 10, -1 ]
                            normalIndex [ 0, 0, 0, -1, 1, 1, 2, -1,
                                0, 0, 0, -1, 0, 0, 0, -1,
                                3, 3, 4, -1, 3, 4, 4, -1,
                                2, 2, 5, -1, 2, 1, 2, -1,
                                5, 5, 6, -1, 2, 5, 5, -1,
                                0, 0, 0, -1, 6, 6, 7, -1,
                                5, 6, 6, -1, 7, 7, 3, -1,
                                6, 7, 7, -1, 7, 3, 3, -1,
                                8, 8, 8, -1, 8, 8, 8, -1,
                                8, 8, 8, -1, 8, 8, 8, -1 ]
                            ccw TRUE
                            solid TRUE
                            convex TRUE
                            creaseAngle 0

                          }

                        }

                    }

                }

            }

        }

    }

}
