####
#
# OBJ File Generated by Meshlab
#
####
# Object underarm_r.obj
#
# Vertices: 12
# Faces: 20
#
####
vn 1.357021 2.356179 2.096548
v 0.023427 0.040702 0.000037 1.000000 1.000000 1.000000
vn -1.363692 2.356179 2.092215
v -0.023575 0.040702 -0.000037 1.000000 1.000000 1.000000
vn -2.724049 0.000000 2.090082
v -0.047074 0.000000 -0.000075 1.000000 1.000000 1.000000
vn -2.717378 0.000000 -2.098748
v -0.046692 0.000000 -0.240075 1.000000 1.000000 1.000000
vn 2.717378 0.000000 2.098748
v 0.046926 0.000000 0.000075 1.000000 1.000000 1.000000
vn -1.363692 -2.356179 2.092215
v -0.023575 -0.040702 -0.000037 1.000000 1.000000 1.000000
vn -1.357021 -2.356179 -2.096548
v -0.023193 -0.040702 -0.240037 1.000000 1.000000 1.000000
vn -1.357021 2.356179 -2.096548
v -0.023193 0.040702 -0.240037 1.000000 1.000000 1.000000
vn 1.363692 2.356179 -2.092215
v 0.023809 0.040702 -0.239962 1.000000 1.000000 1.000000
vn 1.357021 -2.356179 2.096548
v 0.023427 -0.040702 0.000037 1.000000 1.000000 1.000000
vn 2.724049 0.000000 -2.090082
v 0.047308 0.000000 -0.239925 1.000000 1.000000 1.000000
vn 1.363692 -2.356179 -2.092215
v 0.023809 -0.040702 -0.239962 1.000000 1.000000 1.000000
# 12 vertices, 0 vertices normals

f 1//1 2//2 3//3
f 4//4 3//3 2//2
f 5//5 1//1 3//3
f 6//6 5//5 3//3
f 7//7 6//6 3//3
f 7//7 3//3 4//4
f 8//8 2//2 1//1
f 8//8 4//4 2//2
f 9//9 1//1 5//5
f 8//8 1//1 9//9
f 6//6 10//10 5//5
f 11//11 5//5 10//10
f 9//9 5//5 11//11
f 12//12 10//10 6//6
f 11//11 10//10 12//12
f 12//12 6//6 7//7
f 12//12 7//7 4//4
f 11//11 12//12 4//4
f 8//8 11//11 4//4
f 8//8 9//9 11//11
# 20 faces, 0 coords texture

# End of File
