#VRML V2.0 utf8


Group {
  children 
    DEF _+0 Group {
      children 
        DEF _+1 Transform {
          translation 0 0 0
          rotation 0 0.99999994 0  1.5700002
          scale 1 1 1
          scaleOrientation 0 0 1  0
          center 0 0 0
          children 
            DEF _+2 Transform {
              translation 0 0 0
              rotation 0 0 0.99999994  1.5700002
              scale 1 1 1
              scaleOrientation 0 0 1  0
              center 0 0 0
              children 
                DEF _+3 Group {
                  children 
                    DEF _+4 Transform {
                      scale 0.001 0.001 0.001
                      children 
                        DEF _+5 Transform {
                          translation 0 0 -21
                          rotation 0 0 1  0
                          scale 1 1 1
                          scaleOrientation 0 0 1  0
                          center 0 0 0
                          children 
                            DEF _+6 Shape {
                              appearance 
                              Appearance {
                                material 
                                Material {
                                  diffuseColor 1 0.80000001 0.40000001
                                  transparency 0.5

                                }

                              }
                              geometry 
                              Box {
                                size 57 57 60

                              }

                            }

                        }

                    }

                }

            }

        }

    }

}
